﻿
DisplayName "精霊の森"



EVENT   1
 PAGE   1
  0()



EVENT   6
 PAGE   1
  0()



EVENT   2
 PAGE   1
  0()



EVENT   3
 PAGE   1
  0()



EVENT   4
 PAGE   1
  0()



EVENT   5
 PAGE   1
  0()



EVENT   7
 PAGE   1
  0()



EVENT   8
 PAGE   1
  0()



EVENT   9
 PAGE   1
  0()



EVENT   10
 PAGE   1
  0()



EVENT   11
 PAGE   1
  0()



EVENT   12
 PAGE   1
  0()



EVENT   13
 PAGE   1
  0()



EVENT   14
 PAGE   1
  0()



EVENT   15
 PAGE   1
  0()



EVENT   16
 PAGE   1
  0()



EVENT   17
 PAGE   1
  0()



EVENT   18
 PAGE   1
  0()



EVENT   19
 PAGE   1
  0()



EVENT   20
 PAGE   1
  0()



EVENT   21
 PAGE   1
  0()



EVENT   22
 PAGE   1
  0()



EVENT   23
 PAGE   1
  0()



EVENT   24
 PAGE   1
  0()



EVENT   25
 PAGE   1
  0()



EVENT   26
 PAGE   1
  0()



EVENT   27
 PAGE   1
  0()



EVENT   28
 PAGE   1
  0()



EVENT   29
 PAGE   1
  0()



EVENT   30
 PAGE   1
  0()



EVENT   31
 PAGE   1
  0()



EVENT   32
 PAGE   1
  0()



EVENT   33
 PAGE   1
  0()



EVENT   34
 PAGE   1
  0()



EVENT   35
 PAGE   1
  0()



EVENT   36
 PAGE   1
  0()



EVENT   37
 PAGE   1
  0()



EVENT   38
 PAGE   1
  0()



EVENT   39
 PAGE   1
  250(bytes(0x04,0x08,0x6f,0x3a,0x0c,0x52,0x50,0x47,0x3a,0x3a,0x53,0x45,0x08,0x3a,0x0a,0x40,0x6e,0x61,0x6d,0x65,0x49,0x22,0x09,0x4d,0x6f,0x76,0x65,0x06,0x3a,0x06,0x45,0x54,0x3a,0x0b,0x40,0x70,0x69,0x74,0x63,0x68,0x69,0x69,0x3a,0x0c,0x40,0x76,0x6f,0x6c,0x75,0x6d,0x65,0x69,0x55))
  TeleportPlayer(0,2,202,235,0,0)
  0()



EVENT   40
 PAGE   1
  250(bytes(0x04,0x08,0x6f,0x3a,0x0c,0x52,0x50,0x47,0x3a,0x3a,0x53,0x45,0x08,0x3a,0x0a,0x40,0x6e,0x61,0x6d,0x65,0x49,0x22,0x09,0x4d,0x6f,0x76,0x65,0x06,0x3a,0x06,0x45,0x54,0x3a,0x0b,0x40,0x70,0x69,0x74,0x63,0x68,0x69,0x69,0x3a,0x0c,0x40,0x76,0x6f,0x6c,0x75,0x6d,0x65,0x69,0x55))
  TeleportPlayer(0,2,202,235,0,0)
  0()



EVENT   41
 PAGE   1
  250(bytes(0x04,0x08,0x6f,0x3a,0x0c,0x52,0x50,0x47,0x3a,0x3a,0x53,0x45,0x08,0x3a,0x0a,0x40,0x6e,0x61,0x6d,0x65,0x49,0x22,0x09,0x4d,0x6f,0x76,0x65,0x06,0x3a,0x06,0x45,0x54,0x3a,0x0b,0x40,0x70,0x69,0x74,0x63,0x68,0x69,0x69,0x3a,0x0c,0x40,0x76,0x6f,0x6c,0x75,0x6d,0x65,0x69,0x55))
  TeleportPlayer(0,2,202,235,0,0)
  0()



EVENT   42
 PAGE   1
  250(bytes(0x04,0x08,0x6f,0x3a,0x0c,0x52,0x50,0x47,0x3a,0x3a,0x53,0x45,0x08,0x3a,0x0a,0x40,0x6e,0x61,0x6d,0x65,0x49,0x22,0x09,0x4d,0x6f,0x76,0x65,0x06,0x3a,0x06,0x45,0x54,0x3a,0x0b,0x40,0x70,0x69,0x74,0x63,0x68,0x69,0x69,0x3a,0x0c,0x40,0x76,0x6f,0x6c,0x75,0x6d,0x65,0x69,0x55))
  TeleportPlayer(0,2,202,235,0,0)
  0()



EVENT   43
 PAGE   1
  250(bytes(0x04,0x08,0x6f,0x3a,0x0c,0x52,0x50,0x47,0x3a,0x3a,0x53,0x45,0x08,0x3a,0x0a,0x40,0x6e,0x61,0x6d,0x65,0x49,0x22,0x09,0x4d,0x6f,0x76,0x65,0x06,0x3a,0x06,0x45,0x54,0x3a,0x0b,0x40,0x70,0x69,0x74,0x63,0x68,0x69,0x69,0x3a,0x0c,0x40,0x76,0x6f,0x6c,0x75,0x6d,0x65,0x69,0x55))
  TeleportPlayer(0,2,202,235,0,0)
  0()



EVENT   44
 PAGE   1
  250(bytes(0x04,0x08,0x6f,0x3a,0x0c,0x52,0x50,0x47,0x3a,0x3a,0x53,0x45,0x08,0x3a,0x0a,0x40,0x6e,0x61,0x6d,0x65,0x49,0x22,0x09,0x4d,0x6f,0x76,0x65,0x06,0x3a,0x06,0x45,0x54,0x3a,0x0b,0x40,0x70,0x69,0x74,0x63,0x68,0x69,0x69,0x3a,0x0c,0x40,0x76,0x6f,0x6c,0x75,0x6d,0x65,0x69,0x55))
  TeleportPlayer(0,2,202,235,0,0)
  0()



EVENT   45
 PAGE   1
  250(bytes(0x04,0x08,0x6f,0x3a,0x0c,0x52,0x50,0x47,0x3a,0x3a,0x53,0x45,0x08,0x3a,0x0a,0x40,0x6e,0x61,0x6d,0x65,0x49,0x22,0x09,0x4d,0x6f,0x76,0x65,0x06,0x3a,0x06,0x45,0x54,0x3a,0x0b,0x40,0x70,0x69,0x74,0x63,0x68,0x69,0x69,0x3a,0x0c,0x40,0x76,0x6f,0x6c,0x75,0x6d,0x65,0x69,0x55))
  TeleportPlayer(0,2,202,235,0,0)
  0()



EVENT   46
 PAGE   1
  250(bytes(0x04,0x08,0x6f,0x3a,0x0c,0x52,0x50,0x47,0x3a,0x3a,0x53,0x45,0x08,0x3a,0x0a,0x40,0x6e,0x61,0x6d,0x65,0x49,0x22,0x09,0x4d,0x6f,0x76,0x65,0x06,0x3a,0x06,0x45,0x54,0x3a,0x0b,0x40,0x70,0x69,0x74,0x63,0x68,0x69,0x69,0x3a,0x0c,0x40,0x76,0x6f,0x6c,0x75,0x6d,0x65,0x69,0x55))
  TeleportPlayer(0,2,202,235,0,0)
  0()



EVENT   47
 PAGE   1
  250(bytes(0x04,0x08,0x6f,0x3a,0x0c,0x52,0x50,0x47,0x3a,0x3a,0x53,0x45,0x08,0x3a,0x0a,0x40,0x6e,0x61,0x6d,0x65,0x49,0x22,0x09,0x4d,0x6f,0x76,0x65,0x06,0x3a,0x06,0x45,0x54,0x3a,0x0b,0x40,0x70,0x69,0x74,0x63,0x68,0x69,0x69,0x3a,0x0c,0x40,0x76,0x6f,0x6c,0x75,0x6d,0x65,0x69,0x55))
  TeleportPlayer(0,2,202,235,0,0)
  0()



EVENT   48
 PAGE   1
  250(bytes(0x04,0x08,0x6f,0x3a,0x0c,0x52,0x50,0x47,0x3a,0x3a,0x53,0x45,0x08,0x3a,0x0a,0x40,0x6e,0x61,0x6d,0x65,0x49,0x22,0x09,0x4d,0x6f,0x76,0x65,0x06,0x3a,0x06,0x45,0x54,0x3a,0x0b,0x40,0x70,0x69,0x74,0x63,0x68,0x69,0x69,0x3a,0x0c,0x40,0x76,0x6f,0x6c,0x75,0x6d,0x65,0x69,0x55))
  TeleportPlayer(0,2,202,235,0,0)
  0()



EVENT   49
 PAGE   1
  250(bytes(0x04,0x08,0x6f,0x3a,0x0c,0x52,0x50,0x47,0x3a,0x3a,0x53,0x45,0x08,0x3a,0x0a,0x40,0x6e,0x61,0x6d,0x65,0x49,0x22,0x0a,0x43,0x68,0x65,0x73,0x74,0x06,0x3a,0x06,0x45,0x54,0x3a,0x0b,0x40,0x70,0x69,0x74,0x63,0x68,0x69,0x69,0x3a,0x0c,0x40,0x76,0x6f,0x6c,0x75,0x6d,0x65,0x69,0x55))
  205(0,bytes(0x04,0x08,0x6f,0x3a,0x13,0x52,0x50,0x47,0x3a,0x3a,0x4d,0x6f,0x76,0x65,0x52,0x6f,0x75,0x74,0x65,0x09,0x3a,0x0c,0x40,0x72,0x65,0x70,0x65,0x61,0x74,0x46,0x3a,0x0f,0x40,0x73,0x6b,0x69,0x70,0x70,0x61,0x62,0x6c,0x65,0x46,0x3a,0x0a,0x40,0x77,0x61,0x69,0x74,0x54,0x3a,0x0a,0x40,0x6c,0x69,0x73,0x74,0x5b,0x0b,0x6f,0x3a,0x15,0x52,0x50,0x47,0x3a,0x3a,0x4d,0x6f,0x76,0x65,0x43,0x6f,0x6d,0x6d,0x61,0x6e,0x64,0x07,0x3a,0x0a,0x40,0x63,0x6f,0x64,0x65,0x69,0x29,0x3a,0x10,0x40,0x70,0x61,0x72,0x61,0x6d,0x65,0x74,0x65,0x72,0x73,0x5b,0x00,0x6f,0x3b,0x0a,0x07,0x3b,0x0b,0x69,0x16,0x3b,0x0c,0x5b,0x00,0x6f,0x3b,0x0a,0x07,0x3b,0x0b,0x69,0x14,0x3b,0x0c,0x5b,0x06,0x69,0x08,0x6f,0x3b,0x0a,0x07,0x3b,0x0b,0x69,0x17,0x3b,0x0c,0x5b,0x00,0x6f,0x3b,0x0a,0x07,0x3b,0x0b,0x69,0x14,0x3b,0x0c,0x5b,0x06,0x69,0x08,0x6f,0x3b,0x0a,0x07,0x3b,0x0b,0x69,0x00,0x3b,0x0c,0x5b,0x00))
  ChangeSelfSwitch("A",0)
  ChangeInventoryArmor(8,0,0,1)
  0()
 PAGE   2
  // condition: self-switch A is ON
  0()



EVENT   50
 PAGE   1
  250(bytes(0x04,0x08,0x6f,0x3a,0x0c,0x52,0x50,0x47,0x3a,0x3a,0x53,0x45,0x08,0x3a,0x0a,0x40,0x6e,0x61,0x6d,0x65,0x49,0x22,0x0a,0x43,0x68,0x65,0x73,0x74,0x06,0x3a,0x06,0x45,0x54,0x3a,0x0b,0x40,0x70,0x69,0x74,0x63,0x68,0x69,0x69,0x3a,0x0c,0x40,0x76,0x6f,0x6c,0x75,0x6d,0x65,0x69,0x55))
  205(0,bytes(0x04,0x08,0x6f,0x3a,0x13,0x52,0x50,0x47,0x3a,0x3a,0x4d,0x6f,0x76,0x65,0x52,0x6f,0x75,0x74,0x65,0x09,0x3a,0x0c,0x40,0x72,0x65,0x70,0x65,0x61,0x74,0x46,0x3a,0x0f,0x40,0x73,0x6b,0x69,0x70,0x70,0x61,0x62,0x6c,0x65,0x46,0x3a,0x0a,0x40,0x77,0x61,0x69,0x74,0x54,0x3a,0x0a,0x40,0x6c,0x69,0x73,0x74,0x5b,0x0b,0x6f,0x3a,0x15,0x52,0x50,0x47,0x3a,0x3a,0x4d,0x6f,0x76,0x65,0x43,0x6f,0x6d,0x6d,0x61,0x6e,0x64,0x07,0x3a,0x0a,0x40,0x63,0x6f,0x64,0x65,0x69,0x29,0x3a,0x10,0x40,0x70,0x61,0x72,0x61,0x6d,0x65,0x74,0x65,0x72,0x73,0x5b,0x00,0x6f,0x3b,0x0a,0x07,0x3b,0x0b,0x69,0x16,0x3b,0x0c,0x5b,0x00,0x6f,0x3b,0x0a,0x07,0x3b,0x0b,0x69,0x14,0x3b,0x0c,0x5b,0x06,0x69,0x08,0x6f,0x3b,0x0a,0x07,0x3b,0x0b,0x69,0x17,0x3b,0x0c,0x5b,0x00,0x6f,0x3b,0x0a,0x07,0x3b,0x0b,0x69,0x14,0x3b,0x0c,0x5b,0x06,0x69,0x08,0x6f,0x3b,0x0a,0x07,0x3b,0x0b,0x69,0x00,0x3b,0x0c,0x5b,0x00))
  ChangeSelfSwitch("A",0)
  ChangeInventoryArmor(73,0,0,1)
  0()
 PAGE   2
  // condition: self-switch A is ON
  0()



EVENT   51
 PAGE   1
  250(bytes(0x04,0x08,0x6f,0x3a,0x0c,0x52,0x50,0x47,0x3a,0x3a,0x53,0x45,0x08,0x3a,0x0a,0x40,0x6e,0x61,0x6d,0x65,0x49,0x22,0x0a,0x43,0x68,0x65,0x73,0x74,0x06,0x3a,0x06,0x45,0x54,0x3a,0x0b,0x40,0x70,0x69,0x74,0x63,0x68,0x69,0x69,0x3a,0x0c,0x40,0x76,0x6f,0x6c,0x75,0x6d,0x65,0x69,0x55))
  205(0,bytes(0x04,0x08,0x6f,0x3a,0x13,0x52,0x50,0x47,0x3a,0x3a,0x4d,0x6f,0x76,0x65,0x52,0x6f,0x75,0x74,0x65,0x09,0x3a,0x0c,0x40,0x72,0x65,0x70,0x65,0x61,0x74,0x46,0x3a,0x0f,0x40,0x73,0x6b,0x69,0x70,0x70,0x61,0x62,0x6c,0x65,0x46,0x3a,0x0a,0x40,0x77,0x61,0x69,0x74,0x54,0x3a,0x0a,0x40,0x6c,0x69,0x73,0x74,0x5b,0x0b,0x6f,0x3a,0x15,0x52,0x50,0x47,0x3a,0x3a,0x4d,0x6f,0x76,0x65,0x43,0x6f,0x6d,0x6d,0x61,0x6e,0x64,0x07,0x3a,0x0a,0x40,0x63,0x6f,0x64,0x65,0x69,0x29,0x3a,0x10,0x40,0x70,0x61,0x72,0x61,0x6d,0x65,0x74,0x65,0x72,0x73,0x5b,0x00,0x6f,0x3b,0x0a,0x07,0x3b,0x0b,0x69,0x16,0x3b,0x0c,0x5b,0x00,0x6f,0x3b,0x0a,0x07,0x3b,0x0b,0x69,0x14,0x3b,0x0c,0x5b,0x06,0x69,0x08,0x6f,0x3b,0x0a,0x07,0x3b,0x0b,0x69,0x17,0x3b,0x0c,0x5b,0x00,0x6f,0x3b,0x0a,0x07,0x3b,0x0b,0x69,0x14,0x3b,0x0c,0x5b,0x06,0x69,0x08,0x6f,0x3b,0x0a,0x07,0x3b,0x0b,0x69,0x00,0x3b,0x0c,0x5b,0x00))
  ChangeSelfSwitch("A",0)
  ChangeInventory_Item(64,0,0,1)
  0()
 PAGE   2
  // condition: self-switch A is ON
  0()



EVENT   55
 PAGE   1
  250(bytes(0x04,0x08,0x6f,0x3a,0x0c,0x52,0x50,0x47,0x3a,0x3a,0x53,0x45,0x08,0x3a,0x0a,0x40,0x6e,0x61,0x6d,0x65,0x49,0x22,0x0a,0x43,0x68,0x65,0x73,0x74,0x06,0x3a,0x06,0x45,0x54,0x3a,0x0b,0x40,0x70,0x69,0x74,0x63,0x68,0x69,0x69,0x3a,0x0c,0x40,0x76,0x6f,0x6c,0x75,0x6d,0x65,0x69,0x55))
  205(0,bytes(0x04,0x08,0x6f,0x3a,0x13,0x52,0x50,0x47,0x3a,0x3a,0x4d,0x6f,0x76,0x65,0x52,0x6f,0x75,0x74,0x65,0x09,0x3a,0x0c,0x40,0x72,0x65,0x70,0x65,0x61,0x74,0x46,0x3a,0x0f,0x40,0x73,0x6b,0x69,0x70,0x70,0x61,0x62,0x6c,0x65,0x46,0x3a,0x0a,0x40,0x77,0x61,0x69,0x74,0x54,0x3a,0x0a,0x40,0x6c,0x69,0x73,0x74,0x5b,0x0b,0x6f,0x3a,0x15,0x52,0x50,0x47,0x3a,0x3a,0x4d,0x6f,0x76,0x65,0x43,0x6f,0x6d,0x6d,0x61,0x6e,0x64,0x07,0x3a,0x0a,0x40,0x63,0x6f,0x64,0x65,0x69,0x29,0x3a,0x10,0x40,0x70,0x61,0x72,0x61,0x6d,0x65,0x74,0x65,0x72,0x73,0x5b,0x00,0x6f,0x3b,0x0a,0x07,0x3b,0x0b,0x69,0x16,0x3b,0x0c,0x5b,0x00,0x6f,0x3b,0x0a,0x07,0x3b,0x0b,0x69,0x14,0x3b,0x0c,0x5b,0x06,0x69,0x08,0x6f,0x3b,0x0a,0x07,0x3b,0x0b,0x69,0x17,0x3b,0x0c,0x5b,0x00,0x6f,0x3b,0x0a,0x07,0x3b,0x0b,0x69,0x14,0x3b,0x0c,0x5b,0x06,0x69,0x08,0x6f,0x3b,0x0a,0x07,0x3b,0x0b,0x69,0x00,0x3b,0x0c,0x5b,0x00))
  ChangeSelfSwitch("A",0)
  ChangeInventory_Item(30,0,0,1)
  0()
 PAGE   2
  // condition: self-switch A is ON
  0()



EVENT   56
 PAGE   1
  250(bytes(0x04,0x08,0x6f,0x3a,0x0c,0x52,0x50,0x47,0x3a,0x3a,0x53,0x45,0x08,0x3a,0x0a,0x40,0x6e,0x61,0x6d,0x65,0x49,0x22,0x0a,0x43,0x68,0x65,0x73,0x74,0x06,0x3a,0x06,0x45,0x54,0x3a,0x0b,0x40,0x70,0x69,0x74,0x63,0x68,0x69,0x69,0x3a,0x0c,0x40,0x76,0x6f,0x6c,0x75,0x6d,0x65,0x69,0x55))
  205(0,bytes(0x04,0x08,0x6f,0x3a,0x13,0x52,0x50,0x47,0x3a,0x3a,0x4d,0x6f,0x76,0x65,0x52,0x6f,0x75,0x74,0x65,0x09,0x3a,0x0c,0x40,0x72,0x65,0x70,0x65,0x61,0x74,0x46,0x3a,0x0f,0x40,0x73,0x6b,0x69,0x70,0x70,0x61,0x62,0x6c,0x65,0x46,0x3a,0x0a,0x40,0x77,0x61,0x69,0x74,0x54,0x3a,0x0a,0x40,0x6c,0x69,0x73,0x74,0x5b,0x0b,0x6f,0x3a,0x15,0x52,0x50,0x47,0x3a,0x3a,0x4d,0x6f,0x76,0x65,0x43,0x6f,0x6d,0x6d,0x61,0x6e,0x64,0x07,0x3a,0x0a,0x40,0x63,0x6f,0x64,0x65,0x69,0x29,0x3a,0x10,0x40,0x70,0x61,0x72,0x61,0x6d,0x65,0x74,0x65,0x72,0x73,0x5b,0x00,0x6f,0x3b,0x0a,0x07,0x3b,0x0b,0x69,0x16,0x3b,0x0c,0x5b,0x00,0x6f,0x3b,0x0a,0x07,0x3b,0x0b,0x69,0x14,0x3b,0x0c,0x5b,0x06,0x69,0x08,0x6f,0x3b,0x0a,0x07,0x3b,0x0b,0x69,0x17,0x3b,0x0c,0x5b,0x00,0x6f,0x3b,0x0a,0x07,0x3b,0x0b,0x69,0x14,0x3b,0x0c,0x5b,0x06,0x69,0x08,0x6f,0x3b,0x0a,0x07,0x3b,0x0b,0x69,0x00,0x3b,0x0c,0x5b,0x00))
  ChangeSelfSwitch("A",0)
  ChangeInventoryWeapon(302,0,0,1)
  0()
 PAGE   2
  // condition: self-switch A is ON
  0()



EVENT   58
 PAGE   1
  250(bytes(0x04,0x08,0x6f,0x3a,0x0c,0x52,0x50,0x47,0x3a,0x3a,0x53,0x45,0x08,0x3a,0x0a,0x40,0x6e,0x61,0x6d,0x65,0x49,0x22,0x0a,0x43,0x68,0x65,0x73,0x74,0x06,0x3a,0x06,0x45,0x54,0x3a,0x0b,0x40,0x70,0x69,0x74,0x63,0x68,0x69,0x69,0x3a,0x0c,0x40,0x76,0x6f,0x6c,0x75,0x6d,0x65,0x69,0x55))
  205(0,bytes(0x04,0x08,0x6f,0x3a,0x13,0x52,0x50,0x47,0x3a,0x3a,0x4d,0x6f,0x76,0x65,0x52,0x6f,0x75,0x74,0x65,0x09,0x3a,0x0c,0x40,0x72,0x65,0x70,0x65,0x61,0x74,0x46,0x3a,0x0f,0x40,0x73,0x6b,0x69,0x70,0x70,0x61,0x62,0x6c,0x65,0x46,0x3a,0x0a,0x40,0x77,0x61,0x69,0x74,0x54,0x3a,0x0a,0x40,0x6c,0x69,0x73,0x74,0x5b,0x0b,0x6f,0x3a,0x15,0x52,0x50,0x47,0x3a,0x3a,0x4d,0x6f,0x76,0x65,0x43,0x6f,0x6d,0x6d,0x61,0x6e,0x64,0x07,0x3a,0x0a,0x40,0x63,0x6f,0x64,0x65,0x69,0x29,0x3a,0x10,0x40,0x70,0x61,0x72,0x61,0x6d,0x65,0x74,0x65,0x72,0x73,0x5b,0x00,0x6f,0x3b,0x0a,0x07,0x3b,0x0b,0x69,0x16,0x3b,0x0c,0x5b,0x00,0x6f,0x3b,0x0a,0x07,0x3b,0x0b,0x69,0x14,0x3b,0x0c,0x5b,0x06,0x69,0x08,0x6f,0x3b,0x0a,0x07,0x3b,0x0b,0x69,0x17,0x3b,0x0c,0x5b,0x00,0x6f,0x3b,0x0a,0x07,0x3b,0x0b,0x69,0x14,0x3b,0x0c,0x5b,0x06,0x69,0x08,0x6f,0x3b,0x0a,0x07,0x3b,0x0b,0x69,0x00,0x3b,0x0c,0x5b,0x00))
  ChangeSelfSwitch("A",0)
  ChangeInventory_Item(188,0,0,1)
  0()
 PAGE   2
  // condition: self-switch A is ON
  0()



EVENT   57
 PAGE   1
  // condition: variable 1001 >= 15
  ChangeSelfSwitch("A",0)
  ShowMessageFace("ruka_fc1",0,0,2,1)
  ShowMessage("【ルカ】")
  ShowMessage("ここが、シルフのいる精霊の森か……")
  If(4,79,0)
   ShowMessageFace("nuruko_fc1",0,0,2,2)
   ShowMessage("【ヌルコ】")
   ShowMessage("きゅきゅ、きゅー！")
   0()
  EndIf()
  If(0,4,0)
   ShowMessageFace("alice_fc5",0,0,2,3)
   ShowMessage("【アリス】")
   ShowMessage("他にも、この森には妖精やエルフが隠れ住んでいる。")
   ShowMessage("基本的に、人間に危害を加える連中はいるまい。")
   ShowMessageFace("alice_fc5",0,0,2,4)
   ShowMessage("【アリス】")
   ShowMessage("だが、こちらからテリトリーに踏み込んだ場合は話が別だ。")
   ShowMessage("なにせ、荒んだ世の中だからな……")
   0()
  EndIf()
  If(0,5,0)
   ShowMessageFace("iriasu_fc4",2,0,2,5)
   ShowMessage("【イリアス】")
   ShowMessage("この森には、悪しき妖精やエルフも潜んでいます。")
   ShowMessage("連中は人間を見ると、目の色を変えて襲ってくるでしょう。")
   0()
  EndIf()
  ShowMessageFace("ruka_fc1",0,0,2,6)
  ShowMessage("【ルカ】")
  ShowMessage("でも、行かなくちゃ。")
  ShowMessage("シルフと契約して、風の力を手に入れるんだ！")
  ShowMessageFace("",0,0,2,7)
  ShowMessage("父さんによれば、歴史を正しく導くために。")
  ShowMessage("そして、僕自身の意志で力を欲しているから――")
  ShowMessageFace("ruka_fc1",0,0,2,8)
  ShowMessage("【ルカ】")
  ShowMessage("さあ行こう！")
  ShowMessage("シルフはきっと、森の奥だ！")
  If(4,129,0)
   ShowMessageFace("brunhild_fc1",0,0,2,9)
   ShowMessage("【ヒルデ】")
   ShowMessage("シルフ探索、開始……")
   0()
  EndIf()
  If(0,5,0)
   ShowMessageFace("iriasu_fc4",2,0,2,10)
   ShowMessage("【イリアス】")
   ShowMessage("正直、私は反対なのですよ。")
   ShowMessage("事もあろうに、精霊などという邪悪な連中の力を借りるなど。")
   ShowMessageFace("iriasu_fc4",2,0,2,11)
   ShowMessage("【イリアス】")
   ShowMessage("しかしまあ、ボロ雑巾のように使い潰すというなら……")
   ShowMessage("特別に、黙認しましょう。")
   ShowMessageFace("ruka_fc1",0,0,2,12)
   ShowMessage("【ルカ】")
   ShowMessage("……………………")
   0()
  EndIf()
  0()
 PAGE   2
  // condition: self-switch A is ON
  0()



EVENT   60
 PAGE   1
  ShowMessageFace("fairy_fc1",0,0,2,1)
  ShowMessage("【フェアリー】")
  ShowMessage("わーい、川遊びだー♪")
  355("actor_label_jump")
  EndEventProcessing()
  DefineLabel("98")
  ShowMessageFace("minikani_fc1",0,0,2,2)
  ShowMessage("【エイミ】")
  ShowMessage("あたしも、川遊びするー♪")
  ShowMessage("あわあわ、ぶくぶく……")
  EndEventProcessing()
  DefineLabel("542")
  ShowMessageFace("domeima_fc1",0,0,2,3)
  ShowMessage("【ドーメイマ】")
  ShowMessage("み、水……")
  EndEventProcessing()
  0()



EVENT   61
 PAGE   1
  ChangeSelfSwitch("A",0)
  205(-1,bytes(0x04,0x08,0x6f,0x3a,0x13,0x52,0x50,0x47,0x3a,0x3a,0x4d,0x6f,0x76,0x65,0x52,0x6f,0x75,0x74,0x65,0x09,0x3a,0x0c,0x40,0x72,0x65,0x70,0x65,0x61,0x74,0x46,0x3a,0x0f,0x40,0x73,0x6b,0x69,0x70,0x70,0x61,0x62,0x6c,0x65,0x46,0x3a,0x0a,0x40,0x77,0x61,0x69,0x74,0x54,0x3a,0x0a,0x40,0x6c,0x69,0x73,0x74,0x5b,0x07,0x6f,0x3a,0x15,0x52,0x50,0x47,0x3a,0x3a,0x4d,0x6f,0x76,0x65,0x43,0x6f,0x6d,0x6d,0x61,0x6e,0x64,0x07,0x3a,0x0a,0x40,0x63,0x6f,0x64,0x65,0x69,0x16,0x3a,0x10,0x40,0x70,0x61,0x72,0x61,0x6d,0x65,0x74,0x65,0x72,0x73,0x5b,0x00,0x6f,0x3b,0x0a,0x07,0x3b,0x0b,0x69,0x00,0x3b,0x0c,0x5b,0x00))
  ShowMessageFace("ruka_fc1",0,0,2,1)
  ShowMessage("【ルカ】")
  ShowMessage("おや……？")
  ShowMessage("この川、浅瀬のところは渡れるみたいだね。")
  0()
 PAGE   2
  // condition: self-switch A is ON
  0()



EVENT   62
 PAGE   1
  // condition: variable 1001 >= 15
  If(1,1001,0,14,2)
   ShowMessageFace("fairys_fc1",1,0,2,1)
   ShowMessage("【フェアリー】")
   ShowMessage("知らない人とお話しちゃ、いけないって……")
   EndEventProcessing()
   0()
  EndIf()
  If(1,1001,0,15,0)
   If(2,"A",1)
    ChangeSelfSwitch("A",0)
    ShowMessageFace("fairys_fc1",1,0,2,2)
    ShowMessage("【フェアリー】")
    ShowMessage("最近、この森にとっても怖いバケモノが出るの。")
    ShowMessage("襲ってはこないけど、なんだかとっても怖いよ……")
    ShowMessageFace("ruka_fc1",0,0,2,3)
    ShowMessage("【ルカ】")
    ShowMessage("怖いバケモノ……？")
    ShowMessage("悪い奴なら、放っておけないな……")
    ShowMessageFace("",0,0,2,4)
    ShowMessage("でも、襲ってはこないという話だ。")
    ShowMessage("外見が怖いだけで、危険と決めつけるのも偏見だろう。")
    ShowMessageFace("ruka_fc1",0,0,2,5)
    ShowMessage("【ルカ】")
    ShowMessage("もし見つけたら、話し掛けてみるよ。")
    ShowMessage("悪い奴だったら退治してあげるから。")
    ShowMessageFace("fairys_fc1",0,0,2,6)
    ShowMessage("【フェアリー】")
    ShowMessage("ありがとう、これあげる♪")
    250(bytes(0x04,0x08,0x6f,0x3a,0x0c,0x52,0x50,0x47,0x3a,0x3a,0x53,0x45,0x08,0x3a,0x0a,0x40,0x6e,0x61,0x6d,0x65,0x49,0x22,0x0a,0x49,0x74,0x65,0x6d,0x31,0x06,0x3a,0x06,0x45,0x54,0x3a,0x0b,0x40,0x70,0x69,0x74,0x63,0x68,0x69,0x69,0x3a,0x0c,0x40,0x76,0x6f,0x6c,0x75,0x6d,0x65,0x69,0x55))
    ChangeSelfSwitch("A",0)
    ChangeInventory_Item(28,0,0,1)
    ShowMessageFace("fairys_fc1",0,0,2,7)
    ShowMessage("【フェアリー】")
    ShowMessage("気をつけてね、とっても怖いバケモノなんだから……")
    EndEventProcessing()
    0()
   Else()
    ShowMessageFace("fairys_fc1",0,0,2,8)
    ShowMessage("【フェアリー】")
    ShowMessage("気をつけてね、とっても怖いバケモノなんだから……")
    EndEventProcessing()
    0()
   EndIf()
   0()
  EndIf()
  If(1,1001,0,16,1)
   ShowMessageFace("fairys_fc1",0,0,2,9)
   ShowMessage("【フェアリー】")
   ShowMessage("最近、バケモノが出て来ないよ♪")
   ShowMessage("誰かがやっつけちゃったのかなぁ……？")
   EndEventProcessing()
   0()
  EndIf()
  0()



EVENT   63
 PAGE   1
  // condition: variable 1001 >= 15
  If(1,1001,0,14,2)
   ShowMessageFace("elf_fc2",0,0,2,1)
   ShowMessage("【エルフ】")
   ShowMessage("まったく、困ったものね……")
   ShowMessage("……こっちの話よ、人間には関係ないわ。")
   EndEventProcessing()
   0()
  EndIf()
  If(1,1001,0,15,0)
   If(2,"A",1)
    ChangeSelfSwitch("A",0)
    ShowMessageFace("elf_fc2",0,0,2,2)
    ShowMessage("【エルフ】")
    ShowMessage("わっ、敵……！？")
    ShowMessage("……なんだ、ただの人間ね。")
    ShowMessageFace("elf_fc2",0,0,2,3)
    ShowMessage("【エルフ】")
    ShowMessage("最近、不気味な怪物が森の中をうろついているの。")
    ShowMessage("襲い掛かってくるわけじゃないけど、みんな怖がって……")
    ShowMessageFace("ruka_fc1",0,0,2,4)
    ShowMessage("【ルカ】")
    ShowMessage("でも、襲ってこないんでしょう？")
    ShowMessage("見た目が不気味なだけで、無害な相手なんじゃ？")
    ShowMessageFace("elf_fc2",0,0,2,5)
    ShowMessage("【エルフ】")
    ShowMessage("まあ、そうなんだけど……")
    ShowMessage("でも、あの外見は明らかに異常よ。")
    ShowMessageFace("ruka_fc1",0,0,2,6)
    ShowMessage("【ルカ】")
    ShowMessage("もし見つけたら、みんなを怖がらせないよう説得します。")
    ShowMessage("襲ってこない以上、話せば分かってくれますよ。")
    ShowMessageFace("elf_fc2",2,0,2,7)
    ShowMessage("【エルフ】")
    ShowMessage("そうは思わないんだけど……")
    ShowMessage("まあいいわ、これを持って行きなさい。")
    250(bytes(0x04,0x08,0x6f,0x3a,0x0c,0x52,0x50,0x47,0x3a,0x3a,0x53,0x45,0x08,0x3a,0x0a,0x40,0x6e,0x61,0x6d,0x65,0x49,0x22,0x0a,0x49,0x74,0x65,0x6d,0x31,0x06,0x3a,0x06,0x45,0x54,0x3a,0x0b,0x40,0x70,0x69,0x74,0x63,0x68,0x69,0x69,0x3a,0x0c,0x40,0x76,0x6f,0x6c,0x75,0x6d,0x65,0x69,0x55))
    ChangeSelfSwitch("A",0)
    ChangeInventory_Item(5,0,0,1)
    EndEventProcessing()
    0()
   Else()
    ShowMessageFace("elf_fc2",2,0,2,8)
    ShowMessage("【エルフ】")
    ShowMessage("無理はしないでね。")
    ShowMessage("明らかに普通の相手じゃないから……")
    EndEventProcessing()
    0()
   EndIf()
   0()
  EndIf()
  If(1,1001,0,16,1)
   ShowMessageFace("elf_fc2",0,0,2,9)
   ShowMessage("【エルフ】")
   ShowMessage("あの怪物は、いなくなったわ……")
   ShowMessage("もしかして、あなたが退治してくれたの？")
   EndEventProcessing()
   0()
  EndIf()
  0()



EVENT   52
 PAGE   1
  If(12,"unlock_level < 1")
   ShowMessageFace("",0,0,2,1)
   ShowMessage("宝箱には鍵が掛かっている……")
   EndEventProcessing()
   0()
  EndIf()
  250(bytes(0x04,0x08,0x6f,0x3a,0x0c,0x52,0x50,0x47,0x3a,0x3a,0x53,0x45,0x08,0x3a,0x0a,0x40,0x6e,0x61,0x6d,0x65,0x49,0x22,0x0a,0x43,0x68,0x65,0x73,0x74,0x06,0x3a,0x06,0x45,0x54,0x3a,0x0b,0x40,0x70,0x69,0x74,0x63,0x68,0x69,0x69,0x3a,0x0c,0x40,0x76,0x6f,0x6c,0x75,0x6d,0x65,0x69,0x55))
  205(0,bytes(0x04,0x08,0x6f,0x3a,0x13,0x52,0x50,0x47,0x3a,0x3a,0x4d,0x6f,0x76,0x65,0x52,0x6f,0x75,0x74,0x65,0x09,0x3a,0x0c,0x40,0x72,0x65,0x70,0x65,0x61,0x74,0x46,0x3a,0x0f,0x40,0x73,0x6b,0x69,0x70,0x70,0x61,0x62,0x6c,0x65,0x46,0x3a,0x0a,0x40,0x77,0x61,0x69,0x74,0x54,0x3a,0x0a,0x40,0x6c,0x69,0x73,0x74,0x5b,0x0b,0x6f,0x3a,0x15,0x52,0x50,0x47,0x3a,0x3a,0x4d,0x6f,0x76,0x65,0x43,0x6f,0x6d,0x6d,0x61,0x6e,0x64,0x07,0x3a,0x0a,0x40,0x63,0x6f,0x64,0x65,0x69,0x29,0x3a,0x10,0x40,0x70,0x61,0x72,0x61,0x6d,0x65,0x74,0x65,0x72,0x73,0x5b,0x00,0x6f,0x3b,0x0a,0x07,0x3b,0x0b,0x69,0x16,0x3b,0x0c,0x5b,0x00,0x6f,0x3b,0x0a,0x07,0x3b,0x0b,0x69,0x14,0x3b,0x0c,0x5b,0x06,0x69,0x08,0x6f,0x3b,0x0a,0x07,0x3b,0x0b,0x69,0x17,0x3b,0x0c,0x5b,0x00,0x6f,0x3b,0x0a,0x07,0x3b,0x0b,0x69,0x14,0x3b,0x0c,0x5b,0x06,0x69,0x08,0x6f,0x3b,0x0a,0x07,0x3b,0x0b,0x69,0x00,0x3b,0x0c,0x5b,0x00))
  ChangeSelfSwitch("A",0)
  ChangeInventoryWeapon(561,0,0,1)
  0()
 PAGE   2
  // condition: self-switch A is ON
  0()



EVENT   54
 PAGE   1
  250(bytes(0x04,0x08,0x6f,0x3a,0x0c,0x52,0x50,0x47,0x3a,0x3a,0x53,0x45,0x08,0x3a,0x0a,0x40,0x6e,0x61,0x6d,0x65,0x49,0x22,0x0a,0x43,0x68,0x65,0x73,0x74,0x06,0x3a,0x06,0x45,0x54,0x3a,0x0b,0x40,0x70,0x69,0x74,0x63,0x68,0x69,0x69,0x3a,0x0c,0x40,0x76,0x6f,0x6c,0x75,0x6d,0x65,0x69,0x55))
  205(0,bytes(0x04,0x08,0x6f,0x3a,0x13,0x52,0x50,0x47,0x3a,0x3a,0x4d,0x6f,0x76,0x65,0x52,0x6f,0x75,0x74,0x65,0x09,0x3a,0x0c,0x40,0x72,0x65,0x70,0x65,0x61,0x74,0x46,0x3a,0x0f,0x40,0x73,0x6b,0x69,0x70,0x70,0x61,0x62,0x6c,0x65,0x46,0x3a,0x0a,0x40,0x77,0x61,0x69,0x74,0x54,0x3a,0x0a,0x40,0x6c,0x69,0x73,0x74,0x5b,0x0b,0x6f,0x3a,0x15,0x52,0x50,0x47,0x3a,0x3a,0x4d,0x6f,0x76,0x65,0x43,0x6f,0x6d,0x6d,0x61,0x6e,0x64,0x07,0x3a,0x0a,0x40,0x63,0x6f,0x64,0x65,0x69,0x29,0x3a,0x10,0x40,0x70,0x61,0x72,0x61,0x6d,0x65,0x74,0x65,0x72,0x73,0x5b,0x00,0x6f,0x3b,0x0a,0x07,0x3b,0x0b,0x69,0x16,0x3b,0x0c,0x5b,0x00,0x6f,0x3b,0x0a,0x07,0x3b,0x0b,0x69,0x14,0x3b,0x0c,0x5b,0x06,0x69,0x08,0x6f,0x3b,0x0a,0x07,0x3b,0x0b,0x69,0x17,0x3b,0x0c,0x5b,0x00,0x6f,0x3b,0x0a,0x07,0x3b,0x0b,0x69,0x14,0x3b,0x0c,0x5b,0x06,0x69,0x08,0x6f,0x3b,0x0a,0x07,0x3b,0x0b,0x69,0x00,0x3b,0x0c,0x5b,0x00))
  ChangeSelfSwitch("A",0)
  ChangeInventory_Item(5,0,0,1)
  0()
 PAGE   2
  // condition: self-switch A is ON
  0()



EVENT   53
 PAGE   1
  250(bytes(0x04,0x08,0x6f,0x3a,0x0c,0x52,0x50,0x47,0x3a,0x3a,0x53,0x45,0x08,0x3a,0x0a,0x40,0x6e,0x61,0x6d,0x65,0x49,0x22,0x0a,0x43,0x68,0x65,0x73,0x74,0x06,0x3a,0x06,0x45,0x54,0x3a,0x0b,0x40,0x70,0x69,0x74,0x63,0x68,0x69,0x69,0x3a,0x0c,0x40,0x76,0x6f,0x6c,0x75,0x6d,0x65,0x69,0x55))
  205(0,bytes(0x04,0x08,0x6f,0x3a,0x13,0x52,0x50,0x47,0x3a,0x3a,0x4d,0x6f,0x76,0x65,0x52,0x6f,0x75,0x74,0x65,0x09,0x3a,0x0c,0x40,0x72,0x65,0x70,0x65,0x61,0x74,0x46,0x3a,0x0f,0x40,0x73,0x6b,0x69,0x70,0x70,0x61,0x62,0x6c,0x65,0x46,0x3a,0x0a,0x40,0x77,0x61,0x69,0x74,0x54,0x3a,0x0a,0x40,0x6c,0x69,0x73,0x74,0x5b,0x0b,0x6f,0x3a,0x15,0x52,0x50,0x47,0x3a,0x3a,0x4d,0x6f,0x76,0x65,0x43,0x6f,0x6d,0x6d,0x61,0x6e,0x64,0x07,0x3a,0x0a,0x40,0x63,0x6f,0x64,0x65,0x69,0x29,0x3a,0x10,0x40,0x70,0x61,0x72,0x61,0x6d,0x65,0x74,0x65,0x72,0x73,0x5b,0x00,0x6f,0x3b,0x0a,0x07,0x3b,0x0b,0x69,0x16,0x3b,0x0c,0x5b,0x00,0x6f,0x3b,0x0a,0x07,0x3b,0x0b,0x69,0x14,0x3b,0x0c,0x5b,0x06,0x69,0x08,0x6f,0x3b,0x0a,0x07,0x3b,0x0b,0x69,0x17,0x3b,0x0c,0x5b,0x00,0x6f,0x3b,0x0a,0x07,0x3b,0x0b,0x69,0x14,0x3b,0x0c,0x5b,0x06,0x69,0x08,0x6f,0x3b,0x0a,0x07,0x3b,0x0b,0x69,0x00,0x3b,0x0c,0x5b,0x00))
  ChangeSelfSwitch("A",0)
  ChangeInventory_Item(32,0,0,1)
  0()
 PAGE   2
  // condition: self-switch A is ON
  0()



EVENT   64
 PAGE   1
  // condition: switch 31 is ON
  0()



EVENT   65
 PAGE   1
  // condition: switch 32 is ON
  0()



EVENT   67
 PAGE   1
  // condition: switch 2089 is ON
  ChangeSwitch(2089,2089,1)
  PictureDisplay(5,"80_heinrich_st11",0,0,0,0,100,100,0,0)
  PictureMove(5,null,0,0,0,0,100,100,255,0,30,true)
  241(bytes(0x04,0x08,0x6f,0x3a,0x0d,0x52,0x50,0x47,0x3a,0x3a,0x42,0x47,0x4d,0x08,0x3a,0x0a,0x40,0x6e,0x61,0x6d,0x65,0x49,0x22,0x0a,0x62,0x6f,0x73,0x73,0x30,0x06,0x3a,0x06,0x45,0x54,0x3a,0x0c,0x40,0x76,0x6f,0x6c,0x75,0x6d,0x65,0x69,0x69,0x3a,0x0b,0x40,0x70,0x69,0x74,0x63,0x68,0x69,0x69))
  ShowMessageFace("ruka_fc1",0,0,2,1)
  ShowMessage("【ルカ】")
  ShowMessage("ううっ……なんて強さだ……")
  ShowMessageFace("heinrich_fc2",0,0,2,2)
  ShowMessage("【鎧の狂戦士】")
  ShowMessage("天使をヲヲ……滅すゥゥ……")
  250(bytes(0x04,0x08,0x6f,0x3a,0x0c,0x52,0x50,0x47,0x3a,0x3a,0x53,0x45,0x08,0x3a,0x0a,0x40,0x6e,0x61,0x6d,0x65,0x49,0x22,0x11,0x6d,0x6f,0x6e,0x5f,0x6b,0x61,0x72,0x61,0x62,0x75,0x72,0x69,0x06,0x3a,0x06,0x45,0x54,0x3a,0x0b,0x40,0x70,0x69,0x74,0x63,0x68,0x69,0x69,0x3a,0x0c,0x40,0x76,0x6f,0x6c,0x75,0x6d,0x65,0x69,0x69))
  ShowMessageFace("",0,0,2,3)
  ShowMessage("倒れ伏すルカめがけて、鎧の狂戦士は剣を振り下ろした！")
  PictureClear(5)
  241(bytes(0x04,0x08,0x6f,0x3a,0x0d,0x52,0x50,0x47,0x3a,0x3a,0x42,0x47,0x4d,0x08,0x3a,0x0a,0x40,0x6e,0x61,0x6d,0x65,0x49,0x22,0x00,0x06,0x3a,0x06,0x45,0x54,0x3a,0x0c,0x40,0x76,0x6f,0x6c,0x75,0x6d,0x65,0x69,0x69,0x3a,0x0b,0x40,0x70,0x69,0x74,0x63,0x68,0x69,0x69))
  250(bytes(0x04,0x08,0x6f,0x3a,0x0c,0x52,0x50,0x47,0x3a,0x3a,0x53,0x45,0x08,0x3a,0x0a,0x40,0x6e,0x61,0x6d,0x65,0x49,0x22,0x0b,0x53,0x6b,0x69,0x6c,0x6c,0x32,0x06,0x3a,0x06,0x45,0x54,0x3a,0x0b,0x40,0x70,0x69,0x74,0x63,0x68,0x69,0x69,0x3a,0x0c,0x40,0x76,0x6f,0x6c,0x75,0x6d,0x65,0x69,0x55))
  223(bytes(0x04,0x08,0x75,0x3a,0x09,0x54,0x6f,0x6e,0x65,0x25,0x00,0x00,0x00,0x00,0x00,0x00,0x59,0xc0,0x00,0x00,0x00,0x00,0x00,0x00,0x59,0xc0,0x00,0x00,0x00,0x00,0x00,0x00,0x59,0xc0,0x00,0x00,0x00,0x00,0x00,0x00,0x00,0x00),30,true)
  250(bytes(0x04,0x08,0x6f,0x3a,0x0c,0x52,0x50,0x47,0x3a,0x3a,0x53,0x45,0x08,0x3a,0x0a,0x40,0x6e,0x61,0x6d,0x65,0x49,0x22,0x0e,0x6d,0x6f,0x6e,0x5f,0x62,0x72,0x65,0x61,0x6b,0x06,0x3a,0x06,0x45,0x54,0x3a,0x0b,0x40,0x70,0x69,0x74,0x63,0x68,0x69,0x69,0x3a,0x0c,0x40,0x76,0x6f,0x6c,0x75,0x6d,0x65,0x69,0x69))
  ChangeSwitch(32,32,0)
  PictureDisplay(5,"80_nero_st01b",0,0,0,0,100,100,0,0)
  ShowMessageFace("nero_fc1",0,0,2,4)
  ShowMessage("【ネロ】")
  ShowMessage("そうはさせん！")
  ShowMessageFace("",0,0,2,5)
  ShowMessage("時間が止まった！")
  ShowMessage("ネロは鎧の狂戦士の剣を受け止めた！")
  PictureClear(5)
  Wait(15)
  223(bytes(0x04,0x08,0x75,0x3a,0x09,0x54,0x6f,0x6e,0x65,0x25,0x00,0x00,0x00,0x00,0x00,0x00,0x00,0x00,0x00,0x00,0x00,0x00,0x00,0x00,0x00,0x00,0x00,0x00,0x00,0x00,0x00,0x00,0x00,0x00,0x00,0x00,0x00,0x00,0x00,0x00,0x00,0x00),30,true)
  241(bytes(0x04,0x08,0x6f,0x3a,0x0d,0x52,0x50,0x47,0x3a,0x3a,0x42,0x47,0x4d,0x08,0x3a,0x0a,0x40,0x6e,0x61,0x6d,0x65,0x49,0x22,0x0a,0x62,0x6f,0x73,0x73,0x30,0x06,0x3a,0x06,0x45,0x54,0x3a,0x0c,0x40,0x76,0x6f,0x6c,0x75,0x6d,0x65,0x69,0x69,0x3a,0x0b,0x40,0x70,0x69,0x74,0x63,0x68,0x69,0x69))
  250(bytes(0x04,0x08,0x6f,0x3a,0x0c,0x52,0x50,0x47,0x3a,0x3a,0x53,0x45,0x08,0x3a,0x0a,0x40,0x6e,0x61,0x6d,0x65,0x49,0x22,0x0d,0x6d,0x6f,0x6e,0x5f,0x77,0x61,0x72,0x70,0x06,0x3a,0x06,0x45,0x54,0x3a,0x0b,0x40,0x70,0x69,0x74,0x63,0x68,0x69,0x69,0x3a,0x0c,0x40,0x76,0x6f,0x6c,0x75,0x6d,0x65,0x69,0x69))
  ChangeSwitch(33,33,0)
  Wait(15)
  PictureDisplay(5,"80_neris_st03b",0,0,0,0,100,100,0,0)
  PictureMove(5,null,0,0,0,0,100,100,255,0,30,true)
  ShowMessageFace("neris_fc1",2,0,2,6)
  ShowMessage("【ネリス】")
  ShowMessage("ちょっとルカ、大丈夫！？")
  PictureDisplay(5,"80_nero_st01b",0,0,-150,0,100,100,255,0)
  PictureDisplay(6,"80_neris_st03b",0,0,150,0,100,100,255,0)
  ShowMessageFace("nero_fc1",0,0,2,7)
  ShowMessage("【ネロ】")
  ShowMessage("彼らのダメージは大きい……")
  ShowMessage("ネリス、彼らを安全な場所へ。")
  PictureClear(6)
  PictureDisplay(5,"80_heinrich_st11",0,0,0,0,100,100,255,0)
  ShowMessageFace("heinrich_fc2",0,0,2,8)
  ShowMessage("【鎧の狂戦士】")
  ShowMessage("おおお……おおヲヲヲヲ！")
  ShowMessage("天使天使天使天使ィィィ……！！")
  PictureDisplay(5,"80_nero_st01b",0,0,-150,0,100,100,255,0)
  PictureDisplay(6,"80_neris_st03b",0,0,150,0,100,100,255,0)
  ShowMessageFace("neris_fc1",2,0,2,9)
  ShowMessage("【ネリス】")
  ShowMessage("兄貴、そっちは任せて大丈夫？")
  ShowMessageFace("nero_fc1",0,0,2,10)
  ShowMessage("【ネロ】")
  ShowMessage("問題ない、彼の相手は私がしよう……")
  ShowMessageFace("neris_fc1",0,0,2,11)
  ShowMessage("【ネリス】")
  ShowMessage("じゃあ、ルカとおまけ達は任せて！！")
  PictureClear(5)
  PictureClear(6)
  Wait(15)
  250(bytes(0x04,0x08,0x6f,0x3a,0x0c,0x52,0x50,0x47,0x3a,0x3a,0x53,0x45,0x08,0x3a,0x0a,0x40,0x6e,0x61,0x6d,0x65,0x49,0x22,0x0d,0x6d,0x6f,0x6e,0x5f,0x77,0x61,0x72,0x70,0x06,0x3a,0x06,0x45,0x54,0x3a,0x0b,0x40,0x70,0x69,0x74,0x63,0x68,0x69,0x69,0x3a,0x0c,0x40,0x76,0x6f,0x6c,0x75,0x6d,0x65,0x69,0x69))
  ChangeSwitch(33,33,1)
  205(-1,bytes(0x04,0x08,0x6f,0x3a,0x13,0x52,0x50,0x47,0x3a,0x3a,0x4d,0x6f,0x76,0x65,0x52,0x6f,0x75,0x74,0x65,0x09,0x3a,0x0c,0x40,0x72,0x65,0x70,0x65,0x61,0x74,0x46,0x3a,0x0f,0x40,0x73,0x6b,0x69,0x70,0x70,0x61,0x62,0x6c,0x65,0x46,0x3a,0x0a,0x40,0x77,0x61,0x69,0x74,0x54,0x3a,0x0a,0x40,0x6c,0x69,0x73,0x74,0x5b,0x07,0x6f,0x3a,0x15,0x52,0x50,0x47,0x3a,0x3a,0x4d,0x6f,0x76,0x65,0x43,0x6f,0x6d,0x6d,0x61,0x6e,0x64,0x07,0x3a,0x0a,0x40,0x63,0x6f,0x64,0x65,0x69,0x2c,0x3a,0x10,0x40,0x70,0x61,0x72,0x61,0x6d,0x65,0x74,0x65,0x72,0x73,0x5b,0x00,0x6f,0x3b,0x0a,0x07,0x3b,0x0b,0x69,0x00,0x3b,0x0c,0x5b,0x00))
  Wait(15)
  ShowMessageFace("nero_fc1",0,0,2,12)
  ShowMessage("【ネロ】")
  ShowMessage("さて……")
  PictureDisplay(5,"80_heinrich_st11",0,0,0,0,100,100,0,0)
  PictureMove(5,null,0,0,0,0,100,100,255,0,30,true)
  ShowMessageFace("heinrich_fc2",0,0,2,13)
  ShowMessage("【鎧の狂戦士】")
  ShowMessage("天使……天使……天使ィィィィィ！！")
  ShowMessageFace("nero_fc1",0,0,2,14)
  ShowMessage("【ネロ】")
  ShowMessage("申し訳ありませんが、容赦はできません。")
  ShowMessage("このような暴走状態、あなたとて本意ではないでしょう……")
  250(bytes(0x04,0x08,0x6f,0x3a,0x0c,0x52,0x50,0x47,0x3a,0x3a,0x53,0x45,0x08,0x3a,0x0a,0x40,0x6e,0x61,0x6d,0x65,0x49,0x22,0x0b,0x4d,0x61,0x67,0x69,0x63,0x31,0x06,0x3a,0x06,0x45,0x54,0x3a,0x0b,0x40,0x70,0x69,0x74,0x63,0x68,0x69,0x69,0x3a,0x0c,0x40,0x76,0x6f,0x6c,0x75,0x6d,0x65,0x69,0x55))
  PictureDisplay(5,"ct_nero3",0,0,0,0,100,100,255,0)
  ShowMessageFace("nero_fc1",0,0,2,15)
  ShowMessage("【ネロ】")
  ShowMessage("吾身に問わん、聖魔の戒。")
  ShowMessage("天の軛にて地の禍、則ち万象の理を識る……")
  250(bytes(0x04,0x08,0x6f,0x3a,0x0c,0x52,0x50,0x47,0x3a,0x3a,0x53,0x45,0x08,0x3a,0x0a,0x40,0x6e,0x61,0x6d,0x65,0x49,0x22,0x0e,0x44,0x61,0x72,0x6b,0x6e,0x65,0x73,0x73,0x31,0x06,0x3a,0x06,0x45,0x54,0x3a,0x0b,0x40,0x70,0x69,0x74,0x63,0x68,0x69,0x69,0x3a,0x0c,0x40,0x76,0x6f,0x6c,0x75,0x6d,0x65,0x69,0x55))
  PictureDisplay(10,"sys_white",0,0,0,0,100,100,0,0)
  PictureMove(10,null,0,0,0,0,100,100,255,0,30,true)
  250(bytes(0x04,0x08,0x6f,0x3a,0x0c,0x52,0x50,0x47,0x3a,0x3a,0x53,0x45,0x08,0x3a,0x0a,0x40,0x6e,0x61,0x6d,0x65,0x49,0x22,0x0f,0x6d,0x6f,0x6e,0x5f,0x65,0x61,0x72,0x74,0x68,0x31,0x06,0x3a,0x06,0x45,0x54,0x3a,0x0b,0x40,0x70,0x69,0x74,0x63,0x68,0x69,0x69,0x3a,0x0c,0x40,0x76,0x6f,0x6c,0x75,0x6d,0x65,0x69,0x69))
  PictureDisplay(5,"ct_nero4",0,0,0,0,100,100,255,0)
  PictureMove(10,null,0,0,0,0,100,100,0,0,30,true)
  PictureClear(10)
  ShowMessageFace("nero_fc2",0,0,2,16)
  ShowMessage("【ネロ】")
  ShowMessage("愁えて刻むは覇者の跫音！")
  ShowMessage("天に明星、地に凶つ星！")
  PictureDisplay(5,"80_nero_st11b",0,0,0,0,100,100,255,0)
  ShowMessageFace("nero_fc2",0,0,2,17)
  ShowMessage("【ネロ】")
  ShowMessage("全力で相手をする！")
  ShowMessage("行くぞ、勇者ハインリヒ！")
  ShowMessageFace("heinrich_fc2",0,0,2,18)
  ShowMessage("【鎧の狂戦士】")
  ShowMessage("ヲヲヲヲおおおお……！　天使天使天使ぃぃ……！！")
  PictureClear(5)
  355("set_temp_actors(701)")
  SetBattleBGM(bytes(0x04,0x08,0x6f,0x3a,0x0d,0x52,0x50,0x47,0x3a,0x3a,0x42,0x47,0x4d,0x08,0x3a,0x0a,0x40,0x6e,0x61,0x6d,0x65,0x49,0x22,0x09,0x72,0x75,0x6b,0x61,0x06,0x3a,0x06,0x45,0x54,0x3a,0x0c,0x40,0x76,0x6f,0x6c,0x75,0x6d,0x65,0x69,0x69,0x3a,0x0b,0x40,0x70,0x69,0x74,0x63,0x68,0x69,0x69))
  Battle(0,213,false,false)
  RunCommonEvent(11)
  SetBattleBGM(bytes(0x04,0x08,0x6f,0x3a,0x0d,0x52,0x50,0x47,0x3a,0x3a,0x42,0x47,0x4d,0x08,0x3a,0x0a,0x40,0x6e,0x61,0x6d,0x65,0x49,0x22,0x0b,0x62,0x61,0x74,0x74,0x6c,0x65,0x06,0x3a,0x06,0x45,0x54,0x3a,0x0c,0x40,0x76,0x6f,0x6c,0x75,0x6d,0x65,0x69,0x69,0x3a,0x0b,0x40,0x70,0x69,0x74,0x63,0x68,0x69,0x69))
  355("release_temp_actors")
  ShowMessageFace("heinrich_fc2",0,0,2,19)
  ShowMessage("【鎧の戦士】")
  ShowMessage("ヲヲぉぉぉぉ……")
  250(bytes(0x04,0x08,0x6f,0x3a,0x0c,0x52,0x50,0x47,0x3a,0x3a,0x53,0x45,0x08,0x3a,0x0a,0x40,0x6e,0x61,0x6d,0x65,0x49,0x22,0x10,0x6d,0x6f,0x6e,0x5f,0x73,0x79,0x6f,0x6d,0x65,0x74,0x75,0x06,0x3a,0x06,0x45,0x54,0x3a,0x0b,0x40,0x70,0x69,0x74,0x63,0x68,0x69,0x69,0x3a,0x0c,0x40,0x76,0x6f,0x6c,0x75,0x6d,0x65,0x69,0x55))
  ChangeSwitch(31,31,1)
  ShowMessageFace("",0,0,2,20)
  ShowMessage("鎧の狂戦士は、粒子となって消えていった……")
  ShowMessageFace("nero_fc1",0,0,2,21)
  ShowMessage("【ネロ】")
  ShowMessage("滅びてはいまい……")
  ShowMessage("魂が隔絶されている限り、聖骸の暴走は何度でも……")
  ShowMessageFace("nero_fc1",0,0,2,22)
  ShowMessage("【ネロ】")
  ShowMessage("……………………")
  Wait(30)
  ShowSpeechBalloon(65,8,true)
  ShowMessageFace("nero_fc1",2,0,2,23)
  ShowMessage("【ネロ】")
  ShowMessage("ネリスの奴……")
  ShowMessage("ルカさん以外の仲間はそこらに捨てていないだろうな……？")
  Wait(60)
  242(1)
  221()
  ChangeSwitch(33,33,1)
  PictureClear(5)
  PictureClear(6)
  Wait(240)
  211(1)
  241(bytes(0x04,0x08,0x6f,0x3a,0x0d,0x52,0x50,0x47,0x3a,0x3a,0x42,0x47,0x4d,0x08,0x3a,0x0a,0x40,0x6e,0x61,0x6d,0x65,0x49,0x22,0x0b,0x65,0x6e,0x72,0x69,0x6b,0x61,0x06,0x3a,0x06,0x45,0x54,0x3a,0x0c,0x40,0x76,0x6f,0x6c,0x75,0x6d,0x65,0x69,0x69,0x3a,0x0b,0x40,0x70,0x69,0x74,0x63,0x68,0x69,0x69))
  TeleportPlayer(0,626,1,0,0,2)
  0()



EVENT   66
 PAGE   1
  // condition: switch 33 is ON
  0()



EVENT   59
 PAGE   1
  // condition: variable 1001 >= 15
  217()
  241(bytes(0x04,0x08,0x6f,0x3a,0x0d,0x52,0x50,0x47,0x3a,0x3a,0x42,0x47,0x4d,0x08,0x3a,0x0a,0x40,0x6e,0x61,0x6d,0x65,0x49,0x22,0x10,0x73,0x63,0x65,0x6e,0x65,0x5f,0x73,0x69,0x6e,0x70,0x69,0x06,0x3a,0x06,0x45,0x54,0x3a,0x0c,0x40,0x76,0x6f,0x6c,0x75,0x6d,0x65,0x69,0x69,0x3a,0x0b,0x40,0x70,0x69,0x74,0x63,0x68,0x69,0x69))
  PictureDisplay(5,"80_sylph_st01",0,0,0,0,100,100,0,0)
  PictureMove(5,null,0,0,0,0,100,100,255,0,30,true)
  ShowMessageFace("sylph_fc1",0,0,2,1)
  ShowMessage("【シルフ】")
  ShowMessage("あれれ……？　人間がここに何の用……？")
  ShowMessageFace("ruka_fc1",0,0,2,2)
  ShowMessage("【ルカ】")
  ShowMessage("えっと……君が四精霊の一人、シルフかい？")
  ShowMessageFace("sylph_fc1",0,0,2,3)
  ShowMessage("【シルフ】")
  ShowMessage("そうだよ。あたしがシルフだよ。")
  ShowMessage("あたしに何の用？")
  ShowMessageFace("ruka_fc1",0,0,2,4)
  ShowMessage("【ルカ】")
  ShowMessage("君の力を借りるため、ここまで来たんだけど……")
  ShowMessageFace("sylph_fc1",0,0,2,5)
  ShowMessage("【シルフ】")
  ShowMessage("なんで、あたしの力が欲しいの？")
  ShowMessage("その理由、聞かせてくれるよね……？")
  ShowChoices(strings("父の背中に追い付くため","託されたもののため","世界を守るため","世界を支配するため"),0)
  IfPlayerPicksChoice(0,null)
   ShowMessageFace("ruka_fc1",0,0,2,6)
   ShowMessage("【ルカ】")
   ShowMessage("僕は、父さんを探してるんだ。")
   ShowMessage("四精霊の力を手に入れれば、父さんに追いつける気がする……")
   ShowMessageFace("",0,0,2,7)
   ShowMessage("父さんの背中を追って、僕はここまで来た。")
   ShowMessage("でも、ここから先へ進むには大きな力が必要なのだ――")
   PictureDisplay(5,"80_sylph_st04",0,0,0,0,100,100,255,0)
   ShowMessageFace("sylph_fc1",1,0,2,8)
   ShowMessage("【シルフ】")
   ShowMessage("そうなんだ……")
   ShowMessage("あたしの力、悪いことには使わないみたいだね。")
   0()
  IfPlayerPicksChoice(1,null)
   If(1,1021,0,2,0)
    ShowMessageFace("ruka_fc1",0,0,2,9)
    ShowMessage("【ルカ】")
    ShowMessage("ここに来るまでに、色々な人から色々な者を託されたんだ。")
    ShowMessage("中には、僕に力を託して死んだ人もいる……")
    0()
   Else()
    ShowMessageFace("ruka_fc1",0,0,2,10)
    ShowMessage("【ルカ】")
    ShowMessage("ここに来るまでに、色々な人から色々な者を託されたんだ。")
    0()
   EndIf()
   ShowMessageFace("ruka_fc1",0,0,2,11)
   ShowMessage("【ルカ】")
   ShowMessage("その想いを無駄にしないためにも、力が必要なんだよ。")
   ShowMessage("だから、君の力を貸してほしいんだ。")
   ShowMessageFace("",0,0,2,12)
   ShowMessage("想いを託してくれた、みんなのために――")
   ShowMessage("僕には、先に進むための力が必要なのだ。")
   PictureDisplay(5,"80_sylph_st04",0,0,0,0,100,100,255,0)
   ShowMessageFace("sylph_fc1",1,0,2,13)
   ShowMessage("【シルフ】")
   ShowMessage("そうなんだ……")
   ShowMessage("あたしの力、悪いことには使わないみたいだね。")
   0()
  IfPlayerPicksChoice(2,null)
   ShowMessageFace("ruka_fc1",0,0,2,14)
   ShowMessage("【ルカ】")
   ShowMessage("今、世界には大きな異変が起きてる。")
   ShowMessage("それに立ち向かうためには、力が必要なんだ……")
   ShowMessageFace("",0,0,2,15)
   ShowMessage("これから先も、強敵と何度も戦うことになるだろう。")
   ShowMessage("その戦いに打ち勝つためにも、力を手にしないと――")
   PictureDisplay(5,"80_sylph_st04",0,0,0,0,100,100,255,0)
   ShowMessageFace("sylph_fc1",1,0,2,16)
   ShowMessage("【シルフ】")
   ShowMessage("そうなんだ……")
   ShowMessage("あたしの力、悪いことには使わないみたいだね。")
   0()
  IfPlayerPicksChoice(3,null)
   ShowMessageFace("ruka_fc1",0,0,2,17)
   ShowMessage("【ルカ】")
   ShowMessage("この世界を支配するためだよ……")
   PictureDisplay(5,"80_sylph_st04",0,0,0,0,100,100,255,0)
   If(2,"A",1)
    ChangeSelfSwitch("A",0)
    RunCommonEvent(303)
    0()
   EndIf()
   ShowMessageFace("sylph_fc1",1,0,2,18)
   ShowMessage("【シルフ】")
   ShowMessage("キミ、頭だいじょうぶ……？")
   0()
  404()
  ShowMessageFace("sylph_fc1",1,0,2,19)
  ShowMessage("【シルフ】")
  ShowMessage("でも……精霊の力は、弱い人間には貸せないの。")
  ShowMessage("……っていうより、弱い人間には力を使いこなせないの。")
  PictureDisplay(5,"80_sylph_st05",0,0,0,0,100,100,255,0)
  ShowMessageFace("sylph_fc1",2,0,2,20)
  ShowMessage("【シルフ】")
  ShowMessage("だから……ここで、キミと勝負だよ！")
  ShowMessage("あたしの力を使いこなせるかどうか、確かめてあげる！")
  ShowMessageFace("ruka_fc1",0,0,2,21)
  ShowMessage("【ルカ】")
  ShowMessage("試験っていうなら、遠慮はしない！")
  ShowMessage("全力でいくぞ！")
  If(0,4,0)
   ShowMessageFace("alice_fc5",2,0,2,22)
   ShowMessage("【アリス】")
   ShowMessage("仮にも、余が認めた人間だぞ……")
   ShowMessage("試験まがいの戦いなど無用、とっとと終わらせてくれる！")
   0()
  EndIf()
  If(0,5,0)
   ShowMessageFace("iriasu_fc4",7,0,2,23)
   ShowMessage("【イリアス】")
   ShowMessage("私が目に掛けている人間を、精霊ごときが試験……？")
   ShowMessage("羽虫風情が、大好きな風となって散りなさい！")
   0()
  EndIf()
  If(0,6,0)
   ShowMessageFace("sonia_fc1",3,0,2,24)
   ShowMessage("【ソニア】")
   ShowMessage("あたしも、ガンガンいくよー！")
   0()
  EndIf()
  If(4,79,0)
   ShowMessageFace("nuruko_fc1",0,0,2,25)
   ShowMessage("【ヌルコ】")
   ShowMessage("きゅーっ！　きゅーっ！")
   0()
  EndIf()
  If(4,41,0)
   ShowMessageFace("stein_fc2",1,0,2,26)
   ShowMessage("【プロメスティン】")
   ShowMessage("つねづね、妖精を解剖したいと思っていました……")
   0()
  EndIf()
  If(4,118,0)
   ShowMessageFace("meia_fc1",0,0,2,27)
   ShowMessage("【メイア】")
   ShowMessage("妖精に暴力を振るうのは好みませんけど……")
   ShowMessage("そちらがそう言うのなら……")
   0()
  EndIf()
  If(4,531,0)
   ShowMessageFace("saniria_fc2",0,0,2,28)
   ShowMessage("【サン・イリア王】")
   ShowMessage("ならば、私も助太刀しよう。")
   ShowMessage("火力で圧倒する……！")
   0()
  EndIf()
  If(4,129,0)
   ShowMessageFace("brunhild_fc1",0,0,2,29)
   ShowMessage("【ヒルデ】")
   ShowMessage("オマエ、世界の敵……？")
   ShowMessage("じゃあ、ヒルデがやっつける……")
   0()
  EndIf()
  PictureDisplay(5,"80_sylph_st03",0,0,0,0,100,100,255,0)
  ShowMessageFace("sylph_fc1",4,0,2,30)
  ShowMessage("【シルフ】")
  ShowMessage("フルボッコの予感……")
  If(4,12,0)
   ShowMessageFace("sylph_fc1",7,0,2,31)
   ShowMessage("【シルフ’】")
   ShowMessage("……………………")
   PictureDisplay(5,"80_sylph_st01",0,0,0,0,100,100,255,0)
   ShowMessageFace("sylph_fc1",7,0,2,32)
   ShowMessage("【シルフ】")
   ShowMessage("…………？")
   ShowMessageFace("sylph_fc1",7,0,2,33)
   ShowMessage("【シルフ’】")
   ShowMessage("……ちぃぱっぱ！")
   ShowMessageFace("sylph_fc1",7,0,2,34)
   ShowMessage("【シルフ】")
   ShowMessage("ちぃぱっぱ♪")
   0()
  EndIf()
  PictureClear(5)
  SetBattleBGM(bytes(0x04,0x08,0x6f,0x3a,0x0d,0x52,0x50,0x47,0x3a,0x3a,0x42,0x47,0x4d,0x08,0x3a,0x0a,0x40,0x6e,0x61,0x6d,0x65,0x49,0x22,0x13,0x62,0x6f,0x73,0x73,0x5f,0x79,0x6f,0x6e,0x73,0x65,0x69,0x72,0x65,0x69,0x06,0x3a,0x06,0x45,0x54,0x3a,0x0c,0x40,0x76,0x6f,0x6c,0x75,0x6d,0x65,0x69,0x69,0x3a,0x0b,0x40,0x70,0x69,0x74,0x63,0x68,0x69,0x69))
  ChangeSwitch(22,22,0)
  Battle(0,212,false,false)
  ChangeSwitch(22,22,1)
  SetBattleBGM(bytes(0x04,0x08,0x6f,0x3a,0x0d,0x52,0x50,0x47,0x3a,0x3a,0x42,0x47,0x4d,0x08,0x3a,0x0a,0x40,0x6e,0x61,0x6d,0x65,0x49,0x22,0x0b,0x62,0x61,0x74,0x74,0x6c,0x65,0x06,0x3a,0x06,0x45,0x54,0x3a,0x0c,0x40,0x76,0x6f,0x6c,0x75,0x6d,0x65,0x69,0x69,0x3a,0x0b,0x40,0x70,0x69,0x74,0x63,0x68,0x69,0x69))
  PictureDisplay(5,"80_sylph_st04",0,0,0,0,100,100,0,0)
  PictureMove(5,null,0,0,0,0,100,100,255,0,30,true)
  241(bytes(0x04,0x08,0x6f,0x3a,0x0d,0x52,0x50,0x47,0x3a,0x3a,0x42,0x47,0x4d,0x08,0x3a,0x0a,0x40,0x6e,0x61,0x6d,0x65,0x49,0x22,0x19,0x64,0x75,0x6e,0x67,0x65,0x6f,0x6e,0x5f,0x73,0x65,0x69,0x72,0x65,0x69,0x6e,0x6f,0x6d,0x6f,0x72,0x69,0x06,0x3a,0x06,0x45,0x54,0x3a,0x0c,0x40,0x76,0x6f,0x6c,0x75,0x6d,0x65,0x69,0x69,0x3a,0x0b,0x40,0x70,0x69,0x74,0x63,0x68,0x69,0x69))
  ShowMessageFace("ruka_fc1",0,0,2,35)
  ShowMessage("【ルカ】")
  ShowMessage("よし、僕達の勝利だ！")
  ShowMessage("これで試験は合格だよね……！？")
  ShowMessageFace("sylph_fc1",1,0,2,36)
  ShowMessage("【シルフ】")
  ShowMessage("「力を使う資格があるかどうか、試してやる……」")
  ShowMessage("普通そう言われたら、召喚する当人だけが挑むよね？")
  PictureDisplay(5,"80_sylph_st03",0,0,0,0,100,100,255,0)
  ShowMessageFace("sylph_fc1",4,0,2,37)
  ShowMessage("【シルフ】")
  ShowMessage("よってたかってフルボッコって、おかしいよね？")
  ShowMessage("あたし、よくがんばったよね……？")
  ShowChoices(strings("はい","いいえ"),2)
  IfPlayerPicksChoice(0,null)
   If(0,6,0)
    ShowMessageFace("sonia_fc4",0,0,2,38)
    ShowMessage("【ソニア】")
    ShowMessage("（なんで、こっちが試験者側みたいな流れなんだろ……）")
    0()
   Else()
    ShowMessageFace("ruka_fc1",0,0,2,39)
    ShowMessage("【ルカ】")
    ShowMessage("（なんで、こっちが試験者側みたいな流れなんだろう……）")
    0()
   EndIf()
   0()
  IfPlayerPicksChoice(1,null)
   If(0,6,0)
    ShowMessageFace("sonia_fc4",0,0,2,40)
    ShowMessage("【ソニア】")
    ShowMessage("（なんで、こっちが試験者側みたいな流れなんだろ……）")
    0()
   Else()
    ShowMessageFace("ruka_fc1",0,0,2,41)
    ShowMessage("【ルカ】")
    ShowMessage("（なんで、こっちが試験者側みたいな流れなんだろう……）")
    0()
   EndIf()
   ShowMessageFace("sylph_fc1",4,0,2,42)
   ShowMessage("【シルフ】")
   ShowMessage("そんなの、ひどいよ！　フェアじゃないよ～！")
   ShowMessageFace("ruka_fc1",0,0,2,43)
   ShowMessage("【ルカ】")
   ShowMessage("ご、ごめん……心意気は買うよ。")
   0()
  404()
  PictureDisplay(5,"80_sylph_st01",0,0,0,0,100,100,255,0)
  ShowMessageFace("sylph_fc1",0,0,2,44)
  ShowMessage("【シルフ】")
  ShowMessage("それじゃあ、合格だよね！")
  ShowMessage("約束通り、あたしが力を貸してあげる♪")
  PictureDisplay(5,"80_sylph_st12",0,0,0,0,100,100,255,0)
  ShowMessageFace("sylph_fc1",2,0,2,45)
  ShowMessage("【シルフ】")
  ShowMessage("まずは、召喚契約だね……やー！")
  250(bytes(0x04,0x08,0x6f,0x3a,0x0c,0x52,0x50,0x47,0x3a,0x3a,0x53,0x45,0x08,0x3a,0x0a,0x40,0x6e,0x61,0x6d,0x65,0x49,0x22,0x0d,0x6d,0x6f,0x6e,0x5f,0x77,0x61,0x72,0x6d,0x06,0x3a,0x06,0x45,0x54,0x3a,0x0b,0x40,0x70,0x69,0x74,0x63,0x68,0x69,0x69,0x3a,0x0c,0x40,0x76,0x6f,0x6c,0x75,0x6d,0x65,0x69,0x69))
  PictureDisplay(10,"sys_white",0,0,0,0,100,100,0,0)
  PictureMove(10,null,0,0,0,0,100,100,255,0,30,true)
  PictureMove(10,null,0,0,0,0,100,100,0,0,30,true)
  PictureClear(10)
  ShowMessageFace("ruka_fc1",0,0,2,46)
  ShowMessage("【ルカ】")
  ShowMessage("え……！？　なんだ、これ……？")
  ShowMessageFace("",0,0,2,47)
  ShowMessage("全身に不思議な感覚が広がっていく。")
  ShowMessage("自分の体が、周囲の風に混じってしまったかのような一体感。")
  ShowMessageFace("",0,0,2,48)
  ShowMessage("己の中に、風の息吹がはっきりと感じ取れるのだ。")
  ShowMessage("これが、四精霊に力を借りるということなのか――")
  318(0,1,0,3106)
  250(bytes(0x04,0x08,0x6f,0x3a,0x0c,0x52,0x50,0x47,0x3a,0x3a,0x53,0x45,0x08,0x3a,0x0a,0x40,0x6e,0x61,0x6d,0x65,0x49,0x22,0x0a,0x49,0x74,0x65,0x6d,0x31,0x06,0x3a,0x06,0x45,0x54,0x3a,0x0b,0x40,0x70,0x69,0x74,0x63,0x68,0x69,0x69,0x3a,0x0c,0x40,0x76,0x6f,0x6c,0x75,0x6d,0x65,0x69,0x55))
  ShowMessageFace("",0,0,2,49)
  ShowMessage("ルカは\\I[300]\\C[1]シルフ\\C[0]を修得した！")
  PictureDisplay(5,"80_sylph_st01",0,0,0,0,100,100,255,0)
  ShowMessageFace("sylph_fc1",0,0,2,50)
  ShowMessage("【シルフ】")
  ShowMessage("ルカに召喚師の心得がなくても大丈夫な、専属契約！")
  ShowMessage("「特技」の項目から、あたしを呼び出せるからね。")
  ShowMessageFace("sylph_fc1",0,0,2,51)
  ShowMessage("【シルフ】")
  ShowMessage("あたしも誰かをフルボッコにしたいから、ついていくよ。")
  ShowMessage("仲間にいても召喚（される側）できるから、安心してね♪")
  PictureClear(5)
  205(0,bytes(0x04,0x08,0x6f,0x3a,0x13,0x52,0x50,0x47,0x3a,0x3a,0x4d,0x6f,0x76,0x65,0x52,0x6f,0x75,0x74,0x65,0x09,0x3a,0x0c,0x40,0x72,0x65,0x70,0x65,0x61,0x74,0x46,0x3a,0x0f,0x40,0x73,0x6b,0x69,0x70,0x70,0x61,0x62,0x6c,0x65,0x46,0x3a,0x0a,0x40,0x77,0x61,0x69,0x74,0x54,0x3a,0x0a,0x40,0x6c,0x69,0x73,0x74,0x5b,0x09,0x6f,0x3a,0x15,0x52,0x50,0x47,0x3a,0x3a,0x4d,0x6f,0x76,0x65,0x43,0x6f,0x6d,0x6d,0x61,0x6e,0x64,0x07,0x3a,0x0a,0x40,0x63,0x6f,0x64,0x65,0x69,0x2a,0x3a,0x10,0x40,0x70,0x61,0x72,0x61,0x6d,0x65,0x74,0x65,0x72,0x73,0x5b,0x00,0x6f,0x3b,0x0a,0x07,0x3b,0x0b,0x69,0x0f,0x3b,0x0c,0x5b,0x00,0x6f,0x3b,0x0a,0x07,0x3b,0x0b,0x69,0x2c,0x3b,0x0c,0x5b,0x00,0x6f,0x3b,0x0a,0x07,0x3b,0x0b,0x69,0x00,0x3b,0x0c,0x5b,0x00))
  355("add_actor_ex(12)")
  249(bytes(0x04,0x08,0x6f,0x3a,0x0c,0x52,0x50,0x47,0x3a,0x3a,0x4d,0x45,0x08,0x3a,0x0a,0x40,0x6e,0x61,0x6d,0x65,0x49,0x22,0x0c,0x66,0x61,0x6e,0x66,0x61,0x6c,0x65,0x06,0x3a,0x06,0x45,0x54,0x3a,0x0b,0x40,0x70,0x69,0x74,0x63,0x68,0x69,0x69,0x3a,0x0c,0x40,0x76,0x6f,0x6c,0x75,0x6d,0x65,0x69,0x69))
  ShowMessageFace("",0,0,2,52)
  ShowMessage("シルフが仲間に加わった！")
  If(4,41,0)
   ShowMessageFace("stein_fc2",1,0,2,53)
   ShowMessage("【プロメスティン】")
   ShowMessage("精霊を飼えるとは、興味深い……")
   ShowMessage("あっ、こういう時のために鳥カゴを用意してきたのですが……")
   0()
  EndIf()
  If(4,79,0)
   ShowMessageFace("nuruko_fc1",0,0,2,54)
   ShowMessage("【ヌルコ】")
   ShowMessage("きゅー！　きゅきゅー！")
   0()
  EndIf()
  ChangeVariable(1001,1001,0,0,17)
  Wait(60)
  If(0,4,0)
   ShowMessageFace("alice_fc5",0,0,2,55)
   ShowMessage("【アリス】")
   ShowMessage("うむ、これで目的は済ませたな。")
   ShowMessage("それでは、森を出て――")
   0()
  EndIf()
  If(0,5,0)
   ShowMessageFace("iriasu_fc4",2,0,2,56)
   ShowMessage("【イリアス】")
   ShowMessage("やれやれ、結局精霊と契約してしまいましたか……")
   ShowMessage("それでは、こんな森などとっとと――")
   0()
  EndIf()
  241(bytes(0x04,0x08,0x6f,0x3a,0x0d,0x52,0x50,0x47,0x3a,0x3a,0x42,0x47,0x4d,0x08,0x3a,0x0a,0x40,0x6e,0x61,0x6d,0x65,0x49,0x22,0x0a,0x62,0x6f,0x73,0x73,0x30,0x06,0x3a,0x06,0x45,0x54,0x3a,0x0c,0x40,0x76,0x6f,0x6c,0x75,0x6d,0x65,0x69,0x69,0x3a,0x0b,0x40,0x70,0x69,0x74,0x63,0x68,0x69,0x69))
  ShowMessageFace("ruka_fc1",0,0,2,57)
  ShowMessage("【ルカ】")
  ShowMessage("なんだろう、これ……")
  ShowMessage("背筋のあたりが、ぞわぞわするんだけど……")
  If(0,4,0)
   ShowMessageFace("alice_fc6",0,0,2,58)
   ShowMessage("【アリス】")
   ShowMessage("なんだ、この異常な魔力は……！")
   ShowMessage("聖なる力に近いが、天使にしては禍々しすぎるぞ……！？")
   0()
  EndIf()
  If(0,5,0)
   ShowMessageFace("iriasu_fc4",7,0,2,59)
   ShowMessage("【イリアス】")
   ShowMessage("なんです、この異常な魔力は……！")
   ShowMessage("聖エネルギーが暴走し、変質したような……！？")
   0()
  EndIf()
  250(bytes(0x04,0x08,0x6f,0x3a,0x0c,0x52,0x50,0x47,0x3a,0x3a,0x53,0x45,0x08,0x3a,0x0a,0x40,0x6e,0x61,0x6d,0x65,0x49,0x22,0x0e,0x44,0x61,0x72,0x6b,0x6e,0x65,0x73,0x73,0x35,0x06,0x3a,0x06,0x45,0x54,0x3a,0x0b,0x40,0x70,0x69,0x74,0x63,0x68,0x69,0x69,0x3a,0x0c,0x40,0x76,0x6f,0x6c,0x75,0x6d,0x65,0x69,0x55))
  ChangeSwitch(31,31,0)
  205(-1,bytes(0x04,0x08,0x6f,0x3a,0x13,0x52,0x50,0x47,0x3a,0x3a,0x4d,0x6f,0x76,0x65,0x52,0x6f,0x75,0x74,0x65,0x09,0x3a,0x0c,0x40,0x72,0x65,0x70,0x65,0x61,0x74,0x46,0x3a,0x0f,0x40,0x73,0x6b,0x69,0x70,0x70,0x61,0x62,0x6c,0x65,0x46,0x3a,0x0a,0x40,0x77,0x61,0x69,0x74,0x54,0x3a,0x0a,0x40,0x6c,0x69,0x73,0x74,0x5b,0x07,0x6f,0x3a,0x15,0x52,0x50,0x47,0x3a,0x3a,0x4d,0x6f,0x76,0x65,0x43,0x6f,0x6d,0x6d,0x61,0x6e,0x64,0x07,0x3a,0x0a,0x40,0x63,0x6f,0x64,0x65,0x69,0x15,0x3a,0x10,0x40,0x70,0x61,0x72,0x61,0x6d,0x65,0x74,0x65,0x72,0x73,0x5b,0x00,0x6f,0x3b,0x0a,0x07,0x3b,0x0b,0x69,0x00,0x3b,0x0c,0x5b,0x00))
  ShowSpeechBalloon(-1,1,false)
  ShowMessageFace("",0,0,2,60)
  ShowMessage("次の瞬間、その魔力の主が姿を現した！")
  Wait(15)
  PictureDisplay(5,"80_heinrich_st11",0,0,0,0,100,100,0,0)
  PictureMove(5,null,0,0,0,0,100,100,255,0,30,true)
  ShowMessageFace("heinrich_fc2",0,0,2,61)
  ShowMessage("【鎧の狂戦士】")
  ShowMessage("天使……天使ィ……")
  ShowMessageFace("ruka_fc1",0,0,2,62)
  ShowMessage("【ルカ】")
  ShowMessage("な……なんだ、こいつ……！")
  If(0,4,0)
   ShowMessageFace("alice_fc6",0,0,2,63)
   ShowMessage("【アリス】")
   ShowMessage("なんだ、この化け物は……！")
   0()
  EndIf()
  If(0,5,0)
   ShowMessageFace("iriasu_fc4",5,0,2,64)
   ShowMessage("【イリアス】")
   ShowMessage("そんな……これは、まさか……！？")
   0()
  EndIf()
  ShowMessageFace("",0,0,2,65)
  ShowMessage("間違いない、こいつが妖精やエルフの言っていたバケモノ。")
  ShowMessage("しかし、襲っては来ないという話だが――")
  ShowMessageFace("heinrich_fc2",0,0,2,66)
  ShowMessage("【鎧の狂戦士】")
  ShowMessage("天使……天使……天使ィィィィィ！！")
  ShowMessageFace("heinrich_fc2",0,0,2,67)
  ShowMessage("【鎧の狂戦士】")
  ShowMessage("天使天使天使天使天使天使天使天使天使天使天使天使天使！！")
  ShowMessage("天使天使天使天使天使天使天使ィィィィ――！！")
  ShowMessageFace("ruka_fc1",0,0,2,68)
  ShowMessage("【ルカ】")
  ShowMessage("ちょっと……話が違うよ！")
  ShowMessage("思いっきり襲ってくるじゃないか！")
  If(0,4,0)
   ShowMessageFace("alice_fc6",1,0,2,69)
   ShowMessage("【アリス】")
   ShowMessage("動揺している場合か、応戦するぞ！")
   0()
  EndIf()
  If(0,5,0)
   ShowMessageFace("iriasu_fc4",7,0,2,70)
   ShowMessage("【イリアス】")
   ShowMessage("こいつは聖素に反応して攻撃してきます！")
   ShowMessage("私とルカにとっては、危険この上ない敵ですよ！")
   0()
  EndIf()
  ShowMessageFace("heinrich_fc2",0,0,2,71)
  ShowMessage("【鎧の狂戦士】")
  ShowMessage("天使、滅せよ……天使天使天使天使ィィ……！")
  ShowMessage("滅滅滅滅滅滅滅滅滅滅滅滅滅滅滅滅滅滅滅滅滅……！！")
  PictureClear(5)
  SetBattleBGM(bytes(0x04,0x08,0x6f,0x3a,0x0d,0x52,0x50,0x47,0x3a,0x3a,0x42,0x47,0x4d,0x08,0x3a,0x0a,0x40,0x6e,0x61,0x6d,0x65,0x49,0x22,0x0a,0x62,0x6f,0x73,0x73,0x33,0x06,0x3a,0x06,0x45,0x54,0x3a,0x0c,0x40,0x76,0x6f,0x6c,0x75,0x6d,0x65,0x69,0x69,0x3a,0x0b,0x40,0x70,0x69,0x74,0x63,0x68,0x69,0x69))
  RunCommonEvent(10)
  Battle(0,213,false,false)
  RunCommonEvent(11)
  SetBattleBGM(bytes(0x04,0x08,0x6f,0x3a,0x0d,0x52,0x50,0x47,0x3a,0x3a,0x42,0x47,0x4d,0x08,0x3a,0x0a,0x40,0x6e,0x61,0x6d,0x65,0x49,0x22,0x0b,0x62,0x61,0x74,0x74,0x6c,0x65,0x06,0x3a,0x06,0x45,0x54,0x3a,0x0c,0x40,0x76,0x6f,0x6c,0x75,0x6d,0x65,0x69,0x69,0x3a,0x0b,0x40,0x70,0x69,0x74,0x63,0x68,0x69,0x69))
  ChangeSwitch(31,31,1)
  ChangeSwitch(2320,2320,0)
  241(bytes(0x04,0x08,0x6f,0x3a,0x0d,0x52,0x50,0x47,0x3a,0x3a,0x42,0x47,0x4d,0x08,0x3a,0x0a,0x40,0x6e,0x61,0x6d,0x65,0x49,0x22,0x14,0x73,0x63,0x65,0x6e,0x65,0x5f,0x65,0x70,0x69,0x6c,0x6f,0x67,0x75,0x65,0x32,0x06,0x3a,0x06,0x45,0x54,0x3a,0x0c,0x40,0x76,0x6f,0x6c,0x75,0x6d,0x65,0x69,0x69,0x3a,0x0b,0x40,0x70,0x69,0x74,0x63,0x68,0x69,0x69))
  314(0,0)
  355("gain_medal(3001)")
  ShowMessageFace("ruka_fc1",0,0,2,72)
  ShowMessage("【ルカ】")
  ShowMessage("ふぅ、びっくりした。")
  If(12,"actor_class_level_over?(1, 362, 1)")
   0()
  Else()
   ShowMessageFace("",0,0,2,73)
   ShowMessage("強敵に打ち勝ったことにより、秘められた力が覚醒する……")
   250(bytes(0x04,0x08,0x6f,0x3a,0x0c,0x52,0x50,0x47,0x3a,0x3a,0x53,0x45,0x08,0x3a,0x0a,0x40,0x6e,0x61,0x6d,0x65,0x49,0x22,0x0b,0x53,0x61,0x69,0x6e,0x74,0x37,0x06,0x3a,0x06,0x45,0x54,0x3a,0x0b,0x40,0x70,0x69,0x74,0x63,0x68,0x69,0x69,0x3a,0x0c,0x40,0x76,0x6f,0x6c,0x75,0x6d,0x65,0x69,0x55))
   355("set_class_level(1, 362, 1, false, true)")
   ShowMessageFace("",0,0,2,74)
   ShowMessage("ルカは下位天使になった！")
   0()
  EndIf()
  If(0,4,0)
   ShowMessageFace("alice_fc5",3,0,2,75)
   ShowMessage("【アリス】")
   ShowMessage("まさか、倒せてしまうとは……")
   0()
  EndIf()
  If(0,5,0)
   ShowMessageFace("iriasu_fc4",2,0,2,76)
   ShowMessage("【イリアス】")
   ShowMessage("まさか、倒せてしまうとは……")
   0()
  EndIf()
  ShowMessageFace("ruka_fc1",0,0,2,77)
  ShowMessage("【ルカ】")
  ShowMessage("なんだか、わけの分からない相手だったけど……")
  ShowMessage("それはともかく、シルフともちゃんと契約できたね。")
  RunCommonEvent(306)
  355("gain_medal(23)")
  EndEventProcessing()
  0()
 PAGE   2
  // condition: variable 1001 >= 16
  0()



EVENT   69
 PAGE   1
  250(bytes(0x04,0x08,0x6f,0x3a,0x0c,0x52,0x50,0x47,0x3a,0x3a,0x53,0x45,0x08,0x3a,0x0a,0x40,0x6e,0x61,0x6d,0x65,0x49,0x22,0x0a,0x43,0x68,0x65,0x73,0x74,0x06,0x3a,0x06,0x45,0x54,0x3a,0x0b,0x40,0x70,0x69,0x74,0x63,0x68,0x69,0x69,0x3a,0x0c,0x40,0x76,0x6f,0x6c,0x75,0x6d,0x65,0x69,0x55))
  205(0,bytes(0x04,0x08,0x6f,0x3a,0x13,0x52,0x50,0x47,0x3a,0x3a,0x4d,0x6f,0x76,0x65,0x52,0x6f,0x75,0x74,0x65,0x09,0x3a,0x0c,0x40,0x72,0x65,0x70,0x65,0x61,0x74,0x46,0x3a,0x0f,0x40,0x73,0x6b,0x69,0x70,0x70,0x61,0x62,0x6c,0x65,0x46,0x3a,0x0a,0x40,0x77,0x61,0x69,0x74,0x54,0x3a,0x0a,0x40,0x6c,0x69,0x73,0x74,0x5b,0x0b,0x6f,0x3a,0x15,0x52,0x50,0x47,0x3a,0x3a,0x4d,0x6f,0x76,0x65,0x43,0x6f,0x6d,0x6d,0x61,0x6e,0x64,0x07,0x3a,0x0a,0x40,0x63,0x6f,0x64,0x65,0x69,0x29,0x3a,0x10,0x40,0x70,0x61,0x72,0x61,0x6d,0x65,0x74,0x65,0x72,0x73,0x5b,0x00,0x6f,0x3b,0x0a,0x07,0x3b,0x0b,0x69,0x16,0x3b,0x0c,0x5b,0x00,0x6f,0x3b,0x0a,0x07,0x3b,0x0b,0x69,0x14,0x3b,0x0c,0x5b,0x06,0x69,0x08,0x6f,0x3b,0x0a,0x07,0x3b,0x0b,0x69,0x17,0x3b,0x0c,0x5b,0x00,0x6f,0x3b,0x0a,0x07,0x3b,0x0b,0x69,0x14,0x3b,0x0c,0x5b,0x06,0x69,0x08,0x6f,0x3b,0x0a,0x07,0x3b,0x0b,0x69,0x00,0x3b,0x0c,0x5b,0x00))
  ChangeSelfSwitch("A",0)
  ChangeInventory_Item(450,0,0,1)
  0()
 PAGE   2
  // condition: self-switch A is ON
  0()



EVENT   68
 PAGE   1
  ShowMessageFace("fairys_fc1",0,0,2,1)
  ShowMessage("【フェアリー】")
  ShowMessage("いたいのいたいの、とんでけー！")
  250(bytes(0x04,0x08,0x6f,0x3a,0x0c,0x52,0x50,0x47,0x3a,0x3a,0x53,0x45,0x08,0x3a,0x0a,0x40,0x6e,0x61,0x6d,0x65,0x49,0x22,0x0a,0x48,0x65,0x61,0x6c,0x37,0x06,0x3a,0x06,0x45,0x54,0x3a,0x0b,0x40,0x70,0x69,0x74,0x63,0x68,0x69,0x69,0x3a,0x0c,0x40,0x76,0x6f,0x6c,0x75,0x6d,0x65,0x69,0x55))
  224(bytes(0x04,0x08,0x75,0x3a,0x0a,0x43,0x6f,0x6c,0x6f,0x72,0x25,0x00,0x00,0x00,0x00,0x00,0xe0,0x6f,0x40,0x00,0x00,0x00,0x00,0x00,0xe0,0x6f,0x40,0x00,0x00,0x00,0x00,0x00,0xe0,0x6f,0x40,0x00,0x00,0x00,0x00,0x00,0xe0,0x6f,0x40),30,true)
  314(0,0)
  ShowMessageFace("",0,0,2,2)
  ShowMessage("ルカ達のHPとMPが全快した！")
  0()



EVENT   70
 PAGE   1
  // condition: switch 1012 is ON
  // condition: variable 1047 >= 0
  // condition: party contains actor #167
  ChangeVariable(1047,1047,0,0,1)
  ShowMessageFace("lusia_fc1",0,0,2,1)
  ShowMessage("【ルシア】")
  ShowMessage("ここは、風の精霊の力が集まる地ですね。")
  ShowMessage("なるほど、自然エネルギーの循環が感じ取れます。")
  ShowMessageFace("lusia_fc1",0,0,2,2)
  ShowMessage("【ルシア】")
  ShowMessage("少し、時間を頂いて良いでしょうか。")
  ShowMessage("精霊に関する観測データを集めたいもので……")
  If(0,6,0)
   ShowMessageFace("sonia_fc2",2,0,2,3)
   ShowMessage("【ソニア】")
   ShowMessage("いいけど……")
   ShowMessage("観測って、何をするの？")
   0()
  Else()
   ShowMessageFace("ruka_fc1",0,0,2,4)
   ShowMessage("【ルカ】")
   ShowMessage("いいけど……")
   ShowMessage("観測って、何をするの？")
   0()
  EndIf()
  ShowMessageFace("lusia_fc1",0,0,2,5)
  ShowMessage("【ルシア】")
  ShowMessage("自作の測定マキナを用います。")
  ShowMessage("これは受信のみならず、こちらからの干渉も可能な品……")
  ShowMessageFace("sylph_fc1",7,0,2,6)
  ShowMessage("【シルフ】")
  ShowMessage("なんだか、アホ毛がぞわぞわする！")
  ShowMessageFace("lusia_fc1",0,0,2,7)
  ShowMessage("【ルシア】")
  ShowMessage("おや、さっそく反応がありましたね。")
  ShowMessage("こちらからも干渉波を送りましょう……")
  ShowMessageFace("lusia_fc1",0,0,2,8)
  ShowMessage("【ルシア】")
  ShowMessage("干渉波を強めていきます。")
  ShowMessage("2倍……4倍……8倍……")
  ShowMessageFace("sylph_fc1",7,0,2,9)
  ShowMessage("【シルフ】")
  ShowMessage("ぴき……")
  ShowMessageFace("sylph_fc1",7,0,2,10)
  ShowMessage("【シルフ】")
  ShowMessage("ぴきぴき……")
  ShowMessageFace("sylph_fc1",7,0,2,11)
  ShowMessage("【シルフ】")
  ShowMessage("ぴきぴきぴきぴき……")
  ShowMessageFace("lusia_fc1",0,0,2,12)
  ShowMessage("【ルシア】")
  ShowMessage("風の力が高まっていきますね……")
  ShowMessage("さて、どんな反応が帰ってくるのでしょうか？")
  241(bytes(0x04,0x08,0x6f,0x3a,0x0d,0x52,0x50,0x47,0x3a,0x3a,0x42,0x47,0x4d,0x08,0x3a,0x0a,0x40,0x6e,0x61,0x6d,0x65,0x49,0x22,0x10,0x73,0x63,0x65,0x6e,0x65,0x5f,0x63,0x6f,0x6d,0x69,0x31,0x06,0x3a,0x06,0x45,0x54,0x3a,0x0c,0x40,0x76,0x6f,0x6c,0x75,0x6d,0x65,0x69,0x69,0x3a,0x0b,0x40,0x70,0x69,0x74,0x63,0x68,0x69,0x69))
  ShowMessageFace("sylph_fc1",7,0,2,13)
  ShowMessage("【シルフ】")
  ShowMessage("ちぃぱっぱ！　ちぃぱっぱ！ ")
  ShowMessage("あたまのお花が、ちぃぱっぱ！")
  ShowMessageFace("sylph_fc1",7,0,2,14)
  ShowMessage("【シルフ】")
  ShowMessage("ちぃぱっぱ！　ちぃぱっぱ！ ")
  ShowMessage("おひさまぐるぐる、ちぃぱっぱ！")
  If(0,6,0)
   ShowMessageFace("sonia_fc3",2,0,2,15)
   ShowMessage("【ソニア】")
   ShowMessage("シルフちゃんが壊れちゃった！")
   0()
  Else()
   ShowMessageFace("ruka_fc1",0,0,2,16)
   ShowMessage("【ルカ】")
   ShowMessage("……………………")
   0()
  EndIf()
  ShowMessageFace("lusia_fc1",0,0,2,17)
  ShowMessage("【ルシア】")
  ShowMessage("……な、何か重要な鍵になるかもしれません。")
  ShowMessage("この歌も記録しておきましょう……")
  ShowMessageFace("lusia_fc1",2,0,2,18)
  ShowMessage("【ルシア】")
  ShowMessage("……しかし、妙に耳に残る歌ですね。")
  318(0,167,0,2084)
  250(bytes(0x04,0x08,0x6f,0x3a,0x0c,0x52,0x50,0x47,0x3a,0x3a,0x53,0x45,0x08,0x3a,0x0a,0x40,0x6e,0x61,0x6d,0x65,0x49,0x22,0x0a,0x49,0x74,0x65,0x6d,0x31,0x06,0x3a,0x06,0x45,0x54,0x3a,0x0b,0x40,0x70,0x69,0x74,0x63,0x68,0x69,0x69,0x3a,0x0c,0x40,0x76,0x6f,0x6c,0x75,0x6d,0x65,0x69,0x55))
  ShowMessageFace("",0,0,2,19)
  ShowMessage("ルシアは\\I[184]\\C[1]ちぃぱっぱの歌\\C[0]を修得してしまった……")
  ShowMessageFace("sylph_fc1",7,0,2,20)
  ShowMessage("【シルフ】")
  ShowMessage("……はっ！？")
  ShowMessage("あたし、何してたの？")
  ShowMessageFace("sylph_fc1",7,0,2,21)
  ShowMessage("【シルフ】")
  ShowMessage("あたま、くるくるぱーになっちゃった……")
  ShowMessageFace("lusia_fc1",0,0,2,22)
  ShowMessage("【ルシア】")
  ShowMessage("大丈夫、元からクルクルパーです。")
  ShowMessage("しかし、もっと詳細なデータを集めたいところですね。")
  ShowMessageFace("lusia_fc1",0,0,2,23)
  ShowMessage("【ルシア】")
  ShowMessage("次は、土の精霊ノームの住処……")
  ShowMessage("サファル砂漠に連れて行ってもらえませんか？")
  ShowMessageFace("sylph_fc1",7,0,2,24)
  ShowMessage("【シルフ】")
  ShowMessage("ぴきぴき……")
  If(0,6,0)
   ShowMessageFace("sonia_fc2",2,0,2,25)
   ShowMessage("【ソニア】")
   ShowMessage("（まだ、変な電波残ってない……？）")
   0()
  Else()
   ShowMessageFace("ruka_fc1",0,0,2,26)
   ShowMessage("【ルカ】")
   ShowMessage("（まだ、変な電波が残ってる……）")
   0()
  EndIf()
  241(bytes(0x04,0x08,0x6f,0x3a,0x0d,0x52,0x50,0x47,0x3a,0x3a,0x42,0x47,0x4d,0x08,0x3a,0x0a,0x40,0x6e,0x61,0x6d,0x65,0x49,0x22,0x19,0x64,0x75,0x6e,0x67,0x65,0x6f,0x6e,0x5f,0x73,0x65,0x69,0x72,0x65,0x69,0x6e,0x6f,0x6d,0x6f,0x72,0x69,0x06,0x3a,0x06,0x45,0x54,0x3a,0x0c,0x40,0x76,0x6f,0x6c,0x75,0x6d,0x65,0x69,0x69,0x3a,0x0b,0x40,0x70,0x69,0x74,0x63,0x68,0x69,0x69))
  EndEventProcessing()
  0()
 PAGE   2
  // condition: variable 1047 >= 1
  0()



EVENT   71
 PAGE   1
  // condition: switch 1012 is ON
  // condition: party contains actor #99
  ChangeSwitch(2141,2141,0)
  ShowMessageFace("namazu_fc1",0,0,2,1)
  ShowMessage("【ギギ】")
  ShowMessage("むむっ、風のエネルギーを感じるのう……")
  ShowMessage("ヒゲがぴくぴく震えおるわ。")
  ShowMessageFace("namazu_fc1",0,0,2,2)
  ShowMessage("【ギギ】")
  ShowMessage("亀の甲より年の功、自然感応は得意じゃぞ。")
  ShowMessage("この風のエネルギーを、上手く取り込めば……")
  318(0,99,0,3038)
  250(bytes(0x04,0x08,0x6f,0x3a,0x0c,0x52,0x50,0x47,0x3a,0x3a,0x53,0x45,0x08,0x3a,0x0a,0x40,0x6e,0x61,0x6d,0x65,0x49,0x22,0x0a,0x49,0x74,0x65,0x6d,0x31,0x06,0x3a,0x06,0x45,0x54,0x3a,0x0b,0x40,0x70,0x69,0x74,0x63,0x68,0x69,0x69,0x3a,0x0c,0x40,0x76,0x6f,0x6c,0x75,0x6d,0x65,0x69,0x55))
  ShowMessageFace("",0,0,2,3)
  ShowMessage("ギギは\\I[157]\\C[1]突風\\C[0]を修得した！")
  ShowMessageFace("namazu_fc1",0,0,2,4)
  ShowMessage("【ギギ】")
  ShowMessage("うむ、この通りよ。")
  ShowMessage("それでは、行くとしようぞ！")
  EndEventProcessing()
  0()
 PAGE   2
  // condition: switch 2141 is ON
  0()



EVENT   72
 PAGE   1
  // condition: switch 2183 is ON
  If(0,2230,1)
   ChangeSwitch(2230,2230,0)
   ShowMessageFace("",0,0,2,1)
   ShowMessage("【エルフ】")
   ShowMessage("またイっちゃった……")
   ShowMessage("こんな風に犯されたかったんでしょ？")
   ShowMessageFace("",0,0,2,2)
   ShowMessage("【若衆Ｃ】")
   ShowMessage("ひぁぁ……や、休ませてぇ……")
   250(bytes(0x04,0x08,0x6f,0x3a,0x0c,0x52,0x50,0x47,0x3a,0x3a,0x53,0x45,0x08,0x3a,0x0a,0x40,0x6e,0x61,0x6d,0x65,0x49,0x22,0x11,0x6d,0x6f,0x6e,0x5f,0x66,0x61,0x6e,0x66,0x61,0x6c,0x65,0x32,0x06,0x3a,0x06,0x45,0x54,0x3a,0x0b,0x40,0x70,0x69,0x74,0x63,0x68,0x69,0x69,0x3a,0x0c,0x40,0x76,0x6f,0x6c,0x75,0x6d,0x65,0x69,0x69))
   ShowMessageFace("",0,0,2,3)
   ShowMessage("若衆を発見した！")
   ShowMessageFace("ruka_fc1",0,0,2,4)
   ShowMessage("【ルカ】")
   ShowMessage("よし、若衆Ｃを見つけたぞ！")
   ShowMessageFace("",0,0,2,5)
   ShowMessage("【エルフ】")
   ShowMessage("勘違いしないで、これは罰よ。")
   ShowMessage("自然の怒りを、その身に教えているのよ。")
   ShowMessageFace("ruka_fc1",0,0,2,6)
   ShowMessage("【ルカ】")
   ShowMessage("罰なら仕方ないな……")
   ShowMessageFace("",0,0,2,7)
   ShowMessage("【エルフ】")
   ShowMessage("ほら、思い知りなさい……")
   ShowMessage("エルフに精子を搾り尽くされて、惨めさを味わうのよ……♪")
   ShowMessageFace("",0,0,2,8)
   ShowMessage("【若衆Ｃ】")
   ShowMessage("ひぁぁぁぁ～！！　涸れちゃう～～！！")
   EndEventProcessing()
   0()
  Else()
   ShowMessageFace("",0,0,2,9)
   ShowMessage("【エルフ】")
   ShowMessage("ほら、思い知りなさい……")
   ShowMessage("エルフに精子を搾り尽くされて、惨めさを味わうのよ……♪")
   ShowMessageFace("",0,0,2,10)
   ShowMessage("【若衆Ｃ】")
   ShowMessage("ひぁぁぁぁ～！！　涸れちゃう～～！！")
   EndEventProcessing()
   0()
  EndIf()
  0()



EVENT   73
 PAGE   1
  // condition: switch 2183 is ON
  If(0,2230,1)
   ChangeSwitch(2230,2230,0)
   ShowMessageFace("",0,0,2,1)
   ShowMessage("【エルフ】")
   ShowMessage("またイっちゃった……")
   ShowMessage("こんな風に犯されたかったんでしょ？")
   ShowMessageFace("",0,0,2,2)
   ShowMessage("【若衆Ｃ】")
   ShowMessage("ひぁぁ……や、休ませてぇ……")
   250(bytes(0x04,0x08,0x6f,0x3a,0x0c,0x52,0x50,0x47,0x3a,0x3a,0x53,0x45,0x08,0x3a,0x0a,0x40,0x6e,0x61,0x6d,0x65,0x49,0x22,0x11,0x6d,0x6f,0x6e,0x5f,0x66,0x61,0x6e,0x66,0x61,0x6c,0x65,0x32,0x06,0x3a,0x06,0x45,0x54,0x3a,0x0b,0x40,0x70,0x69,0x74,0x63,0x68,0x69,0x69,0x3a,0x0c,0x40,0x76,0x6f,0x6c,0x75,0x6d,0x65,0x69,0x69))
   ShowMessageFace("",0,0,2,3)
   ShowMessage("若衆を発見した！")
   ShowMessageFace("ruka_fc1",0,0,2,4)
   ShowMessage("【ルカ】")
   ShowMessage("よし、若衆Ｃを見つけたぞ！")
   ShowMessageFace("",0,0,2,5)
   ShowMessage("【エルフ】")
   ShowMessage("勘違いしないで、これは罰よ。")
   ShowMessage("自然の怒りを、その身に教えているのよ。")
   ShowMessageFace("ruka_fc1",0,0,2,6)
   ShowMessage("【ルカ】")
   ShowMessage("罰なら仕方ないな……")
   ShowMessageFace("",0,0,2,7)
   ShowMessage("【エルフ】")
   ShowMessage("ほら、思い知りなさい……")
   ShowMessage("エルフに精子を搾り尽くされて、惨めさを味わうのよ……♪")
   ShowMessageFace("",0,0,2,8)
   ShowMessage("【若衆Ｃ】")
   ShowMessage("ひぁぁぁぁ～！！　涸れちゃう～～！！")
   EndEventProcessing()
   0()
  Else()
   ShowMessageFace("",0,0,2,9)
   ShowMessage("【エルフ】")
   ShowMessage("ほら、思い知りなさい……")
   ShowMessage("エルフに精子を搾り尽くされて、惨めさを味わうのよ……♪")
   ShowMessageFace("",0,0,2,10)
   ShowMessage("【若衆Ｃ】")
   ShowMessage("ひぁぁぁぁ～！！　涸れちゃう～～！！")
   EndEventProcessing()
   0()
  EndIf()
  0()
