﻿
DisplayName "管理者の塔 4F"



EVENT   1
 PAGE   1
  If(1,1032,0,4,0)
   ShowMessageFace("radio_fc1",0,0,2,1)
   ShowMessage("【ラディオ】")
   ShowMessage("早く、マスターに会って下サイ……")
   205(-1,bytes(0x04,0x08,0x6f,0x3a,0x13,0x52,0x50,0x47,0x3a,0x3a,0x4d,0x6f,0x76,0x65,0x52,0x6f,0x75,0x74,0x65,0x09,0x3a,0x0c,0x40,0x72,0x65,0x70,0x65,0x61,0x74,0x46,0x3a,0x0f,0x40,0x73,0x6b,0x69,0x70,0x70,0x61,0x62,0x6c,0x65,0x46,0x3a,0x0a,0x40,0x77,0x61,0x69,0x74,0x54,0x3a,0x0a,0x40,0x6c,0x69,0x73,0x74,0x5b,0x07,0x6f,0x3a,0x15,0x52,0x50,0x47,0x3a,0x3a,0x4d,0x6f,0x76,0x65,0x43,0x6f,0x6d,0x6d,0x61,0x6e,0x64,0x07,0x3a,0x0a,0x40,0x63,0x6f,0x64,0x65,0x69,0x06,0x3a,0x10,0x40,0x70,0x61,0x72,0x61,0x6d,0x65,0x74,0x65,0x72,0x73,0x5b,0x00,0x6f,0x3b,0x0a,0x07,0x3b,0x0b,0x69,0x00,0x3b,0x0c,0x5b,0x00))
   0()
  EndIf()
  If(1,1032,0,5,0)
   ShowMessageFace("shirom_fc2",1,0,2,2)
   ShowMessage("【ラ・クロワ】")
   ShowMessage("すぐ下の階までアドラメレクが来ている。")
   ShowMessage("行くのは危険だ……")
   205(-1,bytes(0x04,0x08,0x6f,0x3a,0x13,0x52,0x50,0x47,0x3a,0x3a,0x4d,0x6f,0x76,0x65,0x52,0x6f,0x75,0x74,0x65,0x09,0x3a,0x0c,0x40,0x72,0x65,0x70,0x65,0x61,0x74,0x46,0x3a,0x0f,0x40,0x73,0x6b,0x69,0x70,0x70,0x61,0x62,0x6c,0x65,0x46,0x3a,0x0a,0x40,0x77,0x61,0x69,0x74,0x54,0x3a,0x0a,0x40,0x6c,0x69,0x73,0x74,0x5b,0x07,0x6f,0x3a,0x15,0x52,0x50,0x47,0x3a,0x3a,0x4d,0x6f,0x76,0x65,0x43,0x6f,0x6d,0x6d,0x61,0x6e,0x64,0x07,0x3a,0x0a,0x40,0x63,0x6f,0x64,0x65,0x69,0x06,0x3a,0x10,0x40,0x70,0x61,0x72,0x61,0x6d,0x65,0x74,0x65,0x72,0x73,0x5b,0x00,0x6f,0x3b,0x0a,0x07,0x3b,0x0b,0x69,0x00,0x3b,0x0c,0x5b,0x00))
   0()
  EndIf()
  0()



EVENT   6
 PAGE   1
  217()
  241(bytes(0x04,0x08,0x6f,0x3a,0x0d,0x52,0x50,0x47,0x3a,0x3a,0x42,0x47,0x4d,0x08,0x3a,0x0a,0x40,0x6e,0x61,0x6d,0x65,0x49,0x22,0x0a,0x73,0x74,0x65,0x69,0x6e,0x06,0x3a,0x06,0x45,0x54,0x3a,0x0c,0x40,0x76,0x6f,0x6c,0x75,0x6d,0x65,0x69,0x69,0x3a,0x0b,0x40,0x70,0x69,0x74,0x63,0x68,0x69,0x69))
  PictureDisplay(5,"80_shirom_st52",0,0,0,0,100,100,0,0)
  PictureMove(5,null,0,0,0,0,100,100,255,0,30,true)
  ShowMessageFace("shirom_fc2",1,0,2,1)
  ShowMessage("【ラ・クロワ】")
  ShowMessage("ようこそ、世界を越えた客人よ……")
  ShowMessage("私はラ・クロワ、この塔の主だ。")
  If(0,6,0)
   ShowMessageFace("sonia_fc3",7,0,2,2)
   ShowMessage("【ソニア】")
   ShowMessage("あなたは、いったい……")
   0()
  Else()
   ShowMessageFace("ruka_fc1",0,0,2,3)
   ShowMessage("【ルカ】")
   ShowMessage("あなたは、いったい……")
   0()
  EndIf()
  If(4,134,0)
   ShowMessageFace("chrom_fc2",5,0,2,4)
   ShowMessage("【クロム】")
   ShowMessage("…………！？")
   ShowMessageFace("shirom_fc2",1,0,2,5)
   ShowMessage("【ラ・クロワ】")
   ShowMessage("……………………")
   0()
  EndIf()
  PictureClear(5)
  Wait(15)
  250(bytes(0x04,0x08,0x6f,0x3a,0x0c,0x52,0x50,0x47,0x3a,0x3a,0x53,0x45,0x08,0x3a,0x0a,0x40,0x6e,0x61,0x6d,0x65,0x49,0x22,0x0d,0x6d,0x6f,0x6e,0x5f,0x62,0x6f,0x6d,0x31,0x06,0x3a,0x06,0x45,0x54,0x3a,0x0b,0x40,0x70,0x69,0x74,0x63,0x68,0x69,0x69,0x3a,0x0c,0x40,0x76,0x6f,0x6c,0x75,0x6d,0x65,0x69,0x69))
  225(7,7,120,true)
  ShowMessageFace("radio_fc1",0,0,2,6)
  ShowMessage("【ラディオ】")
  ShowMessage("アドラメレク、塔内に侵入しマシた……")
  ShowMessageFace("shirom_fc2",1,0,2,7)
  ShowMessage("【ラ・クロワ】")
  ShowMessage("防衛モンスターを全てぶつけろ。")
  ShowMessage("少しでも時間を稼げ……")
  ShowMessageFace("radio_fc1",0,0,2,8)
  ShowMessage("【ラディオ】")
  ShowMessage("了解しマシた、戦力を一点に集中シマす……")
  PictureDisplay(5,"80_shirom_st52",0,0,0,0,100,100,0,0)
  PictureMove(5,null,0,0,0,0,100,100,255,0,30,true)
  ShowMessageFace("shirom_fc2",1,0,2,9)
  ShowMessage("【ラ・クロワ】")
  ShowMessage("そういうわけで、時間が惜しい。")
  ShowMessage("私の素性を、悠長に説明している余裕はない……")
  ShowMessageFace("shirom_fc2",1,0,2,10)
  ShowMessage("【ラ・クロワ】")
  ShowMessage("まあ、アンデッドモンスターとでも思うがいい……")
  ShowMessage("この世界、もはや命ある者は存在していない。")
  ShowMessageFace("ruka_fc1",0,0,2,11)
  ShowMessage("【ルカ】")
  ShowMessage("どうして、そんな事に……")
  ShowMessage("いったい何があったんですか！？")
  ShowMessageFace("shirom_fc2",1,0,2,12)
  ShowMessage("【ラ・クロワ】")
  ShowMessage("ヨハネス暦1456年、レミナ地点より世界の混沌化は始まった。")
  ShowMessage("次元の亀裂が世界を覆い、混沌が空間を浸食し――")
  ShowMessageFace("shirom_fc2",1,0,2,13)
  ShowMessage("【ラ・クロワ】")
  ShowMessage("それから30年で、このザマだ。")
  ShowMessage("そしてあと1時間ももたず、この世界は混沌に消えるだろう。")
  If(0,4,0)
   ShowMessageFace("alice_fc6",0,0,2,14)
   ShowMessage("【アリス】")
   ShowMessage("その原因はなんだ？")
   ShowMessage("どうして、世界の混沌化は始まった……？")
   0()
  EndIf()
  If(0,5,0)
   ShowMessageFace("iriasu_fc4",7,0,2,15)
   ShowMessage("【イリアス】")
   ShowMessage("その原因はなんです？")
   ShowMessage("どうして、世界の混沌化は始まったのです……？")
   0()
  EndIf()
  ShowMessageFace("shirom_fc2",1,0,2,16)
  ShowMessage("【ラ・クロワ】")
  ShowMessage("世界に混沌が広まっていく中……")
  ShowMessage("強者や、高い知能を持った者がこの塔に集まった。")
  ShowMessageFace("shirom_fc2",1,0,2,17)
  ShowMessage("【ラ・クロワ】")
  ShowMessage("いや……追い詰められたというべきか。")
  ShowMessage("みな必死で状況の打開を願い、そして斃れていった……")
  ShowMessageFace("shirom_fc2",1,0,2,18)
  ShowMessage("【ラ・クロワ】")
  ShowMessage("ある者はアポトーシスに討たれ……")
  ShowMessage("ある者は、混沌に飲み込まれ……")
  ShowMessageFace("shirom_fc2",1,0,2,19)
  ShowMessage("【ラ・クロワ】")
  ShowMessage("そんな苦闘の日々の中で……")
  ShowMessage("私や同志達は混沌に関する研究を必死で進めた。")
  ShowMessageFace("shirom_fc2",1,0,2,20)
  ShowMessage("【ラ・クロワ】")
  ShowMessage("そして判明したのは……")
  ShowMessage("この世界は、正しい歴史を辿っていないという事実だった。")
  ShowMessageFace("ruka_fc1",0,0,2,21)
  ShowMessage("【ルカ】")
  ShowMessage("正しい、歴史……！？")
  ShowMessageFace("",0,0,2,22)
  ShowMessage("それは、父さんのメモにもあった――")
  ShowMessage("そして、白兎も言っていた――")
  ShowMessageFace("shirom_fc2",1,0,2,23)
  ShowMessage("【ラ・クロワ】")
  ShowMessage("歴史のどこかの時点で、パラドックスが発生したのだ。")
  ShowMessage("矛盾事象は空間を混沌化させ、世界そのものをカオス化する。")
  ShowMessageFace("shirom_fc2",1,0,2,24)
  ShowMessage("【ラ・クロワ】")
  ShowMessage("そこまでを解き明かした頃には……")
  ShowMessage("もはや、私一人しか残っていなかった。")
  If(0,4,0)
   ShowMessageFace("alice_fc6",0,0,2,25)
   ShowMessage("【アリス】")
   ShowMessage("パラドックスがカオス化を生む……")
   ShowMessage("そして、世界を混沌に還す……")
   0()
  EndIf()
  If(0,5,0)
   ShowMessageFace("iriasu_fc4",7,0,2,26)
   ShowMessage("【イリアス】")
   ShowMessage("パラドックスがカオス化を生む……")
   ShowMessage("そして、世界を混沌に還す……")
   0()
  EndIf()
  ShowMessageFace("shirom_fc2",1,0,2,27)
  ShowMessage("【ラ・クロワ】")
  ShowMessage("混沌とは、「無」でもある。")
  ShowMessage("両者は等しいものなのだ……")
  ShowMessageFace("radio_fc1",0,0,2,28)
  ShowMessage("【ラディオ】")
  ShowMessage("アドラメレク、2階へと侵入……")
  ShowMessage("味方損耗率、50%を越えました……")
  ShowMessageFace("shirom_fc2",1,0,2,29)
  ShowMessage("【ラ・クロワ】")
  ShowMessage("予備も全てぶつけろ、可能な限り足止めだ……")
  ShowMessageFace("shirom_fc2",1,0,2,30)
  ShowMessage("【ラ・クロワ】")
  ShowMessage("さて、以上がこの世界で起きた全てだ。")
  ShowMessage("まだ不明な点や、立証されていない部分も多いがな……")
  ShowMessageFace("ruka_fc1",0,0,2,31)
  ShowMessage("【ルカ】")
  ShowMessage("歴史のどこかでパラドックスが発生したから……")
  ShowMessage("それで、世界がこんな事に……")
  ShowMessageFace("shirom_fc2",1,0,2,32)
  ShowMessage("【ラ・クロワ】")
  ShowMessage("そして、肝心のパラドックスだが……")
  ShowMessage("どうも、この世界由来の事象ではないようだ。")
  ShowMessageFace("shirom_fc2",1,0,2,33)
  ShowMessage("【ラ・クロワ】")
  ShowMessage("別の並行世界で発生したパラドックス……")
  ShowMessage("それが、連鎖的にこの世界にも影響をもたらしたのだ。")
  If(0,4,0)
   ShowMessageFace("alice_fc6",0,0,2,34)
   ShowMessage("【アリス】")
   ShowMessage("別の並行世界の影響だと……？")
   ShowMessage("そんな事が起きるのなら、もしかして……")
   0()
  EndIf()
  If(0,5,0)
   ShowMessageFace("iriasu_fc4",7,0,2,35)
   ShowMessage("【イリアス】")
   ShowMessage("別の並行世界の影響だと……？")
   ShowMessage("そんな事が起き得るのならば、もしかして――")
   0()
  EndIf()
  ShowMessageFace("shirom_fc2",1,0,2,36)
  ShowMessage("【ラ・クロワ】")
  ShowMessage("察したか……ならば結論を言おう。")
  ShowMessage("お前達の世界も、近いうちに同じ道を辿る。")
  If(0,6,0)
   ShowMessageFace("sonia_fc3",7,0,2,37)
   ShowMessage("【ソニア】")
   ShowMessage("私達の世界が……！？")
   0()
  Else()
   ShowMessageFace("ruka_fc1",0,0,2,38)
   ShowMessage("【ルカ】")
   ShowMessage("僕達の世界が……！？")
   0()
  EndIf()
  ShowMessageFace("shirom_fc2",1,0,2,39)
  ShowMessage("【ラ・クロワ】")
  ShowMessage("いいや、お前達の世界だけではない。")
  ShowMessage("全ての並行世界が、互いを巻き込みながら消滅していく。")
  ShowMessageFace("shirom_fc2",1,0,2,40)
  ShowMessage("【ラ・クロワ】")
  ShowMessage("そして、全ての世界が混沌に飲まれ――")
  ShowMessage("残るのは、完全な「無」だけだ。")
  If(0,4,0)
   ShowMessageFace("alice_fc6",0,0,2,41)
   ShowMessage("【アリス】")
   ShowMessage("まさか、そこまでの事が……")
   0()
  EndIf()
  If(0,5,0)
   ShowMessageFace("iriasu_fc4",5,0,2,42)
   ShowMessage("【イリアス】")
   ShowMessage("そんな、まさか……")
   0()
  EndIf()
  ShowMessageFace("radio_fc1",0,0,2,43)
  ShowMessage("【ラディオ】")
  ShowMessage("アドラメレク、3階へと侵入……")
  ShowMessage("味方損耗率、90%以上……")
  ShowMessageFace("shirom_fc2",1,0,2,44)
  ShowMessage("【ラ・クロワ】")
  ShowMessage("反カオスフィールドを3階に集中、装置は使い潰して構わん。")
  ShowMessage("さて、話していられる時間はもうない……")
  ShowMessageFace("shirom_fc2",1,0,2,45)
  ShowMessage("【ラ・クロワ】")
  ShowMessage("お前達は、元の世界に戻れ……")
  ShowMessage("これを持ってな。")
  ShowMessageFace("",0,0,2,46)
  ShowMessage("ラ・クロワは、一冊のノートを渡してきた……")
  250(bytes(0x04,0x08,0x6f,0x3a,0x0c,0x52,0x50,0x47,0x3a,0x3a,0x53,0x45,0x08,0x3a,0x0a,0x40,0x6e,0x61,0x6d,0x65,0x49,0x22,0x0a,0x49,0x74,0x65,0x6d,0x31,0x06,0x3a,0x06,0x45,0x54,0x3a,0x0b,0x40,0x70,0x69,0x74,0x63,0x68,0x69,0x69,0x3a,0x0c,0x40,0x76,0x6f,0x6c,0x75,0x6d,0x65,0x69,0x55))
  ChangeInventory_Item(523,0,0,1)
  ShowMessageFace("shirom_fc2",1,0,2,47)
  ShowMessage("【ラ・クロワ】")
  ShowMessage("それは、私と同志達が戦い抜いた成果。")
  ShowMessage("観測や研究の結果が事細かに記されている……")
  ShowMessageFace("shirom_fc2",1,0,2,48)
  ShowMessage("【ラ・クロワ】")
  ShowMessage("見る者が見れば、事前に何らかの対策を取り得るかもしれん。")
  ShowMessage("そのノートを……お前の世界にいる私に渡せ。")
  If(4,41,0)
   ShowMessageFace("stein_fc2",0,0,2,49)
   ShowMessage("【プロメスティン】")
   ShowMessage("ちょっと失礼……")
   ShowMessageFace("stein_fc2",2,0,2,50)
   ShowMessage("【プロメスティン】")
   ShowMessage("……ダメです、私にはさっぱり……")
   ShowMessage("今の私の知識では、歯が立ちそうにありません……")
   0()
  EndIf()
  ShowMessageFace("shirom_fc2",1,0,2,51)
  ShowMessage("【ラ・クロワ】")
  ShowMessage("このノートを……私達の戦いを無駄にするな。")
  ShowMessage("希望は、お前達に託したぞ……")
  ShowMessageFace("ruka_fc1",0,0,2,52)
  ShowMessage("【ルカ】")
  ShowMessage("託すって……")
  ShowMessage("じゃあ、ラ・クロワさんは……！？")
  PictureMove(5,null,0,0,0,0,100,100,0,0,30,true)
  Wait(15)
  205(0,bytes(0x04,0x08,0x6f,0x3a,0x13,0x52,0x50,0x47,0x3a,0x3a,0x4d,0x6f,0x76,0x65,0x52,0x6f,0x75,0x74,0x65,0x09,0x3a,0x0c,0x40,0x72,0x65,0x70,0x65,0x61,0x74,0x46,0x3a,0x0f,0x40,0x73,0x6b,0x69,0x70,0x70,0x61,0x62,0x6c,0x65,0x46,0x3a,0x0a,0x40,0x77,0x61,0x69,0x74,0x54,0x3a,0x0a,0x40,0x6c,0x69,0x73,0x74,0x5b,0x0a,0x6f,0x3a,0x15,0x52,0x50,0x47,0x3a,0x3a,0x4d,0x6f,0x76,0x65,0x43,0x6f,0x6d,0x6d,0x61,0x6e,0x64,0x07,0x3a,0x0a,0x40,0x63,0x6f,0x64,0x65,0x69,0x2a,0x3a,0x10,0x40,0x70,0x61,0x72,0x61,0x6d,0x65,0x74,0x65,0x72,0x73,0x5b,0x00,0x6f,0x3b,0x0a,0x07,0x3b,0x0b,0x69,0x09,0x3b,0x0c,0x5b,0x00,0x6f,0x3b,0x0a,0x07,0x3b,0x0b,0x69,0x09,0x3b,0x0c,0x5b,0x00,0x6f,0x3b,0x0a,0x07,0x3b,0x0b,0x69,0x2b,0x3b,0x0c,0x5b,0x00,0x6f,0x3b,0x0a,0x07,0x3b,0x0b,0x69,0x00,0x3b,0x0c,0x5b,0x00))
  205(-1,bytes(0x04,0x08,0x6f,0x3a,0x13,0x52,0x50,0x47,0x3a,0x3a,0x4d,0x6f,0x76,0x65,0x52,0x6f,0x75,0x74,0x65,0x09,0x3a,0x0c,0x40,0x72,0x65,0x70,0x65,0x61,0x74,0x46,0x3a,0x0f,0x40,0x73,0x6b,0x69,0x70,0x70,0x61,0x62,0x6c,0x65,0x46,0x3a,0x0a,0x40,0x77,0x61,0x69,0x74,0x54,0x3a,0x0a,0x40,0x6c,0x69,0x73,0x74,0x5b,0x07,0x6f,0x3a,0x15,0x52,0x50,0x47,0x3a,0x3a,0x4d,0x6f,0x76,0x65,0x43,0x6f,0x6d,0x6d,0x61,0x6e,0x64,0x07,0x3a,0x0a,0x40,0x63,0x6f,0x64,0x65,0x69,0x18,0x3a,0x10,0x40,0x70,0x61,0x72,0x61,0x6d,0x65,0x74,0x65,0x72,0x73,0x5b,0x00,0x6f,0x3b,0x0a,0x07,0x3b,0x0b,0x69,0x00,0x3b,0x0c,0x5b,0x00))
  Wait(15)
  ChangeVariable(1032,1032,0,0,5)
  PictureMove(5,null,0,0,0,0,100,100,255,0,30,true)
  ShowMessageFace("shirom_fc2",1,0,2,53)
  ShowMessage("【ラ・クロワ】")
  ShowMessage("……最上位アポトーシスが、すぐ下の階まで来ている。")
  ShowMessage("私が脱出の時間を稼ごう。")
  ShowMessageFace("shirom_fc2",1,0,2,54)
  ShowMessage("【ラ・クロワ】")
  ShowMessage("この部屋の奥にある魔法陣で、1階にまで降りられる。")
  ShowMessage("後はそのままこの世界を脱出しろ。")
  ShowMessageFace("ruka_fc1",0,0,2,55)
  ShowMessage("【ルカ】")
  ShowMessage("そんな……")
  ShowMessage("この世界が滅びるなら、ラ・クロワさんも逃げないと！")
  If(4,529,0)
   ShowMessageFace("sara_fc1",4,0,2,56)
   ShowMessage("【サラ】")
   ShowMessage("一緒に避難しましょう！")
   ShowMessage("このままじゃ、あなたまで……！")
   0()
  EndIf()
  ShowMessageFace("shirom_fc2",1,0,2,57)
  ShowMessage("【ラ・クロワ】")
  ShowMessage("希望は……すでに託した。")
  ShowMessage("お前はそれを、お前の世界の私に届けろ。")
  ShowMessageFace("ruka_fc1",0,0,2,58)
  ShowMessage("【ルカ】")
  ShowMessage("ラ・クロワさんを置いていくなんて……！")
  ShowMessage("僕達も一緒に、最上位アポトーシスとやらと戦う！")
  ShowMessageFace("shirom_fc2",1,0,2,59)
  ShowMessage("【ラ・クロワ】")
  ShowMessage("……自分の世界も、この世界のようにしたいのか？")
  ShowMessage("お前達がここで潰えれば、全ては消え去る……")
  ShowMessageFace("shirom_fc2",1,0,2,60)
  ShowMessage("【ラ・クロワ】")
  ShowMessage("早く行け……")
  ShowMessage("そして、お前の世界を守れ。")
  If(0,4,0)
   ShowMessageFace("alice_fc5",2,0,2,61)
   ShowMessage("【アリス】")
   ShowMessage("ルカ、義務を果たすぞ……")
   ShowMessage("こいつはこいつの、我々は我々のな……")
   0()
  EndIf()
  If(0,5,0)
   ShowMessageFace("iriasu_fc4",7,0,2,62)
   ShowMessage("【イリアス】")
   ShowMessage("行きましょう、ルカ。")
   ShowMessage("託されたもの、なんとしても繋がねばなりません……")
   0()
  EndIf()
  If(4,134,0)
   ShowMessageFace("chrom_fc2",7,0,2,63)
   ShowMessage("【クロム】")
   ShowMessage("……………………")
   0()
  EndIf()
  PictureClear(5)
  241(bytes(0x04,0x08,0x6f,0x3a,0x0d,0x52,0x50,0x47,0x3a,0x3a,0x42,0x47,0x4d,0x08,0x3a,0x0a,0x40,0x6e,0x61,0x6d,0x65,0x49,0x22,0x12,0x64,0x75,0x6e,0x67,0x65,0x6f,0x6e,0x5f,0x6c,0x61,0x62,0x6f,0x31,0x06,0x3a,0x06,0x45,0x54,0x3a,0x0c,0x40,0x76,0x6f,0x6c,0x75,0x6d,0x65,0x69,0x69,0x3a,0x0b,0x40,0x70,0x69,0x74,0x63,0x68,0x69,0x69))
  0()
 PAGE   2
  // condition: variable 1032 >= 5
  0()



EVENT   11
 PAGE   1
  PictureDisplay(5,"80_cirque_st51",0,0,0,0,100,100,0,0)
  PictureMove(5,null,0,0,0,0,100,100,255,0,30,true)
  ShowMessageFace("cirque_fc6",0,0,2,1)
  ShowMessage("【クィーンスキュラ】")
  ShowMessage("……………………")
  ShowMessageFace("",0,0,2,2)
  ShowMessage("返事はない。")
  ShowMessage("完全に活動を停止しているようだ……")
  If(1,1032,0,5,0)
   ShowMessageFace("shirom_fc2",1,0,2,3)
   ShowMessage("【ラ・クロワ】")
   ShowMessage("アポトーシスとの度重なる激戦で、肉体に限界が来たのだ。")
   ShowMessage("かなり酷使したからな……")
   0()
  EndIf()
  PictureClear(5)
  EndEventProcessing()
  0()



EVENT   8
 PAGE   1
  PictureDisplay(5,"80_cirque_st23",0,0,0,0,100,100,0,0)
  PictureMove(5,null,0,0,0,0,100,100,255,0,30,true)
  ShowMessageFace("cirque_fc3",2,0,2,1)
  ShowMessage("【ロザ】")
  ShowMessage("……………………")
  ShowMessageFace("",0,0,2,2)
  ShowMessage("返事はない。")
  ShowMessage("完全に活動を停止しているようだ……")
  If(1,1032,0,5,0)
   ShowMessageFace("shirom_fc2",1,0,2,3)
   ShowMessage("【ラ・クロワ】")
   ShowMessage("アポトーシスとの度重なる激戦で、肉体に限界が来たのだ。")
   ShowMessage("かなり酷使したからな……")
   0()
  EndIf()
  PictureClear(5)
  EndEventProcessing()
  0()



EVENT   9
 PAGE   1
  PictureDisplay(5,"80_cirque_st33",0,0,0,0,100,100,0,0)
  PictureMove(5,null,0,0,0,0,100,100,255,0,30,true)
  ShowMessageFace("cirque_fc4",2,0,2,1)
  ShowMessage("【クィーンラミア】")
  ShowMessage("……………………")
  ShowMessageFace("",0,0,2,2)
  ShowMessage("返事はない。")
  ShowMessage("完全に活動を停止しているようだ……")
  If(1,1032,0,5,0)
   ShowMessageFace("shirom_fc2",1,0,2,3)
   ShowMessage("【ラ・クロワ】")
   ShowMessage("アポトーシスとの度重なる激戦で、肉体に限界が来たのだ。")
   ShowMessage("かなり酷使したからな……")
   0()
  EndIf()
  PictureClear(5)
  EndEventProcessing()
  0()



EVENT   7
 PAGE   1
  // condition: switch 31 is ON
  0()



EVENT   10
 PAGE   1
  // condition: switch 31 is ON
  0()



EVENT   12
 PAGE   1
  // condition: switch 31 is ON
  0()



EVENT   5
 PAGE   1
  PictureDisplay(5,"80_radio_st01",0,0,0,0,100,100,0,0)
  PictureMove(5,null,0,0,0,0,100,100,255,0,30,true)
  If(1,1032,0,4,0)
   ShowMessageFace("radio_fc1",0,0,2,1)
   ShowMessage("【ラディオ】")
   ShowMessage("どうぞ、マスターとオ話を……")
   0()
  EndIf()
  If(1,1032,0,5,0)
   ShowMessageFace("radio_fc1",0,0,2,2)
   ShowMessage("【ラディオ】")
   ShowMessage("……………………")
   0()
  EndIf()
  PictureClear(5)
  0()



EVENT   2
 PAGE   1
  If(12,"unlock_level < 1")
   ShowMessageFace("",0,0,2,1)
   ShowMessage("宝箱には鍵が掛かっている……")
   EndEventProcessing()
   0()
  EndIf()
  250(bytes(0x04,0x08,0x6f,0x3a,0x0c,0x52,0x50,0x47,0x3a,0x3a,0x53,0x45,0x08,0x3a,0x0a,0x40,0x6e,0x61,0x6d,0x65,0x49,0x22,0x0a,0x43,0x68,0x65,0x73,0x74,0x06,0x3a,0x06,0x45,0x54,0x3a,0x0b,0x40,0x70,0x69,0x74,0x63,0x68,0x69,0x69,0x3a,0x0c,0x40,0x76,0x6f,0x6c,0x75,0x6d,0x65,0x69,0x55))
  205(0,bytes(0x04,0x08,0x6f,0x3a,0x13,0x52,0x50,0x47,0x3a,0x3a,0x4d,0x6f,0x76,0x65,0x52,0x6f,0x75,0x74,0x65,0x09,0x3a,0x0c,0x40,0x72,0x65,0x70,0x65,0x61,0x74,0x46,0x3a,0x0f,0x40,0x73,0x6b,0x69,0x70,0x70,0x61,0x62,0x6c,0x65,0x46,0x3a,0x0a,0x40,0x77,0x61,0x69,0x74,0x54,0x3a,0x0a,0x40,0x6c,0x69,0x73,0x74,0x5b,0x0b,0x6f,0x3a,0x15,0x52,0x50,0x47,0x3a,0x3a,0x4d,0x6f,0x76,0x65,0x43,0x6f,0x6d,0x6d,0x61,0x6e,0x64,0x07,0x3a,0x0a,0x40,0x63,0x6f,0x64,0x65,0x69,0x29,0x3a,0x10,0x40,0x70,0x61,0x72,0x61,0x6d,0x65,0x74,0x65,0x72,0x73,0x5b,0x00,0x6f,0x3b,0x0a,0x07,0x3b,0x0b,0x69,0x16,0x3b,0x0c,0x5b,0x00,0x6f,0x3b,0x0a,0x07,0x3b,0x0b,0x69,0x14,0x3b,0x0c,0x5b,0x06,0x69,0x08,0x6f,0x3b,0x0a,0x07,0x3b,0x0b,0x69,0x17,0x3b,0x0c,0x5b,0x00,0x6f,0x3b,0x0a,0x07,0x3b,0x0b,0x69,0x14,0x3b,0x0c,0x5b,0x06,0x69,0x08,0x6f,0x3b,0x0a,0x07,0x3b,0x0b,0x69,0x00,0x3b,0x0c,0x5b,0x00))
  ChangeSelfSwitch("A",0)
  ChangeInventory_Item(713,0,0,1)
  0()
 PAGE   2
  // condition: self-switch A is ON
  0()



EVENT   4
 PAGE   1
  0()
 PAGE   2
  // condition: variable 1032 >= 4
  0()



EVENT   13
 PAGE   1
  PictureDisplay(5,"80_radio_st01",0,0,0,0,100,100,0,0)
  PictureMove(5,null,0,0,0,0,100,100,255,0,30,true)
  ChangeSwitch(94,94,0)
  ChangeSaveEnabled(0)
  ShowMessageFace("radio_fc1",0,0,2,1)
  ShowMessage("【ラディオ】")
  ShowMessage("最上位アポトーシス、アドラメレク……")
  ShowMessage("この塔に急速接近中……")
  ShowMessageFace("radio_fc1",0,0,2,2)
  ShowMessage("【ラディオ】")
  ShowMessage("早く、マスターに会って下サイ……")
  PictureClear(5)
  205(4,bytes(0x04,0x08,0x6f,0x3a,0x13,0x52,0x50,0x47,0x3a,0x3a,0x4d,0x6f,0x76,0x65,0x52,0x6f,0x75,0x74,0x65,0x09,0x3a,0x0c,0x40,0x72,0x65,0x70,0x65,0x61,0x74,0x46,0x3a,0x0f,0x40,0x73,0x6b,0x69,0x70,0x70,0x61,0x62,0x6c,0x65,0x46,0x3a,0x0a,0x40,0x77,0x61,0x69,0x74,0x54,0x3a,0x0a,0x40,0x6c,0x69,0x73,0x74,0x5b,0x0e,0x6f,0x3a,0x15,0x52,0x50,0x47,0x3a,0x3a,0x4d,0x6f,0x76,0x65,0x43,0x6f,0x6d,0x6d,0x61,0x6e,0x64,0x07,0x3a,0x0a,0x40,0x63,0x6f,0x64,0x65,0x69,0x06,0x3a,0x10,0x40,0x70,0x61,0x72,0x61,0x6d,0x65,0x74,0x65,0x72,0x73,0x5b,0x00,0x6f,0x3b,0x0a,0x07,0x3b,0x0b,0x69,0x06,0x3b,0x0c,0x5b,0x00,0x6f,0x3b,0x0a,0x07,0x3b,0x0b,0x69,0x06,0x3b,0x0c,0x5b,0x00,0x6f,0x3b,0x0a,0x07,0x3b,0x0b,0x69,0x06,0x3b,0x0c,0x5b,0x00,0x6f,0x3b,0x0a,0x07,0x3b,0x0b,0x69,0x06,0x3b,0x0c,0x5b,0x00,0x6f,0x3b,0x0a,0x07,0x3b,0x0b,0x69,0x06,0x3b,0x0c,0x5b,0x00,0x6f,0x3b,0x0a,0x07,0x3b,0x0b,0x69,0x06,0x3b,0x0c,0x5b,0x00,0x6f,0x3b,0x0a,0x07,0x3b,0x0b,0x69,0x06,0x3b,0x0c,0x5b,0x00,0x6f,0x3b,0x0a,0x07,0x3b,0x0b,0x69,0x00,0x3b,0x0c,0x5b,0x00))
  ChangeVariable(1032,1032,0,0,4)
  0()
 PAGE   2
  // condition: variable 1032 >= 4
  0()



EVENT   14
 PAGE   1
  // condition: variable 1032 >= 5
  217()
  ShowMessageFace("",0,0,2,1)
  ShowMessage("ここから脱出しますか？")
  ShowChoices(strings("はい","いいえ"),2)
  IfPlayerPicksChoice(0,null)
   ScrollMap(8,5,4)
   Wait(60)
   205(18,bytes(0x04,0x08,0x6f,0x3a,0x13,0x52,0x50,0x47,0x3a,0x3a,0x4d,0x6f,0x76,0x65,0x52,0x6f,0x75,0x74,0x65,0x09,0x3a,0x0c,0x40,0x72,0x65,0x70,0x65,0x61,0x74,0x46,0x3a,0x0f,0x40,0x73,0x6b,0x69,0x70,0x70,0x61,0x62,0x6c,0x65,0x46,0x3a,0x0a,0x40,0x77,0x61,0x69,0x74,0x54,0x3a,0x0a,0x40,0x6c,0x69,0x73,0x74,0x5b,0x07,0x6f,0x3a,0x15,0x52,0x50,0x47,0x3a,0x3a,0x4d,0x6f,0x76,0x65,0x43,0x6f,0x6d,0x6d,0x61,0x6e,0x64,0x07,0x3a,0x0a,0x40,0x63,0x6f,0x64,0x65,0x69,0x15,0x3a,0x10,0x40,0x70,0x61,0x72,0x61,0x6d,0x65,0x74,0x65,0x72,0x73,0x5b,0x00,0x6f,0x3b,0x0a,0x07,0x3b,0x0b,0x69,0x00,0x3b,0x0c,0x5b,0x00))
   205(-1,bytes(0x04,0x08,0x6f,0x3a,0x13,0x52,0x50,0x47,0x3a,0x3a,0x4d,0x6f,0x76,0x65,0x52,0x6f,0x75,0x74,0x65,0x09,0x3a,0x0c,0x40,0x72,0x65,0x70,0x65,0x61,0x74,0x46,0x3a,0x0f,0x40,0x73,0x6b,0x69,0x70,0x70,0x61,0x62,0x6c,0x65,0x46,0x3a,0x0a,0x40,0x77,0x61,0x69,0x74,0x54,0x3a,0x0a,0x40,0x6c,0x69,0x73,0x74,0x5b,0x07,0x6f,0x3a,0x15,0x52,0x50,0x47,0x3a,0x3a,0x4d,0x6f,0x76,0x65,0x43,0x6f,0x6d,0x6d,0x61,0x6e,0x64,0x07,0x3a,0x0a,0x40,0x63,0x6f,0x64,0x65,0x69,0x18,0x3a,0x10,0x40,0x70,0x61,0x72,0x61,0x6d,0x65,0x74,0x65,0x72,0x73,0x5b,0x00,0x6f,0x3b,0x0a,0x07,0x3b,0x0b,0x69,0x00,0x3b,0x0c,0x5b,0x00))
   ShowMessageFace("shirom_fc2",1,0,2,2)
   ShowMessage("【ラ・クロワ】")
   ShowMessage("最後にもう一つ、お前達に頼み事がある……")
   ShowMessage("ラディオの事だ。")
   ShowMessageFace("radio_fc1",0,0,2,3)
   ShowMessage("【ラディオ】")
   ShowMessage("……………………")
   ShowMessageFace("shirom_fc2",1,0,2,4)
   ShowMessage("【ラ・クロワ】")
   ShowMessage("こいつは、私の恩ある同志が作った初期型だ。")
   ShowMessage("性能はそう高くないが……ここで壊すには忍びない。")
   ShowMessageFace("shirom_fc2",1,0,2,5)
   ShowMessage("【ラ・クロワ】")
   ShowMessage("こいつを連れていってはもらえないか？")
   ShowChoices(strings("はい","いいえ"),0)
   IfPlayerPicksChoice(0,null)
    ShowMessageFace("shirom_fc2",1,0,2,6)
    ShowMessage("【ラ・クロワ】")
    ShowMessage("そうか、感謝する……")
    ShowMessage("ラディオ、マスター権限の移譲だ。")
    0()
   IfPlayerPicksChoice(1,null)
    ShowMessageFace("shirom_fc2",1,0,2,7)
    ShowMessage("【ラ・クロワ】")
    ShowMessage("そう言われても、押し通すぞ……")
    ShowMessage("ラディオ、マスター権限の移譲だ。")
    0()
   404()
   ShowMessageFace("radio_fc1",0,0,2,8)
   ShowMessage("【ラディオ】")
   ShowMessage("了解しマシた……")
   ShowMessage("ルカを新たなマスターに設定しマシた……")
   PictureClear(5)
   205(5,bytes(0x04,0x08,0x6f,0x3a,0x13,0x52,0x50,0x47,0x3a,0x3a,0x4d,0x6f,0x76,0x65,0x52,0x6f,0x75,0x74,0x65,0x09,0x3a,0x0c,0x40,0x72,0x65,0x70,0x65,0x61,0x74,0x46,0x3a,0x0f,0x40,0x73,0x6b,0x69,0x70,0x70,0x61,0x62,0x6c,0x65,0x46,0x3a,0x0a,0x40,0x77,0x61,0x69,0x74,0x54,0x3a,0x0a,0x40,0x6c,0x69,0x73,0x74,0x5b,0x0e,0x6f,0x3a,0x15,0x52,0x50,0x47,0x3a,0x3a,0x4d,0x6f,0x76,0x65,0x43,0x6f,0x6d,0x6d,0x61,0x6e,0x64,0x07,0x3a,0x0a,0x40,0x63,0x6f,0x64,0x65,0x69,0x2a,0x3a,0x10,0x40,0x70,0x61,0x72,0x61,0x6d,0x65,0x74,0x65,0x72,0x73,0x5b,0x00,0x6f,0x3b,0x0a,0x07,0x3b,0x0b,0x69,0x13,0x3b,0x0c,0x5b,0x07,0x69,0x00,0x69,0x09,0x6f,0x3b,0x0a,0x07,0x3b,0x0b,0x69,0x08,0x3b,0x0c,0x5b,0x00,0x6f,0x3b,0x0a,0x07,0x3b,0x0b,0x69,0x08,0x3b,0x0c,0x5b,0x00,0x6f,0x3b,0x0a,0x07,0x3b,0x0b,0x69,0x06,0x3b,0x0c,0x5b,0x00,0x6f,0x3b,0x0a,0x07,0x3b,0x0b,0x69,0x06,0x3b,0x0c,0x5b,0x00,0x6f,0x3b,0x0a,0x07,0x3b,0x0b,0x69,0x06,0x3b,0x0c,0x5b,0x00,0x6f,0x3b,0x0a,0x07,0x3b,0x0b,0x69,0x06,0x3b,0x0c,0x5b,0x00,0x6f,0x3b,0x0a,0x07,0x3b,0x0b,0x69,0x00,0x3b,0x0c,0x5b,0x00))
   ShowMessageFace("radio_fc1",0,0,2,9)
   ShowMessage("【ラディオ】")
   ShowMessage("よろしくお願いしマス、ますター……")
   205(5,bytes(0x04,0x08,0x6f,0x3a,0x13,0x52,0x50,0x47,0x3a,0x3a,0x4d,0x6f,0x76,0x65,0x52,0x6f,0x75,0x74,0x65,0x09,0x3a,0x0c,0x40,0x72,0x65,0x70,0x65,0x61,0x74,0x46,0x3a,0x0f,0x40,0x73,0x6b,0x69,0x70,0x70,0x61,0x62,0x6c,0x65,0x46,0x3a,0x0a,0x40,0x77,0x61,0x69,0x74,0x54,0x3a,0x0a,0x40,0x6c,0x69,0x73,0x74,0x5b,0x09,0x6f,0x3a,0x15,0x52,0x50,0x47,0x3a,0x3a,0x4d,0x6f,0x76,0x65,0x43,0x6f,0x6d,0x6d,0x61,0x6e,0x64,0x07,0x3a,0x0a,0x40,0x63,0x6f,0x64,0x65,0x69,0x2a,0x3a,0x10,0x40,0x70,0x61,0x72,0x61,0x6d,0x65,0x74,0x65,0x72,0x73,0x5b,0x00,0x6f,0x3b,0x0a,0x07,0x3b,0x0b,0x69,0x06,0x3b,0x0c,0x5b,0x00,0x6f,0x3b,0x0a,0x07,0x3b,0x0b,0x69,0x2c,0x3b,0x0c,0x5b,0x00,0x6f,0x3b,0x0a,0x07,0x3b,0x0b,0x69,0x00,0x3b,0x0c,0x5b,0x00))
   355("add_actor_ex(185)")
   249(bytes(0x04,0x08,0x6f,0x3a,0x0c,0x52,0x50,0x47,0x3a,0x3a,0x4d,0x45,0x08,0x3a,0x0a,0x40,0x6e,0x61,0x6d,0x65,0x49,0x22,0x0c,0x66,0x61,0x6e,0x66,0x61,0x6c,0x65,0x06,0x3a,0x06,0x45,0x54,0x3a,0x0b,0x40,0x70,0x69,0x74,0x63,0x68,0x69,0x69,0x3a,0x0c,0x40,0x76,0x6f,0x6c,0x75,0x6d,0x65,0x69,0x69))
   ShowMessageFace("",0,0,2,10)
   ShowMessage("ラディオが仲間に加わった！")
   Wait(60)
   ShowMessageFace("shirom_fc2",1,0,2,11)
   ShowMessage("【ラ・クロワ】")
   ShowMessage("……さあ、それでは行け。")
   If(0,6,0)
    ShowMessageFace("sonia_fc2",2,0,2,12)
    ShowMessage("【ソニア】")
    ShowMessage("ありがとうございました、ラ・クロワさん……！")
    0()
   EndIf()
   If(0,4,0)
    ShowMessageFace("alice_fc5",2,0,2,13)
    ShowMessage("【アリス】")
    ShowMessage("感謝する、ラ・クロワ。")
    ShowMessage("こちらの事は、我々に任せるがいい。")
    0()
   EndIf()
   If(0,5,0)
    ShowMessageFace("iriasu_fc4",7,0,2,14)
    ShowMessage("【イリアス】")
    ShowMessage("ラ・クロワ、あなたの働きに賛辞を贈ります。")
    ShowMessage("我々が確かに世界を救いましょう。")
    0()
   EndIf()
   ShowMessageFace("ruka_fc1",0,0,2,15)
   ShowMessage("【ルカ】")
   ShowMessage("このノート……いや、この世界の人達が繋いだ希望！")
   ShowMessage("確かに預かりました！")
   If(4,134,0)
    ShowMessageFace("chrom_fc2",7,0,2,16)
    ShowMessage("【クロム】")
    ShowMessage("お、お姉ちゃん……")
    ShowMessageFace("chrom_fc2",7,0,2,17)
    ShowMessage("【クロム】")
    ShowMessage("……………………")
    ShowMessageFace("chrom_fc2",1,0,2,18)
    ShowMessage("【クロム】")
    ShowMessage("儂は栄光あるアルテイスト家の末娘、クロム！")
    ShowMessage("全て儂に任せるのじゃ！")
    0()
   EndIf()
   PictureClear(5)
   205(-1,bytes(0x04,0x08,0x6f,0x3a,0x13,0x52,0x50,0x47,0x3a,0x3a,0x4d,0x6f,0x76,0x65,0x52,0x6f,0x75,0x74,0x65,0x09,0x3a,0x0c,0x40,0x72,0x65,0x70,0x65,0x61,0x74,0x46,0x3a,0x0f,0x40,0x73,0x6b,0x69,0x70,0x70,0x61,0x62,0x6c,0x65,0x46,0x3a,0x0a,0x40,0x77,0x61,0x69,0x74,0x54,0x3a,0x0a,0x40,0x6c,0x69,0x73,0x74,0x5b,0x07,0x6f,0x3a,0x15,0x52,0x50,0x47,0x3a,0x3a,0x4d,0x6f,0x76,0x65,0x43,0x6f,0x6d,0x6d,0x61,0x6e,0x64,0x07,0x3a,0x0a,0x40,0x63,0x6f,0x64,0x65,0x69,0x15,0x3a,0x10,0x40,0x70,0x61,0x72,0x61,0x6d,0x65,0x74,0x65,0x72,0x73,0x5b,0x00,0x6f,0x3b,0x0a,0x07,0x3b,0x0b,0x69,0x00,0x3b,0x0c,0x5b,0x00))
   250(bytes(0x04,0x08,0x6f,0x3a,0x0c,0x52,0x50,0x47,0x3a,0x3a,0x53,0x45,0x08,0x3a,0x0a,0x40,0x6e,0x61,0x6d,0x65,0x49,0x22,0x0b,0x4d,0x61,0x67,0x69,0x63,0x32,0x06,0x3a,0x06,0x45,0x54,0x3a,0x0b,0x40,0x70,0x69,0x74,0x63,0x68,0x69,0x69,0x3a,0x0c,0x40,0x76,0x6f,0x6c,0x75,0x6d,0x65,0x69,0x55))
   PictureDisplay(1,"sys_white",0,0,0,0,100,100,0,0)
   PictureMove(1,null,0,0,0,0,100,100,255,0,30,true)
   211(0)
   PictureMove(1,null,0,0,0,0,100,100,0,0,30,true)
   PictureClear(1)
   Wait(60)
   ShowMessageFace("shirom_fc2",1,0,2,19)
   ShowMessage("【ラ・クロワ】")
   ShowMessage("頼むぞ……")
   ShowMessage("世界を、救え……")
   If(4,134,0)
    ShowMessageFace("shirom_fc2",1,0,2,20)
    ShowMessage("【ラ・クロワ】")
    ShowMessage("……………………")
    ShowMessageFace("shirom_fc2",1,0,2,21)
    ShowMessage("【ラ・クロワ】")
    ShowMessage("つくづく、私には過ぎた花道だな。")
    ShowMessage("まさか最後の最後に、クロムの姿が見られるとは……")
    0()
   EndIf()
   ScrollMap(8,4,4)
   205(18,bytes(0x04,0x08,0x6f,0x3a,0x13,0x52,0x50,0x47,0x3a,0x3a,0x4d,0x6f,0x76,0x65,0x52,0x6f,0x75,0x74,0x65,0x09,0x3a,0x0c,0x40,0x72,0x65,0x70,0x65,0x61,0x74,0x46,0x3a,0x0f,0x40,0x73,0x6b,0x69,0x70,0x70,0x61,0x62,0x6c,0x65,0x46,0x3a,0x0a,0x40,0x77,0x61,0x69,0x74,0x54,0x3a,0x0a,0x40,0x6c,0x69,0x73,0x74,0x5b,0x07,0x6f,0x3a,0x15,0x52,0x50,0x47,0x3a,0x3a,0x4d,0x6f,0x76,0x65,0x43,0x6f,0x6d,0x6d,0x61,0x6e,0x64,0x07,0x3a,0x0a,0x40,0x63,0x6f,0x64,0x65,0x69,0x18,0x3a,0x10,0x40,0x70,0x61,0x72,0x61,0x6d,0x65,0x74,0x65,0x72,0x73,0x5b,0x00,0x6f,0x3b,0x0a,0x07,0x3b,0x0b,0x69,0x00,0x3b,0x0c,0x5b,0x00))
   ShowMessageFace("shirom_fc2",1,0,2,22)
   ShowMessage("【ラ・クロワ】")
   ShowMessage("……シルク・ドゥ・クロワ！")
   ShowMessage("さあ、最後のステージだ！")
   250(bytes(0x04,0x08,0x6f,0x3a,0x0c,0x52,0x50,0x47,0x3a,0x3a,0x53,0x45,0x08,0x3a,0x0a,0x40,0x6e,0x61,0x6d,0x65,0x49,0x22,0x0e,0x6d,0x6f,0x6e,0x5f,0x64,0x6f,0x6f,0x72,0x31,0x06,0x3a,0x06,0x45,0x54,0x3a,0x0b,0x40,0x70,0x69,0x74,0x63,0x68,0x69,0x69,0x3a,0x0c,0x40,0x76,0x6f,0x6c,0x75,0x6d,0x65,0x69,0x69))
   ChangeSwitch(31,31,0)
   Wait(15)
   205(7,bytes(0x04,0x08,0x6f,0x3a,0x13,0x52,0x50,0x47,0x3a,0x3a,0x4d,0x6f,0x76,0x65,0x52,0x6f,0x75,0x74,0x65,0x09,0x3a,0x0c,0x40,0x72,0x65,0x70,0x65,0x61,0x74,0x46,0x3a,0x0f,0x40,0x73,0x6b,0x69,0x70,0x70,0x61,0x62,0x6c,0x65,0x46,0x3a,0x0a,0x40,0x77,0x61,0x69,0x74,0x46,0x3a,0x0a,0x40,0x6c,0x69,0x73,0x74,0x5b,0x0a,0x6f,0x3a,0x15,0x52,0x50,0x47,0x3a,0x3a,0x4d,0x6f,0x76,0x65,0x43,0x6f,0x6d,0x6d,0x61,0x6e,0x64,0x07,0x3a,0x0a,0x40,0x63,0x6f,0x64,0x65,0x69,0x2a,0x3a,0x10,0x40,0x70,0x61,0x72,0x61,0x6d,0x65,0x74,0x65,0x72,0x73,0x5b,0x00,0x6f,0x3b,0x0a,0x07,0x3b,0x0b,0x69,0x08,0x3b,0x0c,0x5b,0x00,0x6f,0x3b,0x0a,0x07,0x3b,0x0b,0x69,0x08,0x3b,0x0c,0x5b,0x00,0x6f,0x3b,0x0a,0x07,0x3b,0x0b,0x69,0x09,0x3b,0x0c,0x5b,0x00,0x6f,0x3b,0x0a,0x07,0x3b,0x0b,0x69,0x00,0x3b,0x0c,0x5b,0x00))
   205(10,bytes(0x04,0x08,0x6f,0x3a,0x13,0x52,0x50,0x47,0x3a,0x3a,0x4d,0x6f,0x76,0x65,0x52,0x6f,0x75,0x74,0x65,0x09,0x3a,0x0c,0x40,0x72,0x65,0x70,0x65,0x61,0x74,0x46,0x3a,0x0f,0x40,0x73,0x6b,0x69,0x70,0x70,0x61,0x62,0x6c,0x65,0x46,0x3a,0x0a,0x40,0x77,0x61,0x69,0x74,0x46,0x3a,0x0a,0x40,0x6c,0x69,0x73,0x74,0x5b,0x0b,0x6f,0x3a,0x15,0x52,0x50,0x47,0x3a,0x3a,0x4d,0x6f,0x76,0x65,0x43,0x6f,0x6d,0x6d,0x61,0x6e,0x64,0x07,0x3a,0x0a,0x40,0x63,0x6f,0x64,0x65,0x69,0x2a,0x3a,0x10,0x40,0x70,0x61,0x72,0x61,0x6d,0x65,0x74,0x65,0x72,0x73,0x5b,0x00,0x6f,0x3b,0x0a,0x07,0x3b,0x0b,0x69,0x07,0x3b,0x0c,0x5b,0x00,0x6f,0x3b,0x0a,0x07,0x3b,0x0b,0x69,0x07,0x3b,0x0c,0x5b,0x00,0x6f,0x3b,0x0a,0x07,0x3b,0x0b,0x69,0x07,0x3b,0x0c,0x5b,0x00,0x6f,0x3b,0x0a,0x07,0x3b,0x0b,0x69,0x18,0x3b,0x0c,0x5b,0x00,0x6f,0x3b,0x0a,0x07,0x3b,0x0b,0x69,0x00,0x3b,0x0c,0x5b,0x00))
   205(12,bytes(0x04,0x08,0x6f,0x3a,0x13,0x52,0x50,0x47,0x3a,0x3a,0x4d,0x6f,0x76,0x65,0x52,0x6f,0x75,0x74,0x65,0x09,0x3a,0x0c,0x40,0x72,0x65,0x70,0x65,0x61,0x74,0x46,0x3a,0x0f,0x40,0x73,0x6b,0x69,0x70,0x70,0x61,0x62,0x6c,0x65,0x46,0x3a,0x0a,0x40,0x77,0x61,0x69,0x74,0x54,0x3a,0x0a,0x40,0x6c,0x69,0x73,0x74,0x5b,0x0a,0x6f,0x3a,0x15,0x52,0x50,0x47,0x3a,0x3a,0x4d,0x6f,0x76,0x65,0x43,0x6f,0x6d,0x6d,0x61,0x6e,0x64,0x07,0x3a,0x0a,0x40,0x63,0x6f,0x64,0x65,0x69,0x2a,0x3a,0x10,0x40,0x70,0x61,0x72,0x61,0x6d,0x65,0x74,0x65,0x72,0x73,0x5b,0x00,0x6f,0x3b,0x0a,0x07,0x3b,0x0b,0x69,0x07,0x3b,0x0c,0x5b,0x00,0x6f,0x3b,0x0a,0x07,0x3b,0x0b,0x69,0x07,0x3b,0x0c,0x5b,0x00,0x6f,0x3b,0x0a,0x07,0x3b,0x0b,0x69,0x09,0x3b,0x0c,0x5b,0x00,0x6f,0x3b,0x0a,0x07,0x3b,0x0b,0x69,0x00,0x3b,0x0c,0x5b,0x00))
   241(bytes(0x04,0x08,0x6f,0x3a,0x0d,0x52,0x50,0x47,0x3a,0x3a,0x42,0x47,0x4d,0x08,0x3a,0x0a,0x40,0x6e,0x61,0x6d,0x65,0x49,0x22,0x0c,0x62,0x6f,0x73,0x73,0x30,0x2d,0x33,0x06,0x3a,0x06,0x45,0x54,0x3a,0x0c,0x40,0x76,0x6f,0x6c,0x75,0x6d,0x65,0x69,0x69,0x3a,0x0b,0x40,0x70,0x69,0x74,0x63,0x68,0x69,0x69))
   Wait(60)
   205(15,bytes(0x04,0x08,0x6f,0x3a,0x13,0x52,0x50,0x47,0x3a,0x3a,0x4d,0x6f,0x76,0x65,0x52,0x6f,0x75,0x74,0x65,0x09,0x3a,0x0c,0x40,0x72,0x65,0x70,0x65,0x61,0x74,0x46,0x3a,0x0f,0x40,0x73,0x6b,0x69,0x70,0x70,0x61,0x62,0x6c,0x65,0x46,0x3a,0x0a,0x40,0x77,0x61,0x69,0x74,0x54,0x3a,0x0a,0x40,0x6c,0x69,0x73,0x74,0x5b,0x0b,0x6f,0x3a,0x15,0x52,0x50,0x47,0x3a,0x3a,0x4d,0x6f,0x76,0x65,0x43,0x6f,0x6d,0x6d,0x61,0x6e,0x64,0x07,0x3a,0x0a,0x40,0x63,0x6f,0x64,0x65,0x69,0x2a,0x3a,0x10,0x40,0x70,0x61,0x72,0x61,0x6d,0x65,0x74,0x65,0x72,0x73,0x5b,0x00,0x6f,0x3b,0x0a,0x07,0x3b,0x0b,0x69,0x06,0x3b,0x0c,0x5b,0x00,0x6f,0x3b,0x0a,0x07,0x3b,0x0b,0x69,0x06,0x3b,0x0c,0x5b,0x00,0x6f,0x3b,0x0a,0x07,0x3b,0x0b,0x69,0x06,0x3b,0x0c,0x5b,0x00,0x6f,0x3b,0x0a,0x07,0x3b,0x0b,0x69,0x06,0x3b,0x0c,0x5b,0x00,0x6f,0x3b,0x0a,0x07,0x3b,0x0b,0x69,0x00,0x3b,0x0c,0x5b,0x00))
   Wait(30)
   PictureDisplay(5,"80_adramelek_st01",0,0,0,0,100,100,0,0)
   PictureMove(5,null,0,0,0,0,100,100,255,0,30,true)
   ShowMessageFace("adramelek_fc0",0,0,2,23)
   ShowMessage("【アドラメレク】")
   ShowMessage("第二種断界接触――ただちに消去する。")
   ShowMessageFace("shirom_fc2",1,0,2,24)
   ShowMessage("【ラ・クロワ】")
   ShowMessage("観客もいない、最後の舞台……")
   ShowMessage("だが、思う存分に舞わせてもらおう！")
   Wait(30)
   221()
   242(2)
   PictureClear(5)
   ChangeSwitch(31,31,1)
   211(1)
   Wait(180)
   TeleportPlayer(0,619,36,20,8,2)
   241(bytes(0x04,0x08,0x6f,0x3a,0x0d,0x52,0x50,0x47,0x3a,0x3a,0x42,0x47,0x4d,0x08,0x3a,0x0a,0x40,0x6e,0x61,0x6d,0x65,0x49,0x22,0x16,0x64,0x75,0x6e,0x67,0x65,0x6f,0x6e,0x5f,0x74,0x61,0x72,0x75,0x74,0x61,0x72,0x6f,0x31,0x06,0x3a,0x06,0x45,0x54,0x3a,0x0c,0x40,0x76,0x6f,0x6c,0x75,0x6d,0x65,0x69,0x69,0x3a,0x0b,0x40,0x70,0x69,0x74,0x63,0x68,0x69,0x69))
   222()
   If(0,4,0)
    ShowMessageFace("alice_fc6",0,0,2,25)
    ShowMessage("【アリス】")
    ShowMessage("ここまで空間が浸食されて……！")
    ShowMessage("これも、あのアドラメレクとやらの力だというのか！")
    0()
   EndIf()
   If(0,5,0)
    ShowMessageFace("iriasu_fc4",5,0,2,26)
    ShowMessage("【イリアス】")
    ShowMessage("ここまで空間が浸食されている……！")
    ShowMessage("これが、最上位アポトーシスの力だというのですか！？")
    0()
   EndIf()
   ShowMessageFace("radio_fc1",0,0,2,27)
   ShowMessage("【ラディオ】")
   ShowMessage("前マスターとアドラメレクの戦闘が開始されマシた……")
   ShowMessageFace("ruka_fc1",0,0,2,28)
   ShowMessage("【ルカ】")
   ShowMessage("急いで脱出しよう！")
   ShowMessage("ラ・クロワさん達の願い、無駄にしちゃいけない！")
   EndEventProcessing()
   0()
  IfPlayerPicksChoice(1,null)
   205(-1,bytes(0x04,0x08,0x6f,0x3a,0x13,0x52,0x50,0x47,0x3a,0x3a,0x4d,0x6f,0x76,0x65,0x52,0x6f,0x75,0x74,0x65,0x09,0x3a,0x0c,0x40,0x72,0x65,0x70,0x65,0x61,0x74,0x46,0x3a,0x0f,0x40,0x73,0x6b,0x69,0x70,0x70,0x61,0x62,0x6c,0x65,0x46,0x3a,0x0a,0x40,0x77,0x61,0x69,0x74,0x54,0x3a,0x0a,0x40,0x6c,0x69,0x73,0x74,0x5b,0x07,0x6f,0x3a,0x15,0x52,0x50,0x47,0x3a,0x3a,0x4d,0x6f,0x76,0x65,0x43,0x6f,0x6d,0x6d,0x61,0x6e,0x64,0x07,0x3a,0x0a,0x40,0x63,0x6f,0x64,0x65,0x69,0x09,0x3a,0x10,0x40,0x70,0x61,0x72,0x61,0x6d,0x65,0x74,0x65,0x72,0x73,0x5b,0x00,0x6f,0x3b,0x0a,0x07,0x3b,0x0b,0x69,0x00,0x3b,0x0c,0x5b,0x00))
   EndEventProcessing()
   0()
  404()
  0()



EVENT   15
 PAGE   1
  // condition: switch 31 is ON
  0()



EVENT   16
 PAGE   1
  ShowMessageFace("",0,0,2,1)
  ShowMessage("癒しの壺がある……")
  250(bytes(0x04,0x08,0x6f,0x3a,0x0c,0x52,0x50,0x47,0x3a,0x3a,0x53,0x45,0x08,0x3a,0x0a,0x40,0x6e,0x61,0x6d,0x65,0x49,0x22,0x0a,0x48,0x65,0x61,0x6c,0x37,0x06,0x3a,0x06,0x45,0x54,0x3a,0x0b,0x40,0x70,0x69,0x74,0x63,0x68,0x69,0x69,0x3a,0x0c,0x40,0x76,0x6f,0x6c,0x75,0x6d,0x65,0x69,0x55))
  224(bytes(0x04,0x08,0x75,0x3a,0x0a,0x43,0x6f,0x6c,0x6f,0x72,0x25,0x00,0x00,0x00,0x00,0x00,0xe0,0x6f,0x40,0x00,0x00,0x00,0x00,0x00,0xe0,0x6f,0x40,0x00,0x00,0x00,0x00,0x00,0xe0,0x6f,0x40,0x00,0x00,0x00,0x00,0x00,0xe0,0x6f,0x40),30,true)
  314(0,0)
  ShowMessageFace("",0,0,2,2)
  ShowMessage("ルカ達のHPとMPが全快した！")
  0()



EVENT   3
 PAGE   1
  If(12,"unlock_level < 1")
   ShowMessageFace("",0,0,2,1)
   ShowMessage("宝箱には鍵が掛かっている……")
   EndEventProcessing()
   0()
  EndIf()
  250(bytes(0x04,0x08,0x6f,0x3a,0x0c,0x52,0x50,0x47,0x3a,0x3a,0x53,0x45,0x08,0x3a,0x0a,0x40,0x6e,0x61,0x6d,0x65,0x49,0x22,0x0a,0x43,0x68,0x65,0x73,0x74,0x06,0x3a,0x06,0x45,0x54,0x3a,0x0b,0x40,0x70,0x69,0x74,0x63,0x68,0x69,0x69,0x3a,0x0c,0x40,0x76,0x6f,0x6c,0x75,0x6d,0x65,0x69,0x55))
  205(0,bytes(0x04,0x08,0x6f,0x3a,0x13,0x52,0x50,0x47,0x3a,0x3a,0x4d,0x6f,0x76,0x65,0x52,0x6f,0x75,0x74,0x65,0x09,0x3a,0x0c,0x40,0x72,0x65,0x70,0x65,0x61,0x74,0x46,0x3a,0x0f,0x40,0x73,0x6b,0x69,0x70,0x70,0x61,0x62,0x6c,0x65,0x46,0x3a,0x0a,0x40,0x77,0x61,0x69,0x74,0x54,0x3a,0x0a,0x40,0x6c,0x69,0x73,0x74,0x5b,0x0b,0x6f,0x3a,0x15,0x52,0x50,0x47,0x3a,0x3a,0x4d,0x6f,0x76,0x65,0x43,0x6f,0x6d,0x6d,0x61,0x6e,0x64,0x07,0x3a,0x0a,0x40,0x63,0x6f,0x64,0x65,0x69,0x29,0x3a,0x10,0x40,0x70,0x61,0x72,0x61,0x6d,0x65,0x74,0x65,0x72,0x73,0x5b,0x00,0x6f,0x3b,0x0a,0x07,0x3b,0x0b,0x69,0x16,0x3b,0x0c,0x5b,0x00,0x6f,0x3b,0x0a,0x07,0x3b,0x0b,0x69,0x14,0x3b,0x0c,0x5b,0x06,0x69,0x08,0x6f,0x3b,0x0a,0x07,0x3b,0x0b,0x69,0x17,0x3b,0x0c,0x5b,0x00,0x6f,0x3b,0x0a,0x07,0x3b,0x0b,0x69,0x14,0x3b,0x0c,0x5b,0x06,0x69,0x08,0x6f,0x3b,0x0a,0x07,0x3b,0x0b,0x69,0x00,0x3b,0x0c,0x5b,0x00))
  ChangeSelfSwitch("A",0)
  ChangeInventoryWeapon(125,0,0,1,false)
  0()
 PAGE   2
  // condition: self-switch A is ON
  0()



EVENT   17
 PAGE   1
  250(bytes(0x04,0x08,0x6f,0x3a,0x0c,0x52,0x50,0x47,0x3a,0x3a,0x53,0x45,0x08,0x3a,0x0a,0x40,0x6e,0x61,0x6d,0x65,0x49,0x22,0x0a,0x49,0x74,0x65,0x6d,0x31,0x06,0x3a,0x06,0x45,0x54,0x3a,0x0b,0x40,0x70,0x69,0x74,0x63,0x68,0x69,0x69,0x3a,0x0c,0x40,0x76,0x6f,0x6c,0x75,0x6d,0x65,0x69,0x55))
  ChangeSelfSwitch("A",0)
  ChangeInventory_Item(9,0,0,1)
  0()
 PAGE   2
  // condition: self-switch A is ON
  0()



EVENT   18
 PAGE   1
  // condition: variable 1032 >= 5
  ShowMessageFace("shirom_fc2",1,0,2,1)
  ShowMessage("【ラ・クロワ】")
  ShowMessage("アドラメレクとは、すでに何回か戦っている。")
  ShowMessage("出現するたびに力を増す、最上位のアポトーシスだ。")
  ShowMessageFace("shirom_fc2",1,0,2,2)
  ShowMessage("【ラ・クロワ】")
  ShowMessage("今のお前達では、決して勝ち目はない。")
  ShowMessage("ここは私が食い止めよう。")
  ShowMessageFace("shirom_fc2",1,0,2,3)
  ShowMessage("【ラ・クロワ】")
  ShowMessage("さあ、奥の魔法陣から脱出しろ……")
  If(4,134,0)
   If(2,"A",1)
    ChangeSelfSwitch("A",0)
    ShowMessageFace("chrom_fc2",7,0,2,4)
    ShowMessage("【クロム】")
    ShowMessage("お、お姉ちゃん……？")
    ShowMessage("お姉ちゃんだよね……？")
    ShowMessageFace("shirom_fc2",1,0,2,5)
    ShowMessage("【ラ・クロワ】")
    ShowMessage("……………………")
    ShowMessageFace("shirom_fc2",1,0,2,6)
    ShowMessage("【ラ・クロワ】")
    ShowMessage("……違う。")
    ShowMessage("私は、お前の姉とは別人だ。")
    ShowMessageFace("shirom_fc2",1,0,2,7)
    ShowMessage("【ラ・クロワ】")
    ShowMessage("私にも、お前に似た妹がいたが……")
    ShowMessage("数十年前に、失ってしまった。")
    ShowMessageFace("shirom_fc2",1,0,2,8)
    ShowMessage("【ラ・クロワ】")
    ShowMessage("そして私も、お前の姉と似ているが別人だ……")
    ShowMessage("私達はそれぞれ別世界の住人、血の繋がりなどない。")
    ShowMessageFace("chrom_fc2",7,0,2,9)
    ShowMessage("【クロム】")
    ShowMessage("で、でも……！")
    ShowMessageFace("shirom_fc2",1,0,2,10)
    ShowMessage("【ラ・クロワ】")
    ShowMessage("お前の姉は、おそらく道を誤っているはずだ。")
    ShowMessage("救ってやれるのは、お前しかいない……")
    ShowMessageFace("chrom_fc2",5,0,2,11)
    ShowMessage("【クロム】")
    ShowMessage("……えっ？")
    ShowMessageFace("shirom_fc2",1,0,2,12)
    ShowMessage("【ラ・クロワ】")
    ShowMessage("行け、クロム。")
    ShowMessage("お前は、お前の姉を救ってやれ……")
    ShowMessageFace("chrom_fc2",7,0,2,13)
    ShowMessage("【クロム】")
    ShowMessage("……………………")
    0()
   EndIf()
   0()
  EndIf()
  0()



EVENT   19
 PAGE   1
  250(bytes(0x04,0x08,0x6f,0x3a,0x0c,0x52,0x50,0x47,0x3a,0x3a,0x53,0x45,0x08,0x3a,0x0a,0x40,0x6e,0x61,0x6d,0x65,0x49,0x22,0x0a,0x49,0x74,0x65,0x6d,0x31,0x06,0x3a,0x06,0x45,0x54,0x3a,0x0b,0x40,0x70,0x69,0x74,0x63,0x68,0x69,0x69,0x3a,0x0c,0x40,0x76,0x6f,0x6c,0x75,0x6d,0x65,0x69,0x55))
  ChangeSelfSwitch("A",0)
  ChangeInventory_Item(37,0,0,1)
  0()
 PAGE   2
  // condition: self-switch A is ON
  0()



EVENT   20
 PAGE   1
  ShowMessageFace("",0,0,2,1)
  ShowMessage("転職の書が開かれたまま放置されている……")
  RunCommonEvent(113)
  0()
