﻿
DisplayName "雪のほこら B1F"



EVENT   1
 PAGE   1
  250(bytes(0x04,0x08,0x6f,0x3a,0x0c,0x52,0x50,0x47,0x3a,0x3a,0x53,0x45,0x08,0x3a,0x0a,0x40,0x6e,0x61,0x6d,0x65,0x49,0x22,0x09,0x4d,0x6f,0x76,0x65,0x06,0x3a,0x06,0x45,0x54,0x3a,0x0b,0x40,0x70,0x69,0x74,0x63,0x68,0x69,0x69,0x3a,0x0c,0x40,0x76,0x6f,0x6c,0x75,0x6d,0x65,0x69,0x55))
  TeleportPlayer(0,216,16,8,0,0)
  0()



EVENT   2
 PAGE   1
  250(bytes(0x04,0x08,0x6f,0x3a,0x0c,0x52,0x50,0x47,0x3a,0x3a,0x53,0x45,0x08,0x3a,0x0a,0x40,0x6e,0x61,0x6d,0x65,0x49,0x22,0x09,0x4d,0x6f,0x76,0x65,0x06,0x3a,0x06,0x45,0x54,0x3a,0x0b,0x40,0x70,0x69,0x74,0x63,0x68,0x69,0x69,0x3a,0x0c,0x40,0x76,0x6f,0x6c,0x75,0x6d,0x65,0x69,0x55))
  TeleportPlayer(0,216,17,8,0,0)
  0()



EVENT   3
 PAGE   1
  250(bytes(0x04,0x08,0x6f,0x3a,0x0c,0x52,0x50,0x47,0x3a,0x3a,0x53,0x45,0x08,0x3a,0x0a,0x40,0x6e,0x61,0x6d,0x65,0x49,0x22,0x09,0x4d,0x6f,0x76,0x65,0x06,0x3a,0x06,0x45,0x54,0x3a,0x0b,0x40,0x70,0x69,0x74,0x63,0x68,0x69,0x69,0x3a,0x0c,0x40,0x76,0x6f,0x6c,0x75,0x6d,0x65,0x69,0x55))
  TeleportPlayer(0,216,18,8,0,0)
  0()



EVENT   4
 PAGE   1
  250(bytes(0x04,0x08,0x6f,0x3a,0x0c,0x52,0x50,0x47,0x3a,0x3a,0x53,0x45,0x08,0x3a,0x0a,0x40,0x6e,0x61,0x6d,0x65,0x49,0x22,0x09,0x4d,0x6f,0x76,0x65,0x06,0x3a,0x06,0x45,0x54,0x3a,0x0b,0x40,0x70,0x69,0x74,0x63,0x68,0x69,0x69,0x3a,0x0c,0x40,0x76,0x6f,0x6c,0x75,0x6d,0x65,0x69,0x55))
  TeleportPlayer(0,181,58,37,0,0)
  0()



EVENT   5
 PAGE   1
  250(bytes(0x04,0x08,0x6f,0x3a,0x0c,0x52,0x50,0x47,0x3a,0x3a,0x53,0x45,0x08,0x3a,0x0a,0x40,0x6e,0x61,0x6d,0x65,0x49,0x22,0x09,0x4d,0x6f,0x76,0x65,0x06,0x3a,0x06,0x45,0x54,0x3a,0x0b,0x40,0x70,0x69,0x74,0x63,0x68,0x69,0x69,0x3a,0x0c,0x40,0x76,0x6f,0x6c,0x75,0x6d,0x65,0x69,0x55))
  TeleportPlayer(0,181,59,37,0,0)
  0()



EVENT   6
 PAGE   1
  250(bytes(0x04,0x08,0x6f,0x3a,0x0c,0x52,0x50,0x47,0x3a,0x3a,0x53,0x45,0x08,0x3a,0x0a,0x40,0x6e,0x61,0x6d,0x65,0x49,0x22,0x09,0x4d,0x6f,0x76,0x65,0x06,0x3a,0x06,0x45,0x54,0x3a,0x0b,0x40,0x70,0x69,0x74,0x63,0x68,0x69,0x69,0x3a,0x0c,0x40,0x76,0x6f,0x6c,0x75,0x6d,0x65,0x69,0x55))
  TeleportPlayer(0,181,60,37,0,0)
  0()



EVENT   7
 PAGE   1
  250(bytes(0x04,0x08,0x6f,0x3a,0x0c,0x52,0x50,0x47,0x3a,0x3a,0x53,0x45,0x08,0x3a,0x0a,0x40,0x6e,0x61,0x6d,0x65,0x49,0x22,0x09,0x4d,0x6f,0x76,0x65,0x06,0x3a,0x06,0x45,0x54,0x3a,0x0b,0x40,0x70,0x69,0x74,0x63,0x68,0x69,0x69,0x3a,0x0c,0x40,0x76,0x6f,0x6c,0x75,0x6d,0x65,0x69,0x55))
  TeleportPlayer(0,181,18,5,0,0)
  0()



EVENT   8
 PAGE   1
  250(bytes(0x04,0x08,0x6f,0x3a,0x0c,0x52,0x50,0x47,0x3a,0x3a,0x53,0x45,0x08,0x3a,0x0a,0x40,0x6e,0x61,0x6d,0x65,0x49,0x22,0x09,0x4d,0x6f,0x76,0x65,0x06,0x3a,0x06,0x45,0x54,0x3a,0x0b,0x40,0x70,0x69,0x74,0x63,0x68,0x69,0x69,0x3a,0x0c,0x40,0x76,0x6f,0x6c,0x75,0x6d,0x65,0x69,0x55))
  TeleportPlayer(0,181,19,5,0,0)
  0()



EVENT   9
 PAGE   1
  250(bytes(0x04,0x08,0x6f,0x3a,0x0c,0x52,0x50,0x47,0x3a,0x3a,0x53,0x45,0x08,0x3a,0x0a,0x40,0x6e,0x61,0x6d,0x65,0x49,0x22,0x09,0x4d,0x6f,0x76,0x65,0x06,0x3a,0x06,0x45,0x54,0x3a,0x0b,0x40,0x70,0x69,0x74,0x63,0x68,0x69,0x69,0x3a,0x0c,0x40,0x76,0x6f,0x6c,0x75,0x6d,0x65,0x69,0x55))
  TeleportPlayer(0,181,20,5,0,0)
  0()



EVENT   10
 PAGE   1
  // condition: switch 4 is ON
  // condition: variable 1076 >= 4
  If(1,1076,0,4,0)
   PictureDisplay(5,"80_eden_st22",0,0,0,0,100,100,0,0)
   PictureMove(5,null,0,0,0,0,100,100,255,0,60,true)
   ShowMessageFace("eden_fc1",1,0,2,1)
   ShowMessage("【エデン】")
   ShowMessage("ああ、寒い……")
   ShowMessageFace("sonia_fc2",2,0,2,2)
   ShowMessage("【ソニア】")
   ShowMessage("服、着れば？")
   ShowMessageFace("eden_fc1",1,0,2,3)
   ShowMessage("【エデン】")
   ShowMessage("体ではなく、心が寒いのです。")
   ShowMessage("イリアス様のお帰りを、ただ待つしかないこの身が苦しいのです。")
   If(4,45,0)
    ShowMessageFace("alicetromeria_fc1",4,0,2,4)
    ShowMessage("【アリストロメリア】")
    ShowMessage("うふふっ、ずいぶんと愉快な天使……")
    ShowMessage("仲良くできそうですわ……")
    0()
   EndIf()
   ShowMessageFace("eden_fc1",1,0,2,5)
   ShowMessage("【エデン】")
   ShowMessage("だいたい、あなた達は何なのです？")
   ShowMessage("イリアス様への祈りを邪魔するなら、炭になるまで焼きますよ。")
   ShowMessageFace("alice_fc5",0,0,2,6)
   ShowMessage("【アリス】")
   ShowMessage("邪魔はせん、思う存分に祈るがいい。")
   ShowMessage("ただ、一つ頼み事があってな……")
   ShowMessageFace("alice_fc5",2,0,2,7)
   ShowMessage("【アリス】")
   ShowMessage("その前に確認しておきたいが、貴様が天使長で間違いないか？")
   PictureDisplay(5,"80_eden_st21",0,0,0,0,100,100,255,0)
   ShowMessageFace("eden_fc1",0,0,2,8)
   ShowMessage("【エデン】")
   ShowMessage("私は熾天使エデン……")
   ShowMessage("イリアス様第一にして、最上の僕。")
   ShowMessageFace("eden_fc1",0,0,2,9)
   ShowMessage("【エデン】")
   ShowMessage("天界が地に堕ちた後は、惑う天使達を束ねております。")
   ShowMessage("いつの間にか、天使達は私を天使長と呼ぶようになりました。")
   ShowMessageFace("alice_fc5",0,0,2,10)
   ShowMessage("【アリス】")
   ShowMessage("ふむ、貴様が天使長で間違いないな。")
   ShowMessage("ならば頼みたいのだが、イリアス神殿の結界を解いてもらえないか？")
   ShowMessageFace("ruka_fc1",0,0,2,11)
   ShowMessage("【ルカ】")
   ShowMessage("僕達は、イリアス神殿に行かなきゃいけないんだ。")
   ShowMessage("どうか、お願いします。")
   PictureDisplay(5,"80_eden_st23",0,0,0,0,100,100,255,0)
   ShowMessageFace("eden_fc1",2,0,2,12)
   ShowMessage("【エデン】")
   ShowMessage("なんと畏れ多い事を……！")
   ShowMessage("この世で最も神聖な地を、あなた達は土足で踏み荒らす気ですか！？")
   PictureClear(5)
   Wait(30)
   241(bytes(0x04,0x08,0x6f,0x3a,0x0d,0x52,0x50,0x47,0x3a,0x3a,0x42,0x47,0x4d,0x08,0x3a,0x0a,0x40,0x6e,0x61,0x6d,0x65,0x49,0x22,0x0a,0x62,0x6f,0x73,0x73,0x30,0x06,0x3a,0x06,0x45,0x54,0x3a,0x0c,0x40,0x76,0x6f,0x6c,0x75,0x6d,0x65,0x69,0x69,0x3a,0x0b,0x40,0x70,0x69,0x74,0x63,0x68,0x69,0x69))
   250(bytes(0x04,0x08,0x6f,0x3a,0x0c,0x52,0x50,0x47,0x3a,0x3a,0x53,0x45,0x08,0x3a,0x0a,0x40,0x6e,0x61,0x6d,0x65,0x49,0x22,0x0f,0x6d,0x6f,0x6e,0x5f,0x65,0x61,0x72,0x74,0x68,0x31,0x06,0x3a,0x06,0x45,0x54,0x3a,0x0b,0x40,0x70,0x69,0x74,0x63,0x68,0x69,0x69,0x3a,0x0c,0x40,0x76,0x6f,0x6c,0x75,0x6d,0x65,0x69,0x55))
   225(7,7,120,true)
   Wait(120)
   PictureDisplay(5,"80_eden_st23",0,0,0,0,100,100,0,0)
   PictureMove(5,null,0,0,0,0,100,100,255,0,30,true)
   ShowMessageFace("eden_fc1",2,0,2,13)
   ShowMessage("【エデン】")
   ShowMessage("神の地を汚す罪人……！")
   ShowMessage("今ここで、私が成敗します！")
   ShowMessageFace("alice_fc5",6,0,2,14)
   ShowMessage("【アリス】")
   ShowMessage("ちょっと待て、おい！　話を聞け！")
   ShowMessageFace("sonia_fc2",0,0,2,15)
   ShowMessage("【ソニア】")
   ShowMessage("まずいよ、何だかすっごく怒ってる！")
   ShowMessageFace("eden_fc1",2,0,2,16)
   ShowMessage("【エデン】")
   ShowMessage("さあ、滅びなさい……！")
   ShowMessage("己の罪を悔い改めるのです……！")
   If(4,383,0)
    ShowMessageFace("eden_fc1",0,0,2,17)
    ShowMessage("【エデン’】")
    ShowMessage("落ち着くのです、もう一人の私……")
    ShowMessageFace("eden_fc1",2,0,2,18)
    ShowMessage("【エデン】")
    ShowMessage("なんと、私がもう一人！？")
    ShowMessage("これは、私をたぶらかす邪法ですね！？")
    ShowMessageFace("eden_fc1",1,0,2,19)
    ShowMessage("【エデン’】")
    ShowMessage("いえ、説明を聞くのです。")
    ShowMessage("私は、もう一人のあなたであり――")
    ShowMessageFace("eden_fc1",2,0,2,20)
    ShowMessage("【エデン】")
    ShowMessage("悪しき呪法、我が力で砕くのみ！　覚悟しなさい！")
    ShowMessageFace("eden_fc1",2,0,2,21)
    ShowMessage("【エデン’】")
    ShowMessage("ええい、分からず屋は我が力で砕くのみ！　覚悟しなさい！")
    0()
   EndIf()
   ShowMessageFace("ruka_fc1",0,0,2,22)
   ShowMessage("【ルカ】")
   ShowMessage("問答無用で襲ってくる！")
   ShowMessage("戦うしかない！")
   If(4,45,0)
    ShowMessageFace("alicetromeria_fc1",4,0,2,23)
    ShowMessage("【アリストロメリア】")
    ShowMessage("あらあら、おばかさん……")
    0()
   EndIf()
   PictureClear(5)
   SetBattleBGM(bytes(0x04,0x08,0x6f,0x3a,0x0d,0x52,0x50,0x47,0x3a,0x3a,0x42,0x47,0x4d,0x08,0x3a,0x0a,0x40,0x6e,0x61,0x6d,0x65,0x49,0x22,0x0e,0x62,0x6f,0x73,0x73,0x5f,0x65,0x64,0x65,0x6e,0x06,0x3a,0x06,0x45,0x54,0x3a,0x0c,0x40,0x76,0x6f,0x6c,0x75,0x6d,0x65,0x69,0x69,0x3a,0x0b,0x40,0x70,0x69,0x74,0x63,0x68,0x69,0x69))
   ChangeSwitch(22,22,0)
   Battle(0,854,false,false)
   ChangeSwitch(22,22,1)
   241(bytes(0x04,0x08,0x6f,0x3a,0x0d,0x52,0x50,0x47,0x3a,0x3a,0x42,0x47,0x4d,0x08,0x3a,0x0a,0x40,0x6e,0x61,0x6d,0x65,0x49,0x22,0x12,0x64,0x75,0x6e,0x67,0x65,0x6f,0x6e,0x5f,0x73,0x69,0x6e,0x70,0x69,0x06,0x3a,0x06,0x45,0x54,0x3a,0x0c,0x40,0x76,0x6f,0x6c,0x75,0x6d,0x65,0x69,0x69,0x3a,0x0b,0x40,0x70,0x69,0x74,0x63,0x68,0x69,0x69))
   SetBattleBGM(bytes(0x04,0x08,0x6f,0x3a,0x0d,0x52,0x50,0x47,0x3a,0x3a,0x42,0x47,0x4d,0x08,0x3a,0x0a,0x40,0x6e,0x61,0x6d,0x65,0x49,0x22,0x0b,0x62,0x61,0x74,0x74,0x6c,0x65,0x06,0x3a,0x06,0x45,0x54,0x3a,0x0c,0x40,0x76,0x6f,0x6c,0x75,0x6d,0x65,0x69,0x69,0x3a,0x0b,0x40,0x70,0x69,0x74,0x63,0x68,0x69,0x69))
   ChangeSwitch(1915,1915,0)
   PictureDisplay(5,"80_eden_st23",0,0,0,0,100,100,0,0)
   PictureMove(5,null,0,0,0,0,100,100,255,0,30,true)
   ShowMessageFace("eden_fc1",2,0,2,24)
   ShowMessage("【エデン】")
   ShowMessage("まさか、外界の者達に負けるとは……")
   ShowMessage("地上に身を置き三十年、我が身ここまで衰えましたか……")
   ShowMessageFace("ruka_fc1",0,0,2,25)
   ShowMessage("【ルカ】")
   ShowMessage("話を聞いてよ……")
   ShowMessage("僕達は、神殿を荒らしたいわけじゃないんだ。")
   PictureDisplay(5,"80_eden_st22",0,0,0,0,100,100,255,0)
   ShowMessageFace("eden_fc1",1,0,2,26)
   ShowMessage("【エデン】")
   ShowMessage("戦っていて、分かりました。")
   ShowMessage("少年勇者……あなたは、天使の血を引いているようですね。")
   ShowMessageFace("eden_fc1",1,0,2,27)
   ShowMessage("【エデン】")
   ShowMessage("相当に高位の天使だと見ましたが、母の名は何ですか？")
   ShowMessageFace("ruka_fc1",0,0,2,28)
   ShowMessage("【ルカ】")
   ShowMessage("母さんの名前？　ルシフィナだけど……")
   PictureDisplay(5,"80_eden_st23",0,0,0,0,100,100,255,0)
   ShowMessageFace("eden_fc1",2,0,2,29)
   ShowMessage("【エデン】")
   ShowMessage("ル、ルシフィナ……！？")
   ShowMessage("な、な、なんという事でしょう……")
   241(bytes(0x04,0x08,0x6f,0x3a,0x0d,0x52,0x50,0x47,0x3a,0x3a,0x42,0x47,0x4d,0x08,0x3a,0x0a,0x40,0x6e,0x61,0x6d,0x65,0x49,0x22,0x10,0x73,0x63,0x65,0x6e,0x65,0x5f,0x63,0x6f,0x6d,0x69,0x32,0x06,0x3a,0x06,0x45,0x54,0x3a,0x0c,0x40,0x76,0x6f,0x6c,0x75,0x6d,0x65,0x69,0x69,0x3a,0x0b,0x40,0x70,0x69,0x74,0x63,0x68,0x69,0x69))
   PictureDisplay(5,"80_eden_st21",0,0,0,0,100,100,255,0)
   ShowMessageFace("eden_fc1",0,0,2,30)
   ShowMessage("【エデン】")
   ShowMessage("イリアス様にお仕えするという使命を思い出し、")
   ShowMessage("心を清めるため、神殿にお参りしようというのですね！？")
   ShowMessageFace("alice_fc5",0,0,2,31)
   ShowMessage("【アリス】")
   ShowMessage("（よく分からんが、肯定しておけ……）")
   ShowMessageFace("ruka_fc1",0,0,2,32)
   ShowMessage("【ルカ】")
   ShowMessage("その通りです。")
   ShowMessage("イリアス様の神殿で深い祈りを捧げたいんです。")
   ShowMessageFace("eden_fc1",0,0,2,33)
   ShowMessage("【エデン】")
   ShowMessage("そうですか、ルシフィナの息子がお参りに……")
   ShowMessage("イリアス様も、さぞ喜ばれるでしょう……")
   ShowMessageFace("eden_fc1",0,0,2,34)
   ShowMessage("【エデン】")
   ShowMessage("いいでしょう、これより神殿の封印を解きます。")
   ShowMessage("少し輝きますので、目を痛めないようにして下さいね。")
   PictureClear(5)
   212(0,556,false)
   Wait(60)
   ShowMessageFace("eden_fc1",0,0,2,35)
   ShowMessage("【エデン】")
   ShowMessage("……はっ！")
   Wait(30)
   241(bytes(0x04,0x08,0x6f,0x3a,0x0d,0x52,0x50,0x47,0x3a,0x3a,0x42,0x47,0x4d,0x08,0x3a,0x0a,0x40,0x6e,0x61,0x6d,0x65,0x49,0x22,0x12,0x64,0x75,0x6e,0x67,0x65,0x6f,0x6e,0x5f,0x73,0x69,0x6e,0x70,0x69,0x06,0x3a,0x06,0x45,0x54,0x3a,0x0c,0x40,0x76,0x6f,0x6c,0x75,0x6d,0x65,0x69,0x69,0x3a,0x0b,0x40,0x70,0x69,0x74,0x63,0x68,0x69,0x69))
   PictureDisplay(5,"80_eden_st21",0,0,0,0,100,100,0,0)
   PictureMove(5,null,0,0,0,0,100,100,255,0,30,true)
   ShowMessageFace("eden_fc1",0,0,2,36)
   ShowMessage("【エデン】")
   ShowMessage("イリアス神殿の結界を解除しました。")
   ShowMessage("これで、中に入れるでしょう。")
   ShowMessageFace("ruka_fc1",0,0,2,37)
   ShowMessage("【ルカ】")
   ShowMessage("ありがとうございます！")
   PictureDisplay(5,"80_eden_st22",0,0,0,0,100,100,255,0)
   ShowMessageFace("eden_fc1",1,0,2,38)
   ShowMessage("【エデン】")
   ShowMessage("ただし……神殿には、何だかよく分からないものが浸食しています。")
   ShowMessage("この私でさえあのようなものは見た事がなく、苦慮しておりました。")
   ShowMessageFace("sonia_fc2",2,0,2,39)
   ShowMessage("【ソニア】")
   ShowMessage("何だかよく分からないものって……なに？")
   ShowMessageFace("eden_fc1",1,0,2,40)
   ShowMessage("【エデン】")
   ShowMessage("得体が知れない以上、結界で封じるしかなかったのです。")
   ShowMessage("それを三十年間張り続けたのも、私がここまで衰弱した一因でした。")
   If(4,41,0)
    ShowMessageFace("stein_fc2",0,0,2,41)
    ShowMessage("【プロメスティン】")
    ShowMessage("おそらく、カオスの侵蝕ですね……")
    ShowMessage("その現象が、大異変の日にイリアス神殿で起きたとなると……")
    0()
   EndIf()
   ShowMessageFace("alice_fc5",0,0,2,42)
   ShowMessage("【アリス】")
   ShowMessage("やはり、イリアス神殿には何かあるのだな。")
   ShowMessage("世界に迫る危機の、核心に迫る答えが……")
   PictureDisplay(5,"80_eden_st21",0,0,0,0,100,100,255,0)
   ShowMessageFace("eden_fc1",0,0,2,43)
   ShowMessage("【エデン】")
   ShowMessage("くれぐれも気を付けるのですよ、ルシフィナの息子。")
   ShowMessage("イリアス様のご加護があらんことを……")
   355("gain_medal(61)")
   PictureClear(5)
   ChangeVariable(1076,1076,0,0,5)
   314(0,0)
   EndEventProcessing()
   0()
  EndIf()
  If(1,1076,0,5,1)
   If(1,1076,0,6,2)
    PictureDisplay(5,"80_eden_st22",0,0,0,0,100,100,0,0)
    PictureMove(5,null,0,0,0,0,100,100,255,0,30,true)
    ShowMessageFace("eden_fc1",1,0,2,44)
    ShowMessage("【エデン】")
    ShowMessage("神殿には、何だかよく分からないものが浸食しています。")
    ShowMessage("この私でさえあのようなものは見た事がなく、苦慮しておりました。")
    ShowMessageFace("eden_fc1",1,0,2,45)
    ShowMessage("【エデン】")
    ShowMessage("得体が知れない以上、結界で封じるしかなかったのです。")
    ShowMessage("それを三十年間張り続けたのも、私がここまで衰弱した一因でした。")
    PictureDisplay(5,"80_eden_st21",0,0,0,0,100,100,255,0)
    ShowMessageFace("eden_fc1",0,0,2,46)
    ShowMessage("【エデン】")
    ShowMessage("くれぐれも気を付けるのですよ、ルシフィナの息子。")
    ShowMessage("イリアス様のご加護があらんことを……")
    PictureClear(5)
    EndEventProcessing()
    0()
   EndIf()
   0()
  EndIf()
  If(1,1076,0,7,1)
   PictureDisplay(5,"80_eden_st21",0,0,0,0,100,100,0,0)
   PictureMove(5,null,0,0,0,0,100,100,255,0,30,true)
   ShowMessageFace("eden_fc1",0,0,2,47)
   ShowMessage("【エデン】")
   ShowMessage("ちゃんと、お祈りはしましたか？")
   ShowMessage("イリアス様が帰還された際は、お褒めの言葉を頂けるでしょう……")
   ShowMessageFace("ruka_fc1",0,0,2,48)
   ShowMessage("【ルカ】")
   ShowMessage("は、はい……")
   ShowMessageFace("",0,0,2,49)
   ShowMessage("神殿で何があったかは、言わない方がいいようだ……")
   ShowMessage("また暴れ出すと困る。")
   PictureClear(5)
   EndEventProcessing()
   0()
  EndIf()
  0()
 PAGE   2
  // condition: switch 5 is ON
  // condition: variable 1076 >= 4
  PictureDisplay(5,"80_eden_st22",0,0,0,0,100,100,0,0)
  PictureMove(5,null,0,0,0,0,100,100,255,0,60,true)
  ShowMessageFace("eden_fc1",1,0,2,1)
  ShowMessage("【エデン】")
  ShowMessage("ああ、寒い……")
  ShowMessageFace("sonia_fc2",2,0,2,2)
  ShowMessage("【ソニア】")
  ShowMessage("服、着れば？")
  ShowMessageFace("eden_fc1",1,0,2,3)
  ShowMessage("【エデン】")
  ShowMessage("体ではなく、心が寒いのです。")
  ShowMessage("イリアス様のお帰りを、ただ待つしかないこの身が苦しいのです。")
  ShowMessageFace("eden_fc1",1,0,2,4)
  ShowMessage("【エデン】")
  ShowMessage("だいたい、あなた達は何なのです？")
  ShowMessage("イリアス様への祈りを邪魔するなら、炭になるまで焼きますよ。")
  ShowMessageFace("iriasu_fc4",2,0,2,5)
  ShowMessage("【イリアス】")
  ShowMessage("エデン……やはり、あなたが天使長でしたか。")
  ShowMessage("天界が地に堕ちて以来、ずっと天使達を束ねてきたのですね。")
  PictureDisplay(5,"80_eden_st23",0,0,0,0,100,100,255,0)
  ShowMessageFace("eden_fc1",2,0,2,6)
  ShowMessage("【エデン】")
  ShowMessage("……あなたが、報告にあったイリアス様の偽物ですね？")
  ShowMessage("この私の前で、イリアス様を騙るなど万死に値します！")
  PictureDisplay(5,"80_eden_st22",0,0,0,0,100,100,255,0)
  ShowMessageFace("eden_fc1",1,0,2,7)
  ShowMessage("【エデン】")
  ShowMessage("……………………")
  ShowMessageFace("iriasu_fc4",2,0,2,8)
  ShowMessage("【イリアス】")
  ShowMessage("……………………")
  ShowMessageFace("eden_fc1",1,0,2,9)
  ShowMessage("【エデン】")
  ShowMessage("まさか、このような……")
  241(bytes(0x04,0x08,0x6f,0x3a,0x0d,0x52,0x50,0x47,0x3a,0x3a,0x42,0x47,0x4d,0x08,0x3a,0x0a,0x40,0x6e,0x61,0x6d,0x65,0x49,0x22,0x13,0x73,0x63,0x65,0x6e,0x65,0x5f,0x6f,0x64,0x61,0x79,0x61,0x6b,0x61,0x32,0x06,0x3a,0x06,0x45,0x54,0x3a,0x0c,0x40,0x76,0x6f,0x6c,0x75,0x6d,0x65,0x69,0x69,0x3a,0x0b,0x40,0x70,0x69,0x74,0x63,0x68,0x69,0x69))
  PictureDisplay(5,"80_eden_st21",0,0,0,0,100,100,255,0)
  ShowMessageFace("eden_fc1",0,0,2,10)
  ShowMessage("【エデン】")
  ShowMessage("この日が来る事を、ずっとお待ちしておりました……")
  ShowMessage("ああイリアス様、あなたなのですね！？")
  ShowMessageFace("iriasu_fc4",5,0,2,11)
  ShowMessage("【イリアス】")
  ShowMessage("私が分かるのですか、エデン……！？")
  ShowMessageFace("eden_fc1",0,0,2,12)
  ShowMessage("【エデン】")
  ShowMessage("そこらの天使ならともかく、このエデン……")
  ShowMessage("イリアス様を見誤るなど、ありえません！！")
  ShowMessageFace("iriasu_fc4",3,0,2,13)
  ShowMessage("【イリアス】")
  ShowMessage("エデン……")
  ShowMessage("今この瞬間ほど、あなたを頼もしいと思った事はありません。")
  ShowMessageFace("eden_fc1",0,0,2,14)
  ShowMessage("【エデン】")
  ShowMessage("お褒めに預かり、光栄です！")
  ShowMessage("今日という日は、このエデンにとって最も輝かしい日となるでしょう。")
  PictureDisplay(5,"80_eden_st22",0,0,0,0,100,100,255,0)
  ShowMessageFace("eden_fc1",1,0,2,15)
  ShowMessage("【エデン】")
  ShowMessage("しかし、そのお姿はいったい……")
  ShowMessage("イリアス様、いかなる凶事に見舞われたのですか？")
  ShowMessageFace("iriasu_fc4",2,0,2,16)
  ShowMessage("【イリアス】")
  ShowMessage("少々、長い話になりますが……")
  ShowMessageFace("",0,0,2,17)
  ShowMessage("イリアスは、事情を説明した……")
  PictureDisplay(5,"80_eden_st23",0,0,0,0,100,100,255,0)
  ShowMessageFace("eden_fc1",2,0,2,18)
  ShowMessage("【エデン】")
  ShowMessage("ああ、なんとおいたわしい……")
  ShowMessage("そのような苦難の道を歩んで来られたとは……")
  241(bytes(0x04,0x08,0x6f,0x3a,0x0d,0x52,0x50,0x47,0x3a,0x3a,0x42,0x47,0x4d,0x08,0x3a,0x0a,0x40,0x6e,0x61,0x6d,0x65,0x49,0x22,0x14,0x73,0x63,0x65,0x6e,0x65,0x5f,0x65,0x70,0x69,0x6c,0x6f,0x67,0x75,0x65,0x32,0x06,0x3a,0x06,0x45,0x54,0x3a,0x0c,0x40,0x76,0x6f,0x6c,0x75,0x6d,0x65,0x69,0x69,0x3a,0x0b,0x40,0x70,0x69,0x74,0x63,0x68,0x69,0x69))
  PictureDisplay(5,"80_eden_st21",0,0,0,0,100,100,255,0)
  ShowMessageFace("eden_fc1",0,0,2,19)
  ShowMessage("【エデン】")
  ShowMessage("これより、このエデンがイリアス様に尽くしましょう。")
  ShowMessage("この世の果てまで、ご一緒します！")
  PictureClear(5)
  205(0,bytes(0x04,0x08,0x6f,0x3a,0x13,0x52,0x50,0x47,0x3a,0x3a,0x4d,0x6f,0x76,0x65,0x52,0x6f,0x75,0x74,0x65,0x09,0x3a,0x0c,0x40,0x72,0x65,0x70,0x65,0x61,0x74,0x46,0x3a,0x0f,0x40,0x73,0x6b,0x69,0x70,0x70,0x61,0x62,0x6c,0x65,0x46,0x3a,0x0a,0x40,0x77,0x61,0x69,0x74,0x54,0x3a,0x0a,0x40,0x6c,0x69,0x73,0x74,0x5b,0x09,0x6f,0x3a,0x15,0x52,0x50,0x47,0x3a,0x3a,0x4d,0x6f,0x76,0x65,0x43,0x6f,0x6d,0x6d,0x61,0x6e,0x64,0x07,0x3a,0x0a,0x40,0x63,0x6f,0x64,0x65,0x69,0x2a,0x3a,0x10,0x40,0x70,0x61,0x72,0x61,0x6d,0x65,0x74,0x65,0x72,0x73,0x5b,0x00,0x6f,0x3b,0x0a,0x07,0x3b,0x0b,0x69,0x0f,0x3b,0x0c,0x5b,0x00,0x6f,0x3b,0x0a,0x07,0x3b,0x0b,0x69,0x2c,0x3b,0x0c,0x5b,0x00,0x6f,0x3b,0x0a,0x07,0x3b,0x0b,0x69,0x00,0x3b,0x0c,0x5b,0x00))
  355("add_actor_ex(383)")
  249(bytes(0x04,0x08,0x6f,0x3a,0x0c,0x52,0x50,0x47,0x3a,0x3a,0x4d,0x45,0x08,0x3a,0x0a,0x40,0x6e,0x61,0x6d,0x65,0x49,0x22,0x0c,0x66,0x61,0x6e,0x66,0x61,0x6c,0x65,0x06,0x3a,0x06,0x45,0x54,0x3a,0x0b,0x40,0x70,0x69,0x74,0x63,0x68,0x69,0x69,0x3a,0x0c,0x40,0x76,0x6f,0x6c,0x75,0x6d,0x65,0x69,0x69))
  ShowMessageFace("",0,0,2,20)
  ShowMessage("エデンが仲間に加わった！")
  Wait(60)
  ChangeSwitch(2167,2167,0)
  ShowMessageFace("iriasu_fc4",0,0,2,21)
  ShowMessage("【イリアス】")
  ShowMessage("エデン……さっき説明した通り、イリアス神殿に鍵があります。")
  ShowMessage("神殿に張られた結界を、解除しなさい。")
  ShowMessageFace("eden_fc1",0,0,2,22)
  ShowMessage("【エデン】")
  ShowMessage("了解しました、ただちに神殿の封印を解きます。")
  ShowMessage("少し輝きますので、どうか目を痛められませんように。")
  212(0,556,false)
  ShowMessageFace("eden_fc1",0,0,2,23)
  ShowMessage("【エデン】")
  ShowMessage("……はっ！")
  ShowMessageFace("eden_fc1",0,0,2,24)
  ShowMessage("【エデン】")
  ShowMessage("イリアス神殿の結界を解除しました。")
  ShowMessage("これで、中に入れるでしょう。")
  ShowMessageFace("ruka_fc1",0,0,2,25)
  ShowMessage("【ルカ】")
  ShowMessage("ありがとうございます！")
  ShowMessageFace("eden_fc1",1,0,2,26)
  ShowMessage("【エデン】")
  ShowMessage("ただし……神殿には、何だかよく分からないものが浸食しています。")
  ShowMessage("おそらくあれが、先ほど伺ったカオス現象ですね。")
  ShowMessageFace("iriasu_fc4",2,0,2,27)
  ShowMessage("【イリアス】")
  ShowMessage("異界化とは、やはりカオスの侵食でしたか……")
  ShowMessage("天界のあった場所には、巨大タルタロスが開いたのでしたね。")
  ShowMessageFace("eden_fc1",1,0,2,28)
  ShowMessage("【エデン】")
  ShowMessage("大異変以来、神殿を結界で封じるしかなかったのです。")
  ShowMessage("それを三十年間張り続けたのも、私がここまで衰弱した一因でした。")
  ShowMessageFace("iriasu_fc4",0,0,2,29)
  ShowMessage("【イリアス】")
  ShowMessage("もはや、天界と一体化するエデン最終形態にはなれないようですね。")
  ShowMessage("しかし衰えたとはいえ、あなたの力は大変に心強いです。")
  ShowMessageFace("iriasu_fc4",0,0,2,30)
  ShowMessage("【イリアス】")
  ShowMessage("私とあなたの力を合わせれば……")
  ShowMessage("熾天使生誕の儀式、成し遂げられるかもしれません！")
  ShowMessageFace("eden_fc1",1,0,2,31)
  ShowMessage("【エデン】")
  ShowMessage("熾天使生誕の儀式……！？")
  ShowMessage("まさか、ミカエラとルシフィナを再びこの世に……！？")
  ShowMessageFace("ruka_fc1",0,0,2,32)
  ShowMessage("【ルカ】")
  ShowMessage("母さんとミカエラさんを、生き返らせるってこと……！？")
  ShowMessageFace("iriasu_fc4",2,0,2,33)
  ShowMessage("【イリアス】")
  ShowMessage("ルカ……誠に残念ですが、あなたの期待は叶えられません。")
  ShowMessage("死んだ者を、完全な形で生き返らせることは出来ないのです。")
  ShowMessageFace("iriasu_fc4",2,0,2,34)
  ShowMessage("【イリアス】")
  ShowMessage("ルシフィナは、最愛の息子を育て上げ天寿を全うしました。")
  ShowMessage("二度と戻らないからこそ、かけがえのない命なのですよ。")
  ShowMessageFace("ruka_fc1",0,0,2,35)
  ShowMessage("【ルカ】")
  ShowMessage("……………………")
  ShowMessageFace("iriasu_fc4",2,0,2,36)
  ShowMessage("【イリアス】")
  ShowMessage("私が行うのは、かつてミカエラとルシフィナを生み出した儀式。")
  ShowMessage("それにより、二人はまっさらの状態で生を受ける事になります。")
  ShowMessageFace("iriasu_fc4",2,0,2,37)
  ShowMessage("【イリアス】")
  ShowMessage("分かりますね、ルカ……")
  ShowMessage("あなたの母ルシフィナの記憶は、亡き彼女だけのものなのです。")
  ShowMessageFace("ruka_fc1",0,0,2,38)
  ShowMessage("【ルカ】")
  ShowMessage("ちょっと複雑だけど、分かりました。")
  ShowMessage("母さんと同じ肉体だけど、記憶は持たないんですね。")
  ShowMessageFace("eden_fc1",1,0,2,39)
  ShowMessage("【エデン】")
  ShowMessage("儀式を行う場所は、やはり「創世の館」でしょうか……")
  ShowMessage("天界の崩壊時、破壊を免れた数少ない建物の一つです。")
  ShowMessageFace("iriasu_fc4",0,0,2,40)
  ShowMessage("【イリアス】")
  ShowMessage("ええ、「創生の館」は確かスノウヘブンの南にありましたね。")
  ShowMessage("イリアス神殿に向かう前に、二人を心強い仲間として迎えましょう。")
  ShowMessageFace("eden_fc1",1,0,2,41)
  ShowMessage("【エデン】")
  ShowMessage("二人を、仲間に………")
  ShowMessageFace("sonia_fc2",2,0,2,42)
  ShowMessage("【ソニア】")
  ShowMessage("いいの、ルカ……？")
  ShowMessageFace("ruka_fc1",0,0,2,43)
  ShowMessage("【ルカ】")
  ShowMessage("生まれ変わった母さんか……")
  ShowMessage("複雑な気分だけど、会ってみたい気持ちも大きいよ。")
  ShowMessageFace("iriasu_fc4",0,0,2,44)
  ShowMessage("【イリアス】")
  ShowMessage("とりあえず、さっさとこんな寒い場所から出ますよ。")
  ShowMessage("こんな所にこもって全裸で祈っていたとか、アホですかあなたは。")
  ShowMessageFace("eden_fc1",0,0,2,45)
  ShowMessage("【エデン】")
  ShowMessage("ああ……イリアス様のお言葉、耳に温かく響きます……")
  ShowMessageFace("sonia_fc4",0,0,2,46)
  ShowMessage("【ソニア】")
  ShowMessage("完全に調教済みなのね……")
  355("gain_medal(61)")
  ChangeVariable(1076,1076,0,0,5)
  ChangeVariable(1077,1077,0,0,1)
  241(bytes(0x04,0x08,0x6f,0x3a,0x0d,0x52,0x50,0x47,0x3a,0x3a,0x42,0x47,0x4d,0x08,0x3a,0x0a,0x40,0x6e,0x61,0x6d,0x65,0x49,0x22,0x12,0x64,0x75,0x6e,0x67,0x65,0x6f,0x6e,0x5f,0x73,0x69,0x6e,0x70,0x69,0x06,0x3a,0x06,0x45,0x54,0x3a,0x0c,0x40,0x76,0x6f,0x6c,0x75,0x6d,0x65,0x69,0x69,0x3a,0x0b,0x40,0x70,0x69,0x74,0x63,0x68,0x69,0x69))
  314(0,0)
  EndEventProcessing()
  0()
 PAGE   3
  // condition: switch 2167 is ON
  0()



EVENT   11
 PAGE   1
  // condition: variable 1076 >= 4
  ShowMessageFace("ruka_fc1",0,0,2,1)
  ShowMessage("【ルカ】")
  ShowMessage("天使長は……いないね。")
  If(0,4,0)
   ShowMessageFace("alice_fc5",0,0,2,2)
   ShowMessage("【アリス】")
   ShowMessage("奥にいるのではないか？")
   0()
  EndIf()
  If(0,5,0)
   ShowMessageFace("iriasu_fc4",2,0,2,3)
   ShowMessage("【イリアス】")
   ShowMessage("奥にいるのではないですか？")
   0()
  EndIf()
  0()
 PAGE   2
  // condition: variable 1076 >= 5
  0()



EVENT   12
 PAGE   1
  // condition: variable 1076 >= 4
  ShowMessageFace("ruka_fc1",0,0,2,1)
  ShowMessage("【ルカ】")
  ShowMessage("天使長は……いないみたいだけど。")
  If(0,4,0)
   ShowMessageFace("alice_fc5",0,0,2,2)
   ShowMessage("【アリス】")
   ShowMessage("いや、まだ奥があるようだ。")
   ShowMessage("先に進むぞ。")
   0()
  EndIf()
  If(0,5,0)
   ShowMessageFace("iriasu_fc4",2,0,2,3)
   ShowMessage("【イリアス】")
   ShowMessage("いえ、まだ奥があるようです。")
   ShowMessage("先に進みましょう。")
   0()
  EndIf()
  0()
 PAGE   2
  // condition: variable 1076 >= 5
  0()
