﻿
DisplayName "プランセクト村"



EVENT   1
 PAGE   1
  250(bytes(0x04,0x08,0x6f,0x3a,0x0c,0x52,0x50,0x47,0x3a,0x3a,0x53,0x45,0x08,0x3a,0x0a,0x40,0x6e,0x61,0x6d,0x65,0x49,0x22,0x09,0x4d,0x6f,0x76,0x65,0x06,0x3a,0x06,0x45,0x54,0x3a,0x0b,0x40,0x70,0x69,0x74,0x63,0x68,0x69,0x69,0x3a,0x0c,0x40,0x76,0x6f,0x6c,0x75,0x6d,0x65,0x69,0x55))
  TeleportPlayer(0,2,283,197,2,0)
  0()



EVENT   9
 PAGE   1
  250(bytes(0x04,0x08,0x6f,0x3a,0x0c,0x52,0x50,0x47,0x3a,0x3a,0x53,0x45,0x08,0x3a,0x0a,0x40,0x6e,0x61,0x6d,0x65,0x49,0x22,0x0a,0x43,0x68,0x65,0x73,0x74,0x06,0x3a,0x06,0x45,0x54,0x3a,0x0b,0x40,0x70,0x69,0x74,0x63,0x68,0x69,0x69,0x3a,0x0c,0x40,0x76,0x6f,0x6c,0x75,0x6d,0x65,0x69,0x55))
  205(0,bytes(0x04,0x08,0x6f,0x3a,0x13,0x52,0x50,0x47,0x3a,0x3a,0x4d,0x6f,0x76,0x65,0x52,0x6f,0x75,0x74,0x65,0x09,0x3a,0x0c,0x40,0x72,0x65,0x70,0x65,0x61,0x74,0x46,0x3a,0x0f,0x40,0x73,0x6b,0x69,0x70,0x70,0x61,0x62,0x6c,0x65,0x46,0x3a,0x0a,0x40,0x77,0x61,0x69,0x74,0x54,0x3a,0x0a,0x40,0x6c,0x69,0x73,0x74,0x5b,0x0b,0x6f,0x3a,0x15,0x52,0x50,0x47,0x3a,0x3a,0x4d,0x6f,0x76,0x65,0x43,0x6f,0x6d,0x6d,0x61,0x6e,0x64,0x07,0x3a,0x0a,0x40,0x63,0x6f,0x64,0x65,0x69,0x29,0x3a,0x10,0x40,0x70,0x61,0x72,0x61,0x6d,0x65,0x74,0x65,0x72,0x73,0x5b,0x00,0x6f,0x3b,0x0a,0x07,0x3b,0x0b,0x69,0x16,0x3b,0x0c,0x5b,0x00,0x6f,0x3b,0x0a,0x07,0x3b,0x0b,0x69,0x14,0x3b,0x0c,0x5b,0x06,0x69,0x08,0x6f,0x3b,0x0a,0x07,0x3b,0x0b,0x69,0x17,0x3b,0x0c,0x5b,0x00,0x6f,0x3b,0x0a,0x07,0x3b,0x0b,0x69,0x14,0x3b,0x0c,0x5b,0x06,0x69,0x08,0x6f,0x3b,0x0a,0x07,0x3b,0x0b,0x69,0x00,0x3b,0x0c,0x5b,0x00))
  ChangeSelfSwitch("A",0)
  ChangeInventory_Item(3,0,0,1)
  0()
 PAGE   2
  // condition: self-switch A is ON
  0()



EVENT   10
 PAGE   1
  250(bytes(0x04,0x08,0x6f,0x3a,0x0c,0x52,0x50,0x47,0x3a,0x3a,0x53,0x45,0x08,0x3a,0x0a,0x40,0x6e,0x61,0x6d,0x65,0x49,0x22,0x0a,0x43,0x68,0x65,0x73,0x74,0x06,0x3a,0x06,0x45,0x54,0x3a,0x0b,0x40,0x70,0x69,0x74,0x63,0x68,0x69,0x69,0x3a,0x0c,0x40,0x76,0x6f,0x6c,0x75,0x6d,0x65,0x69,0x55))
  205(0,bytes(0x04,0x08,0x6f,0x3a,0x13,0x52,0x50,0x47,0x3a,0x3a,0x4d,0x6f,0x76,0x65,0x52,0x6f,0x75,0x74,0x65,0x09,0x3a,0x0c,0x40,0x72,0x65,0x70,0x65,0x61,0x74,0x46,0x3a,0x0f,0x40,0x73,0x6b,0x69,0x70,0x70,0x61,0x62,0x6c,0x65,0x46,0x3a,0x0a,0x40,0x77,0x61,0x69,0x74,0x54,0x3a,0x0a,0x40,0x6c,0x69,0x73,0x74,0x5b,0x0b,0x6f,0x3a,0x15,0x52,0x50,0x47,0x3a,0x3a,0x4d,0x6f,0x76,0x65,0x43,0x6f,0x6d,0x6d,0x61,0x6e,0x64,0x07,0x3a,0x0a,0x40,0x63,0x6f,0x64,0x65,0x69,0x29,0x3a,0x10,0x40,0x70,0x61,0x72,0x61,0x6d,0x65,0x74,0x65,0x72,0x73,0x5b,0x00,0x6f,0x3b,0x0a,0x07,0x3b,0x0b,0x69,0x16,0x3b,0x0c,0x5b,0x00,0x6f,0x3b,0x0a,0x07,0x3b,0x0b,0x69,0x14,0x3b,0x0c,0x5b,0x06,0x69,0x08,0x6f,0x3b,0x0a,0x07,0x3b,0x0b,0x69,0x17,0x3b,0x0c,0x5b,0x00,0x6f,0x3b,0x0a,0x07,0x3b,0x0b,0x69,0x14,0x3b,0x0c,0x5b,0x06,0x69,0x08,0x6f,0x3b,0x0a,0x07,0x3b,0x0b,0x69,0x00,0x3b,0x0c,0x5b,0x00))
  ChangeSelfSwitch("A",0)
  ChangeInventory_Item(32,0,0,1)
  0()
 PAGE   2
  // condition: self-switch A is ON
  0()



EVENT   11
 PAGE   1
  250(bytes(0x04,0x08,0x6f,0x3a,0x0c,0x52,0x50,0x47,0x3a,0x3a,0x53,0x45,0x08,0x3a,0x0a,0x40,0x6e,0x61,0x6d,0x65,0x49,0x22,0x0a,0x43,0x68,0x65,0x73,0x74,0x06,0x3a,0x06,0x45,0x54,0x3a,0x0b,0x40,0x70,0x69,0x74,0x63,0x68,0x69,0x69,0x3a,0x0c,0x40,0x76,0x6f,0x6c,0x75,0x6d,0x65,0x69,0x55))
  205(0,bytes(0x04,0x08,0x6f,0x3a,0x13,0x52,0x50,0x47,0x3a,0x3a,0x4d,0x6f,0x76,0x65,0x52,0x6f,0x75,0x74,0x65,0x09,0x3a,0x0c,0x40,0x72,0x65,0x70,0x65,0x61,0x74,0x46,0x3a,0x0f,0x40,0x73,0x6b,0x69,0x70,0x70,0x61,0x62,0x6c,0x65,0x46,0x3a,0x0a,0x40,0x77,0x61,0x69,0x74,0x54,0x3a,0x0a,0x40,0x6c,0x69,0x73,0x74,0x5b,0x0b,0x6f,0x3a,0x15,0x52,0x50,0x47,0x3a,0x3a,0x4d,0x6f,0x76,0x65,0x43,0x6f,0x6d,0x6d,0x61,0x6e,0x64,0x07,0x3a,0x0a,0x40,0x63,0x6f,0x64,0x65,0x69,0x29,0x3a,0x10,0x40,0x70,0x61,0x72,0x61,0x6d,0x65,0x74,0x65,0x72,0x73,0x5b,0x00,0x6f,0x3b,0x0a,0x07,0x3b,0x0b,0x69,0x16,0x3b,0x0c,0x5b,0x00,0x6f,0x3b,0x0a,0x07,0x3b,0x0b,0x69,0x14,0x3b,0x0c,0x5b,0x06,0x69,0x08,0x6f,0x3b,0x0a,0x07,0x3b,0x0b,0x69,0x17,0x3b,0x0c,0x5b,0x00,0x6f,0x3b,0x0a,0x07,0x3b,0x0b,0x69,0x14,0x3b,0x0c,0x5b,0x06,0x69,0x08,0x6f,0x3b,0x0a,0x07,0x3b,0x0b,0x69,0x00,0x3b,0x0c,0x5b,0x00))
  ChangeSelfSwitch("A",0)
  ChangeInventory_Item(5,0,0,1)
  0()
 PAGE   2
  // condition: self-switch A is ON
  0()



EVENT   12
 PAGE   1
  250(bytes(0x04,0x08,0x6f,0x3a,0x0c,0x52,0x50,0x47,0x3a,0x3a,0x53,0x45,0x08,0x3a,0x0a,0x40,0x6e,0x61,0x6d,0x65,0x49,0x22,0x0a,0x43,0x68,0x65,0x73,0x74,0x06,0x3a,0x06,0x45,0x54,0x3a,0x0b,0x40,0x70,0x69,0x74,0x63,0x68,0x69,0x69,0x3a,0x0c,0x40,0x76,0x6f,0x6c,0x75,0x6d,0x65,0x69,0x55))
  205(0,bytes(0x04,0x08,0x6f,0x3a,0x13,0x52,0x50,0x47,0x3a,0x3a,0x4d,0x6f,0x76,0x65,0x52,0x6f,0x75,0x74,0x65,0x09,0x3a,0x0c,0x40,0x72,0x65,0x70,0x65,0x61,0x74,0x46,0x3a,0x0f,0x40,0x73,0x6b,0x69,0x70,0x70,0x61,0x62,0x6c,0x65,0x46,0x3a,0x0a,0x40,0x77,0x61,0x69,0x74,0x54,0x3a,0x0a,0x40,0x6c,0x69,0x73,0x74,0x5b,0x0b,0x6f,0x3a,0x15,0x52,0x50,0x47,0x3a,0x3a,0x4d,0x6f,0x76,0x65,0x43,0x6f,0x6d,0x6d,0x61,0x6e,0x64,0x07,0x3a,0x0a,0x40,0x63,0x6f,0x64,0x65,0x69,0x29,0x3a,0x10,0x40,0x70,0x61,0x72,0x61,0x6d,0x65,0x74,0x65,0x72,0x73,0x5b,0x00,0x6f,0x3b,0x0a,0x07,0x3b,0x0b,0x69,0x16,0x3b,0x0c,0x5b,0x00,0x6f,0x3b,0x0a,0x07,0x3b,0x0b,0x69,0x14,0x3b,0x0c,0x5b,0x06,0x69,0x08,0x6f,0x3b,0x0a,0x07,0x3b,0x0b,0x69,0x17,0x3b,0x0c,0x5b,0x00,0x6f,0x3b,0x0a,0x07,0x3b,0x0b,0x69,0x14,0x3b,0x0c,0x5b,0x06,0x69,0x08,0x6f,0x3b,0x0a,0x07,0x3b,0x0b,0x69,0x00,0x3b,0x0c,0x5b,0x00))
  ChangeSelfSwitch("A",0)
  125(0,0,8200)
  ShowMessageFace("",0,0,2,1)
  ShowMessage("8200\\G 手に入れた！")
  0()
 PAGE   2
  // condition: self-switch A is ON
  0()



EVENT   13
 PAGE   1
  250(bytes(0x04,0x08,0x6f,0x3a,0x0c,0x52,0x50,0x47,0x3a,0x3a,0x53,0x45,0x08,0x3a,0x0a,0x40,0x6e,0x61,0x6d,0x65,0x49,0x22,0x0a,0x43,0x68,0x65,0x73,0x74,0x06,0x3a,0x06,0x45,0x54,0x3a,0x0b,0x40,0x70,0x69,0x74,0x63,0x68,0x69,0x69,0x3a,0x0c,0x40,0x76,0x6f,0x6c,0x75,0x6d,0x65,0x69,0x55))
  205(0,bytes(0x04,0x08,0x6f,0x3a,0x13,0x52,0x50,0x47,0x3a,0x3a,0x4d,0x6f,0x76,0x65,0x52,0x6f,0x75,0x74,0x65,0x09,0x3a,0x0c,0x40,0x72,0x65,0x70,0x65,0x61,0x74,0x46,0x3a,0x0f,0x40,0x73,0x6b,0x69,0x70,0x70,0x61,0x62,0x6c,0x65,0x46,0x3a,0x0a,0x40,0x77,0x61,0x69,0x74,0x54,0x3a,0x0a,0x40,0x6c,0x69,0x73,0x74,0x5b,0x0b,0x6f,0x3a,0x15,0x52,0x50,0x47,0x3a,0x3a,0x4d,0x6f,0x76,0x65,0x43,0x6f,0x6d,0x6d,0x61,0x6e,0x64,0x07,0x3a,0x0a,0x40,0x63,0x6f,0x64,0x65,0x69,0x29,0x3a,0x10,0x40,0x70,0x61,0x72,0x61,0x6d,0x65,0x74,0x65,0x72,0x73,0x5b,0x00,0x6f,0x3b,0x0a,0x07,0x3b,0x0b,0x69,0x16,0x3b,0x0c,0x5b,0x00,0x6f,0x3b,0x0a,0x07,0x3b,0x0b,0x69,0x14,0x3b,0x0c,0x5b,0x06,0x69,0x08,0x6f,0x3b,0x0a,0x07,0x3b,0x0b,0x69,0x17,0x3b,0x0c,0x5b,0x00,0x6f,0x3b,0x0a,0x07,0x3b,0x0b,0x69,0x14,0x3b,0x0c,0x5b,0x06,0x69,0x08,0x6f,0x3b,0x0a,0x07,0x3b,0x0b,0x69,0x00,0x3b,0x0c,0x5b,0x00))
  ChangeSelfSwitch("A",0)
  ChangeInventoryArmor(1509,0,0,1)
  0()
 PAGE   2
  // condition: self-switch A is ON
  0()



EVENT   15
 PAGE   1
  250(bytes(0x04,0x08,0x6f,0x3a,0x0c,0x52,0x50,0x47,0x3a,0x3a,0x53,0x45,0x08,0x3a,0x0a,0x40,0x6e,0x61,0x6d,0x65,0x49,0x22,0x0a,0x43,0x68,0x65,0x73,0x74,0x06,0x3a,0x06,0x45,0x54,0x3a,0x0b,0x40,0x70,0x69,0x74,0x63,0x68,0x69,0x69,0x3a,0x0c,0x40,0x76,0x6f,0x6c,0x75,0x6d,0x65,0x69,0x55))
  205(0,bytes(0x04,0x08,0x6f,0x3a,0x13,0x52,0x50,0x47,0x3a,0x3a,0x4d,0x6f,0x76,0x65,0x52,0x6f,0x75,0x74,0x65,0x09,0x3a,0x0c,0x40,0x72,0x65,0x70,0x65,0x61,0x74,0x46,0x3a,0x0f,0x40,0x73,0x6b,0x69,0x70,0x70,0x61,0x62,0x6c,0x65,0x46,0x3a,0x0a,0x40,0x77,0x61,0x69,0x74,0x54,0x3a,0x0a,0x40,0x6c,0x69,0x73,0x74,0x5b,0x0b,0x6f,0x3a,0x15,0x52,0x50,0x47,0x3a,0x3a,0x4d,0x6f,0x76,0x65,0x43,0x6f,0x6d,0x6d,0x61,0x6e,0x64,0x07,0x3a,0x0a,0x40,0x63,0x6f,0x64,0x65,0x69,0x29,0x3a,0x10,0x40,0x70,0x61,0x72,0x61,0x6d,0x65,0x74,0x65,0x72,0x73,0x5b,0x00,0x6f,0x3b,0x0a,0x07,0x3b,0x0b,0x69,0x16,0x3b,0x0c,0x5b,0x00,0x6f,0x3b,0x0a,0x07,0x3b,0x0b,0x69,0x14,0x3b,0x0c,0x5b,0x06,0x69,0x08,0x6f,0x3b,0x0a,0x07,0x3b,0x0b,0x69,0x17,0x3b,0x0c,0x5b,0x00,0x6f,0x3b,0x0a,0x07,0x3b,0x0b,0x69,0x14,0x3b,0x0c,0x5b,0x06,0x69,0x08,0x6f,0x3b,0x0a,0x07,0x3b,0x0b,0x69,0x00,0x3b,0x0c,0x5b,0x00))
  ChangeSelfSwitch("A",0)
  ChangeInventory_Item(216,0,0,1)
  0()
 PAGE   2
  // condition: self-switch A is ON
  0()



EVENT   2
 PAGE   1
  250(bytes(0x04,0x08,0x6f,0x3a,0x0c,0x52,0x50,0x47,0x3a,0x3a,0x53,0x45,0x08,0x3a,0x0a,0x40,0x6e,0x61,0x6d,0x65,0x49,0x22,0x09,0x4d,0x6f,0x76,0x65,0x06,0x3a,0x06,0x45,0x54,0x3a,0x0b,0x40,0x70,0x69,0x74,0x63,0x68,0x69,0x69,0x3a,0x0c,0x40,0x76,0x6f,0x6c,0x75,0x6d,0x65,0x69,0x55))
  TeleportPlayer(0,2,283,197,2,0)
  0()



EVENT   3
 PAGE   1
  250(bytes(0x04,0x08,0x6f,0x3a,0x0c,0x52,0x50,0x47,0x3a,0x3a,0x53,0x45,0x08,0x3a,0x0a,0x40,0x6e,0x61,0x6d,0x65,0x49,0x22,0x09,0x4d,0x6f,0x76,0x65,0x06,0x3a,0x06,0x45,0x54,0x3a,0x0b,0x40,0x70,0x69,0x74,0x63,0x68,0x69,0x69,0x3a,0x0c,0x40,0x76,0x6f,0x6c,0x75,0x6d,0x65,0x69,0x55))
  TeleportPlayer(0,2,283,197,2,0)
  0()



EVENT   4
 PAGE   1
  250(bytes(0x04,0x08,0x6f,0x3a,0x0c,0x52,0x50,0x47,0x3a,0x3a,0x53,0x45,0x08,0x3a,0x0a,0x40,0x6e,0x61,0x6d,0x65,0x49,0x22,0x09,0x4d,0x6f,0x76,0x65,0x06,0x3a,0x06,0x45,0x54,0x3a,0x0b,0x40,0x70,0x69,0x74,0x63,0x68,0x69,0x69,0x3a,0x0c,0x40,0x76,0x6f,0x6c,0x75,0x6d,0x65,0x69,0x55))
  TeleportPlayer(0,2,283,197,2,0)
  0()



EVENT   5
 PAGE   1
  250(bytes(0x04,0x08,0x6f,0x3a,0x0c,0x52,0x50,0x47,0x3a,0x3a,0x53,0x45,0x08,0x3a,0x0a,0x40,0x6e,0x61,0x6d,0x65,0x49,0x22,0x09,0x4d,0x6f,0x76,0x65,0x06,0x3a,0x06,0x45,0x54,0x3a,0x0b,0x40,0x70,0x69,0x74,0x63,0x68,0x69,0x69,0x3a,0x0c,0x40,0x76,0x6f,0x6c,0x75,0x6d,0x65,0x69,0x55))
  TeleportPlayer(0,2,283,197,2,0)
  0()



EVENT   6
 PAGE   1
  250(bytes(0x04,0x08,0x6f,0x3a,0x0c,0x52,0x50,0x47,0x3a,0x3a,0x53,0x45,0x08,0x3a,0x0a,0x40,0x6e,0x61,0x6d,0x65,0x49,0x22,0x09,0x4d,0x6f,0x76,0x65,0x06,0x3a,0x06,0x45,0x54,0x3a,0x0b,0x40,0x70,0x69,0x74,0x63,0x68,0x69,0x69,0x3a,0x0c,0x40,0x76,0x6f,0x6c,0x75,0x6d,0x65,0x69,0x55))
  TeleportPlayer(0,2,283,197,2,0)
  0()



EVENT   17
 PAGE   1
  0()
 PAGE   2
  // condition: switch 2184 is ON
  0()



EVENT   18
 PAGE   1
  0()
 PAGE   2
  // condition: switch 2184 is ON
  0()



EVENT   19
 PAGE   1
  If(1,1056,0,0,0)
   ShowMessageFace("ruka_fc1",0,0,2,1)
   ShowMessage("【ルカ】")
   ShowMessage("こんなところに集落が……んっ？")
   0()
  EndIf()
  If(1,1056,0,1,0)
   ShowMessageFace("ruka_fc1",0,0,2,2)
   ShowMessage("【ルカ】")
   ShowMessage("ここがプランセクト村か……んっ？")
   0()
  EndIf()
  ShowMessageFace("a_alm_fc1",0,0,2,3)
  ShowMessage("【アルラ・アルム】")
  ShowMessage("侵入者ですか、ここにまで踏み込んでくるとは……！")
  ShowMessageFace("a_looty_fc1",0,0,2,4)
  ShowMessage("【アルラ・ルーティ】")
  ShowMessage("昆虫族の手先め、やってやるぜ！")
  If(0,4,0)
   ShowMessageFace("alice_fc5",2,0,2,5)
   ShowMessage("【アリス】")
   ShowMessage("待て、我々は……")
   ShowMessage("ええい、話を聞かんか！")
   0()
  EndIf()
  If(0,5,0)
   ShowMessageFace("iriasu_fc5",0,0,2,6)
   ShowMessage("【イリアス】")
   ShowMessage("私を虫扱いしますか！")
   ShowMessage("絶対に許しません！")
   0()
  EndIf()
  If(4,129,0)
   ShowMessageFace("brunhild_fc1",0,0,2,7)
   ShowMessage("【ヒルデ】")
   ShowMessage("敵、アルラウネ亜種二体……戦闘、開始。")
   0()
  EndIf()
  ChangeSwitch(81,81,0)
  Battle(0,661,false,false)
  ChangeSwitch(81,81,1)
  ChangeSwitch(2184,2184,0)
  If(0,4,0)
   ShowMessageFace("alice_fc5",0,0,2,8)
   ShowMessage("【アリス】")
   ShowMessage("植物族と昆虫族が争っているという話だが……")
   ShowMessage("思った以上に、事態は悪化しているようだな。")
   ShowMessageFace("alice_fc5",0,0,2,9)
   ShowMessage("【アリス】")
   ShowMessage("とにかく、責任者に話を聞こう。")
   ShowMessage("この森の中を探索するぞ。")
   0()
  EndIf()
  If(0,5,0)
   ShowMessageFace("iriasu_fc5",0,0,2,10)
   ShowMessage("【イリアス】")
   ShowMessage("植物族と昆虫族が争っているという話ですが……")
   ShowMessage("この私を虫扱いとは、絶対に許せません！")
   ShowMessageFace("iriasu_fc5",0,0,2,11)
   ShowMessage("【イリアス】")
   ShowMessage("責任者を見つけ出し、処罰するのです！")
   ShowMessage("さあルカ、森の中を捜索しますよ！")
   0()
  EndIf()
  If(4,136,0)
   ShowMessageFace("elf_fc1",0,0,2,12)
   ShowMessage("【クローディア】")
   ShowMessage("この森、殺伐としてるわね……")
   ShowMessage("油断は禁物よ。")
   0()
  EndIf()
  EndEventProcessing()
  0()
 PAGE   2
  // condition: switch 2184 is ON
  0()



EVENT   20
 PAGE   1
  If(1,1061,0,0,0)
   ShowMessageFace("dorothy_fc1",0,0,2,1)
   ShowMessage("【ドローシー】")
   ShowMessage("私達は、傭兵に過ぎないわ……")
   ShowMessage("ただ敵を倒すのみよ。")
   EndEventProcessing()
   0()
  EndIf()
  If(1,1061,0,1,1)
   RunCommonEvent(324)
   EndEventProcessing()
   0()
  EndIf()
  0()
 PAGE   2
  // condition: switch 2154 is ON
  0()
 PAGE   3
  // condition: switch 2187 is ON
  0()



EVENT   21
 PAGE   1
  If(1,1061,0,0,0)
   ShowMessageFace("rafi_fc1",0,0,2,1)
   ShowMessage("【ラフィ】")
   ShowMessage("話ならば、プリエステスにどうぞ……")
   EndEventProcessing()
   0()
  EndIf()
  If(1,1061,0,1,1)
   RunCommonEvent(324)
   EndEventProcessing()
   0()
  EndIf()
  0()
 PAGE   2
  // condition: switch 2154 is ON
  0()
 PAGE   3
  // condition: switch 2187 is ON
  0()



EVENT   22
 PAGE   1
  If(1,1061,0,0,0)
   ShowMessageFace("dina_fc1",0,0,2,1)
   ShowMessage("【ディーナ】")
   ShowMessage("話し掛けないで……")
   EndEventProcessing()
   0()
  EndIf()
  If(1,1061,0,1,1)
   RunCommonEvent(324)
   EndEventProcessing()
   0()
  EndIf()
  0()
 PAGE   2
  // condition: switch 2154 is ON
  0()
 PAGE   3
  // condition: switch 2187 is ON
  0()



EVENT   23
 PAGE   1
  If(1,1056,0,1,2)
   PictureDisplay(5,"80_a_emp_st01",0,0,0,0,100,100,0,0)
   PictureMove(5,null,0,0,0,0,100,100,255,0,30,true)
   ShowMessageFace("a_emp_fc1",0,0,2,1)
   ShowMessage("【アルラ・プリエステス】")
   ShowMessage("おや……あなた達は、昆虫族の者ではありませんね。")
   ShowMessage("戦いに巻き込んでしまい、申し訳ありません。")
   If(0,4,0)
    ShowMessageFace("alice_fc6",1,0,2,2)
    ShowMessage("【アリス】")
    ShowMessage("見て分かれ！　どう見ても、虫ではなかろうが！")
    0()
   EndIf()
   If(0,5,0)
    ShowMessageFace("iriasu_fc5",0,0,2,3)
    ShowMessage("【イリアス】")
    ShowMessage("私を虫扱いした罪、受けてもらいますよ！")
    0()
   EndIf()
   If(4,127,0)
    ShowMessageFace("littlebug_fc1",0,0,2,4)
    ShowMessage("【リッピー】")
    ShowMessage("あたしは虫だけどな……")
    0()
   EndIf()
   If(0,6,0)
    ShowMessageFace("sonia_fc1",4,0,2,5)
    ShowMessage("【ソニア】")
    ShowMessage("まあまあ……話を聞こうよ。")
    0()
   Else()
    ShowMessageFace("ruka_fc1",0,0,2,6)
    ShowMessage("【ルカ】")
    ShowMessage("まあまあ……話を聞こうよ。")
    0()
   EndIf()
   ShowMessageFace("a_emp_fc1",0,0,2,7)
   ShowMessage("【アルラ・プリエステス】")
   ShowMessage("私はこの森の植物族の長、プリエステス。")
   ShowMessage("後ろの三人は、傭兵として名高いカナン三姉妹です。")
   PictureDisplay(5,"80_a_emp_st01",0,0,-150,0,100,100,255,0)
   PictureDisplay(6,"80_dina_st01",0,0,150,0,100,100,255,0)
   ShowMessageFace("dina_fc1",0,0,2,8)
   ShowMessage("【ディーナ】")
   ShowMessage("名前くらいは、聞いた事があるでしょう……")
   ShowMessage("同族のよしみで、通常の半額で雇われているのよ。")
   If(4,171,0)
    ShowMessageFace("lizardboss_fc1",3,0,2,9)
    ShowMessage("【ミランダ】")
    ShowMessage("カナン三姉妹か……")
    ShowMessage("物騒な連中も絡んでるもんだねぇ。")
    0()
   EndIf()
   PictureClear(6)
   PictureDisplay(5,"80_a_emp_st01",0,0,0,0,100,100,255,0)
   If(0,4,0)
    ShowMessageFace("alice_fc5",0,0,2,10)
    ShowMessage("【アリス】")
    ShowMessage("アリスフィーズ17世の介入で、争いは収まったと聞いたが……")
    ShowMessage("なぜ、植物族と昆虫族の戦争が再燃したのだ？")
    0()
   EndIf()
   If(0,5,0)
    ShowMessageFace("iriasu_fc4",7,0,2,11)
    ShowMessage("【イリアス】")
    ShowMessage("アリスフィーズ17世の介入で、争いは収まったと聞きました。")
    ShowMessage("しかしなぜ、今また植物族と昆虫族は戦っているのです？")
    0()
   EndIf()
   ShowMessageFace("a_emp_fc1",0,0,2,12)
   ShowMessage("【アルラ・プリエステス】")
   ShowMessage("ご存じでしょうが、あれは数ヶ月前の話……")
   ShowMessage("突然に現れた17世は植物族と昆虫族の全員をたやすく撃破。")
   ShowMessageFace("a_emp_fc1",0,0,2,13)
   ShowMessage("【アルラ・プリエステス】")
   ShowMessage("並外れた力を示した上で和解を強制され、私達は従いました。")
   ShowMessage("満足した17世はすぐに姿を消し、それ以来ここには訪れていません。")
   ShowMessageFace("a_emp_fc1",0,0,2,14)
   ShowMessage("【アルラ・プリエステス】")
   ShowMessage("強制された平和とはいえ、長い争いに疲れ果てていたのも事実。")
   ShowMessage("植物族と昆虫族は、こうして休戦に至ったのですが――")
   ShowMessageFace("a_emp_fc1",0,0,2,15)
   ShowMessage("【アルラ・プリエステス】")
   ShowMessage("そんな平和も、長くは続きませんでした。")
   ShowMessage("我々の前に、あの方達が現れたのです。")
   If(0,4,0)
    ShowMessageFace("alice_fc5",2,0,2,16)
    ShowMessage("【アリス】")
    ShowMessage("あの方達……とは？")
    0()
   EndIf()
   If(0,5,0)
    ShowMessageFace("iriasu_fc4",2,0,2,17)
    ShowMessage("【イリアス】")
    ShowMessage("それは、いったい何者なのです……？")
    0()
   EndIf()
   ShowMessageFace("a_emp_fc1",0,0,2,18)
   ShowMessage("【アルラ・プリエステス】")
   ShowMessage("あの方達が現れたのは、ほんの数週間前――")
   221()
   PictureClear(5)
   211(0)
   Wait(60)
   TeleportPlayer(0,732,1,0,0,2)
   EndEventProcessing()
   0()
  EndIf()
  If(1,1056,0,2,0)
   PictureDisplay(5,"80_a_emp_st01",0,0,0,0,100,100,0,0)
   PictureMove(5,null,0,0,0,0,100,100,255,0,30,true)
   ShowMessageFace("a_emp_fc1",0,0,2,19)
   ShowMessage("【アルラ・プリエステス】")
   ShowMessage("先遣部隊が、すでに昆虫族と交戦中です。")
   ShowMessage("どうか加勢をお願い致します。")
   ShowMessageFace("a_emp_fc1",0,0,2,20)
   ShowMessage("【アルラ・プリエステス】")
   ShowMessage("レド山は、ここから南東の山岳地帯。")
   ShowMessage("山脈沿いに進めば、山への入り口が見つかるでしょう。")
   PictureClear(5)
   EndEventProcessing()
   0()
  EndIf()
  If(1,1056,0,3,0)
   PictureDisplay(5,"80_a_emp_st01",0,0,0,0,100,100,0,0)
   PictureMove(5,null,0,0,0,0,100,100,255,0,30,true)
   ShowMessageFace("a_emp_fc1",0,0,2,21)
   ShowMessage("【アルラ・プリエステス】")
   ShowMessage("あなた達は、レド山に向かったはず……")
   ShowMessage("何か、私に用でしょうか？")
   ShowChoices(strings("プリエステスと戦う","説得する","用はない"),3)
   IfPlayerPicksChoice(0,null)
    ShowMessageFace("",0,0,2,22)
    ShowMessage("ここで戦いを挑むと、植物族との和解は不可能になるだろう……")
    ShowMessage("本当にそれでいいだろうか？")
    ShowChoices(strings("それでも戦う","考え直す"),2)
    IfPlayerPicksChoice(0,null)
     241(bytes(0x04,0x08,0x6f,0x3a,0x0d,0x52,0x50,0x47,0x3a,0x3a,0x42,0x47,0x4d,0x08,0x3a,0x0a,0x40,0x6e,0x61,0x6d,0x65,0x49,0x22,0x0a,0x62,0x6f,0x73,0x73,0x30,0x06,0x3a,0x06,0x45,0x54,0x3a,0x0c,0x40,0x76,0x6f,0x6c,0x75,0x6d,0x65,0x69,0x69,0x3a,0x0b,0x40,0x70,0x69,0x74,0x63,0x68,0x69,0x69))
     ShowMessageFace("ruka_fc1",0,0,2,23)
     ShowMessage("【ルカ】")
     ShowMessage("昆虫族のために、お前を倒す！")
     If(4,134,0)
      ShowMessageFace("chrom_fc2",1,0,2,24)
      ShowMessage("【クロム】")
      ShowMessage("手っ取り早く終わらせるのじゃ！")
      0()
     EndIf()
     PictureDisplay(5,"80_a_emp_st03",0,0,0,0,100,100,255,0)
     ShowMessageFace("a_emp_fc1",2,0,2,25)
     ShowMessage("【アルラ・プリエステス】")
     ShowMessage("なんと、昆虫族に寝返ってしまうとは……")
     ShowMessage("このような人間を信用してしまったのが間違いでしたね。")
     If(0,2154,1)
      ShowMessageFace("a_emp_fc1",2,0,2,26)
      ShowMessage("【アルラ・プリエステス】")
      ShowMessage("……カナン三姉妹、任せてよろしいでしょうか？")
      PictureClear(5)
      Wait(60)
      205(20,bytes(0x04,0x08,0x6f,0x3a,0x13,0x52,0x50,0x47,0x3a,0x3a,0x4d,0x6f,0x76,0x65,0x52,0x6f,0x75,0x74,0x65,0x09,0x3a,0x0c,0x40,0x72,0x65,0x70,0x65,0x61,0x74,0x46,0x3a,0x0f,0x40,0x73,0x6b,0x69,0x70,0x70,0x61,0x62,0x6c,0x65,0x46,0x3a,0x0a,0x40,0x77,0x61,0x69,0x74,0x46,0x3a,0x0a,0x40,0x6c,0x69,0x73,0x74,0x5b,0x08,0x6f,0x3a,0x15,0x52,0x50,0x47,0x3a,0x3a,0x4d,0x6f,0x76,0x65,0x43,0x6f,0x6d,0x6d,0x61,0x6e,0x64,0x07,0x3a,0x0a,0x40,0x63,0x6f,0x64,0x65,0x69,0x2a,0x3a,0x10,0x40,0x70,0x61,0x72,0x61,0x6d,0x65,0x74,0x65,0x72,0x73,0x5b,0x00,0x6f,0x3b,0x0a,0x07,0x3b,0x0b,0x69,0x06,0x3b,0x0c,0x5b,0x00,0x6f,0x3b,0x0a,0x07,0x3b,0x0b,0x69,0x00,0x3b,0x0c,0x5b,0x00))
      205(21,bytes(0x04,0x08,0x6f,0x3a,0x13,0x52,0x50,0x47,0x3a,0x3a,0x4d,0x6f,0x76,0x65,0x52,0x6f,0x75,0x74,0x65,0x09,0x3a,0x0c,0x40,0x72,0x65,0x70,0x65,0x61,0x74,0x46,0x3a,0x0f,0x40,0x73,0x6b,0x69,0x70,0x70,0x61,0x62,0x6c,0x65,0x46,0x3a,0x0a,0x40,0x77,0x61,0x69,0x74,0x46,0x3a,0x0a,0x40,0x6c,0x69,0x73,0x74,0x5b,0x08,0x6f,0x3a,0x15,0x52,0x50,0x47,0x3a,0x3a,0x4d,0x6f,0x76,0x65,0x43,0x6f,0x6d,0x6d,0x61,0x6e,0x64,0x07,0x3a,0x0a,0x40,0x63,0x6f,0x64,0x65,0x69,0x2a,0x3a,0x10,0x40,0x70,0x61,0x72,0x61,0x6d,0x65,0x74,0x65,0x72,0x73,0x5b,0x00,0x6f,0x3b,0x0a,0x07,0x3b,0x0b,0x69,0x06,0x3b,0x0c,0x5b,0x00,0x6f,0x3b,0x0a,0x07,0x3b,0x0b,0x69,0x00,0x3b,0x0c,0x5b,0x00))
      205(22,bytes(0x04,0x08,0x6f,0x3a,0x13,0x52,0x50,0x47,0x3a,0x3a,0x4d,0x6f,0x76,0x65,0x52,0x6f,0x75,0x74,0x65,0x09,0x3a,0x0c,0x40,0x72,0x65,0x70,0x65,0x61,0x74,0x46,0x3a,0x0f,0x40,0x73,0x6b,0x69,0x70,0x70,0x61,0x62,0x6c,0x65,0x46,0x3a,0x0a,0x40,0x77,0x61,0x69,0x74,0x54,0x3a,0x0a,0x40,0x6c,0x69,0x73,0x74,0x5b,0x08,0x6f,0x3a,0x15,0x52,0x50,0x47,0x3a,0x3a,0x4d,0x6f,0x76,0x65,0x43,0x6f,0x6d,0x6d,0x61,0x6e,0x64,0x07,0x3a,0x0a,0x40,0x63,0x6f,0x64,0x65,0x69,0x2a,0x3a,0x10,0x40,0x70,0x61,0x72,0x61,0x6d,0x65,0x74,0x65,0x72,0x73,0x5b,0x00,0x6f,0x3b,0x0a,0x07,0x3b,0x0b,0x69,0x06,0x3b,0x0c,0x5b,0x00,0x6f,0x3b,0x0a,0x07,0x3b,0x0b,0x69,0x00,0x3b,0x0c,0x5b,0x00))
      PictureDisplay(5,"80_dorothy_st02",0,0,0,0,100,100,0,0)
      PictureMove(5,null,0,0,0,0,100,100,255,0,30,true)
      ShowMessageFace("dorothy_fc1",1,0,2,27)
      ShowMessage("【ドローシー】")
      ShowMessage("ふふっ、そのための傭兵よ……")
      PictureDisplay(5,"80_dorothy_st02",0,0,-150,0,100,100,255,0)
      PictureDisplay(6,"80_rafi_st02",0,0,150,0,100,100,255,0)
      ShowMessageFace("rafi_fc1",1,0,2,28)
      ShowMessage("【ラフィ】")
      ShowMessage("初めて見た時から、あなたを溶かしたいと思っていました……")
      PictureDisplay(5,"80_dina_st02",0,0,-150,0,100,100,255,0)
      ShowMessageFace("dina_fc1",1,0,2,29)
      ShowMessage("【ディーナ】")
      ShowMessage("大きな戦いの前に、軽く腹ごしらえをさせてもらうわ……")
      If(0,4,0)
       ShowMessageFace("alice_fc5",2,0,2,30)
       ShowMessage("【アリス】")
       ShowMessage("食うのは好きだが、食われるのは嫌いだ！")
       ShowMessage("返り討ちにしてくれる！")
       0()
      EndIf()
      If(0,5,0)
       ShowMessageFace("iriasu_fc4",7,0,2,31)
       ShowMessage("【イリアス】")
       ShowMessage("邪魔をするなら、三姉妹まとめて討ち果たします！")
       ShowMessage("行きますよ、ルカ！")
       0()
      EndIf()
      PictureClear(5)
      PictureClear(6)
      SetBattleBGM(bytes(0x04,0x08,0x6f,0x3a,0x0d,0x52,0x50,0x47,0x3a,0x3a,0x42,0x47,0x4d,0x08,0x3a,0x0a,0x40,0x6e,0x61,0x6d,0x65,0x49,0x22,0x0a,0x62,0x6f,0x73,0x73,0x31,0x06,0x3a,0x06,0x45,0x54,0x3a,0x0c,0x40,0x76,0x6f,0x6c,0x75,0x6d,0x65,0x69,0x69,0x3a,0x0b,0x40,0x70,0x69,0x74,0x63,0x68,0x69,0x69))
      ChangeSwitch(22,22,0)
      Battle(0,665,false,false)
      ChangeSwitch(22,22,1)
      SetBattleBGM(bytes(0x04,0x08,0x6f,0x3a,0x0d,0x52,0x50,0x47,0x3a,0x3a,0x42,0x47,0x4d,0x08,0x3a,0x0a,0x40,0x6e,0x61,0x6d,0x65,0x49,0x22,0x0b,0x62,0x61,0x74,0x74,0x6c,0x65,0x06,0x3a,0x06,0x45,0x54,0x3a,0x0c,0x40,0x76,0x6f,0x6c,0x75,0x6d,0x65,0x69,0x69,0x3a,0x0b,0x40,0x70,0x69,0x74,0x63,0x68,0x69,0x69))
      ChangeSwitch(2154,2154,0)
      241(bytes(0x04,0x08,0x6f,0x3a,0x0d,0x52,0x50,0x47,0x3a,0x3a,0x42,0x47,0x4d,0x08,0x3a,0x0a,0x40,0x6e,0x61,0x6d,0x65,0x49,0x22,0x0a,0x62,0x6f,0x73,0x73,0x30,0x06,0x3a,0x06,0x45,0x54,0x3a,0x0c,0x40,0x76,0x6f,0x6c,0x75,0x6d,0x65,0x69,0x69,0x3a,0x0b,0x40,0x70,0x69,0x74,0x63,0x68,0x69,0x69))
      PictureDisplay(5,"80_a_emp_st03",0,0,0,0,100,100,0,0)
      PictureMove(5,null,0,0,0,0,100,100,255,0,30,true)
      ShowMessageFace("a_emp_fc1",2,0,2,32)
      ShowMessage("【アルラ・プリエステス】")
      ShowMessage("なんと、カナン三姉妹を破るとは……")
      ShowMessage("それだけの力がこちらに加われば、昆虫族の撃破も可能だったのに。")
      0()
     EndIf()
     ShowMessageFace("a_emp_fc1",2,0,2,33)
     ShowMessage("【アルラ・プリエステス】")
     ShowMessage("仕方ありません、この私が相手をしましょう。")
     ShowMessage("あなた達を倒し、一気にクィーンビーをも討ちます！")
     If(4,241,0)
      ShowMessageFace("a_emp_fc1",0,0,2,34)
      ShowMessage("【プリエステス】")
      ShowMessage("相当にお疲れのようですね。")
      ShowMessage("少し、ゆっくり心を休めては……？")
      ShowMessageFace("a_emp_fc1",2,0,2,35)
      ShowMessage("【アルラ・プリエステス】")
      ShowMessage("もう一人の私が見える……")
      ShowMessage("この戦いが終わったら、カウンセリングを受けないと……")
      0()
     EndIf()
     If(0,4,0)
      ShowMessageFace("alice_fc5",2,0,2,36)
      ShowMessage("【アリス】")
      ShowMessage("プリエステスは、次期クィーンアルラウネの候補でもある者。")
      ShowMessage("穏健派だからといって、気を抜くなよ……！")
      0()
     EndIf()
     If(0,5,0)
      ShowMessageFace("iriasu_fc4",7,0,2,37)
      ShowMessage("【イリアス】")
      ShowMessage("プリエステスは、次期クィーンアルラウネと目されている妖魔。")
      ShowMessage("大人しそうな外見に騙され、油断しないように！")
      0()
     EndIf()
     ShowMessageFace("ruka_fc1",0,0,2,38)
     ShowMessage("【ルカ】")
     ShowMessage("ああ……行くぞっ！")
     If(4,185,0)
      ShowMessageFace("radio_fc1",0,0,2,39)
      ShowMessage("【ラディオ】")
      ShowMessage("草花は焼却だァーっ！")
      0()
     EndIf()
     PictureClear(5)
     SetBattleBGM(bytes(0x04,0x08,0x6f,0x3a,0x0d,0x52,0x50,0x47,0x3a,0x3a,0x42,0x47,0x4d,0x08,0x3a,0x0a,0x40,0x6e,0x61,0x6d,0x65,0x49,0x22,0x0a,0x62,0x6f,0x73,0x73,0x31,0x06,0x3a,0x06,0x45,0x54,0x3a,0x0c,0x40,0x76,0x6f,0x6c,0x75,0x6d,0x65,0x69,0x69,0x3a,0x0b,0x40,0x70,0x69,0x74,0x63,0x68,0x69,0x69))
     ChangeSwitch(22,22,0)
     Battle(0,666,false,false)
     ChangeSwitch(22,22,1)
     SetBattleBGM(bytes(0x04,0x08,0x6f,0x3a,0x0d,0x52,0x50,0x47,0x3a,0x3a,0x42,0x47,0x4d,0x08,0x3a,0x0a,0x40,0x6e,0x61,0x6d,0x65,0x49,0x22,0x0b,0x62,0x61,0x74,0x74,0x6c,0x65,0x06,0x3a,0x06,0x45,0x54,0x3a,0x0c,0x40,0x76,0x6f,0x6c,0x75,0x6d,0x65,0x69,0x69,0x3a,0x0b,0x40,0x70,0x69,0x74,0x63,0x68,0x69,0x69))
     ChangeSwitch(1902,1902,0)
     314(0,0)
     PictureDisplay(5,"80_a_emp_st03",0,0,0,0,100,100,0,0)
     PictureMove(5,null,0,0,0,0,100,100,255,0,30,true)
     ShowMessageFace("a_emp_fc1",2,0,2,40)
     ShowMessage("【アルラ・プリエステス】")
     ShowMessage("くっ、力及びませんでしたか……")
     ShowMessage("この敗北、全ての責任は私にあります。")
     ShowMessageFace("a_emp_fc1",2,0,2,41)
     ShowMessage("【アルラ・プリエステス】")
     ShowMessage("よって、罰を受けるのは私のみ。")
     ShowMessage("配下の者達は、どうか免責を願います……")
     If(0,4,0)
      ShowMessageFace("alice_fc5",0,0,2,42)
      ShowMessage("【アリス】")
      ShowMessage("敗者に危害を加える気など、元よりない。")
      ShowMessage("我々は、この無益な戦争を終わらせたかっただけだ。")
      0()
     EndIf()
     If(0,5,0)
      ShowMessageFace("iriasu_fc4",1,0,2,43)
      ShowMessage("【イリアス】")
      ShowMessage("ふふふ……地に這いつくばり、許しを乞うのです。")
      ShowMessage("その態度が無様であればあるほど、助かる植物の数が増えますよ。")
      ShowMessageFace("a_emp_fc1",2,0,2,44)
      ShowMessage("【アルラ・プリエステス】")
      ShowMessage("いかなる恥辱にも甘んじましょう……")
      If(0,6,0)
       ShowMessageFace("sonia_fc2",2,0,2,45)
       ShowMessage("【ソニア】")
       ShowMessage("ちょっと、真に受けないでよ。")
       ShowMessage("ほら、イリアス様もワガママ言わないの。")
       ShowMessageFace("iriasu_fc5",0,0,2,46)
       ShowMessage("【イリアス】")
       ShowMessage("私を子供扱いしないように！")
       0()
      EndIf()
      0()
     EndIf()
     PictureClear(5)
     ShowMessageFace("ruka_fc1",0,0,2,47)
     ShowMessage("【ルカ】")
     ShowMessage("それじゃあ、レド山に戻ろう。")
     ShowMessage("植物族にひどい処遇をしないよう、クィーンビーに頼まないとね。")
     ShowMessageFace("",0,0,2,48)
     ShowMessage("こうして、戦いは昆虫族の勝利に終わった。")
     ShowMessage("功労者である僕達は、レド山に戻ったのである――")
     TeleportPlayer(0,134,30,14,8,0)
     241(bytes(0x04,0x08,0x6f,0x3a,0x0d,0x52,0x50,0x47,0x3a,0x3a,0x42,0x47,0x4d,0x08,0x3a,0x0a,0x40,0x6e,0x61,0x6d,0x65,0x49,0x22,0x14,0x73,0x63,0x65,0x6e,0x65,0x5f,0x65,0x70,0x69,0x6c,0x6f,0x67,0x75,0x65,0x32,0x06,0x3a,0x06,0x45,0x54,0x3a,0x0c,0x40,0x76,0x6f,0x6c,0x75,0x6d,0x65,0x69,0x69,0x3a,0x0b,0x40,0x70,0x69,0x74,0x63,0x68,0x69,0x69))
     PictureDisplay(5,"80_queenbee_st02",0,0,0,0,100,100,0,0)
     PictureMove(5,null,0,0,0,0,100,100,255,0,30,true)
     355("gain_medal(39)")
     ShowMessageFace("queenbee_fc1",1,0,2,49)
     ShowMessage("【クィーンビー】")
     ShowMessage("なんとも素晴らしき働きであった。")
     ShowMessage("同胞を代表し、女王である妾が礼を言おう。")
     If(0,4,0)
      ShowMessageFace("alice_fc5",0,0,2,50)
      ShowMessage("【アリス】")
      ShowMessage("植物族に対して、あまり残酷な処遇はするなよ……")
      ShowMessage("事によっては、我々が相手になるぞ。")
      0()
     EndIf()
     If(0,5,0)
      ShowMessageFace("iriasu_fc4",0,0,2,51)
      ShowMessage("【イリアス】")
      ShowMessage("ところで、敗れた植物族の処遇はどうなるのです？")
      ShowMessage("拷問や処刑なら、私が手伝っても良いですよ。")
      0()
     EndIf()
     ShowMessageFace("queenbee_fc1",1,0,2,52)
     ShowMessage("【クィーンビー】")
     ShowMessage("この山、いざ来てみれば意外に住み心地が良い。")
     ShowMessage("当分の間、我らはこの地で過ごそうと思う。")
     ShowMessageFace("queenbee_fc1",1,0,2,53)
     ShowMessage("【クィーンビー】")
     ShowMessage("植物族の連中は、森におればいい……")
     ShowMessage("もちろん、昆虫族に牙を剥く事は絶対に許さんがな。")
     If(0,4,0)
      ShowMessageFace("alice_fc5",2,0,2,54)
      ShowMessage("【アリス】")
      ShowMessage("そう言えば、ケツァルコァトルはどうなったのだ？")
      ShowMessage("植物族を率いていたというテスカトリポカも姿を見なかったが……")
      0()
     EndIf()
     If(0,5,0)
      ShowMessageFace("iriasu_fc4",5,0,2,55)
      ShowMessage("【イリアス】")
      ShowMessage("そう言えば、ケツァルコァトルの事をすっかり忘れていませんか！？")
      ShowMessage("植物族を率いるテスカトリポカも見ないままですが……")
      0()
     EndIf()
     ShowMessageFace("queenbee_fc1",0,0,2,56)
     ShowMessage("【クィーンビー】")
     ShowMessage("働き蜂の報告によれば……")
     ShowMessage("はるか西方の平原で、殴り合っている両者の姿が目撃されたとのこと。")
     ShowMessageFace("queenbee_fc1",0,0,2,57)
     ShowMessage("【クィーンビー】")
     ShowMessage("もはや、我々の事などすっかり忘れてしまったらしい。")
     ShowMessage("二人に付き合わされた我らも、つくづく愚かであった……")
     ShowMessageFace("ruka_fc1",0,0,2,58)
     ShowMessage("【ルカ】")
     ShowMessage("うん……まあ、一件落着かな。")
     If(0,4,0)
      ShowMessageFace("alice_fc5",0,0,2,59)
      ShowMessage("【アリス】")
      ShowMessage("バカ二匹は、黒のアリスの命令で村を支配しに来たと言ったな。")
      ShowMessage("また黒のアリスが接触してきたら、我々に連絡してくれ。")
      0()
     EndIf()
     If(0,5,0)
      ShowMessageFace("iriasu_fc4",2,0,2,60)
      ShowMessage("【イリアス】")
      ShowMessage("馬鹿二匹は、黒のアリスに差し向けられたという話でしたね……")
      ShowMessage("また黒のアリスが接触してきたら、必ず我々に連絡を取るように。")
      0()
     EndIf()
     ShowMessageFace("queenbee_fc1",0,0,2,61)
     ShowMessage("【クィーンビー】")
     ShowMessage("今度こそ、昆虫族と植物族で力を合わせ抗うのみ。")
     ShowMessage("その際は、お主達の力を借りる事になるかもしれんな……")
     ShowMessageFace("queenbee_fc1",1,0,2,62)
     ShowMessage("【クィーンビー】")
     ShowMessage("ともかく、この恩は忘れまい。")
     ShowMessage("何か困った事があれば、妾を頼って参れ。")
     ShowMessageFace("queenbee_fc1",1,0,2,63)
     ShowMessage("【クィーンビー】")
     ShowMessage("それでは、またな。")
     ShowMessage("その旅に、武運あらん事を。")
     PictureClear(5)
     ShowMessageFace("",0,0,2,64)
     ShowMessage("こうして、プランセクト村の争いは幕を閉じた。")
     ShowMessage("さあ、冒険の旅を続けよう――")
     ChangeVariable(1061,1061,0,0,2)
     241(bytes(0x04,0x08,0x6f,0x3a,0x0d,0x52,0x50,0x47,0x3a,0x3a,0x42,0x47,0x4d,0x08,0x3a,0x0a,0x40,0x6e,0x61,0x6d,0x65,0x49,0x22,0x15,0x64,0x75,0x6e,0x67,0x65,0x6f,0x6e,0x5f,0x70,0x6c,0x61,0x6e,0x73,0x65,0x63,0x74,0x06,0x3a,0x06,0x45,0x54,0x3a,0x0c,0x40,0x76,0x6f,0x6c,0x75,0x6d,0x65,0x69,0x69,0x3a,0x0b,0x40,0x70,0x69,0x74,0x63,0x68,0x69,0x69))
     EndEventProcessing()
     0()
    IfPlayerPicksChoice(1,null)
     ShowMessageFace("ruka_fc1",0,0,2,65)
     ShowMessage("【ルカ】")
     ShowMessage("……ちょっと待っててね。")
     PictureClear(5)
     EndEventProcessing()
     0()
    404()
    0()
   IfPlayerPicksChoice(1,null)
    ShowMessageFace("ruka_fc1",0,0,2,66)
    ShowMessage("【ルカ】")
    ShowMessage("クィーンビーは、これ以上の戦いを望んでいないんだ。")
    ShowMessage("戦闘を止めるなら、このままレド山に――")
    ShowMessageFace("",0,0,2,67)
    ShowMessage("ルカは誠心誠意説得した……")
    ShowMessageFace("a_emp_fc1",0,0,2,68)
    ShowMessage("【アルラ・プリエステス】")
    ShowMessage("……………………")
    ShowMessageFace("a_emp_fc1",2,0,2,69)
    ShowMessage("【アルラ・プリエステス】")
    ShowMessage("確かに、一度は静まっていた争乱。")
    ShowMessage("このまま多大な犠牲を出すのも、本意ではありませんね。")
    ShowMessageFace("a_emp_fc1",2,0,2,70)
    ShowMessage("【アルラ・プリエステス】")
    ShowMessage("……いいでしょう。")
    ShowMessage("そちらの提示した条件で――")
    PictureClear(5)
    ShowMessageFace("tezcatlipoca_fc1",0,0,2,71)
    ShowMessage("【テスカトリポカ】")
    ShowMessage("そうはいかないのニャ！")
    241(bytes(0x04,0x08,0x6f,0x3a,0x0d,0x52,0x50,0x47,0x3a,0x3a,0x42,0x47,0x4d,0x08,0x3a,0x0a,0x40,0x6e,0x61,0x6d,0x65,0x49,0x22,0x0a,0x62,0x6f,0x73,0x73,0x30,0x06,0x3a,0x06,0x45,0x54,0x3a,0x0c,0x40,0x76,0x6f,0x6c,0x75,0x6d,0x65,0x69,0x69,0x3a,0x0b,0x40,0x70,0x69,0x74,0x63,0x68,0x69,0x69))
    250(bytes(0x04,0x08,0x6f,0x3a,0x0c,0x52,0x50,0x47,0x3a,0x3a,0x53,0x45,0x08,0x3a,0x0a,0x40,0x6e,0x61,0x6d,0x65,0x49,0x22,0x0d,0x6d,0x6f,0x6e,0x5f,0x77,0x61,0x72,0x70,0x06,0x3a,0x06,0x45,0x54,0x3a,0x0b,0x40,0x70,0x69,0x74,0x63,0x68,0x69,0x69,0x3a,0x0c,0x40,0x76,0x6f,0x6c,0x75,0x6d,0x65,0x69,0x55))
    ChangeSwitch(31,31,0)
    205(-1,bytes(0x04,0x08,0x6f,0x3a,0x13,0x52,0x50,0x47,0x3a,0x3a,0x4d,0x6f,0x76,0x65,0x52,0x6f,0x75,0x74,0x65,0x09,0x3a,0x0c,0x40,0x72,0x65,0x70,0x65,0x61,0x74,0x46,0x3a,0x0f,0x40,0x73,0x6b,0x69,0x70,0x70,0x61,0x62,0x6c,0x65,0x46,0x3a,0x0a,0x40,0x77,0x61,0x69,0x74,0x46,0x3a,0x0a,0x40,0x6c,0x69,0x73,0x74,0x5b,0x07,0x6f,0x3a,0x15,0x52,0x50,0x47,0x3a,0x3a,0x4d,0x6f,0x76,0x65,0x43,0x6f,0x6d,0x6d,0x61,0x6e,0x64,0x07,0x3a,0x0a,0x40,0x63,0x6f,0x64,0x65,0x69,0x18,0x3a,0x10,0x40,0x70,0x61,0x72,0x61,0x6d,0x65,0x74,0x65,0x72,0x73,0x5b,0x00,0x6f,0x3b,0x0a,0x07,0x3b,0x0b,0x69,0x00,0x3b,0x0c,0x5b,0x00))
    205(0,bytes(0x04,0x08,0x6f,0x3a,0x13,0x52,0x50,0x47,0x3a,0x3a,0x4d,0x6f,0x76,0x65,0x52,0x6f,0x75,0x74,0x65,0x09,0x3a,0x0c,0x40,0x72,0x65,0x70,0x65,0x61,0x74,0x46,0x3a,0x0f,0x40,0x73,0x6b,0x69,0x70,0x70,0x61,0x62,0x6c,0x65,0x46,0x3a,0x0a,0x40,0x77,0x61,0x69,0x74,0x46,0x3a,0x0a,0x40,0x6c,0x69,0x73,0x74,0x5b,0x07,0x6f,0x3a,0x15,0x52,0x50,0x47,0x3a,0x3a,0x4d,0x6f,0x76,0x65,0x43,0x6f,0x6d,0x6d,0x61,0x6e,0x64,0x07,0x3a,0x0a,0x40,0x63,0x6f,0x64,0x65,0x69,0x18,0x3a,0x10,0x40,0x70,0x61,0x72,0x61,0x6d,0x65,0x74,0x65,0x72,0x73,0x5b,0x00,0x6f,0x3b,0x0a,0x07,0x3b,0x0b,0x69,0x00,0x3b,0x0c,0x5b,0x00))
    205(20,bytes(0x04,0x08,0x6f,0x3a,0x13,0x52,0x50,0x47,0x3a,0x3a,0x4d,0x6f,0x76,0x65,0x52,0x6f,0x75,0x74,0x65,0x09,0x3a,0x0c,0x40,0x72,0x65,0x70,0x65,0x61,0x74,0x46,0x3a,0x0f,0x40,0x73,0x6b,0x69,0x70,0x70,0x61,0x62,0x6c,0x65,0x46,0x3a,0x0a,0x40,0x77,0x61,0x69,0x74,0x46,0x3a,0x0a,0x40,0x6c,0x69,0x73,0x74,0x5b,0x07,0x6f,0x3a,0x15,0x52,0x50,0x47,0x3a,0x3a,0x4d,0x6f,0x76,0x65,0x43,0x6f,0x6d,0x6d,0x61,0x6e,0x64,0x07,0x3a,0x0a,0x40,0x63,0x6f,0x64,0x65,0x69,0x18,0x3a,0x10,0x40,0x70,0x61,0x72,0x61,0x6d,0x65,0x74,0x65,0x72,0x73,0x5b,0x00,0x6f,0x3b,0x0a,0x07,0x3b,0x0b,0x69,0x00,0x3b,0x0c,0x5b,0x00))
    205(21,bytes(0x04,0x08,0x6f,0x3a,0x13,0x52,0x50,0x47,0x3a,0x3a,0x4d,0x6f,0x76,0x65,0x52,0x6f,0x75,0x74,0x65,0x09,0x3a,0x0c,0x40,0x72,0x65,0x70,0x65,0x61,0x74,0x46,0x3a,0x0f,0x40,0x73,0x6b,0x69,0x70,0x70,0x61,0x62,0x6c,0x65,0x46,0x3a,0x0a,0x40,0x77,0x61,0x69,0x74,0x46,0x3a,0x0a,0x40,0x6c,0x69,0x73,0x74,0x5b,0x07,0x6f,0x3a,0x15,0x52,0x50,0x47,0x3a,0x3a,0x4d,0x6f,0x76,0x65,0x43,0x6f,0x6d,0x6d,0x61,0x6e,0x64,0x07,0x3a,0x0a,0x40,0x63,0x6f,0x64,0x65,0x69,0x18,0x3a,0x10,0x40,0x70,0x61,0x72,0x61,0x6d,0x65,0x74,0x65,0x72,0x73,0x5b,0x00,0x6f,0x3b,0x0a,0x07,0x3b,0x0b,0x69,0x00,0x3b,0x0c,0x5b,0x00))
    205(22,bytes(0x04,0x08,0x6f,0x3a,0x13,0x52,0x50,0x47,0x3a,0x3a,0x4d,0x6f,0x76,0x65,0x52,0x6f,0x75,0x74,0x65,0x09,0x3a,0x0c,0x40,0x72,0x65,0x70,0x65,0x61,0x74,0x46,0x3a,0x0f,0x40,0x73,0x6b,0x69,0x70,0x70,0x61,0x62,0x6c,0x65,0x46,0x3a,0x0a,0x40,0x77,0x61,0x69,0x74,0x54,0x3a,0x0a,0x40,0x6c,0x69,0x73,0x74,0x5b,0x07,0x6f,0x3a,0x15,0x52,0x50,0x47,0x3a,0x3a,0x4d,0x6f,0x76,0x65,0x43,0x6f,0x6d,0x6d,0x61,0x6e,0x64,0x07,0x3a,0x0a,0x40,0x63,0x6f,0x64,0x65,0x69,0x18,0x3a,0x10,0x40,0x70,0x61,0x72,0x61,0x6d,0x65,0x74,0x65,0x72,0x73,0x5b,0x00,0x6f,0x3b,0x0a,0x07,0x3b,0x0b,0x69,0x00,0x3b,0x0c,0x5b,0x00))
    Wait(60)
    PictureDisplay(5,"80_tezcatlipoca_st01",0,0,0,0,100,100,0,0)
    PictureMove(5,null,0,0,0,0,100,100,255,0,30,true)
    ShowMessageFace("tezcatlipoca_fc1",0,0,2,72)
    ShowMessage("【テスカトリポカ】")
    ShowMessage("この森の支配者は、あたしなのニャ！")
    ShowMessage("勝手な事は許さないのニャー！")
    If(0,4,0)
     ShowMessageFace("alice_fc6",0,0,2,73)
     ShowMessage("【アリス】")
     ShowMessage("貴様が、テスカトリポカ……！")
     ShowMessage("黒のアリスの使いか！")
     0()
    EndIf()
    If(0,5,0)
     ShowMessageFace("iriasu_fc4",7,0,2,74)
     ShowMessage("【イリアス】")
     ShowMessage("テスカトリポカ……！")
     ShowMessage("黒のアリスの下に付き、この地を支配するつもりですか！")
     0()
    EndIf()
    If(4,222,0)
     ShowMessageFace("tezcatlipoca_fc1",0,0,2,75)
     ShowMessage("【テスカトリポカ】")
     ShowMessage("いかにも、あたしはテスカトリポカ！")
     ShowMessage("あらゆるネコは、あたしの前にひざまづくのニャ！")
     ShowMessageFace("nekomata_fc1",2,0,2,76)
     ShowMessage("【たま】")
     ShowMessage("うにゃ～♪")
     ShowMessageFace("tezcatlipoca_fc1",5,0,2,77)
     ShowMessage("【テスカトリポカ】")
     ShowMessage("おお、よしよし……♪")
     0()
    EndIf()
    PictureDisplay(5,"80_a_emp_st03",0,0,-150,0,100,100,255,0)
    PictureDisplay(6,"80_tezcatlipoca_st01",0,0,150,0,100,100,255,0)
    ShowMessageFace("a_emp_fc1",2,0,2,78)
    ShowMessage("【アルラ・プリエステス】")
    ShowMessage("テスカトリポカ……植物族を束ねているのは、この私です。")
    ShowMessage("無益な戦いを、これ以上続けるわけにはいきません。")
    PictureDisplay(6,"80_tezcatlipoca_st04",0,0,150,0,100,100,255,0)
    ShowMessageFace("tezcatlipoca_fc1",3,0,2,79)
    ShowMessage("【テスカトリポカ】")
    ShowMessage("あたしに逆らうのかニャ？")
    ShowMessage("それなら、思い知らせてやるのニャー！")
    ShowMessageFace("a_emp_fc1",2,0,2,80)
    ShowMessage("【アルラ・プリエステス】")
    ShowMessage("……カナン三姉妹！")
    PictureDisplay(5,"80_dina_st01",0,0,-150,0,100,100,255,0)
    ShowMessageFace("dina_fc1",2,0,2,81)
    ShowMessage("【ディーナ】")
    ShowMessage("了解したわ、行くわよ……！")
    PictureDisplay(5,"80_dorothy_st02",0,0,-150,0,100,100,255,0)
    ShowMessageFace("dorothy_fc1",2,0,2,82)
    ShowMessage("【ドローシー】")
    ShowMessage("いかなる強者でも、三人掛かりなら……！")
    PictureDisplay(6,"80_tezcatlipoca_st05",0,0,150,0,100,100,255,0)
    ShowMessageFace("tezcatlipoca_fc1",4,0,2,83)
    ShowMessage("【テスカトリポカ】")
    ShowMessage("邪魔なのニャー！")
    PictureClear(5)
    PictureClear(6)
    250(bytes(0x04,0x08,0x6f,0x3a,0x0c,0x52,0x50,0x47,0x3a,0x3a,0x53,0x45,0x08,0x3a,0x0a,0x40,0x6e,0x61,0x6d,0x65,0x49,0x22,0x11,0x6d,0x6f,0x6e,0x5f,0x6b,0x61,0x72,0x61,0x62,0x75,0x72,0x69,0x06,0x3a,0x06,0x45,0x54,0x3a,0x0b,0x40,0x70,0x69,0x74,0x63,0x68,0x69,0x69,0x3a,0x0c,0x40,0x76,0x6f,0x6c,0x75,0x6d,0x65,0x69,0x55))
    205(41,bytes(0x04,0x08,0x6f,0x3a,0x13,0x52,0x50,0x47,0x3a,0x3a,0x4d,0x6f,0x76,0x65,0x52,0x6f,0x75,0x74,0x65,0x09,0x3a,0x0c,0x40,0x72,0x65,0x70,0x65,0x61,0x74,0x46,0x3a,0x0f,0x40,0x73,0x6b,0x69,0x70,0x70,0x61,0x62,0x6c,0x65,0x46,0x3a,0x0a,0x40,0x77,0x61,0x69,0x74,0x54,0x3a,0x0a,0x40,0x6c,0x69,0x73,0x74,0x5b,0x0b,0x6f,0x3a,0x15,0x52,0x50,0x47,0x3a,0x3a,0x4d,0x6f,0x76,0x65,0x43,0x6f,0x6d,0x6d,0x61,0x6e,0x64,0x07,0x3a,0x0a,0x40,0x63,0x6f,0x64,0x65,0x69,0x2a,0x3a,0x10,0x40,0x70,0x61,0x72,0x61,0x6d,0x65,0x74,0x65,0x72,0x73,0x5b,0x00,0x6f,0x3b,0x0a,0x07,0x3b,0x0b,0x69,0x22,0x3b,0x0c,0x5b,0x06,0x69,0x0b,0x6f,0x3b,0x0a,0x07,0x3b,0x0b,0x69,0x23,0x3b,0x0c,0x5b,0x06,0x69,0x0a,0x6f,0x3b,0x0a,0x07,0x3b,0x0b,0x69,0x06,0x3b,0x0c,0x5b,0x00,0x6f,0x3b,0x0a,0x07,0x3b,0x0b,0x69,0x06,0x3b,0x0c,0x5b,0x00,0x6f,0x3b,0x0a,0x07,0x3b,0x0b,0x69,0x00,0x3b,0x0c,0x5b,0x00))
    205(21,bytes(0x04,0x08,0x6f,0x3a,0x13,0x52,0x50,0x47,0x3a,0x3a,0x4d,0x6f,0x76,0x65,0x52,0x6f,0x75,0x74,0x65,0x09,0x3a,0x0c,0x40,0x72,0x65,0x70,0x65,0x61,0x74,0x46,0x3a,0x0f,0x40,0x73,0x6b,0x69,0x70,0x70,0x61,0x62,0x6c,0x65,0x46,0x3a,0x0a,0x40,0x77,0x61,0x69,0x74,0x54,0x3a,0x0a,0x40,0x6c,0x69,0x73,0x74,0x5b,0x0f,0x6f,0x3a,0x15,0x52,0x50,0x47,0x3a,0x3a,0x4d,0x6f,0x76,0x65,0x43,0x6f,0x6d,0x6d,0x61,0x6e,0x64,0x07,0x3a,0x0a,0x40,0x63,0x6f,0x64,0x65,0x69,0x18,0x3a,0x10,0x40,0x70,0x61,0x72,0x61,0x6d,0x65,0x74,0x65,0x72,0x73,0x5b,0x00,0x6f,0x3b,0x0a,0x07,0x3b,0x0b,0x69,0x28,0x3b,0x0c,0x5b,0x00,0x6f,0x3b,0x0a,0x07,0x3b,0x0b,0x69,0x27,0x3b,0x0c,0x5b,0x00,0x6f,0x3b,0x0a,0x07,0x3b,0x0b,0x69,0x2a,0x3b,0x0c,0x5b,0x00,0x6f,0x3b,0x0a,0x07,0x3b,0x0b,0x69,0x22,0x3b,0x0c,0x5b,0x06,0x69,0x0b,0x6f,0x3b,0x0a,0x07,0x3b,0x0b,0x69,0x23,0x3b,0x0c,0x5b,0x06,0x69,0x0a,0x6f,0x3b,0x0a,0x07,0x3b,0x0b,0x69,0x13,0x3b,0x0c,0x5b,0x07,0x69,0x08,0x69,0xf8,0x6f,0x3b,0x0a,0x07,0x3b,0x0b,0x69,0x31,0x3b,0x0c,0x5b,0x06,0x6f,0x3a,0x0c,0x52,0x50,0x47,0x3a,0x3a,0x53,0x45,0x08,0x3a,0x0a,0x40,0x6e,0x61,0x6d,0x65,0x49,0x22,0x0b,0x57,0x61,0x74,0x65,0x72,0x31,0x06,0x3a,0x06,0x45,0x54,0x3a,0x0b,0x40,0x70,0x69,0x74,0x63,0x68,0x69,0x69,0x3a,0x0c,0x40,0x76,0x6f,0x6c,0x75,0x6d,0x65,0x69,0x55,0x6f,0x3b,0x0a,0x07,0x3b,0x0b,0x69,0x2c,0x3b,0x0c,0x5b,0x00,0x6f,0x3b,0x0a,0x07,0x3b,0x0b,0x69,0x00,0x3b,0x0c,0x5b,0x00))
    250(bytes(0x04,0x08,0x6f,0x3a,0x0c,0x52,0x50,0x47,0x3a,0x3a,0x53,0x45,0x08,0x3a,0x0a,0x40,0x6e,0x61,0x6d,0x65,0x49,0x22,0x10,0x6d,0x6f,0x6e,0x5f,0x64,0x61,0x67,0x65,0x6b,0x69,0x32,0x06,0x3a,0x06,0x45,0x54,0x3a,0x0b,0x40,0x70,0x69,0x74,0x63,0x68,0x69,0x69,0x3a,0x0c,0x40,0x76,0x6f,0x6c,0x75,0x6d,0x65,0x69,0x55))
    205(41,bytes(0x04,0x08,0x6f,0x3a,0x13,0x52,0x50,0x47,0x3a,0x3a,0x4d,0x6f,0x76,0x65,0x52,0x6f,0x75,0x74,0x65,0x09,0x3a,0x0c,0x40,0x72,0x65,0x70,0x65,0x61,0x74,0x46,0x3a,0x0f,0x40,0x73,0x6b,0x69,0x70,0x70,0x61,0x62,0x6c,0x65,0x46,0x3a,0x0a,0x40,0x77,0x61,0x69,0x74,0x54,0x3a,0x0a,0x40,0x6c,0x69,0x73,0x74,0x5b,0x07,0x6f,0x3a,0x15,0x52,0x50,0x47,0x3a,0x3a,0x4d,0x6f,0x76,0x65,0x43,0x6f,0x6d,0x6d,0x61,0x6e,0x64,0x07,0x3a,0x0a,0x40,0x63,0x6f,0x64,0x65,0x69,0x16,0x3a,0x10,0x40,0x70,0x61,0x72,0x61,0x6d,0x65,0x74,0x65,0x72,0x73,0x5b,0x00,0x6f,0x3b,0x0a,0x07,0x3b,0x0b,0x69,0x00,0x3b,0x0c,0x5b,0x00))
    205(20,bytes(0x04,0x08,0x6f,0x3a,0x13,0x52,0x50,0x47,0x3a,0x3a,0x4d,0x6f,0x76,0x65,0x52,0x6f,0x75,0x74,0x65,0x09,0x3a,0x0c,0x40,0x72,0x65,0x70,0x65,0x61,0x74,0x46,0x3a,0x0f,0x40,0x73,0x6b,0x69,0x70,0x70,0x61,0x62,0x6c,0x65,0x46,0x3a,0x0a,0x40,0x77,0x61,0x69,0x74,0x54,0x3a,0x0a,0x40,0x6c,0x69,0x73,0x74,0x5b,0x12,0x6f,0x3a,0x15,0x52,0x50,0x47,0x3a,0x3a,0x4d,0x6f,0x76,0x65,0x43,0x6f,0x6d,0x6d,0x61,0x6e,0x64,0x07,0x3a,0x0a,0x40,0x63,0x6f,0x64,0x65,0x69,0x17,0x3a,0x10,0x40,0x70,0x61,0x72,0x61,0x6d,0x65,0x74,0x65,0x72,0x73,0x5b,0x00,0x6f,0x3b,0x0a,0x07,0x3b,0x0b,0x69,0x28,0x3b,0x0c,0x5b,0x00,0x6f,0x3b,0x0a,0x07,0x3b,0x0b,0x69,0x27,0x3b,0x0c,0x5b,0x00,0x6f,0x3b,0x0a,0x07,0x3b,0x0b,0x69,0x2a,0x3b,0x0c,0x5b,0x00,0x6f,0x3b,0x0a,0x07,0x3b,0x0b,0x69,0x22,0x3b,0x0c,0x5b,0x06,0x69,0x0b,0x6f,0x3b,0x0a,0x07,0x3b,0x0b,0x69,0x23,0x3b,0x0c,0x5b,0x06,0x69,0x0a,0x6f,0x3b,0x0a,0x07,0x3b,0x0b,0x69,0x07,0x3b,0x0c,0x5b,0x00,0x6f,0x3b,0x0a,0x07,0x3b,0x0b,0x69,0x07,0x3b,0x0c,0x5b,0x00,0x6f,0x3b,0x0a,0x07,0x3b,0x0b,0x69,0x07,0x3b,0x0c,0x5b,0x00,0x6f,0x3b,0x0a,0x07,0x3b,0x0b,0x69,0x07,0x3b,0x0c,0x5b,0x00,0x6f,0x3b,0x0a,0x07,0x3b,0x0b,0x69,0x31,0x3b,0x0c,0x5b,0x06,0x6f,0x3a,0x0c,0x52,0x50,0x47,0x3a,0x3a,0x53,0x45,0x08,0x3a,0x0a,0x40,0x6e,0x61,0x6d,0x65,0x49,0x22,0x0b,0x57,0x61,0x74,0x65,0x72,0x31,0x06,0x3a,0x06,0x45,0x54,0x3a,0x0b,0x40,0x70,0x69,0x74,0x63,0x68,0x69,0x69,0x3a,0x0c,0x40,0x76,0x6f,0x6c,0x75,0x6d,0x65,0x69,0x55,0x6f,0x3b,0x0a,0x07,0x3b,0x0b,0x69,0x2c,0x3b,0x0c,0x5b,0x00,0x6f,0x3b,0x0a,0x07,0x3b,0x0b,0x69,0x00,0x3b,0x0c,0x5b,0x00))
    250(bytes(0x04,0x08,0x6f,0x3a,0x0c,0x52,0x50,0x47,0x3a,0x3a,0x53,0x45,0x08,0x3a,0x0a,0x40,0x6e,0x61,0x6d,0x65,0x49,0x22,0x0d,0x6d,0x6f,0x6e,0x5f,0x62,0x6f,0x6d,0x32,0x06,0x3a,0x06,0x45,0x54,0x3a,0x0b,0x40,0x70,0x69,0x74,0x63,0x68,0x69,0x69,0x3a,0x0c,0x40,0x76,0x6f,0x6c,0x75,0x6d,0x65,0x69,0x55))
    205(41,bytes(0x04,0x08,0x6f,0x3a,0x13,0x52,0x50,0x47,0x3a,0x3a,0x4d,0x6f,0x76,0x65,0x52,0x6f,0x75,0x74,0x65,0x09,0x3a,0x0c,0x40,0x72,0x65,0x70,0x65,0x61,0x74,0x46,0x3a,0x0f,0x40,0x73,0x6b,0x69,0x70,0x70,0x61,0x62,0x6c,0x65,0x46,0x3a,0x0a,0x40,0x77,0x61,0x69,0x74,0x54,0x3a,0x0a,0x40,0x6c,0x69,0x73,0x74,0x5b,0x07,0x6f,0x3a,0x15,0x52,0x50,0x47,0x3a,0x3a,0x4d,0x6f,0x76,0x65,0x43,0x6f,0x6d,0x6d,0x61,0x6e,0x64,0x07,0x3a,0x0a,0x40,0x63,0x6f,0x64,0x65,0x69,0x17,0x3a,0x10,0x40,0x70,0x61,0x72,0x61,0x6d,0x65,0x74,0x65,0x72,0x73,0x5b,0x00,0x6f,0x3b,0x0a,0x07,0x3b,0x0b,0x69,0x00,0x3b,0x0c,0x5b,0x00))
    205(22,bytes(0x04,0x08,0x6f,0x3a,0x13,0x52,0x50,0x47,0x3a,0x3a,0x4d,0x6f,0x76,0x65,0x52,0x6f,0x75,0x74,0x65,0x09,0x3a,0x0c,0x40,0x72,0x65,0x70,0x65,0x61,0x74,0x46,0x3a,0x0f,0x40,0x73,0x6b,0x69,0x70,0x70,0x61,0x62,0x6c,0x65,0x46,0x3a,0x0a,0x40,0x77,0x61,0x69,0x74,0x54,0x3a,0x0a,0x40,0x6c,0x69,0x73,0x74,0x5b,0x11,0x6f,0x3a,0x15,0x52,0x50,0x47,0x3a,0x3a,0x4d,0x6f,0x76,0x65,0x43,0x6f,0x6d,0x6d,0x61,0x6e,0x64,0x07,0x3a,0x0a,0x40,0x63,0x6f,0x64,0x65,0x69,0x16,0x3a,0x10,0x40,0x70,0x61,0x72,0x61,0x6d,0x65,0x74,0x65,0x72,0x73,0x5b,0x00,0x6f,0x3b,0x0a,0x07,0x3b,0x0b,0x69,0x28,0x3b,0x0c,0x5b,0x00,0x6f,0x3b,0x0a,0x07,0x3b,0x0b,0x69,0x27,0x3b,0x0c,0x5b,0x00,0x6f,0x3b,0x0a,0x07,0x3b,0x0b,0x69,0x2a,0x3b,0x0c,0x5b,0x00,0x6f,0x3b,0x0a,0x07,0x3b,0x0b,0x69,0x22,0x3b,0x0c,0x5b,0x06,0x69,0x0b,0x6f,0x3b,0x0a,0x07,0x3b,0x0b,0x69,0x23,0x3b,0x0c,0x5b,0x06,0x69,0x0a,0x6f,0x3b,0x0a,0x07,0x3b,0x0b,0x69,0x08,0x3b,0x0c,0x5b,0x00,0x6f,0x3b,0x0a,0x07,0x3b,0x0b,0x69,0x08,0x3b,0x0c,0x5b,0x00,0x6f,0x3b,0x0a,0x07,0x3b,0x0b,0x69,0x08,0x3b,0x0c,0x5b,0x00,0x6f,0x3b,0x0a,0x07,0x3b,0x0b,0x69,0x31,0x3b,0x0c,0x5b,0x06,0x6f,0x3a,0x0c,0x52,0x50,0x47,0x3a,0x3a,0x53,0x45,0x08,0x3a,0x0a,0x40,0x6e,0x61,0x6d,0x65,0x49,0x22,0x0b,0x57,0x61,0x74,0x65,0x72,0x31,0x06,0x3a,0x06,0x45,0x54,0x3a,0x0b,0x40,0x70,0x69,0x74,0x63,0x68,0x69,0x69,0x3a,0x0c,0x40,0x76,0x6f,0x6c,0x75,0x6d,0x65,0x69,0x55,0x6f,0x3b,0x0a,0x07,0x3b,0x0b,0x69,0x2c,0x3b,0x0c,0x5b,0x00,0x6f,0x3b,0x0a,0x07,0x3b,0x0b,0x69,0x00,0x3b,0x0c,0x5b,0x00))
    205(41,bytes(0x04,0x08,0x6f,0x3a,0x13,0x52,0x50,0x47,0x3a,0x3a,0x4d,0x6f,0x76,0x65,0x52,0x6f,0x75,0x74,0x65,0x09,0x3a,0x0c,0x40,0x72,0x65,0x70,0x65,0x61,0x74,0x46,0x3a,0x0f,0x40,0x73,0x6b,0x69,0x70,0x70,0x61,0x62,0x6c,0x65,0x46,0x3a,0x0a,0x40,0x77,0x61,0x69,0x74,0x54,0x3a,0x0a,0x40,0x6c,0x69,0x73,0x74,0x5b,0x07,0x6f,0x3a,0x15,0x52,0x50,0x47,0x3a,0x3a,0x4d,0x6f,0x76,0x65,0x43,0x6f,0x6d,0x6d,0x61,0x6e,0x64,0x07,0x3a,0x0a,0x40,0x63,0x6f,0x64,0x65,0x69,0x15,0x3a,0x10,0x40,0x70,0x61,0x72,0x61,0x6d,0x65,0x74,0x65,0x72,0x73,0x5b,0x00,0x6f,0x3b,0x0a,0x07,0x3b,0x0b,0x69,0x00,0x3b,0x0c,0x5b,0x00))
    Wait(60)
    ShowMessageFace("a_emp_fc1",2,0,2,84)
    ShowMessage("【プリエステス】")
    ShowMessage("なんという力……！")
    ShowMessage("さすがは、黒のアリスの使い……！")
    PictureDisplay(5,"80_tezcatlipoca_st06",0,0,0,0,100,100,0,0)
    PictureMove(5,null,0,0,0,0,100,100,255,0,30,true)
    ShowMessageFace("tezcatlipoca_fc1",5,0,2,85)
    ShowMessage("【テスカトリポカ】")
    ShowMessage("次はお前なのニャ！")
    ShowMessage("そのイスを奪って、ゴロゴロするのニャー！")
    ShowMessageFace("ruka_fc1",0,0,2,86)
    ShowMessage("【ルカ】")
    ShowMessage("待て！　僕達が相手だ！！")
    If(0,4,0)
     ShowMessageFace("alice_fc6",1,0,2,87)
     ShowMessage("【アリス】")
     ShowMessage("危険な相手だ……ルカ、気を抜くなよ！")
     0()
    EndIf()
    If(0,5,0)
     ShowMessageFace("iriasu_fc4",7,0,2,88)
     ShowMessage("【イリアス】")
     ShowMessage("危険な妖魔を放置してはおけません！")
     ShowMessage("ここで倒しますよ！")
     0()
    EndIf()
    PictureDisplay(5,"80_tezcatlipoca_st05",0,0,0,0,100,100,255,0)
    ShowMessageFace("tezcatlipoca_fc1",4,0,2,89)
    ShowMessage("【テスカトリポカ】")
    ShowMessage("何人来ようが、無駄なのニャ！")
    ShowMessage("あたしはネコの女王、無敵なのニャー！")
    If(4,222,0)
     ShowMessageFace("nekomata_fc1",2,0,2,90)
     ShowMessage("【たま】")
     ShowMessage("うにゃ～♪")
     ShowMessageFace("tezcatlipoca_fc1",5,0,2,91)
     ShowMessage("【テスカトリポカ】")
     ShowMessage("おお、よしよし……♪")
     0()
    EndIf()
    PictureClear(5)
    SetBattleBGM(bytes(0x04,0x08,0x6f,0x3a,0x0d,0x52,0x50,0x47,0x3a,0x3a,0x42,0x47,0x4d,0x08,0x3a,0x0a,0x40,0x6e,0x61,0x6d,0x65,0x49,0x22,0x0a,0x62,0x6f,0x73,0x73,0x31,0x06,0x3a,0x06,0x45,0x54,0x3a,0x0c,0x40,0x76,0x6f,0x6c,0x75,0x6d,0x65,0x69,0x69,0x3a,0x0b,0x40,0x70,0x69,0x74,0x63,0x68,0x69,0x69))
    ChangeSwitch(22,22,0)
    Battle(0,670,false,false)
    ChangeSwitch(22,22,1)
    SetBattleBGM(bytes(0x04,0x08,0x6f,0x3a,0x0d,0x52,0x50,0x47,0x3a,0x3a,0x42,0x47,0x4d,0x08,0x3a,0x0a,0x40,0x6e,0x61,0x6d,0x65,0x49,0x22,0x0b,0x62,0x61,0x74,0x74,0x6c,0x65,0x06,0x3a,0x06,0x45,0x54,0x3a,0x0c,0x40,0x76,0x6f,0x6c,0x75,0x6d,0x65,0x69,0x69,0x3a,0x0b,0x40,0x70,0x69,0x74,0x63,0x68,0x69,0x69))
    314(0,0)
    241(bytes(0x04,0x08,0x6f,0x3a,0x0d,0x52,0x50,0x47,0x3a,0x3a,0x42,0x47,0x4d,0x08,0x3a,0x0a,0x40,0x6e,0x61,0x6d,0x65,0x49,0x22,0x10,0x73,0x63,0x65,0x6e,0x65,0x5f,0x63,0x6f,0x6d,0x69,0x32,0x06,0x3a,0x06,0x45,0x54,0x3a,0x0c,0x40,0x76,0x6f,0x6c,0x75,0x6d,0x65,0x69,0x69,0x3a,0x0b,0x40,0x70,0x69,0x74,0x63,0x68,0x69,0x69))
    PictureDisplay(5,"80_tezcatlipoca_st03",0,0,0,0,100,100,0,0)
    PictureMove(5,null,0,0,0,0,100,100,255,0,30,true)
    ShowMessageFace("tezcatlipoca_fc1",2,0,2,92)
    ShowMessage("【テスカトリポカ】")
    ShowMessage("ニャニー！？")
    If(0,4,0)
     ShowMessageFace("alice_fc5",1,0,2,93)
     ShowMessage("【アリス】")
     ShowMessage("勝ったぞ……！")
     ShowMessage("太古の妖魔、噂ほどではなかったな！")
     0()
    EndIf()
    If(0,5,0)
     ShowMessageFace("iriasu_fc4",3,0,2,94)
     ShowMessage("【イリアス】")
     ShowMessage("太古の妖魔？　伝説の妖魔？　だから何だというのです？")
     ShowMessage("この私が、誰だと思っているのですか……？")
     0()
    EndIf()
    If(4,218,0)
     ShowMessageFace("nyumaou_fc1",0,0,2,95)
     ShowMessage("【牛魔王】")
     ShowMessage("ふふん、妾にかかれば楽勝よ！")
     0()
    EndIf()
    ShowMessageFace("tezcatlipoca_fc1",2,0,2,96)
    ShowMessage("【テスカトリポカ】")
    ShowMessage("これは違うのニャ！")
    ShowMessage("あのトリとずいぶん殴り合ったから、疲れてたのニャ！")
    PictureClear(5)
    Wait(30)
    205(41,bytes(0x04,0x08,0x6f,0x3a,0x13,0x52,0x50,0x47,0x3a,0x3a,0x4d,0x6f,0x76,0x65,0x52,0x6f,0x75,0x74,0x65,0x09,0x3a,0x0c,0x40,0x72,0x65,0x70,0x65,0x61,0x74,0x46,0x3a,0x0f,0x40,0x73,0x6b,0x69,0x70,0x70,0x61,0x62,0x6c,0x65,0x46,0x3a,0x0a,0x40,0x77,0x61,0x69,0x74,0x54,0x3a,0x0a,0x40,0x6c,0x69,0x73,0x74,0x5b,0x11,0x6f,0x3a,0x15,0x52,0x50,0x47,0x3a,0x3a,0x4d,0x6f,0x76,0x65,0x43,0x6f,0x6d,0x6d,0x61,0x6e,0x64,0x07,0x3a,0x0a,0x40,0x63,0x6f,0x64,0x65,0x69,0x09,0x3a,0x10,0x40,0x70,0x61,0x72,0x61,0x6d,0x65,0x74,0x65,0x72,0x73,0x5b,0x00,0x6f,0x3b,0x0a,0x07,0x3b,0x0b,0x69,0x09,0x3b,0x0c,0x5b,0x00,0x6f,0x3b,0x0a,0x07,0x3b,0x0b,0x69,0x09,0x3b,0x0c,0x5b,0x00,0x6f,0x3b,0x0a,0x07,0x3b,0x0b,0x69,0x09,0x3b,0x0c,0x5b,0x00,0x6f,0x3b,0x0a,0x07,0x3b,0x0b,0x69,0x09,0x3b,0x0c,0x5b,0x00,0x6f,0x3b,0x0a,0x07,0x3b,0x0b,0x69,0x09,0x3b,0x0c,0x5b,0x00,0x6f,0x3b,0x0a,0x07,0x3b,0x0b,0x69,0x09,0x3b,0x0c,0x5b,0x00,0x6f,0x3b,0x0a,0x07,0x3b,0x0b,0x69,0x09,0x3b,0x0c,0x5b,0x00,0x6f,0x3b,0x0a,0x07,0x3b,0x0b,0x69,0x09,0x3b,0x0c,0x5b,0x00,0x6f,0x3b,0x0a,0x07,0x3b,0x0b,0x69,0x09,0x3b,0x0c,0x5b,0x00,0x6f,0x3b,0x0a,0x07,0x3b,0x0b,0x69,0x09,0x3b,0x0c,0x5b,0x00,0x6f,0x3b,0x0a,0x07,0x3b,0x0b,0x69,0x00,0x3b,0x0c,0x5b,0x00))
    ShowMessageFace("tezcatlipoca_fc1",6,0,2,97)
    ShowMessage("【テスカトリポカ】")
    ShowMessage("ウニャー！")
    ChangeSwitch(31,31,1)
    If(4,53,0)
     ShowMessageFace("slime_fc1",2,0,2,98)
     ShowMessage("【ライム】")
     ShowMessage("にげちゃった……")
     0()
    EndIf()
    ShowMessageFace("ruka_fc1",0,0,2,99)
    ShowMessage("【ルカ】")
    ShowMessage("……………………")
    241(bytes(0x04,0x08,0x6f,0x3a,0x0d,0x52,0x50,0x47,0x3a,0x3a,0x42,0x47,0x4d,0x08,0x3a,0x0a,0x40,0x6e,0x61,0x6d,0x65,0x49,0x22,0x15,0x64,0x75,0x6e,0x67,0x65,0x6f,0x6e,0x5f,0x70,0x6c,0x61,0x6e,0x73,0x65,0x63,0x74,0x06,0x3a,0x06,0x45,0x54,0x3a,0x0c,0x40,0x76,0x6f,0x6c,0x75,0x6d,0x65,0x69,0x69,0x3a,0x0b,0x40,0x70,0x69,0x74,0x63,0x68,0x69,0x69))
    PictureDisplay(5,"80_a_emp_st01",0,0,0,0,100,100,0,0)
    PictureMove(5,null,0,0,0,0,100,100,255,0,30,true)
    ShowMessageFace("a_emp_fc1",0,0,2,100)
    ShowMessage("【アルラ・プリエステス】")
    ShowMessage("これで、黒のアリスの使いのうち一人は追い返しました。")
    ShowMessage("しかしレド山には、まだケツァルコァトルが残っていますね。")
    If(4,201,0)
     ShowMessageFace("ashel_fc1",0,0,2,101)
     ShowMessage("【アシェル】")
     ShowMessage("そっちも片付けなきゃ、終わらないか……")
     0()
    EndIf()
    ShowMessageFace("a_emp_fc1",0,0,2,102)
    ShowMessage("【アルラ・プリエステス】")
    ShowMessage("一から十まで、あなた達に頼り切るわけにもいきません。")
    ShowMessage("ここから先は、私もご一緒しましょう……")
    PictureClear(5)
    205(0,bytes(0x04,0x08,0x6f,0x3a,0x13,0x52,0x50,0x47,0x3a,0x3a,0x4d,0x6f,0x76,0x65,0x52,0x6f,0x75,0x74,0x65,0x09,0x3a,0x0c,0x40,0x72,0x65,0x70,0x65,0x61,0x74,0x46,0x3a,0x0f,0x40,0x73,0x6b,0x69,0x70,0x70,0x61,0x62,0x6c,0x65,0x46,0x3a,0x0a,0x40,0x77,0x61,0x69,0x74,0x54,0x3a,0x0a,0x40,0x6c,0x69,0x73,0x74,0x5b,0x09,0x6f,0x3a,0x15,0x52,0x50,0x47,0x3a,0x3a,0x4d,0x6f,0x76,0x65,0x43,0x6f,0x6d,0x6d,0x61,0x6e,0x64,0x07,0x3a,0x0a,0x40,0x63,0x6f,0x64,0x65,0x69,0x2a,0x3a,0x10,0x40,0x70,0x61,0x72,0x61,0x6d,0x65,0x74,0x65,0x72,0x73,0x5b,0x00,0x6f,0x3b,0x0a,0x07,0x3b,0x0b,0x69,0x0f,0x3b,0x0c,0x5b,0x00,0x6f,0x3b,0x0a,0x07,0x3b,0x0b,0x69,0x2c,0x3b,0x0c,0x5b,0x00,0x6f,0x3b,0x0a,0x07,0x3b,0x0b,0x69,0x00,0x3b,0x0c,0x5b,0x00))
    355("add_actor_ex(241)")
    249(bytes(0x04,0x08,0x6f,0x3a,0x0c,0x52,0x50,0x47,0x3a,0x3a,0x4d,0x45,0x08,0x3a,0x0a,0x40,0x6e,0x61,0x6d,0x65,0x49,0x22,0x0c,0x66,0x61,0x6e,0x66,0x61,0x6c,0x65,0x06,0x3a,0x06,0x45,0x54,0x3a,0x0b,0x40,0x70,0x69,0x74,0x63,0x68,0x69,0x69,0x3a,0x0c,0x40,0x76,0x6f,0x6c,0x75,0x6d,0x65,0x69,0x69))
    ShowMessageFace("",0,0,2,103)
    ShowMessage("プリエステスが仲間に加わった！")
    ChangeSelfSwitch("A",0)
    Wait(60)
    ShowMessageFace("a_emp_fc1",0,0,2,104)
    ShowMessage("【アルラ・プリエステス】")
    ShowMessage("それでは、レド山に急ぎましょう。")
    ShowMessage("ケツァルコァトルが、昆虫族を攻撃している可能性があります……")
    ShowMessageFace("ruka_fc1",0,0,2,105)
    ShowMessage("【ルカ】")
    ShowMessage("ああ！")
    ShowMessageFace("",0,0,2,106)
    ShowMessage("クィーンビーが和解案を示した以上、十分にあり得る話だ。")
    ShowMessage("僕達は、レド山に急いだのだった――")
    250(bytes(0x04,0x08,0x6f,0x3a,0x0c,0x52,0x50,0x47,0x3a,0x3a,0x53,0x45,0x08,0x3a,0x0a,0x40,0x6e,0x61,0x6d,0x65,0x49,0x22,0x10,0x6d,0x6f,0x6e,0x5f,0x61,0x73,0x69,0x6f,0x74,0x6f,0x32,0x06,0x3a,0x06,0x45,0x54,0x3a,0x0b,0x40,0x70,0x69,0x74,0x63,0x68,0x69,0x69,0x3a,0x0c,0x40,0x76,0x6f,0x6c,0x75,0x6d,0x65,0x69,0x55))
    221()
    ChangeVariable(1056,1056,0,0,4)
    TeleportPlayer(0,134,30,16,8,2)
    Wait(60)
    222()
    EndEventProcessing()
    0()
   IfPlayerPicksChoice(2,null)
    ShowMessageFace("a_emp_fc1",2,0,2,107)
    ShowMessage("【アルラ・プリエステス】")
    ShowMessage("……結局、用はないのですか？")
    ShowMessage("なんとも妙な行動ですが、まさか寝返りを……")
    ShowMessageFace("a_emp_fc1",1,0,2,108)
    ShowMessage("【アルラ・プリエステス】")
    ShowMessage("……いえ、考えすぎですね。")
    ShowMessage("クィーンビーの打倒、心より期待していますよ。")
    PictureClear(5)
    EndEventProcessing()
    0()
   404()
   0()
  EndIf()
  0()
 PAGE   2
  // condition: self-switch A is ON
  0()
 PAGE   3
  // condition: variable 1061 >= 1
  If(1,1061,0,2,0)
   PictureDisplay(5,"80_a_emp_st03",0,0,0,0,100,100,0,0)
   PictureMove(5,null,0,0,0,0,100,100,255,0,30,true)
   ShowMessageFace("a_emp_fc1",2,0,2,1)
   ShowMessage("【アルラ・プリエステス】")
   ShowMessage("昆虫族は、レド山に住処を移しました。")
   ShowMessage("実際に住んでみて、あの環境が気に入ったのだとか。")
   ShowMessageFace("a_emp_fc1",2,0,2,2)
   ShowMessage("【アルラ・プリエステス】")
   ShowMessage("結果的に、私達はこの森に住み続ける事となりましたが……")
   ShowMessage("いつ昆虫族が心変わりするか、分かったものではありません。")
   ShowMessageFace("a_emp_fc1",2,0,2,3)
   ShowMessage("【アルラ・プリエステス】")
   ShowMessage("胃の痛い日々が続きますね……")
   PictureClear(5)
   EndEventProcessing()
   0()
  EndIf()
  If(1,1061,0,1,1)
   PictureDisplay(5,"80_a_emp_st02",0,0,0,0,100,100,0,0)
   PictureMove(5,null,0,0,0,0,100,100,255,0,30,true)
   ShowMessageFace("a_emp_fc1",1,0,2,4)
   ShowMessage("【アルラ・プリエステス】")
   ShowMessage("おや、プランセクト村にようこそ。")
   ShowMessage("何かお手伝いできる事はありますか……？")
   ShowChoices(strings("仲間になってほしい","用はない"),2)
   IfPlayerPicksChoice(0,null)
    ShowMessageFace("a_emp_fc1",0,0,2,5)
    ShowMessage("【アルラ・プリエステス】")
    ShowMessage("私の力を、必要としているのですか？")
    ShowMessage("ですが、リーダーの私が村を離れるわけにも……")
    ShowMessageFace("a_alm_fc1",0,0,2,6)
    ShowMessage("【お付きのカウンセラー】")
    ShowMessage("主治医として言わせてもらえれば……")
    ShowMessage("少しばかり、村を離れて羽根を伸ばした方が良いかと。")
    ShowMessageFace("a_emp_fc1",2,0,2,7)
    ShowMessage("【アルラ・プリエステス】")
    ShowMessage("……そうですね。")
    ShowMessage("最近は胃がキリキリ痛んだり、肋骨の間あたりがズキズキする毎日。")
    ShowMessageFace("a_emp_fc1",1,0,2,8)
    ShowMessage("【アルラ・プリエステス】")
    ShowMessage("とりあえず、騒動に片が付いた今こそ……")
    ShowMessage("外で開放的な気分に浸り、心身共にリフレッシュする機会なのかも。")
    If(0,6,0)
     ShowMessageFace("sonia_fc4",0,0,2,9)
     ShowMessage("【ソニア】")
     ShowMessage("そこまで心がお疲れだったんだ……")
     0()
    Else()
     ShowMessageFace("ruka_fc1",0,0,2,10)
     ShowMessage("【ルカ】")
     ShowMessage("大変だね……")
     0()
    EndIf()
    If(0,4,0)
     ShowMessageFace("alice_fc5",5,0,2,11)
     ShowMessage("【アリス】")
     ShowMessage("貴様、ちょっと休め。")
     0()
    EndIf()
    If(0,5,0)
     ShowMessageFace("iriasu_fc4",2,0,2,12)
     ShowMessage("【イリアス】")
     ShowMessage("エデンもたまに、そういう弱音を吐いていましたね……")
     ShowMessage("黒のアリスやプロメスティンに相当いびられていましたから。")
     0()
    EndIf()
    ShowMessageFace("a_emp_fc1",1,0,2,13)
    ShowMessage("【アルラ・プリエステス】")
    ShowMessage("それでは、私は心理的療養の旅に出ます。")
    ShowMessage("村のみんな、後は任せましたよ……")
    PictureClear(5)
    205(0,bytes(0x04,0x08,0x6f,0x3a,0x13,0x52,0x50,0x47,0x3a,0x3a,0x4d,0x6f,0x76,0x65,0x52,0x6f,0x75,0x74,0x65,0x09,0x3a,0x0c,0x40,0x72,0x65,0x70,0x65,0x61,0x74,0x46,0x3a,0x0f,0x40,0x73,0x6b,0x69,0x70,0x70,0x61,0x62,0x6c,0x65,0x46,0x3a,0x0a,0x40,0x77,0x61,0x69,0x74,0x54,0x3a,0x0a,0x40,0x6c,0x69,0x73,0x74,0x5b,0x09,0x6f,0x3a,0x15,0x52,0x50,0x47,0x3a,0x3a,0x4d,0x6f,0x76,0x65,0x43,0x6f,0x6d,0x6d,0x61,0x6e,0x64,0x07,0x3a,0x0a,0x40,0x63,0x6f,0x64,0x65,0x69,0x2a,0x3a,0x10,0x40,0x70,0x61,0x72,0x61,0x6d,0x65,0x74,0x65,0x72,0x73,0x5b,0x00,0x6f,0x3b,0x0a,0x07,0x3b,0x0b,0x69,0x0f,0x3b,0x0c,0x5b,0x00,0x6f,0x3b,0x0a,0x07,0x3b,0x0b,0x69,0x2c,0x3b,0x0c,0x5b,0x00,0x6f,0x3b,0x0a,0x07,0x3b,0x0b,0x69,0x00,0x3b,0x0c,0x5b,0x00))
    355("add_actor_ex(241)")
    249(bytes(0x04,0x08,0x6f,0x3a,0x0c,0x52,0x50,0x47,0x3a,0x3a,0x4d,0x45,0x08,0x3a,0x0a,0x40,0x6e,0x61,0x6d,0x65,0x49,0x22,0x0c,0x66,0x61,0x6e,0x66,0x61,0x6c,0x65,0x06,0x3a,0x06,0x45,0x54,0x3a,0x0b,0x40,0x70,0x69,0x74,0x63,0x68,0x69,0x69,0x3a,0x0c,0x40,0x76,0x6f,0x6c,0x75,0x6d,0x65,0x69,0x69))
    ShowMessageFace("",0,0,2,14)
    ShowMessage("プリエステスが仲間に加わった！")
    Wait(60)
    ShowMessageFace("a_emp_fc1",1,0,2,15)
    ShowMessage("【アルラ・プリエステス】")
    ShowMessage("村の外に出ると決意しただけで、胃痛が引きました。")
    ShowMessage("なんでしょう、すごく身も心も軽くなった気がします……")
    If(0,6,0)
     ShowMessageFace("sonia_fc4",0,0,2,16)
     ShowMessage("【ソニア】")
     ShowMessage("かなり心労が溜まってたみたいね……")
     0()
    Else()
     ShowMessageFace("ruka_fc1",0,0,2,17)
     ShowMessage("【ルカ】")
     ShowMessage("ゆっくり羽根を伸ばすといいよ……")
     0()
    EndIf()
    ChangeSelfSwitch("B",0)
    EndEventProcessing()
    0()
   IfPlayerPicksChoice(1,null)
    ShowMessageFace("a_emp_fc1",1,0,2,18)
    ShowMessage("【アルラ・プリエステス】")
    ShowMessage("そうですか……ではせめて、緑に囲まれ心のみは癒されて下さい。")
    ShowMessage("緑は心が癒されますよ、私以外の全てには。")
    If(0,4,0)
     ShowMessageFace("alice_fc5",6,0,2,19)
     ShowMessage("【アリス】")
     ShowMessage("なんだか大丈夫か……！？")
     0()
    EndIf()
    If(0,5,0)
     ShowMessageFace("iriasu_fc4",2,0,2,20)
     ShowMessage("【イリアス】")
     ShowMessage("瞳が濁っていますよ……")
     0()
    EndIf()
    PictureClear(5)
    EndEventProcessing()
    0()
   404()
   0()
  EndIf()
  0()
 PAGE   4
  // condition: self-switch B is ON
  0()



EVENT   24
 PAGE   1
  // condition: switch 32 is ON
  0()



EVENT   25
 PAGE   1
  // condition: switch 32 is ON
  0()



EVENT   41
 PAGE   1
  // condition: switch 31 is ON
  0()



EVENT   42
 PAGE   1
  // condition: switch 2185 is ON
  222()
  If(0,6,0)
   ShowMessageFace("sonia_fc3",2,0,2,1)
   ShowMessage("【ソニア】")
   ShowMessage("なにそれ！？")
   0()
  Else()
   ShowMessageFace("ruka_fc1",0,0,2,2)
   ShowMessage("【ルカ】")
   ShowMessage("それはひどい……")
   0()
  EndIf()
  If(4,218,0)
   ShowMessageFace("nyumaou_fc1",2,0,2,3)
   ShowMessage("【牛魔王】")
   ShowMessage("なんという愚かな連中よ……")
   0()
  EndIf()
  If(0,2149,0)
   ShowMessageFace("ashel_fc1",0,0,2,4)
   ShowMessage("【アシェル】")
   ShowMessage("お嬢よりひどいのも、世の中にはいるもんだね……")
   ShowMessageFace("bonny_fc1",0,0,2,5)
   ShowMessage("【ボニー】")
   ShowMessage("アシェルは失礼だぞ、まったく……")
   0()
  EndIf()
  PictureDisplay(5,"80_a_emp_st01",0,0,0,0,100,100,0,0)
  PictureMove(5,null,0,0,0,0,100,100,255,0,30,true)
  ShowMessageFace("a_emp_fc1",0,0,2,6)
  ShowMessage("【アルラ・プリエステス】")
  ShowMessage("そういうわけで……黒のアリスの使い二人は仲違いを始め、")
  ShowMessage("植物族と昆虫族の争いが再燃したのです。")
  PictureDisplay(5,"ct_tezcatlipoca2",0,0,0,0,100,100,255,0)
  ShowMessageFace("a_emp_fc1",0,0,2,7)
  ShowMessage("【アルラ・プリエステス】")
  ShowMessage("現在、植物族を従えているのはテスカトリポカ。")
  ShowMessage("今は、蝶々を追いかけどこかに行ってしまったようですが……")
  PictureMove(5,null,0,0,-320,0,100,100,0,0,60,false)
  If(0,4,0)
   ShowMessageFace("alice_fc5",5,0,2,8)
   ShowMessage("【アリス】")
   ShowMessage("なんと馬鹿馬鹿しい話なのだ……")
   0()
  EndIf()
  If(0,5,0)
   ShowMessageFace("iriasu_fc4",2,0,2,9)
   ShowMessage("【イリアス】")
   ShowMessage("地上の者達は、ここまで愚かとは……")
   ShowMessage("このような者達を守る価値はあるのでしょうか。")
   0()
  EndIf()
  PictureDisplay(5,"80_a_emp_st01",0,0,0,0,100,100,0,0)
  PictureMove(5,null,0,0,0,0,100,100,255,0,30,true)
  ShowMessageFace("a_emp_fc1",0,0,2,10)
  ShowMessage("【アルラ・プリエステス】")
  ShowMessage("その後、何度か激突を繰り返し……")
  ShowMessage("我々はなんとか、昆虫族を南東のレド山に追い込みました。")
  ShowMessageFace("a_emp_fc1",0,0,2,11)
  ShowMessage("【アルラ・プリエステス】")
  ShowMessage("今は、最後の殲滅作戦を実行する直前。")
  ShowMessage("レド山に追い込んだ昆虫族を、一気に根絶やしにするところなのです。")
  ShowMessageFace("a_emp_fc1",0,0,2,12)
  ShowMessage("【アルラ・プリエステス】")
  ShowMessage("さて……あなた達も、相当の使い手とみました。")
  ShowMessage("我々に手を貸し、昆虫族と戦ってもらえませんか？")
  ShowMessageFace("ruka_fc1",0,0,2,13)
  ShowMessage("【ルカ】")
  ShowMessage("僕達が、植物族の味方に……？")
  ShowMessageFace("",0,0,2,14)
  ShowMessage("魔物同士の争いに介入しても良いものだろうか。")
  ShowMessage("それに、昆虫側にも言い分があるのかもしれない――")
  ChangeVariable(1056,1056,0,0,2)
  ShowChoices(strings("植物族に手を貸し昆虫族と戦う","申し出を断る","返事を保留する"),0)
  IfPlayerPicksChoice(0,null)
   ShowMessageFace("ruka_fc1",0,0,2,15)
   ShowMessage("【ルカ】")
   ShowMessage("……分かった、僕達も手助けするよ。")
   If(4,163,0)
    ShowMessageFace("lily_fc1",3,0,2,16)
    ShowMessage("【リリィ】")
    ShowMessage("虫が暴虐を働くというなら、黙ってはいられないわ……")
    0()
   EndIf()
   ShowMessageFace("a_emp_fc1",1,0,2,17)
   ShowMessage("【アルラ・プリエステス】")
   ShowMessage("ありがとうございます。")
   ShowMessage("それでは、私達と共に南東のレド山を攻めてもらえませんか？")
   ShowMessageFace("a_emp_fc1",1,0,2,18)
   ShowMessage("【アルラ・プリエステス】")
   ShowMessage("先遣部隊が、すでに昆虫族と交戦中です。")
   ShowMessage("どうか加勢をお願い致します。")
   PictureClear(5)
   If(0,4,0)
    ShowMessageFace("alice_fc5",0,0,2,19)
    ShowMessage("【アリス】")
    ShowMessage("本当にそれで良いのか、ルカ……？")
    ShowMessage("まあ、リーダーの決定には従うが。")
    0()
   EndIf()
   If(0,5,0)
    ShowMessageFace("iriasu_fc4",0,0,2,20)
    ShowMessage("【イリアス】")
    ShowMessage("さっそく、昆虫族を滅ぼしに行きましょう！")
    ShowMessage("それが終われば、次は……もちろん分かっていますね。")
    0()
   EndIf()
   ShowMessageFace("",0,0,2,21)
   ShowMessage("こうして僕達は、植物族に味方し昆虫族と戦う事になった。")
   ShowMessage("さあ、南東のレド山に急ごう！")
   EndEventProcessing()
   0()
  IfPlayerPicksChoice(1,null)
   ShowMessageFace("ruka_fc1",0,0,2,22)
   ShowMessage("【ルカ】")
   ShowMessage("……悪いけど、手助けはできないよ。")
   If(4,171,0)
    ShowMessageFace("lizardboss_fc1",3,0,2,23)
    ShowMessage("【ミランダ】")
    ShowMessage("悪いけど、手を貸すいわれはないからねぇ。")
    0()
   EndIf()
   ShowMessageFace("a_emp_fc1",0,0,2,24)
   ShowMessage("【アルラ・プリエステス】")
   ShowMessage("そうですか……無理強いはできません。")
   ShowMessage("ですが、今この瞬間にもレド山で戦いは始まっています。")
   ShowMessageFace("a_emp_fc1",0,0,2,25)
   ShowMessage("【アルラ・プリエステス】")
   ShowMessage("お心が変われば、加勢など……")
   ShowMessage("身勝手ながら、期待しておきましょう。")
   PictureClear(5)
   If(0,4,0)
    ShowMessageFace("alice_fc5",0,0,2,26)
    ShowMessage("【アリス】")
    ShowMessage("一方に肩入れはしない事にしたか……")
    ShowMessage("だが、レド山の方も放置はできんな。")
    0()
   EndIf()
   If(0,5,0)
    ShowMessageFace("iriasu_fc4",0,0,2,27)
    ShowMessage("【イリアス】")
    ShowMessage("魔物のために、働く気はありませんか……")
    ShowMessage("喧嘩両滅が最良ですが、潰し合いを傍観するのも良いですね。")
    0()
   EndIf()
   ShowMessageFace("",0,0,2,28)
   ShowMessage("申し出を断ったものの、放置しておく事もできない。")
   ShowMessage("昆虫族の立てこもっている、南東のレド山に行ってみようか。")
   EndEventProcessing()
   0()
  IfPlayerPicksChoice(2,null)
   ShowMessageFace("ruka_fc1",0,0,2,29)
   ShowMessage("【ルカ】")
   ShowMessage("もう少し、待ってもらっていいですか？")
   If(4,167,0)
    ShowMessageFace("lusia_fc1",0,0,2,30)
    ShowMessage("【ルシア】")
    ShowMessage("ここで決断するのは時期尚早ですね……")
    0()
   EndIf()
   ShowMessageFace("a_emp_fc1",0,0,2,31)
   ShowMessage("【アルラ・プリエステス】")
   ShowMessage("申し訳ありませんが、返事を待つ時間はありません……")
   ShowMessage("昆虫族のこもるレド山は、すでに激戦の舞台と化しているのです。")
   ShowMessageFace("a_emp_fc1",0,0,2,32)
   ShowMessage("【アルラ・プリエステス】")
   ShowMessage("お気持ちが固まれば、ぜひ加勢をお願いします。")
   PictureClear(5)
   If(0,4,0)
    ShowMessageFace("alice_fc5",1,0,2,33)
    ShowMessage("【アリス】")
    ShowMessage("まあ、妥当な選択だな。")
    ShowMessage("ここはフェアに、昆虫族の話も聞かねばなるまい。")
    0()
   EndIf()
   If(0,5,0)
    ShowMessageFace("iriasu_fc4",0,0,2,34)
    ShowMessage("【イリアス】")
    ShowMessage("両者の言い分を聞き、あくまで公正な裁きを心掛けるのですか？")
    ShowMessage("面倒ですが、その心根は評価しましょう。")
    0()
   EndIf()
   ShowMessageFace("",0,0,2,35)
   ShowMessage("昆虫側にも、きっと言い分はあるだろう。")
   ShowMessage("彼女達が立てこもっている、南東のレド山に行ってみよう。")
   EndEventProcessing()
   0()
  404()
  0()
 PAGE   2
  // condition: variable 1056 >= 2
  0()



EVENT   8
 PAGE   1
  ShowMessageFace("a_looty_fc1",0,0,2,1)
  ShowMessage("【仙樹の鍛冶屋】")
  ShowMessage("んっ、客か？")
  ShowMessage("金さえ払えば、種族は問わずに仕事するぜ。")
  355("call_synthesize(16)")
  0()



EVENT   14
 PAGE   1
  ShowMessageFace("s_mermaid_fc1",0,0,2,1)
  ShowMessage("【商人マーメイド】")
  ShowMessage("プランセクト馴染みのよろず商人や。")
  ShowMessage("アクセサリも扱ってるで～！")
  ShowChoices(strings("アイテム・装備","アクセサリ","用はない"),3)
  IfPlayerPicksChoice(0,null)
   Shop(0,2,0,0,false)
   605(0,13,0,0)
   605(0,17,0,0)
   605(0,64,0,0)
   605(0,68,0,0)
   605(0,72,0,0)
   605(1,128,0,0)
   605(1,245,0,0)
   605(1,269,0,0)
   605(1,679,0,0)
   605(1,855,0,0)
   0()
  IfPlayerPicksChoice(1,null)
   Shop(2,1440,0,0,false)
   605(2,1443,0,0)
   605(2,1446,0,0)
   605(2,1449,0,0)
   605(2,1452,0,0)
   605(2,1455,0,0)
   605(2,1494,0,0)
   605(2,1498,0,0)
   605(2,1502,0,0)
   605(2,1506,0,0)
   605(2,1510,0,0)
   605(2,1514,0,0)
   605(2,1526,0,0)
   605(2,1530,0,0)
   0()
  IfPlayerPicksChoice(2,null)
   0()
  404()
  If(1,1005,0,16,0)
   If(4,66,0)
    If(0,2065,0)
     ShowMessageFace("vgirl_fc1",0,0,2,2)
     ShowMessage("【ヴァニラ】")
     ShowMessage("はじめまして、商人のヴァニラです。")
     ShowMessage("自然三属性の魔石を、我が店に仕入れてほしいのですけど……")
     ShowMessageFace("s_mermaid_fc1",0,0,2,3)
     ShowMessage("【商人マーメイド】")
     ShowMessage("うちも商人やからな。条件次第やで！")
     ShowMessageFace("",0,0,2,4)
     ShowMessage("商談が進んでいく……")
     ShowMessage("一流商人にも劣らない交渉振りだ！")
     ShowMessageFace("s_mermaid_fc1",1,0,2,5)
     ShowMessage("【商人マーメイド】")
     ShowMessage("よっしゃ、それでOKや！")
     ShowMessage("ええ取引させてもろたわ。")
     ShowMessageFace("vgirl_fc1",0,0,2,6)
     ShowMessage("【ヴァニラ】")
     ShowMessage("こちらこそ、ありがとうございます！")
     ShowMessage("今後ともよろしく……なのだ！")
     249(bytes(0x04,0x08,0x6f,0x3a,0x0c,0x52,0x50,0x47,0x3a,0x3a,0x4d,0x45,0x08,0x3a,0x0a,0x40,0x6e,0x61,0x6d,0x65,0x49,0x22,0x0c,0x66,0x61,0x6e,0x66,0x61,0x6c,0x65,0x06,0x3a,0x06,0x45,0x54,0x3a,0x0b,0x40,0x70,0x69,0x74,0x63,0x68,0x69,0x69,0x3a,0x0c,0x40,0x76,0x6f,0x6c,0x75,0x6d,0x65,0x69,0x69))
     ShowMessageFace("",0,0,2,7)
     ShowMessage("ヴァニラの店で風、土、水の上級魔石を扱うようになった！")
     ChangeVariable(1005,1005,0,0,17)
     ChangeSwitch(2065,2065,1)
     Wait(60)
     EndEventProcessing()
     0()
    EndIf()
    0()
   EndIf()
   0()
  EndIf()
  0()



EVENT   7
 PAGE   1
  ShowMessageFace("a_vore_fc1",0,0,2,1)
  ShowMessage("【アルラ・ボア】")
  ShowMessage("与一の弓は、貴重な弓矢。")
  ShowMessage("鍛冶屋に持っていけば、聖属性もしくは闇属性の強化が可能よ。")
  ShowMessageFace("a_vore_fc1",0,0,2,2)
  ShowMessage("【アルラ・ボア】")
  ShowMessage("さらに改造を重ねる事で、ますます強くなっていくらしいわ……")
  ShowMessage("最初に聖属性にするか闇属性にするか、迷うわね。")
  0()



EVENT   16
 PAGE   1
  If(4,241,0)
   ShowMessageFace("a_alm_fc1",0,0,2,1)
   ShowMessage("【お付きのカウンセラー】")
   ShowMessage("プリエステス様、どうぞごゆるりと。")
   ShowMessage("気ままな旅で、心を癒されますよう……")
   ShowMessageFace("a_emp_fc1",1,0,2,2)
   ShowMessage("【プリエステス】")
   ShowMessage("私は解放されました。")
   ShowMessage("解放されたのですよ。")
   EndEventProcessing()
   0()
  EndIf()
  If(4,242,0)
   ShowMessageFace("a_alm_fc1",0,0,2,3)
   ShowMessage("【お付きのカウンセラー】")
   ShowMessage("プリエステス様……")
   ShowMessage("女王就任、おめでとうございます。")
   ShowMessageFace("a_emp_fc1",4,0,2,4)
   ShowMessage("【プリエステス】")
   ShowMessage("めでたいと思いますか、フフッ。")
   EndEventProcessing()
   0()
  EndIf()
  ShowMessageFace("a_alm_fc1",0,0,2,5)
  ShowMessage("【お付きのカウンセラー】")
  ShowMessage("私は、植物族の長であるプリエステス様のカウンセラー。")
  ShowMessage("このトラブル続きの村を治めるには、心労が途絶える事はないのです。")
  ShowMessageFace("a_alm_fc1",0,0,2,6)
  ShowMessage("【お付きのカウンセラー】")
  ShowMessage("最近もプリエステス様は、胃痛や胸焼けを訴えられております。")
  ShowMessage("肋骨の痛みや、手の震え、他にも突然の動悸や息切れ……")
  If(0,6,0)
   ShowMessageFace("sonia_fc4",0,0,2,7)
   ShowMessage("【ソニア】")
   ShowMessage("とっても苦労してるのね……")
   0()
  Else()
   ShowMessageFace("ruka_fc1",0,0,2,8)
   ShowMessage("【ルカ】")
   ShowMessage("とっても苦労してるんだね……")
   0()
  EndIf()
  ShowMessageFace("a_alm_fc1",0,0,2,9)
  ShowMessage("【お付きのカウンセラー】")
  ShowMessage("近頃は、毎日のように辞表やら遺書やらをしたため……")
  ShowMessage("それで鬱憤を晴らしているかのようですね。")
  If(0,4,0)
   ShowMessageFace("alice_fc5",5,0,2,10)
   ShowMessage("【アリス】")
   ShowMessage("少し休めばどうなのだ……？")
   0()
  EndIf()
  If(0,5,0)
   ShowMessageFace("iriasu_fc4",2,0,2,11)
   ShowMessage("【イリアス】")
   ShowMessage("中間管理職の天使におなじみの症状ですね。")
   0()
  EndIf()
  ShowMessageFace("a_alm_fc1",0,0,2,12)
  ShowMessage("【お付きのカウンセラー】")
  ShowMessage("最近はよく悪夢を見られ、モラトリアムと叫びながら飛び起きる事も。")
  ShowMessage("睡眠も浅くなる一方で、早朝に目覚められ外をウロウロ……")
  If(0,6,0)
   ShowMessageFace("sonia_fc4",0,0,2,13)
   ShowMessage("【ソニア】")
   ShowMessage("聞いてるこっちが、胃が痛くなりそう……")
   0()
  Else()
   ShowMessageFace("ruka_fc1",0,0,2,14)
   ShowMessage("【ルカ】")
   ShowMessage("聞いてるこっちが、胃が痛くなりそう……")
   0()
  EndIf()
  0()



EVENT   26
 PAGE   1
  ShowMessageFace("a_mash_fc1",0,0,2,1)
  ShowMessage("【アルラ・マッシュ】")
  ShowMessage("ウケケケケケ！！")
  0()



EVENT   28
 PAGE   1
  ShowMessageFace("a_mash_fc1",0,0,2,1)
  ShowMessage("【アルラ・マッシュ】")
  ShowMessage("きのこ、おいしいよ！")
  0()



EVENT   29
 PAGE   1
  ShowMessageFace("a_mash_fc1",0,0,2,1)
  ShowMessage("【アルラ・マッシュ】")
  ShowMessage("胞子、もわもわ……")
  0()



EVENT   27
 PAGE   1
  ShowMessageFace("a_parasol_fc1",1,0,2,1)
  ShowMessage("【アルラ・パラソル】")
  ShowMessage("あらあら……")
  ShowMessage("この子ったら、こんなに増えてしまって。")
  355("actor_label_jump")
  EndEventProcessing()
  DefineLabel("92")
  ShowMessageFace("eater_fc1",3,0,2,2)
  ShowMessage("【イーター】")
  ShowMessage("ひとつくらい、食べてもいい……？")
  EndEventProcessing()
  0()



EVENT   30
 PAGE   1
  ShowMessageFace("a_mash_fc1",0,0,2,1)
  ShowMessage("【アルラ・マッシュ】")
  ShowMessage("ウケケケケケ！！")
  0()



EVENT   31
 PAGE   1
  ShowMessageFace("a_mash_fc1",0,0,2,1)
  ShowMessage("【アルラ・マッシュ】")
  ShowMessage("おいしいきのこ！")
  0()



EVENT   32
 PAGE   1
  ShowMessageFace("a_mash_fc1",0,0,2,1)
  ShowMessage("【アルラ・マッシュ】")
  ShowMessage("栄養いっぱい、よいキノコ！")
  0()



EVENT   33
 PAGE   1
  ShowMessageFace("a_mash_fc1",0,0,2,1)
  ShowMessage("【アルラ・マッシュ】")
  ShowMessage("じめじめ、元気なキノコ！")
  0()



EVENT   34
 PAGE   1
  ShowMessageFace("a_mash_fc1",0,0,2,1)
  ShowMessage("【アルラ・マッシュ】")
  ShowMessage("ウケケケケケ！！")
  0()



EVENT   35
 PAGE   1
  ShowMessageFace("a_mash_fc1",0,0,2,1)
  ShowMessage("【アルラ・マッシュ】")
  ShowMessage("いっぱいキノコ！")
  0()



EVENT   37
 PAGE   1
  ShowMessageFace("a_alm_fc1",0,0,2,1)
  ShowMessage("【アルラ・アルム】")
  ShowMessage("中央の池の周囲は、戦闘行為が禁止されています。")
  ShowMessage("敵と遭遇する事はありませんので、ご安心を。")
  0()



EVENT   38
 PAGE   1
  // condition: variable 1056 >= 2
  ShowMessageFace("a_alm_fc1",0,0,2,1)
  ShowMessage("【アルラ・アルム】")
  ShowMessage("ようこそ、お客人。")
  ShowMessage("中央池まで、送って差し上げましょうか……？")
  ShowChoices(strings("頼む","断る"),2)
  IfPlayerPicksChoice(0,null)
   TeleportPlayer(0,132,35,42,0,0)
   0()
  IfPlayerPicksChoice(1,null)
   0()
  404()
  0()



EVENT   36
 PAGE   1
  If(1,1061,0,0,0)
   ShowMessageFace("a_prison_fc1",0,0,2,1)
   ShowMessage("【アルラ・プリズン】")
   ShowMessage("昆虫族は、とても残酷なのよ……")
   ShowMessage("私達のようにじわじわ生殺しにせず、一気に全殺しにしてしまうの。")
   EndEventProcessing()
   0()
  EndIf()
  If(1,1061,0,1,1)
   ShowMessageFace("a_prison_fc1",2,0,2,2)
   ShowMessage("【アルラ・プリズン】")
   ShowMessage("昆虫族とも、共存しなくちゃいけないのね……")
   ShowMessage("まあ、もう戦いはこりごりだわ。")
   EndEventProcessing()
   0()
  EndIf()
  0()



EVENT   39
 PAGE   1
  ShowMessageFace("a_looty_fc1",2,0,2,1)
  ShowMessage("【アルラ・ルーティ】")
  ShowMessage("植物族のリーダーは、プリエステスだ。")
  ShowMessage("でも、最近は胃痛に悩まされてるようだぜ。")
  ShowMessageFace("a_looty_fc1",2,0,2,2)
  ShowMessage("【アルラ・ルーティ】")
  ShowMessage("この村のリーダーは、前任者も前々任者も心労で倒れてる。")
  ShowMessage("昆虫族との抗争やら、色々トラブルが絶えない村だからな……")
  355("actor_label_jump")
  EndEventProcessing()
  DefineLabel("241")
  ShowMessageFace("a_emp_fc1",1,0,2,3)
  ShowMessage("【プリエステス】")
  ShowMessage("私は倒れません。")
  ShowMessage("私は犠牲になどなりません。")
  EndEventProcessing()
  DefineLabel("242")
  ShowMessageFace("a_emp_fc1",4,0,2,4)
  ShowMessage("【プリエステス】")
  ShowMessage("次の村長は、誰にしましょうか……")
  ShowMessage("ふふっ、あなたがいいですか？")
  ShowMessageFace("a_looty_fc1",2,0,2,5)
  ShowMessage("【アルラ・ルーティ】")
  ShowMessage("ちょ……勘弁してくれよ！")
  EndEventProcessing()
  DefineLabel("525")
  ShowMessageFace("sonia_fc2",2,0,2,6)
  ShowMessage("【ソニア】")
  ShowMessage("魔物でも、心労に悩まされたりするのね……")
  EndEventProcessing()
  0()



EVENT   43
 PAGE   1
  If(1,1061,0,0,0)
   ShowMessageFace("a_parasol_fc1",2,0,2,1)
   ShowMessage("【アルラ・パラソル】")
   ShowMessage("争いには、もう疲れました。")
   ShowMessage("ほんの一時ですが、平穏が続いていたのに……")
   EndEventProcessing()
   0()
  EndIf()
  If(1,1061,0,1,1)
   ShowMessageFace("a_parasol_fc1",0,0,2,2)
   ShowMessage("【アルラ・パラソル】")
   ShowMessage("この平穏が、ずっと続くことを祈っております……")
   EndEventProcessing()
   0()
  EndIf()
  0()



EVENT   44
 PAGE   1
  If(1,1061,0,0,0)
   ShowMessageFace("a_prison_fc1",2,0,2,1)
   ShowMessage("【アルラ・プリズン】")
   ShowMessage("正直、もう戦い疲れたわ……")
   ShowMessage("またアリスフィーズ17世が力任せに調停してくれないかしら。")
   EndEventProcessing()
   0()
  EndIf()
  If(1,1061,0,1,1)
   ShowMessageFace("a_prison_fc1",2,0,2,2)
   ShowMessage("【アルラ・プリズン】")
   ShowMessage("また黒のアリスの使いが現れ、平和を乱したりしないかしら……")
   ShowMessage("その時は、花と虫が協力して抵抗するでしょうけど。")
   EndEventProcessing()
   0()
  EndIf()
  0()



EVENT   40
 PAGE   1
  ShowMessageFace("a_vore_fc1",0,0,2,1)
  ShowMessage("【アルラ・ボア】")
  ShowMessage("この村は、なんとしても守らなければ……")
  0()



EVENT   45
 PAGE   1
  If(1,1061,0,0,0)
   ShowMessageFace("a_alm_fc1",0,0,2,1)
   ShowMessage("【アルラ・アルム】")
   ShowMessage("アリス17世による、一時期だけの平和……")
   ShowMessage("あの時期の平穏を懐かしむ者も、最近は増えました。")
   ShowMessageFace("a_alm_fc1",0,0,2,2)
   ShowMessage("【アルラ・アルム】")
   ShowMessage("三人の魔王による騒乱など、外の世界が不穏になるにつけ……")
   ShowMessage("せめて村では、種族を問わず団結しようという気運も広がっています。")
   EndEventProcessing()
   0()
  EndIf()
  If(1,1061,0,1,1)
   ShowMessageFace("a_alm_fc1",0,0,2,3)
   ShowMessage("【アルラ・アルム】")
   ShowMessage("三人の魔王による騒乱など、外の世界が不穏になるにつけ……")
   ShowMessage("せめて村では、種族を問わず団結しようという気運も広がっています。")
   EndEventProcessing()
   0()
  EndIf()
  0()



EVENT   46
 PAGE   1
  // condition: switch 1540 is ON
  241(bytes(0x04,0x08,0x6f,0x3a,0x0d,0x52,0x50,0x47,0x3a,0x3a,0x42,0x47,0x4d,0x08,0x3a,0x0a,0x40,0x6e,0x61,0x6d,0x65,0x49,0x22,0x0a,0x61,0x6d,0x69,0x72,0x61,0x06,0x3a,0x06,0x45,0x54,0x3a,0x0c,0x40,0x76,0x6f,0x6c,0x75,0x6d,0x65,0x69,0x69,0x3a,0x0b,0x40,0x70,0x69,0x74,0x63,0x68,0x69,0x69))
  If(2,"A",1)
   ChangeSelfSwitch("A",0)
   RunCommonEvent(322)
   0()
  Else()
   ShowMessageFace("amira_fc1",0,0,2,1)
   ShowMessage("【アミラ】")
   ShowMessage("このアミラは、もう見つけたわ。")
   ShowMessage("別のアミラを探して……")
   0()
  EndIf()
  241(bytes(0x04,0x08,0x6f,0x3a,0x0d,0x52,0x50,0x47,0x3a,0x3a,0x42,0x47,0x4d,0x08,0x3a,0x0a,0x40,0x6e,0x61,0x6d,0x65,0x49,0x22,0x15,0x64,0x75,0x6e,0x67,0x65,0x6f,0x6e,0x5f,0x70,0x6c,0x61,0x6e,0x73,0x65,0x63,0x74,0x06,0x3a,0x06,0x45,0x54,0x3a,0x0c,0x40,0x76,0x6f,0x6c,0x75,0x6d,0x65,0x69,0x69,0x3a,0x0b,0x40,0x70,0x69,0x74,0x63,0x68,0x69,0x69))
  EndEventProcessing()
  0()
 PAGE   2
  // condition: party contains actor #540
  0()
