﻿


EVENT   1
 PAGE   1
  281(1)
  250(bytes(0x04,0x08,0x6f,0x3a,0x0c,0x52,0x50,0x47,0x3a,0x3a,0x53,0x45,0x08,0x3a,0x0a,0x40,0x6e,0x61,0x6d,0x65,0x49,0x22,0x09,0x4d,0x6f,0x76,0x65,0x06,0x3a,0x06,0x45,0x54,0x3a,0x0b,0x40,0x70,0x69,0x74,0x63,0x68,0x69,0x69,0x3a,0x0c,0x40,0x76,0x6f,0x6c,0x75,0x6d,0x65,0x69,0x55))
  TeleportPlayer(0,310,22,10,0,0)
  0()



EVENT   2
 PAGE   1
  281(1)
  250(bytes(0x04,0x08,0x6f,0x3a,0x0c,0x52,0x50,0x47,0x3a,0x3a,0x53,0x45,0x08,0x3a,0x0a,0x40,0x6e,0x61,0x6d,0x65,0x49,0x22,0x09,0x4d,0x6f,0x76,0x65,0x06,0x3a,0x06,0x45,0x54,0x3a,0x0b,0x40,0x70,0x69,0x74,0x63,0x68,0x69,0x69,0x3a,0x0c,0x40,0x76,0x6f,0x6c,0x75,0x6d,0x65,0x69,0x55))
  TeleportPlayer(0,310,28,16,0,0)
  0()



EVENT   3
 PAGE   1
  281(1)
  250(bytes(0x04,0x08,0x6f,0x3a,0x0c,0x52,0x50,0x47,0x3a,0x3a,0x53,0x45,0x08,0x3a,0x0a,0x40,0x6e,0x61,0x6d,0x65,0x49,0x22,0x09,0x4d,0x6f,0x76,0x65,0x06,0x3a,0x06,0x45,0x54,0x3a,0x0b,0x40,0x70,0x69,0x74,0x63,0x68,0x69,0x69,0x3a,0x0c,0x40,0x76,0x6f,0x6c,0x75,0x6d,0x65,0x69,0x55))
  TeleportPlayer(0,310,15,32,0,0)
  0()



EVENT   4
 PAGE   1
  ShowMessageFace("",0,0,2,1)
  ShowMessage("【宿の主】")
  ShowMessage("5Gになります。")
  ShowMessage("泊まっていかれますか？\\$")
  ShowChoices(strings("はい","いいえ"),2)
  IfPlayerPicksChoice(0,null)
   If(7,5,0)
    125(1,0,5)
    221()
    249(bytes(0x04,0x08,0x6f,0x3a,0x0c,0x52,0x50,0x47,0x3a,0x3a,0x4d,0x45,0x08,0x3a,0x0a,0x40,0x6e,0x61,0x6d,0x65,0x49,0x22,0x08,0x49,0x6e,0x6e,0x06,0x3a,0x06,0x45,0x54,0x3a,0x0b,0x40,0x70,0x69,0x74,0x63,0x68,0x69,0x69,0x3a,0x0c,0x40,0x76,0x6f,0x6c,0x75,0x6d,0x65,0x69,0x69))
    Wait(150)
    314(0,0)
    222()
    0()
   Else()
    ShowMessageFace("",0,0,2,2)
    ShowMessage("【宿の主】")
    ShowMessage("おや、お金が足りませんよ……")
    0()
   EndIf()
   0()
  IfPlayerPicksChoice(1,null)
   0()
  404()
  0()



EVENT   5
 PAGE   1
  If(2,"A",1)
   ChangeSelfSwitch("A",0)
   ShowMessageFace("",0,0,2,1)
   ShowMessage("【アルフォンソ】")
   ShowMessage("おや、マルケルスさん……")
   ShowMessage("いえ、別の方ですかな？")
   ShowMessageFace("ruka_fc1",0,0,2,2)
   ShowMessage("【ルカ】")
   ShowMessage("あなたが伝説の料理人、アルフォンソさん……！？")
   ShowMessageFace("",0,0,2,3)
   ShowMessage("【アルフォンソ】")
   ShowMessage("ええ、そのように呼ばれております。")
   ShowMessage("せっかくですので、軽くお料理でも振る舞いましょうか……？")
   If(0,4,0)
    ShowMessageFace("alice_fc5",7,0,2,4)
    ShowMessage("【アリス】")
    ShowMessage("ここに来て、良かった……")
    0()
   EndIf()
   If(0,5,0)
    ShowMessageFace("iriasu_fc4",1,0,2,5)
    ShowMessage("【イリアス】")
    ShowMessage("ええ、ぜひお願いします。")
    0()
   EndIf()
   If(4,64,0)
    ShowMessageFace("pramia_fc1",0,0,2,6)
    ShowMessage("【プチ】")
    ShowMessage("伝説の料理人の味、しっかり勉強しないと……")
    0()
   EndIf()
   ShowMessageFace("",0,0,2,7)
   ShowMessage("【アルフォンソ】")
   ShowMessage("それでは、少しお待ちを……")
   205(0,bytes(0x04,0x08,0x6f,0x3a,0x13,0x52,0x50,0x47,0x3a,0x3a,0x4d,0x6f,0x76,0x65,0x52,0x6f,0x75,0x74,0x65,0x09,0x3a,0x0c,0x40,0x72,0x65,0x70,0x65,0x61,0x74,0x46,0x3a,0x0f,0x40,0x73,0x6b,0x69,0x70,0x70,0x61,0x62,0x6c,0x65,0x46,0x3a,0x0a,0x40,0x77,0x61,0x69,0x74,0x54,0x3a,0x0a,0x40,0x6c,0x69,0x73,0x74,0x5b,0x0a,0x6f,0x3a,0x15,0x52,0x50,0x47,0x3a,0x3a,0x4d,0x6f,0x76,0x65,0x43,0x6f,0x6d,0x6d,0x61,0x6e,0x64,0x07,0x3a,0x0a,0x40,0x63,0x6f,0x64,0x65,0x69,0x22,0x3a,0x10,0x40,0x70,0x61,0x72,0x61,0x6d,0x65,0x74,0x65,0x72,0x73,0x5b,0x06,0x69,0x09,0x6f,0x3b,0x0a,0x07,0x3b,0x0b,0x69,0x2a,0x3b,0x0c,0x5b,0x00,0x6f,0x3b,0x0a,0x07,0x3b,0x0b,0x69,0x09,0x3b,0x0c,0x5b,0x00,0x6f,0x3b,0x0a,0x07,0x3b,0x0b,0x69,0x09,0x3b,0x0c,0x5b,0x00,0x6f,0x3b,0x0a,0x07,0x3b,0x0b,0x69,0x00,0x3b,0x0c,0x5b,0x00))
   221()
   Wait(60)
   222()
   205(0,bytes(0x04,0x08,0x6f,0x3a,0x13,0x52,0x50,0x47,0x3a,0x3a,0x4d,0x6f,0x76,0x65,0x52,0x6f,0x75,0x74,0x65,0x09,0x3a,0x0c,0x40,0x72,0x65,0x70,0x65,0x61,0x74,0x46,0x3a,0x0f,0x40,0x73,0x6b,0x69,0x70,0x70,0x61,0x62,0x6c,0x65,0x46,0x3a,0x0a,0x40,0x77,0x61,0x69,0x74,0x54,0x3a,0x0a,0x40,0x6c,0x69,0x73,0x74,0x5b,0x0b,0x6f,0x3a,0x15,0x52,0x50,0x47,0x3a,0x3a,0x4d,0x6f,0x76,0x65,0x43,0x6f,0x6d,0x6d,0x61,0x6e,0x64,0x07,0x3a,0x0a,0x40,0x63,0x6f,0x64,0x65,0x69,0x22,0x3a,0x10,0x40,0x70,0x61,0x72,0x61,0x6d,0x65,0x74,0x65,0x72,0x73,0x5b,0x06,0x69,0x09,0x6f,0x3b,0x0a,0x07,0x3b,0x0b,0x69,0x06,0x3b,0x0c,0x5b,0x00,0x6f,0x3b,0x0a,0x07,0x3b,0x0b,0x69,0x06,0x3b,0x0c,0x5b,0x00,0x6f,0x3b,0x0a,0x07,0x3b,0x0b,0x69,0x1e,0x3b,0x0c,0x5b,0x00,0x6f,0x3b,0x0a,0x07,0x3b,0x0b,0x69,0x2b,0x3b,0x0c,0x5b,0x00,0x6f,0x3b,0x0a,0x07,0x3b,0x0b,0x69,0x00,0x3b,0x0c,0x5b,0x00))
   ShowMessageFace("",0,0,2,8)
   ShowMessage("【アルフォンソ】")
   ShowMessage("自作野菜のサラダです。")
   ShowMessage("非常に簡単なもので恐縮ですが……")
   ShowMessageFace("",0,0,2,9)
   ShowMessage("ルカ達はサラダを食べた……")
   250(bytes(0x04,0x08,0x6f,0x3a,0x0c,0x52,0x50,0x47,0x3a,0x3a,0x53,0x45,0x08,0x3a,0x0a,0x40,0x6e,0x61,0x6d,0x65,0x49,0x22,0x0b,0x53,0x61,0x69,0x6e,0x74,0x36,0x06,0x3a,0x06,0x45,0x54,0x3a,0x0b,0x40,0x70,0x69,0x74,0x63,0x68,0x69,0x37,0x3a,0x0c,0x40,0x76,0x6f,0x6c,0x75,0x6d,0x65,0x69,0x55))
   284("BlueSky",true,false,5,0)
   Wait(180)
   284("",false,false,0,0)
   If(0,4,0)
    ShowMessageFace("alice_fc5",7,0,2,10)
    ShowMessage("【アリス】")
    ShowMessage("おいしい……♪")
    0()
   EndIf()
   If(0,5,0)
    ShowMessageFace("iriasu_fc4",1,0,2,11)
    ShowMessage("【イリアス】")
    ShowMessage("なんと素晴らしい……♪")
    ShowMessage("天国には、あなたの席をキープしておきましょう。")
    0()
   EndIf()
   If(4,64,0)
    ShowMessageFace("pramia_fc1",0,0,2,12)
    ShowMessage("【プチ】")
    ShowMessage("あと何年修行したら、これに追いつけるの……？")
    0()
   EndIf()
   ShowMessageFace("",0,0,2,13)
   ShowMessage("【アルフォンソ】")
   ShowMessage("はっはっは、引退した身ではありますが……")
   ShowMessage("まだまだ、現役でも通じるでしょう？")
   ShowMessageFace("",0,0,2,14)
   ShowMessage("【アルフォンソ】")
   ShowMessage("しかし、一つだけ心残りがあります……")
   ShowMessage("己の道のみを追い続けた結果、私には弟子がいないのです。")
   ShowMessageFace("",0,0,2,15)
   ShowMessage("【アルフォンソ】")
   ShowMessage("この「調理師免許」ですが、もはや受け継ぐ者はいません。")
   ShowMessage("私が死ぬ前に、家の前にある木の根元にでも埋めようと思っています。")
   205(0,bytes(0x04,0x08,0x6f,0x3a,0x13,0x52,0x50,0x47,0x3a,0x3a,0x4d,0x6f,0x76,0x65,0x52,0x6f,0x75,0x74,0x65,0x09,0x3a,0x0c,0x40,0x72,0x65,0x70,0x65,0x61,0x74,0x46,0x3a,0x0f,0x40,0x73,0x6b,0x69,0x70,0x70,0x61,0x62,0x6c,0x65,0x46,0x3a,0x0a,0x40,0x77,0x61,0x69,0x74,0x54,0x3a,0x0a,0x40,0x6c,0x69,0x73,0x74,0x5b,0x07,0x6f,0x3a,0x15,0x52,0x50,0x47,0x3a,0x3a,0x4d,0x6f,0x76,0x65,0x43,0x6f,0x6d,0x6d,0x61,0x6e,0x64,0x07,0x3a,0x0a,0x40,0x63,0x6f,0x64,0x65,0x69,0x15,0x3a,0x10,0x40,0x70,0x61,0x72,0x61,0x6d,0x65,0x74,0x65,0x72,0x73,0x5b,0x00,0x6f,0x3b,0x0a,0x07,0x3b,0x0b,0x69,0x00,0x3b,0x0c,0x5b,0x00))
   ShowMessageFace("ruka_fc1",0,0,2,16)
   ShowMessage("【ルカ】")
   ShowMessage("木の根元に、調理師免許を……")
   ShowMessage("もしかして、僕達の世界でも……")
   ChangeSwitch(2052,2052,0)
   0()
  Else()
   ShowMessageFace("",0,0,2,17)
   ShowMessage("【アルフォンソ】")
   ShowMessage("しかし、一つだけ心残りがあります……")
   ShowMessage("己の道のみを追い続けた結果、私には弟子がいないのです。")
   ShowMessageFace("",0,0,2,18)
   ShowMessage("【アルフォンソ】")
   ShowMessage("この「調理師免許」ですが、もはや受け継ぐ者はいません。")
   ShowMessage("私が死ぬ前に、家の前にある木の根元にでも埋めようと思っています。")
   ShowMessageFace("ruka_fc1",0,0,2,19)
   ShowMessage("【ルカ】")
   ShowMessage("木の根元に、調理師免許を……")
   ShowMessage("もしかして、僕達の世界でも……")
   0()
  EndIf()
  0()



EVENT   6
 PAGE   1
  ShowMessageFace("",0,0,2,1)
  ShowMessage("【おばあさん】")
  ShowMessage("5年ほど前にタルタロスが現れてから、なんだか変だよ。")
  ShowMessage("地震や地響きは多いし、農作物はやけに育つしね。")
  ShowMessageFace("",0,0,2,2)
  ShowMessage("【おばあさん】")
  ShowMessage("豊作は嬉しいんだけど、変な野菜もたくさん出来るんだよ。")
  ShowMessage("色や形がおかしかったり、別の野菜が混ざったみたいになったり……")
  ShowMessageFace("",0,0,2,3)
  ShowMessage("【おばあさん】")
  ShowMessage("悪い事の前触れだったらイヤだねぇ。")
  ShowMessage("村のみんなも、内心では不安がっているんだよ……")
  355("actor_label_jump")
  EndEventProcessing()
  DefineLabel("41")
  ShowMessageFace("stein_fc2",0,0,2,4)
  ShowMessage("【プロメスティン】")
  ShowMessage("作物の異常ですか、後でサンプルを採らないと……")
  EndEventProcessing()
  0()



EVENT   7
 PAGE   1
  // condition: variable 1014 >= 1
  ChangeVariable(1014,1014,0,0,2)
  ChangeVariable(1018,1018,0,0,1)
  ChangeVariable(1001,1001,0,0,11)
  ShowMessageFace("",0,0,2,1)
  ShowMessage("【村長】")
  ShowMessage("おや、マルケルスさん？")
  ShowMessage("またずいぶんと雰囲気が変わって……")
  ShowMessageFace("",0,0,2,2)
  ShowMessage("【村長】")
  ShowMessage("……えっ、別人？")
  ShowMessage("それにしては、ずいぶんと似ておるのう……")
  ShowMessageFace("",0,0,2,3)
  ShowMessage("【村長】")
  ShowMessage("彼については、村人達の方が詳しかろう。")
  ShowMessage("一度目に訪れた時は、儂も会ってはいなかったからな。")
  ShowMessageFace("",0,0,2,4)
  ShowMessage("【村長】")
  ShowMessage("会ったのは、二度目。")
  ShowMessage("彼が我が家に訪ねてきた時の事は、よく覚えておるよ。")
  ShowMessageFace("",0,0,2,5)
  ShowMessage("【村長】")
  ShowMessage("話したのは、タルタロスと最近の異変の事じゃったな。")
  ShowMessage("群発する地震や農作物の異常について、興味深く聞いておった。")
  If(4,41,0)
   ShowMessageFace("stein_fc2",0,0,2,6)
   ShowMessage("【プロメスティン】")
   ShowMessage("私としても、興味深い現象ですね。")
   ShowMessage("地震に発育の異常……ぜひデータを取りたいです。")
   0()
  EndIf()
  ShowMessageFace("",0,0,2,7)
  ShowMessage("【村長】")
  ShowMessage("そして、マルケルスはこうも言っておったよ。")
  ShowMessageFace("",0,0,2,8)
  ShowMessage("【村長】")
  ShowMessage("数年以内に、この村に大きな異変が起きるかもしれない……")
  ShowMessage("そうなる前に、逃げた方がいいとな。")
  If(0,4,0)
   ShowMessageFace("alice_fc6",0,0,2,9)
   ShowMessage("【アリス】")
   ShowMessage("数年後に、大きな異変……？")
   ShowMessage("まさか、この村を滅ぼす事になる災厄の事か……？")
   0()
  EndIf()
  If(0,5,0)
   ShowMessageFace("iriasu_fc4",7,0,2,10)
   ShowMessage("【イリアス】")
   ShowMessage("数年後に、大きな異変……？")
   ShowMessage("まさか、この村を滅ぼす事になる災厄の事ですか……？")
   0()
  EndIf()
  If(0,6,0)
   ShowMessageFace("sonia_fc3",7,0,2,11)
   ShowMessage("【ソニア】")
   ShowMessage("でも、この時代のマルケルスさんがなぜそれを知ってるの？")
   ShowMessage("この村が滅びる事を、予言できたなんて……")
   0()
  Else()
   ShowMessageFace("ruka_fc1",0,0,2,12)
   ShowMessage("【ルカ】")
   ShowMessage("でも、この時代の父さんがなぜそれを知ってたんだ？")
   ShowMessage("この村が滅びる事を、予言できたなんて……")
   0()
  EndIf()
  ShowMessageFace("",0,0,2,13)
  ShowMessage("【村長】")
  ShowMessage("村が滅ぶ……？　物騒な事は言わんで下され……")
  ShowMessage("ただでさえ、最近の異変に村人達は怯えているものでな。")
  ShowMessageFace("",0,0,2,14)
  ShowMessage("【村長】")
  ShowMessage("あと、マルケルスから手紙を預かったよ。")
  ShowMessage("この村に知人が訪れた時には、渡してほしいとな……")
  ShowMessageFace("ruka_fc1",0,0,2,15)
  ShowMessage("【ルカ】")
  ShowMessage("この村を訪れるかもしれない知人……？")
  ShowMessage("いったい、誰への手紙なんですか？")
  241(bytes(0x04,0x08,0x6f,0x3a,0x0d,0x52,0x50,0x47,0x3a,0x3a,0x42,0x47,0x4d,0x08,0x3a,0x0a,0x40,0x6e,0x61,0x6d,0x65,0x49,0x22,0x0a,0x6b,0x69,0x6b,0x69,0x32,0x06,0x3a,0x06,0x45,0x54,0x3a,0x0c,0x40,0x76,0x6f,0x6c,0x75,0x6d,0x65,0x69,0x69,0x3a,0x0b,0x40,0x70,0x69,0x74,0x63,0x68,0x69,0x69))
  ShowMessageFace("",0,0,2,16)
  ShowMessage("【村長】")
  ShowMessage("ルカ、という少年じゃ。")
  ShowMessageFace("ruka_fc1",0,0,2,17)
  ShowMessage("【ルカ】")
  ShowMessage("えっ……！？")
  If(0,4,0)
   ShowMessageFace("alice_fc6",0,0,2,18)
   ShowMessage("【アリス】")
   ShowMessage("馬鹿な、それはおかしい……！")
   ShowMessage("この時代、まだルカは産まれてもいないはずだぞ……")
   ShowMessageFace("alice_fc6",0,0,2,19)
   ShowMessage("【アリス】")
   ShowMessage("いったいなぜ、マルケルスはそれを知っていた？")
   ShowMessage("産まれてもいないルカに、手紙を残したのだ……？")
   0()
  EndIf()
  If(0,5,0)
   ShowMessageFace("iriasu_fc4",7,0,2,20)
   ShowMessage("【イリアス】")
   ShowMessage("そんな馬鹿な、ありえません……！")
   ShowMessage("まだこの時代、ルカは産まれていないのですよ！")
   ShowMessageFace("iriasu_fc4",7,0,2,21)
   ShowMessage("【イリアス】")
   ShowMessage("いったいなぜ、マルケルスはルカを知っていたのです？")
   ShowMessage("産まれてもいないルカに、手紙を残すなど……")
   0()
  EndIf()
  ShowMessageFace("ruka_fc1",0,0,2,22)
  ShowMessage("【ルカ】")
  ShowMessage("村長さん、僕がルカです！")
  ShowMessage("その手紙を見せてくれませんか！？")
  ShowMessageFace("",0,0,2,23)
  ShowMessage("【村長】")
  ShowMessage("なんと、お主がルカじゃったか。")
  ShowMessage("それでは、彼との約束通り手紙を渡そう……")
  250(bytes(0x04,0x08,0x6f,0x3a,0x0c,0x52,0x50,0x47,0x3a,0x3a,0x53,0x45,0x08,0x3a,0x0a,0x40,0x6e,0x61,0x6d,0x65,0x49,0x22,0x0a,0x49,0x74,0x65,0x6d,0x31,0x06,0x3a,0x06,0x45,0x54,0x3a,0x0b,0x40,0x70,0x69,0x74,0x63,0x68,0x69,0x69,0x3a,0x0c,0x40,0x76,0x6f,0x6c,0x75,0x6d,0x65,0x69,0x55))
  ChangeInventory_Item(510,0,0,1)
  ShowMessageFace("",0,0,2,24)
  ShowMessage("ルカは手紙を開封した！")
  ShowMessageFace("",0,0,2,25)
  ShowMessage("「我が息子、ルカよ。")
  ShowMessage("　この手紙をお前が読んでいるという事は、")
  ShowMessage("　まだ私はイリアスヴィルに戻ってはいないという事になる。")
  ShowMessageFace("ruka_fc1",0,0,2,26)
  ShowMessage("【ルカ】")
  ShowMessage("我が息子、ルカ……！？")
  ShowMessage("この時代のマルケルスは、まだ僕の父さんじゃないのに……")
  ShowMessageFace("",0,0,2,27)
  ShowMessage("「おそらく、ルシフィナもお前の側にいないのだろう。")
  ShowMessage("　彼女がいれば、絶対にお前を冒険に行かせるはずがない。")
  ShowMessage("　肝心な時、お前の力になれない両親を許してくれ。")
  ShowMessageFace("ruka_fc1",0,0,2,28)
  ShowMessage("【ルカ】")
  ShowMessage("間違いない……")
  ShowMessage("この手紙を書いたのは、僕の父さんだよ！")
  If(0,4,0)
   ShowMessageFace("alice_fc6",0,0,2,29)
   ShowMessage("【アリス】")
   ShowMessage("この時代のマルケルスじゃなく、お前の父……？")
   ShowMessage("我々の世界のマルケルスが、ここに来ていたという事か！？")
   ShowMessageFace("alice_fc6",0,0,2,30)
   ShowMessage("【アリス】")
   ShowMessage("確かに、それだと一週間で人が変わった説明がつくな。")
   ShowMessage("二度目に現れたマルケルスは、そもそも別人だったのだ。")
   ShowMessageFace("alice_fc5",3,0,2,31)
   ShowMessage("【アリス】")
   ShowMessage("最初に訪れたマルケルスは、この世界の新米勇者。")
   ShowMessage("一週間後に現れたマルケルスは、我々の世界からの旅人……")
   0()
  EndIf()
  If(0,5,0)
   ShowMessageFace("iriasu_fc4",7,0,2,32)
   ShowMessage("【イリアス】")
   ShowMessage("この時代のマルケルスではなく、あなたの父……！？")
   ShowMessage("私達の世界のマルケルスが、ここに来ていたというのですか？")
   ShowMessageFace("iriasu_fc4",7,0,2,33)
   ShowMessage("【イリアス】")
   ShowMessage("確かに、それだと一週間で人が変わった説明がつきます。")
   ShowMessage("二度目に現れたマルケルスは、そもそも別人だったのです。")
   ShowMessageFace("iriasu_fc4",7,0,2,34)
   ShowMessage("【イリアス】")
   ShowMessage("最初に訪れたマルケルスは、この世界の新米勇者。")
   ShowMessage("一週間後に現れたマルケルスは、我々の世界からの旅人……")
   0()
  EndIf()
  ShowMessageFace("",0,0,2,35)
  ShowMessage("「ミカエラを頼れ、ルカ。")
  ShowMessage("　彼女は、迷いの森を抜けた先の隠れ里エンリカにいる。")
  ShowMessage("　ミカエラならば、必ずお前を助けてくれるはずだ。")
  If(0,5,0)
   ShowMessageFace("iriasu_fc4",2,0,2,36)
   ShowMessage("【イリアス】")
   ShowMessage("ミカエラ……")
   0()
  EndIf()
  ShowMessageFace("",0,0,2,37)
  ShowMessage("「全ての世界を覆う闇は、私が必ず払う。")
  ShowMessage("　お前はミカエラの元で、お前の世界を守ってくれ。")
  ShowMessage("　ここに来ることが出来るほど成長したお前を、誇りに思う。")
  ShowMessageFace("",0,0,2,38)
  ShowMessage("「お前の父、マルケルスより」")
  ShowMessageFace("",0,0,2,39)
  ShowMessage("手紙はここで終わっている……")
  ShowMessageFace("ruka_fc1",0,0,2,40)
  ShowMessage("【ルカ】")
  ShowMessage("父さん……")
  If(0,4,0)
   ShowMessageFace("alice_fc6",0,0,2,41)
   ShowMessage("【アリス】")
   ShowMessage("この手紙を書いたのは、我々の世界のマルケルス……")
   ShowMessage("すると彼も、時空の扉を行き来する事ができるのか。")
   ShowMessageFace("alice_fc6",0,0,2,42)
   ShowMessage("【アリス】")
   ShowMessage("なぜ人間が、そのような能力を……")
   ShowMessage("そして彼は、何をしようとしているのだ？")
   ShowMessageFace("alice_fc5",0,0,2,43)
   ShowMessage("【アリス】")
   ShowMessage("ともかく、この手紙を残したのは一ヶ月前……")
   ShowMessage("足跡を辿る事は難しかろう。")
   0()
  EndIf()
  If(0,5,0)
   ShowMessageFace("iriasu_fc4",2,0,2,44)
   ShowMessage("【イリアス】")
   ShowMessage("この手紙を書いたのは、我々の世界のマルケルス……")
   ShowMessage("すると彼も、時空の扉を行き来できるのですか。")
   ShowMessageFace("iriasu_fc4",2,0,2,45)
   ShowMessage("【イリアス】")
   ShowMessage("なぜ普通の人間であった彼が、そんな能力を……？")
   ShowMessage("そして、彼の目的は……")
   ShowMessageFace("iriasu_fc4",2,0,2,46)
   ShowMessage("【イリアス】")
   ShowMessage("ともかく、この手紙を残したのが一ヶ月前……")
   ShowMessage("後を追うのは難しいでしょうね。")
   0()
  EndIf()
  ShowMessageFace("ruka_fc1",0,0,2,47)
  ShowMessage("【ルカ】")
  ShowMessage("この世界には、いないかもしれない……")
  ShowMessage("僕達の世界に戻ったのか、また別の世界に行ったのか……")
  241(bytes(0x04,0x08,0x6f,0x3a,0x0d,0x52,0x50,0x47,0x3a,0x3a,0x42,0x47,0x4d,0x08,0x3a,0x0a,0x40,0x6e,0x61,0x6d,0x65,0x49,0x22,0x0a,0x6d,0x75,0x72,0x61,0x32,0x06,0x3a,0x06,0x45,0x54,0x3a,0x0c,0x40,0x76,0x6f,0x6c,0x75,0x6d,0x65,0x69,0x69,0x3a,0x0b,0x40,0x70,0x69,0x74,0x63,0x68,0x69,0x69))
  If(0,6,0)
   ShowMessageFace("sonia_fc2",2,0,2,48)
   ShowMessage("【ソニア】")
   ShowMessage("ルカ、ミカエラって言う人に聞き覚えはないの？")
   ShowMessage("マルケルスさんは、ミカエラに会えって言ってるけど……")
   ShowMessageFace("ruka_fc1",0,0,2,49)
   ShowMessage("【ルカ】")
   ShowMessage("いや、初めて聞く名だよ。")
   ShowMessage("父さんの古い知り合いかな？")
   0()
  Else()
   ShowMessageFace("ruka_fc1",0,0,2,50)
   ShowMessage("【ルカ】")
   ShowMessage("ミカエラに会え……か。")
   ShowMessage("聞いたことのない名前だな。")
   0()
  EndIf()
  If(0,4,0)
   ShowMessageFace("alice_fc5",0,0,2,51)
   ShowMessage("【アリス】")
   ShowMessage("これで、次の行き先は決まったな。")
   ShowMessage("ミカエラとやらは、隠れ里エンリカにいるという。")
   ShowMessageFace("alice_fc5",0,0,2,52)
   ShowMessage("【アリス】")
   ShowMessage("エンリカがあるのは、迷いの森を抜けた先……")
   ShowMessage("迷いの森は、イリアスヴィルの西に広がっていたな。")
   0()
  EndIf()
  If(0,5,0)
   ShowMessageFace("iriasu_fc4",2,0,2,53)
   ShowMessage("【イリアス】")
   ShowMessage("いえ、私はミカエラを知っています。")
   ShowMessage("彼女は、あなたの母ルシフィナの姉ですよ……")
   ShowMessageFace("ruka_fc1",0,0,2,54)
   ShowMessage("【ルカ】")
   ShowMessage("それじゃあ……僕の伯母さん！？")
   ShowMessage("そんな人がいたなんて……")
   ShowMessageFace("iriasu_fc4",2,0,2,55)
   ShowMessage("【イリアス】")
   ShowMessage("……会いに行くしかないようですね、ミカエラに。")
   ShowMessage("本音を言えば、避けたかったのですが。")
   ShowMessageFace("iriasu_fc4",2,0,2,56)
   ShowMessage("【イリアス】")
   ShowMessage("今の私を見るなり、攻撃してくるかもしれません……")
   ShowMessage("ルカ、その時は私の盾になるのですよ。")
   ShowMessageFace("ruka_fc1",0,0,2,57)
   ShowMessage("【ルカ】")
   ShowMessage("いきなり攻撃してくるって……")
   ShowMessage("そんなに怖い人なの？")
   ShowMessageFace("iriasu_fc4",2,0,2,58)
   ShowMessage("【イリアス】")
   ShowMessage("最悪、いきなり天軍の剣をお見舞いされるかも……")
   ShowMessage("そうなれば、ルカを盾にしたところで……")
   ShowMessageFace("ruka_fc1",0,0,2,59)
   ShowMessage("【ルカ】")
   ShowMessage("……どうなるの？")
   ShowMessageFace("iriasu_fc4",2,0,2,60)
   ShowMessage("【イリアス】")
   ShowMessage("私とルカ、共に光の中に消えていきます……")
   ShowMessage("おそらくエンリカも消滅、周囲数キロは焦土と化すでしょう。")
   If(0,6,0)
    ShowMessageFace("sonia_fc3",2,0,2,61)
    ShowMessage("【ソニア】")
    ShowMessage("ルカの伯母さん、こわっ！")
    0()
   EndIf()
   ShowMessageFace("iriasu_fc4",2,0,2,62)
   ShowMessage("【イリアス】")
   ShowMessage("だから、会いたくないです……")
   ShowMessage("弱体化した今の私にとって、最大のピンチです……")
   ShowMessageFace("ruka_fc1",0,0,2,63)
   ShowMessage("【ルカ】")
   ShowMessage("そうは言っても、会わないわけにはいかないよ。")
   ShowMessage("父さんの手紙に書かれてる以上、何かを知ってるんだろうし。")
   If(0,6,0)
    ShowMessageFace("sonia_fc1",0,0,2,64)
    ShowMessage("【ソニア】")
    ShowMessage("ミカエラって人がいるのは、隠れ里エンリカよね。")
    ShowMessage("迷いの森……って、イリアスヴィルのすぐ西じゃない。")
    ShowMessageFace("sonia_fc4",0,0,2,65)
    ShowMessage("【ソニア】")
    ShowMessage("異世界を二つも巡った挙げ句、")
    ShowMessage("キーパーソンはそんなに近くにいたなんて……")
    0()
   Else()
    ShowMessageFace("",0,0,2,66)
    ShowMessage("ミカエラという人がいるのは、隠れ里エンリカ。")
    ShowMessage("イリアスヴィルの西という、地元の近隣だ。")
    0()
   EndIf()
   0()
  EndIf()
  ShowMessageFace("ruka_fc1",0,0,2,67)
  ShowMessage("【ルカ】")
  ShowMessage("それじゃあ、隠れ里エンリカとやらに行こう！")
  ShowMessage("迷いの森に出る強い魔物も、今の僕達なら戦えるはずだ！")
  If(0,6,0)
   ShowMessageFace("sonia_fc2",2,0,2,68)
   ShowMessage("【ソニア】")
   ShowMessage("小さい頃から、あの森に入らないように言われてたけど……")
   ShowMessage("まさか旅に出てから、探険する羽目になるなんてね。")
   0()
  EndIf()
  If(4,41,0)
   ShowMessageFace("stein_fc2",1,0,2,69)
   ShowMessage("【プロメスティン】")
   ShowMessage("今度は、皆さんの世界に戻るんですか。")
   ShowMessage("色々な異世界を探究できるなんて……ワクワクしますね！")
   0()
  EndIf()
  If(4,79,0)
   ShowMessageFace("nuruko_fc1",0,0,2,70)
   ShowMessage("【ヌルコ】")
   ShowMessage("きゅきゅきゅー！")
   0()
  EndIf()
  355("gain_medal(15)")
  0()
 PAGE   2
  // condition: variable 1014 >= 2
  ShowMessageFace("",0,0,2,1)
  ShowMessage("【村長】")
  ShowMessage("なんだか、大変な事情を抱えておるようじゃのう……")
  ShowMessage("この村が滅びるという話も、冗談に聞こえなくなってきたわい。")
  ShowMessageFace("",0,0,2,2)
  ShowMessage("【村長】")
  ShowMessage("いざという時のため、避難の準備を整えておくとしよう。")
  ShowMessage("何か起きた時に、すぐ対応できるようにしなければのう……")
  0()



EVENT   8
 PAGE   1
  ShowMessageFace("",0,0,2,1)
  ShowMessage("【旅の遊び人】")
  ShowMessage("快楽攻撃を使いたければ、やっぱり娼婦よね。")
  ShowMessage("遊び人をマスターすると、転職可能になるわよ。")
  0()



EVENT   9
 PAGE   1
  ShowMessageFace("dog_fc1",0,0,2,1)
  ShowMessage("【旅の犬娘】")
  ShowMessage("獣系の仲間に、爪と牙のどっちを装備させるか迷わない？")
  ShowMessage("牙は攻撃力が上がるけど、爪は素早さも上がるよね……")
  ShowMessageFace("dog_fc1",0,0,2,2)
  ShowMessage("【旅の犬娘】")
  ShowMessage("噛み付き攻撃はね、攻撃力で威力が決まるの。")
  ShowMessage("でも引っ掻き攻撃は、攻撃力と素早さが両方重要なんだって。")
  ShowMessageFace("dog_fc1",0,0,2,3)
  ShowMessage("【旅の犬娘】")
  ShowMessage("だから、噛み付き攻撃で戦いたい時は牙を装備すればいいよ。")
  ShowMessage("牙には噛み付き攻撃を強化する特殊効果もあるしね。")
  ShowMessageFace("dog_fc1",0,0,2,4)
  ShowMessage("【旅の犬娘】")
  ShowMessage("引っ掻きを使いたい場合は、攻撃力と素早さが上がる爪。")
  ShowMessage("格闘技も攻撃力と素早さが重要だから、同じタイプだね。")
  ShowMessageFace("dog_fc1",1,0,2,5)
  ShowMessage("【旅の犬娘】")
  ShowMessage("どの攻撃技で戦っていくかで、牙か爪かを決めるといいよ。")
  ShowMessage("格闘技主体なら、だんぜん爪だよね♪")
  355("actor_label_jump")
  EndEventProcessing()
  DefineLabel("71")
  ShowMessageFace("okami_fc1",2,0,2,6)
  ShowMessage("【アマラ】")
  ShowMessage("ややこしいな……")
  ShowMessage("ルカ、考えるのは任せたぞ！")
  EndEventProcessing()
  0()



EVENT   10
 PAGE   1
  ShowMessageFace("",0,0,2,1)
  ShowMessage("【旅のシーフ】")
  ShowMessage("狩人をマスターすれば、魔物使いになれる。")
  ShowMessage("パーティにいれば、魔物が仲間になる確率がアップするとか。")
  ShowMessageFace("",0,0,2,2)
  ShowMessage("【旅のシーフ】")
  ShowMessage("俺もシーフを極めた後は、狩人に転職するつもりだ。")
  ShowMessage("いっぱい仲間を増やせば、旅も楽になるだろう。")
  355("actor_label_jump")
  EndEventProcessing()
  DefineLabel("74")
  ShowMessageFace("usagi_fc1",0,0,2,3)
  ShowMessage("【バーニー】")
  ShowMessage("もちろん、そのまま狩人の上級職に就く選択肢もあるわね。")
  ShowMessage("お姉さんはどうしようかしら……？")
  EndEventProcessing()
  0()



EVENT   11
 PAGE   1
  ShowMessageFace("",0,0,2,1)
  ShowMessage("【戦士】")
  ShowMessage("今日泊まっている3人パーティ、やたらバランスが悪そうだな……")
  ShowMessage("お前達は、バランスを考えてパーティを組んでいるか？")
  ShowMessageFace("",0,0,2,2)
  ShowMessage("【戦士】")
  ShowMessage("ありがちなミスは、パーティ全員を物理攻撃タイプで固めてしまう事だ。")
  ShowMessage("回復役を1人から2人、魔法攻撃役を1人は入れておくといい。")
  ShowMessageFace("",0,0,2,3)
  ShowMessage("【戦士】")
  ShowMessage("シーフと商人あたりも、サポート役として欲しいところだな。")
  ShowMessage("まあ、自分の冒険スタイルに合わせるのが一番なわけだが。")
  355("actor_label_jump")
  EndEventProcessing()
  DefineLabel("66")
  ShowMessageFace("vgirl_fc1",0,0,2,4)
  ShowMessage("【ヴァニラ】")
  ShowMessage("商人なら、我がいるぞ！")
  EndEventProcessing()
  DefineLabel("72")
  ShowMessageFace("phoenix_fc1",0,0,2,5)
  ShowMessage("【ミニ】")
  ShowMessage("遊び人は、遊んでばかりで役に立たないけど……")
  ShowMessage("踊り子や吟遊詩人に転職したら、支援役として活躍するぞ！")
  ShowMessageFace("phoenix_fc1",1,0,2,6)
  ShowMessage("【ミニ】")
  ShowMessage("……って、ドンが言ってたのだ。")
  ShowMessage("今は役立たずでも、粘り強く育ててほしいぞ。")
  EndEventProcessing()
  0()



EVENT   12
 PAGE   1
  250(bytes(0x04,0x08,0x6f,0x3a,0x0c,0x52,0x50,0x47,0x3a,0x3a,0x53,0x45,0x08,0x3a,0x0a,0x40,0x6e,0x61,0x6d,0x65,0x49,0x22,0x0a,0x49,0x74,0x65,0x6d,0x31,0x06,0x3a,0x06,0x45,0x54,0x3a,0x0b,0x40,0x70,0x69,0x74,0x63,0x68,0x69,0x69,0x3a,0x0c,0x40,0x76,0x6f,0x6c,0x75,0x6d,0x65,0x69,0x55))
  ChangeSelfSwitch("A",0)
  ChangeInventory_Item(431,0,0,1)
  0()
 PAGE   2
  // condition: self-switch A is ON
  0()



EVENT   13
 PAGE   1
  250(bytes(0x04,0x08,0x6f,0x3a,0x0c,0x52,0x50,0x47,0x3a,0x3a,0x53,0x45,0x08,0x3a,0x0a,0x40,0x6e,0x61,0x6d,0x65,0x49,0x22,0x0a,0x49,0x74,0x65,0x6d,0x31,0x06,0x3a,0x06,0x45,0x54,0x3a,0x0b,0x40,0x70,0x69,0x74,0x63,0x68,0x69,0x69,0x3a,0x0c,0x40,0x76,0x6f,0x6c,0x75,0x6d,0x65,0x69,0x55))
  ChangeSelfSwitch("A",0)
  ChangeInventory_Item(379,0,0,1)
  0()
 PAGE   2
  // condition: self-switch A is ON
  0()



EVENT   14
 PAGE   1
  250(bytes(0x04,0x08,0x6f,0x3a,0x0c,0x52,0x50,0x47,0x3a,0x3a,0x53,0x45,0x08,0x3a,0x0a,0x40,0x6e,0x61,0x6d,0x65,0x49,0x22,0x0a,0x49,0x74,0x65,0x6d,0x31,0x06,0x3a,0x06,0x45,0x54,0x3a,0x0b,0x40,0x70,0x69,0x74,0x63,0x68,0x69,0x69,0x3a,0x0c,0x40,0x76,0x6f,0x6c,0x75,0x6d,0x65,0x69,0x55))
  ChangeSelfSwitch("A",0)
  ChangeInventoryWeapon(756,0,0,1,false)
  0()
 PAGE   2
  // condition: self-switch A is ON
  0()



EVENT   15
 PAGE   1
  250(bytes(0x04,0x08,0x6f,0x3a,0x0c,0x52,0x50,0x47,0x3a,0x3a,0x53,0x45,0x08,0x3a,0x0a,0x40,0x6e,0x61,0x6d,0x65,0x49,0x22,0x0a,0x49,0x74,0x65,0x6d,0x31,0x06,0x3a,0x06,0x45,0x54,0x3a,0x0b,0x40,0x70,0x69,0x74,0x63,0x68,0x69,0x69,0x3a,0x0c,0x40,0x76,0x6f,0x6c,0x75,0x6d,0x65,0x69,0x55))
  ChangeSelfSwitch("A",0)
  ChangeInventory_Item(393,0,0,1)
  0()
 PAGE   2
  // condition: self-switch A is ON
  0()



EVENT   16
 PAGE   1
  250(bytes(0x04,0x08,0x6f,0x3a,0x0c,0x52,0x50,0x47,0x3a,0x3a,0x53,0x45,0x08,0x3a,0x0a,0x40,0x6e,0x61,0x6d,0x65,0x49,0x22,0x0a,0x49,0x74,0x65,0x6d,0x31,0x06,0x3a,0x06,0x45,0x54,0x3a,0x0b,0x40,0x70,0x69,0x74,0x63,0x68,0x69,0x69,0x3a,0x0c,0x40,0x76,0x6f,0x6c,0x75,0x6d,0x65,0x69,0x55))
  ChangeSelfSwitch("A",0)
  ChangeInventory_Item(302,0,0,1)
  0()
 PAGE   2
  // condition: self-switch A is ON
  0()



EVENT   17
 PAGE   1
  250(bytes(0x04,0x08,0x6f,0x3a,0x0c,0x52,0x50,0x47,0x3a,0x3a,0x53,0x45,0x08,0x3a,0x0a,0x40,0x6e,0x61,0x6d,0x65,0x49,0x22,0x0a,0x49,0x74,0x65,0x6d,0x31,0x06,0x3a,0x06,0x45,0x54,0x3a,0x0b,0x40,0x70,0x69,0x74,0x63,0x68,0x69,0x69,0x3a,0x0c,0x40,0x76,0x6f,0x6c,0x75,0x6d,0x65,0x69,0x55))
  ChangeSelfSwitch("A",0)
  ChangeInventoryWeapon(798,0,0,1,false)
  0()
 PAGE   2
  // condition: self-switch A is ON
  0()



EVENT   18
 PAGE   1
  250(bytes(0x04,0x08,0x6f,0x3a,0x0c,0x52,0x50,0x47,0x3a,0x3a,0x53,0x45,0x08,0x3a,0x0a,0x40,0x6e,0x61,0x6d,0x65,0x49,0x22,0x0a,0x49,0x74,0x65,0x6d,0x31,0x06,0x3a,0x06,0x45,0x54,0x3a,0x0b,0x40,0x70,0x69,0x74,0x63,0x68,0x69,0x69,0x3a,0x0c,0x40,0x76,0x6f,0x6c,0x75,0x6d,0x65,0x69,0x55))
  ChangeSelfSwitch("A",0)
  ChangeInventory_Item(313,0,0,1)
  0()
 PAGE   2
  // condition: self-switch A is ON
  0()



EVENT   19
 PAGE   1
  ShowMessageFace("",0,0,2,1)
  ShowMessage("【猫】")
  ShowMessage("にゃーん……")
  355("actor_label_jump")
  EndEventProcessing()
  DefineLabel("70")
  ShowMessageFace("nezumi_fc1",2,0,2,2)
  ShowMessage("【ラティ】")
  ShowMessage("きゃっ、ねこだぁ！　たすけてー！")
  EndEventProcessing()
  0()
