﻿
DisplayName "ロストルム村"



EVENT   1
 PAGE   1
  250(bytes(0x04,0x08,0x6f,0x3a,0x0c,0x52,0x50,0x47,0x3a,0x3a,0x53,0x45,0x08,0x3a,0x0a,0x40,0x6e,0x61,0x6d,0x65,0x49,0x22,0x0a,0x4f,0x70,0x65,0x6e,0x31,0x06,0x3a,0x06,0x45,0x54,0x3a,0x0b,0x40,0x70,0x69,0x74,0x63,0x68,0x69,0x69,0x3a,0x0c,0x40,0x76,0x6f,0x6c,0x75,0x6d,0x65,0x69,0x55))
  205(0,bytes(0x04,0x08,0x6f,0x3a,0x13,0x52,0x50,0x47,0x3a,0x3a,0x4d,0x6f,0x76,0x65,0x52,0x6f,0x75,0x74,0x65,0x09,0x3a,0x0c,0x40,0x72,0x65,0x70,0x65,0x61,0x74,0x46,0x3a,0x0f,0x40,0x73,0x6b,0x69,0x70,0x70,0x61,0x62,0x6c,0x65,0x46,0x3a,0x0a,0x40,0x77,0x61,0x69,0x74,0x54,0x3a,0x0a,0x40,0x6c,0x69,0x73,0x74,0x5b,0x0c,0x6f,0x3a,0x15,0x52,0x50,0x47,0x3a,0x3a,0x4d,0x6f,0x76,0x65,0x43,0x6f,0x6d,0x6d,0x61,0x6e,0x64,0x07,0x3a,0x0a,0x40,0x63,0x6f,0x64,0x65,0x69,0x16,0x3a,0x10,0x40,0x70,0x61,0x72,0x61,0x6d,0x65,0x74,0x65,0x72,0x73,0x5b,0x00,0x6f,0x3b,0x0a,0x07,0x3b,0x0b,0x69,0x14,0x3b,0x0c,0x5b,0x06,0x69,0x08,0x6f,0x3b,0x0a,0x07,0x3b,0x0b,0x69,0x17,0x3b,0x0c,0x5b,0x00,0x6f,0x3b,0x0a,0x07,0x3b,0x0b,0x69,0x14,0x3b,0x0c,0x5b,0x06,0x69,0x08,0x6f,0x3b,0x0a,0x07,0x3b,0x0b,0x69,0x18,0x3b,0x0c,0x5b,0x00,0x6f,0x3b,0x0a,0x07,0x3b,0x0b,0x69,0x2a,0x3b,0x0c,0x5b,0x00,0x6f,0x3b,0x0a,0x07,0x3b,0x0b,0x69,0x00,0x3b,0x0c,0x5b,0x00))
  205(-1,bytes(0x04,0x08,0x6f,0x3a,0x13,0x52,0x50,0x47,0x3a,0x3a,0x4d,0x6f,0x76,0x65,0x52,0x6f,0x75,0x74,0x65,0x09,0x3a,0x0c,0x40,0x72,0x65,0x70,0x65,0x61,0x74,0x46,0x3a,0x0f,0x40,0x73,0x6b,0x69,0x70,0x70,0x61,0x62,0x6c,0x65,0x54,0x3a,0x0a,0x40,0x77,0x61,0x69,0x74,0x54,0x3a,0x0a,0x40,0x6c,0x69,0x73,0x74,0x5b,0x07,0x6f,0x3a,0x15,0x52,0x50,0x47,0x3a,0x3a,0x4d,0x6f,0x76,0x65,0x43,0x6f,0x6d,0x6d,0x61,0x6e,0x64,0x07,0x3a,0x0a,0x40,0x63,0x6f,0x64,0x65,0x69,0x11,0x3a,0x10,0x40,0x70,0x61,0x72,0x61,0x6d,0x65,0x74,0x65,0x72,0x73,0x5b,0x00,0x6f,0x3b,0x0a,0x07,0x3b,0x0b,0x69,0x00,0x3b,0x0c,0x5b,0x00))
  250(bytes(0x04,0x08,0x6f,0x3a,0x0c,0x52,0x50,0x47,0x3a,0x3a,0x53,0x45,0x08,0x3a,0x0a,0x40,0x6e,0x61,0x6d,0x65,0x49,0x22,0x09,0x4d,0x6f,0x76,0x65,0x06,0x3a,0x06,0x45,0x54,0x3a,0x0b,0x40,0x70,0x69,0x74,0x63,0x68,0x69,0x69,0x3a,0x0c,0x40,0x76,0x6f,0x6c,0x75,0x6d,0x65,0x69,0x55))
  TeleportPlayer(0,311,8,16,0,0)
  0()



EVENT   2
 PAGE   1
  250(bytes(0x04,0x08,0x6f,0x3a,0x0c,0x52,0x50,0x47,0x3a,0x3a,0x53,0x45,0x08,0x3a,0x0a,0x40,0x6e,0x61,0x6d,0x65,0x49,0x22,0x0a,0x4f,0x70,0x65,0x6e,0x31,0x06,0x3a,0x06,0x45,0x54,0x3a,0x0b,0x40,0x70,0x69,0x74,0x63,0x68,0x69,0x69,0x3a,0x0c,0x40,0x76,0x6f,0x6c,0x75,0x6d,0x65,0x69,0x55))
  205(0,bytes(0x04,0x08,0x6f,0x3a,0x13,0x52,0x50,0x47,0x3a,0x3a,0x4d,0x6f,0x76,0x65,0x52,0x6f,0x75,0x74,0x65,0x09,0x3a,0x0c,0x40,0x72,0x65,0x70,0x65,0x61,0x74,0x46,0x3a,0x0f,0x40,0x73,0x6b,0x69,0x70,0x70,0x61,0x62,0x6c,0x65,0x46,0x3a,0x0a,0x40,0x77,0x61,0x69,0x74,0x54,0x3a,0x0a,0x40,0x6c,0x69,0x73,0x74,0x5b,0x0c,0x6f,0x3a,0x15,0x52,0x50,0x47,0x3a,0x3a,0x4d,0x6f,0x76,0x65,0x43,0x6f,0x6d,0x6d,0x61,0x6e,0x64,0x07,0x3a,0x0a,0x40,0x63,0x6f,0x64,0x65,0x69,0x16,0x3a,0x10,0x40,0x70,0x61,0x72,0x61,0x6d,0x65,0x74,0x65,0x72,0x73,0x5b,0x00,0x6f,0x3b,0x0a,0x07,0x3b,0x0b,0x69,0x14,0x3b,0x0c,0x5b,0x06,0x69,0x08,0x6f,0x3b,0x0a,0x07,0x3b,0x0b,0x69,0x17,0x3b,0x0c,0x5b,0x00,0x6f,0x3b,0x0a,0x07,0x3b,0x0b,0x69,0x14,0x3b,0x0c,0x5b,0x06,0x69,0x08,0x6f,0x3b,0x0a,0x07,0x3b,0x0b,0x69,0x18,0x3b,0x0c,0x5b,0x00,0x6f,0x3b,0x0a,0x07,0x3b,0x0b,0x69,0x2a,0x3b,0x0c,0x5b,0x00,0x6f,0x3b,0x0a,0x07,0x3b,0x0b,0x69,0x00,0x3b,0x0c,0x5b,0x00))
  205(-1,bytes(0x04,0x08,0x6f,0x3a,0x13,0x52,0x50,0x47,0x3a,0x3a,0x4d,0x6f,0x76,0x65,0x52,0x6f,0x75,0x74,0x65,0x09,0x3a,0x0c,0x40,0x72,0x65,0x70,0x65,0x61,0x74,0x46,0x3a,0x0f,0x40,0x73,0x6b,0x69,0x70,0x70,0x61,0x62,0x6c,0x65,0x54,0x3a,0x0a,0x40,0x77,0x61,0x69,0x74,0x54,0x3a,0x0a,0x40,0x6c,0x69,0x73,0x74,0x5b,0x07,0x6f,0x3a,0x15,0x52,0x50,0x47,0x3a,0x3a,0x4d,0x6f,0x76,0x65,0x43,0x6f,0x6d,0x6d,0x61,0x6e,0x64,0x07,0x3a,0x0a,0x40,0x63,0x6f,0x64,0x65,0x69,0x11,0x3a,0x10,0x40,0x70,0x61,0x72,0x61,0x6d,0x65,0x74,0x65,0x72,0x73,0x5b,0x00,0x6f,0x3b,0x0a,0x07,0x3b,0x0b,0x69,0x00,0x3b,0x0c,0x5b,0x00))
  250(bytes(0x04,0x08,0x6f,0x3a,0x0c,0x52,0x50,0x47,0x3a,0x3a,0x53,0x45,0x08,0x3a,0x0a,0x40,0x6e,0x61,0x6d,0x65,0x49,0x22,0x09,0x4d,0x6f,0x76,0x65,0x06,0x3a,0x06,0x45,0x54,0x3a,0x0b,0x40,0x70,0x69,0x74,0x63,0x68,0x69,0x69,0x3a,0x0c,0x40,0x76,0x6f,0x6c,0x75,0x6d,0x65,0x69,0x55))
  TeleportPlayer(0,311,31,16,0,0)
  0()



EVENT   3
 PAGE   1
  250(bytes(0x04,0x08,0x6f,0x3a,0x0c,0x52,0x50,0x47,0x3a,0x3a,0x53,0x45,0x08,0x3a,0x0a,0x40,0x6e,0x61,0x6d,0x65,0x49,0x22,0x0a,0x4f,0x70,0x65,0x6e,0x31,0x06,0x3a,0x06,0x45,0x54,0x3a,0x0b,0x40,0x70,0x69,0x74,0x63,0x68,0x69,0x69,0x3a,0x0c,0x40,0x76,0x6f,0x6c,0x75,0x6d,0x65,0x69,0x55))
  205(0,bytes(0x04,0x08,0x6f,0x3a,0x13,0x52,0x50,0x47,0x3a,0x3a,0x4d,0x6f,0x76,0x65,0x52,0x6f,0x75,0x74,0x65,0x09,0x3a,0x0c,0x40,0x72,0x65,0x70,0x65,0x61,0x74,0x46,0x3a,0x0f,0x40,0x73,0x6b,0x69,0x70,0x70,0x61,0x62,0x6c,0x65,0x46,0x3a,0x0a,0x40,0x77,0x61,0x69,0x74,0x54,0x3a,0x0a,0x40,0x6c,0x69,0x73,0x74,0x5b,0x0c,0x6f,0x3a,0x15,0x52,0x50,0x47,0x3a,0x3a,0x4d,0x6f,0x76,0x65,0x43,0x6f,0x6d,0x6d,0x61,0x6e,0x64,0x07,0x3a,0x0a,0x40,0x63,0x6f,0x64,0x65,0x69,0x16,0x3a,0x10,0x40,0x70,0x61,0x72,0x61,0x6d,0x65,0x74,0x65,0x72,0x73,0x5b,0x00,0x6f,0x3b,0x0a,0x07,0x3b,0x0b,0x69,0x14,0x3b,0x0c,0x5b,0x06,0x69,0x08,0x6f,0x3b,0x0a,0x07,0x3b,0x0b,0x69,0x17,0x3b,0x0c,0x5b,0x00,0x6f,0x3b,0x0a,0x07,0x3b,0x0b,0x69,0x14,0x3b,0x0c,0x5b,0x06,0x69,0x08,0x6f,0x3b,0x0a,0x07,0x3b,0x0b,0x69,0x18,0x3b,0x0c,0x5b,0x00,0x6f,0x3b,0x0a,0x07,0x3b,0x0b,0x69,0x2a,0x3b,0x0c,0x5b,0x00,0x6f,0x3b,0x0a,0x07,0x3b,0x0b,0x69,0x00,0x3b,0x0c,0x5b,0x00))
  205(-1,bytes(0x04,0x08,0x6f,0x3a,0x13,0x52,0x50,0x47,0x3a,0x3a,0x4d,0x6f,0x76,0x65,0x52,0x6f,0x75,0x74,0x65,0x09,0x3a,0x0c,0x40,0x72,0x65,0x70,0x65,0x61,0x74,0x46,0x3a,0x0f,0x40,0x73,0x6b,0x69,0x70,0x70,0x61,0x62,0x6c,0x65,0x54,0x3a,0x0a,0x40,0x77,0x61,0x69,0x74,0x54,0x3a,0x0a,0x40,0x6c,0x69,0x73,0x74,0x5b,0x07,0x6f,0x3a,0x15,0x52,0x50,0x47,0x3a,0x3a,0x4d,0x6f,0x76,0x65,0x43,0x6f,0x6d,0x6d,0x61,0x6e,0x64,0x07,0x3a,0x0a,0x40,0x63,0x6f,0x64,0x65,0x69,0x11,0x3a,0x10,0x40,0x70,0x61,0x72,0x61,0x6d,0x65,0x74,0x65,0x72,0x73,0x5b,0x00,0x6f,0x3b,0x0a,0x07,0x3b,0x0b,0x69,0x00,0x3b,0x0c,0x5b,0x00))
  250(bytes(0x04,0x08,0x6f,0x3a,0x0c,0x52,0x50,0x47,0x3a,0x3a,0x53,0x45,0x08,0x3a,0x0a,0x40,0x6e,0x61,0x6d,0x65,0x49,0x22,0x09,0x4d,0x6f,0x76,0x65,0x06,0x3a,0x06,0x45,0x54,0x3a,0x0b,0x40,0x70,0x69,0x74,0x63,0x68,0x69,0x69,0x3a,0x0c,0x40,0x76,0x6f,0x6c,0x75,0x6d,0x65,0x69,0x55))
  TeleportPlayer(0,311,5,37,0,0)
  0()



EVENT   4
 PAGE   1
  250(bytes(0x04,0x08,0x6f,0x3a,0x0c,0x52,0x50,0x47,0x3a,0x3a,0x53,0x45,0x08,0x3a,0x0a,0x40,0x6e,0x61,0x6d,0x65,0x49,0x22,0x09,0x4d,0x6f,0x76,0x65,0x06,0x3a,0x06,0x45,0x54,0x3a,0x0b,0x40,0x70,0x69,0x74,0x63,0x68,0x69,0x69,0x3a,0x0c,0x40,0x76,0x6f,0x6c,0x75,0x6d,0x65,0x69,0x55))
  TeleportPlayer(0,195,38,19,0,0)
  0()



EVENT   5
 PAGE   1
  250(bytes(0x04,0x08,0x6f,0x3a,0x0c,0x52,0x50,0x47,0x3a,0x3a,0x53,0x45,0x08,0x3a,0x0a,0x40,0x6e,0x61,0x6d,0x65,0x49,0x22,0x09,0x4d,0x6f,0x76,0x65,0x06,0x3a,0x06,0x45,0x54,0x3a,0x0b,0x40,0x70,0x69,0x74,0x63,0x68,0x69,0x69,0x3a,0x0c,0x40,0x76,0x6f,0x6c,0x75,0x6d,0x65,0x69,0x55))
  TeleportPlayer(0,195,38,19,0,0)
  0()



EVENT   6
 PAGE   1
  250(bytes(0x04,0x08,0x6f,0x3a,0x0c,0x52,0x50,0x47,0x3a,0x3a,0x53,0x45,0x08,0x3a,0x0a,0x40,0x6e,0x61,0x6d,0x65,0x49,0x22,0x09,0x4d,0x6f,0x76,0x65,0x06,0x3a,0x06,0x45,0x54,0x3a,0x0b,0x40,0x70,0x69,0x74,0x63,0x68,0x69,0x69,0x3a,0x0c,0x40,0x76,0x6f,0x6c,0x75,0x6d,0x65,0x69,0x55))
  TeleportPlayer(0,195,38,19,0,0)
  0()



EVENT   7
 PAGE   1
  250(bytes(0x04,0x08,0x6f,0x3a,0x0c,0x52,0x50,0x47,0x3a,0x3a,0x53,0x45,0x08,0x3a,0x0a,0x40,0x6e,0x61,0x6d,0x65,0x49,0x22,0x09,0x4d,0x6f,0x76,0x65,0x06,0x3a,0x06,0x45,0x54,0x3a,0x0b,0x40,0x70,0x69,0x74,0x63,0x68,0x69,0x69,0x3a,0x0c,0x40,0x76,0x6f,0x6c,0x75,0x6d,0x65,0x69,0x55))
  TeleportPlayer(0,195,38,19,0,0)
  0()



EVENT   9
 PAGE   1
  250(bytes(0x04,0x08,0x6f,0x3a,0x0c,0x52,0x50,0x47,0x3a,0x3a,0x53,0x45,0x08,0x3a,0x0a,0x40,0x6e,0x61,0x6d,0x65,0x49,0x22,0x09,0x4d,0x6f,0x76,0x65,0x06,0x3a,0x06,0x45,0x54,0x3a,0x0b,0x40,0x70,0x69,0x74,0x63,0x68,0x69,0x69,0x3a,0x0c,0x40,0x76,0x6f,0x6c,0x75,0x6d,0x65,0x69,0x55))
  TeleportPlayer(0,195,38,19,0,0)
  0()



EVENT   8
 PAGE   1
  ShowMessageFace("",0,0,2,1)
  ShowMessage("【倉庫番】")
  ShowMessage("ここは、村の蓄えがある倉庫だ。")
  ShowMessage("余った分は、商人や旅人と取引してもいいのさ。")
  Shop(0,1,0,0,false)
  605(0,13,0,0)
  605(0,17,0,0)
  605(0,51,0,0)
  605(0,55,0,0)
  605(0,59,0,0)
  605(2,1050,0,0)
  605(2,1081,0,0)
  605(2,1085,0,0)
  605(2,1147,0,0)
  If(1,1005,0,9,0)
   If(0,2065,0)
    If(4,66,0)
     ShowMessageFace("vgirl_fc1",0,0,2,2)
     ShowMessage("【ヴァニラ】")
     ShowMessage("はじめまして、商人のヴァニラです。")
     ShowMessage("三種の魔法石を、本店でも扱いたいのだけれど……")
     ShowMessageFace("",0,0,2,3)
     ShowMessage("【倉庫番】")
     ShowMessage("おや、ずいぶんと可愛い店主さんだ。")
     ShowMessage("でも取引という以上は、きっちりやらせてもらうよ。")
     ShowMessageFace("",0,0,2,4)
     ShowMessage("商談が進んでいく……")
     ShowMessage("これまでの経験で、ヴァニラも取引上手になったようだ。")
     ShowMessageFace("",0,0,2,5)
     ShowMessage("【倉庫番】")
     ShowMessage("よし、その条件で異論はないよ。")
     ShowMessage("品物は、そちらから受け取りに来るんだったね。")
     ShowMessageFace("vgirl_fc1",0,0,2,6)
     ShowMessage("【ヴァニラ】")
     ShowMessage("ありがとうございます！")
     ShowMessage("今後ともよろしく……なのだ！")
     249(bytes(0x04,0x08,0x6f,0x3a,0x0c,0x52,0x50,0x47,0x3a,0x3a,0x4d,0x45,0x08,0x3a,0x0a,0x40,0x6e,0x61,0x6d,0x65,0x49,0x22,0x0c,0x66,0x61,0x6e,0x66,0x61,0x6c,0x65,0x06,0x3a,0x06,0x45,0x54,0x3a,0x0b,0x40,0x70,0x69,0x74,0x63,0x68,0x69,0x69,0x3a,0x0c,0x40,0x76,0x6f,0x6c,0x75,0x6d,0x65,0x69,0x69))
     ShowMessageFace("",0,0,2,7)
     ShowMessage("ヴァニラの店で炎石・氷石・雷石を扱うようになった！")
     ChangeVariable(1005,1005,0,0,10)
     ChangeSwitch(2065,2065,1)
     Wait(60)
     EndEventProcessing()
     0()
    EndIf()
    0()
   EndIf()
   0()
  EndIf()
  0()



EVENT   10
 PAGE   1
  ShowMessageFace("",0,0,2,1)
  ShowMessage("【青年】")
  ShowMessage("ここはロストルムの村だ。")
  ShowMessage("特に名産はないけど、伝説の料理人アルフォンソさんがいるよ。")
  281(1)
  ShowChoices(strings("宿屋に行く","道具屋に行く","やめる"),3)
  IfPlayerPicksChoice(0,null)
   TeleportPlayer(0,310,22,10,0,0)
   EndEventProcessing()
   0()
  IfPlayerPicksChoice(1,null)
   TeleportPlayer(0,310,32,6,0,0)
   EndEventProcessing()
   0()
  IfPlayerPicksChoice(2,null)
   EndEventProcessing()
   0()
  404()
  0()



EVENT   12
 PAGE   1
  ShowMessageFace("",0,0,2,1)
  ShowMessage("【おじさん】")
  ShowMessage("おや、勇者マルケルス……じゃないのか。")
  ShowMessage("この村に二度来たけど、両方ともしっかり覚えてるよ。")
  ShowMessageFace("",0,0,2,2)
  ShowMessage("【おじさん】")
  ShowMessage("一回目は、実にフレッシュな感じだったな。")
  ShowMessage("仲間を連れた、温厚そうな少年勇者だったよ。")
  ShowMessageFace("",0,0,2,3)
  ShowMessage("【おじさん】")
  ShowMessage("困っている人達を助けるため、世界を回ってるって言ってたな。")
  ShowMessage("この村で一泊して、元気に旅立っていったんだ。")
  ShowMessageFace("",0,0,2,4)
  ShowMessage("【おじさん】")
  ShowMessage("だが……それから一週間後、彼は一人で戻ってきた。")
  ShowMessage("しかも、修羅のような雰囲気になってな。")
  ShowMessageFace("",0,0,2,5)
  ShowMessage("【おじさん】")
  ShowMessage("外見は同じでも、中身はまるで別物だったよ。")
  ShowMessage("十年でも人はあれほど変わらないのに、一週間だぜ……？")
  ShowMessageFace("",0,0,2,6)
  ShowMessage("【おじさん】")
  ShowMessage("なんだか、タルタロスに関して調べてるようだった。")
  ShowMessage("その理由なんて、怖くて聞けなかったよ……")
  If(2,"A",1)
   ChangeSelfSwitch("A",0)
   If(0,4,0)
    ShowMessageFace("alice_fc6",0,0,2,7)
    ShowMessage("【アリス】")
    ShowMessage("タルタロスについて調べていただと？")
    ShowMessage("いったい、何のために……")
    0()
   EndIf()
   If(0,5,0)
    ShowMessageFace("iriasu_fc4",2,0,2,8)
    ShowMessage("【イリアス】")
    ShowMessage("タルタロスについて調べていた……？")
    ShowMessage("いったい、何のために……？")
    0()
   EndIf()
   If(0,6,0)
    ShowMessageFace("sonia_fc1",2,0,2,9)
    ShowMessage("【ソニア】")
    ShowMessage("重要な話の後で、少し気が引けるんだけど……")
    ShowMessage("仲間の女性僧侶って、どんな感じだった？")
    ShowMessageFace("",0,0,2,10)
    ShowMessage("【おじさん】")
    ShowMessage("ああ……露出度が高かったな。")
    ShowMessageFace("sonia_fc3",2,0,2,11)
    ShowMessage("【ソニア】")
    ShowMessage("ホァッ！？")
    0()
   EndIf()
   0()
  EndIf()
  0()



EVENT   13
 PAGE   1
  ShowMessageFace("",0,0,2,1)
  ShowMessage("【村娘】")
  ShowMessage("ああ、マルケルスさん……")
  ShowMessage("最初に村に来た時の、あの純真そうな目……")
  ShowMessageFace("",0,0,2,2)
  ShowMessage("【村娘】")
  ShowMessage("そして二度目に来た時の、鬼神のような目……")
  ShowMessage("私は、あの方の癒しになりたい……")
  ShowMessageFace("ruka_fc1",0,0,2,3)
  ShowMessage("【ルカ】")
  ShowMessage("だ、だめだよ！")
  ShowMessage("マルケルスは、僕の父さんなんだから！")
  If(0,4,0)
   ShowMessageFace("alice_fc5",0,0,2,4)
   ShowMessage("【アリス】")
   ShowMessage("落ち着け、ルカ。")
   ShowMessage("この世界は25年前、貴様はまだ産まれてもいないのだぞ。")
   ShowMessageFace("alice_fc5",0,0,2,5)
   ShowMessage("【アリス】")
   ShowMessage("若き勇者マルケルスは、冒険の真っ最中。")
   ShowMessage("この時代の彼は、まだ貴様の父親ではないのだ。")
   0()
  EndIf()
  If(0,5,0)
   ShowMessageFace("iriasu_fc4",0,0,2,6)
   ShowMessage("【イリアス】")
   ShowMessage("落ち着きなさい、ルカ。")
   ShowMessage("ここは25年前の世界、あなたはまだ産まれてもいません。")
   ShowMessageFace("iriasu_fc4",0,0,2,7)
   ShowMessage("【イリアス】")
   ShowMessage("若き勇者マルケルスは、冒険の真っ最中です。")
   ShowMessage("この時代の彼は、まだあなたの父親ではないのですよ。")
   0()
  EndIf()
  0()



EVENT   14
 PAGE   1
  ShowMessageFace("",0,0,2,1)
  ShowMessage("【あらくれ】")
  ShowMessage("勇者の方はあんまり分からんが、連れの戦士は覚えてるよ。")
  ShowMessage("皮肉屋で、最初は感じの悪いヤツだと思ったんだが……")
  ShowMessageFace("",0,0,2,2)
  ShowMessage("【あらくれ】")
  ShowMessage("夜に酒場で会ったんで話してみると、面白いヤツでな。")
  ShowMessage("結局、朝まで一緒に飲み明かしたぜ。")
  ShowMessageFace("",0,0,2,3)
  ShowMessage("【あらくれ】")
  ShowMessage("……その酒場、今はもう潰れたんだけどな。")
  355("actor_label_jump")
  EndEventProcessing()
  DefineLabel("75")
  ShowMessageFace("hituzi_fc1",2,0,2,4)
  ShowMessage("【メリー】")
  ShowMessage("酒場はないのか……なんたる田舎。")
  If(4,74,0)
   ShowMessageFace("usagi_fc1",0,0,2,5)
   ShowMessage("【バーニー】")
   ShowMessage("メリーちゃん、珍しくシラフじゃないの……？")
   ShowMessageFace("hituzi_fc1",1,0,2,6)
   ShowMessage("【メリー】")
   ShowMessage("驚きの連続で酒が抜けてしまったのら……")
   0()
  EndIf()
  EndEventProcessing()
  0()



EVENT   16
 PAGE   1
  ShowMessageFace("",0,0,2,1)
  ShowMessage("【農婦】")
  ShowMessage("こんな辺鄙な村に、何度も勇者が来るってのは珍しいよね。")
  ShowMessage("特に名産もないところなんだがね……")
  355("actor_label_jump")
  EndEventProcessing()
  DefineLabel("73")
  ShowMessageFace("hiru_fc1",0,0,2,2)
  ShowMessage("【ヒル】")
  ShowMessage("名産はなくても、のどかで良い村じゃない。")
  ShowMessage("もう少し湿気があれば最高だったんだけど……")
  EndEventProcessing()
  0()



EVENT   17
 PAGE   1
  ShowMessageFace("",0,0,2,1)
  ShowMessage("【青年】")
  ShowMessage("蓄えのイチゴを、少しばかりつまみ食い……")
  ShowMessage("……わぁっ、見てたのか！")
  ShowMessageFace("",0,0,2,2)
  ShowMessage("【青年】")
  ShowMessage("これあげるから、内緒にしてくれよな……")
  250(bytes(0x04,0x08,0x6f,0x3a,0x0c,0x52,0x50,0x47,0x3a,0x3a,0x53,0x45,0x08,0x3a,0x0a,0x40,0x6e,0x61,0x6d,0x65,0x49,0x22,0x0a,0x49,0x74,0x65,0x6d,0x31,0x06,0x3a,0x06,0x45,0x54,0x3a,0x0b,0x40,0x70,0x69,0x74,0x63,0x68,0x69,0x69,0x3a,0x0c,0x40,0x76,0x6f,0x6c,0x75,0x6d,0x65,0x69,0x55))
  ChangeSelfSwitch("A",0)
  ChangeInventory_Item(32,0,0,1)
  355("actor_label_jump")
  EndEventProcessing()
  DefineLabel("70")
  ShowMessageFace("nezumi_fc1",1,0,2,3)
  ShowMessage("【ラティ】")
  ShowMessage("じゃあ、あたしもつまみ食い……")
  ShowMessage("チーズないの？　それじゃあいいや。")
  EndEventProcessing()
  0()
 PAGE   2
  // condition: self-switch A is ON
  ShowMessageFace("",0,0,2,1)
  ShowMessage("【青年】")
  ShowMessage("蓄えのイチゴを、少しばかりつまみ食い……")
  ShowMessage("……わぁっ、見てたのか！")
  0()



EVENT   18
 PAGE   1
  ShowMessageFace("",0,0,2,1)
  ShowMessage("【農婦】")
  ShowMessage("この畑は、アルフォンソさんの畑だよ。")
  ShowMessage("シェフを引退した後は故郷に戻り、のんびり野菜を育ててるんだ。")
  ShowMessageFace("",0,0,2,2)
  ShowMessage("【農婦】")
  ShowMessage("宿屋の南東にアルフォンソさんの家があるから、尋ねてみなよ。")
  ShowMessage("旅人には、簡単な料理を振るまってくれるよ。")
  355("actor_label_jump")
  EndEventProcessing()
  DefineLabel("5")
  ShowMessageFace("alice_fc5",1,0,2,3)
  ShowMessage("【アリス】")
  ShowMessage("よし、行くぞ！")
  EndEventProcessing()
  DefineLabel("26")
  ShowMessageFace("iriasu_fc4",0,0,2,4)
  ShowMessage("【イリアス】")
  ShowMessage("さっそく行きましょう……")
  ShowMessage("……もちろん、情報収集のためですよ？")
  EndEventProcessing()
  0()



EVENT   15
 PAGE   1
  ShowMessageFace("",0,0,2,1)
  ShowMessage("【おばさん】")
  ShowMessage("マルケルス……村に二度来たっていう、若い勇者だね。")
  ShowMessage("あたしゃ一度目は外してたから、再訪の時にしか見てないんだよ。")
  ShowMessageFace("",0,0,2,2)
  ShowMessage("【おばさん】")
  ShowMessage("若いのに、鬼神のような目をしてたねぇ……")
  ShowMessage("いったい何度、修羅場をくぐってきたんだか……")
  ShowMessageFace("",0,0,2,3)
  ShowMessage("【おばさん】")
  ShowMessage("一週間前までは温厚そうな新米勇者だったって話だけど……")
  ShowMessage("あたしゃ、そっちの方が信じられないよ。")
  ShowMessageFace("",0,0,2,4)
  ShowMessage("【おばさん】")
  ShowMessage("そう言えば二度目に来た時、村長に手紙を渡してたよ。")
  ShowMessage("村になんとかいう人が来たら、渡してくれってさ……")
  If(0,4,0)
   ShowMessageFace("alice_fc5",0,0,2,5)
   ShowMessage("【アリス】")
   ShowMessage("マルケルスが、村長に手紙を……？")
   ShowMessage("確認してみる必要があるな。")
   0()
  EndIf()
  If(0,5,0)
   ShowMessageFace("iriasu_fc4",7,0,2,6)
   ShowMessage("【イリアス】")
   ShowMessage("マルケルスが、村長に手紙を……？")
   ShowMessage("確認してみる必要がありますね。")
   0()
  EndIf()
  0()



EVENT   19
 PAGE   1
  ShowMessageFace("",0,0,2,1)
  ShowMessage("【男】")
  ShowMessage("アルフォンソさんは、実に立派で紳士的な方だよ。")
  ShowMessage("伝説の料理人と呼ばれながら、全く鼻に掛けた様子もない。")
  ShowMessageFace("",0,0,2,2)
  ShowMessage("【男】")
  ShowMessage("お客さんをもてなすのも、大好きでね。")
  ShowMessage("あんた達も、家を訪ねてみなよ。")
  0()



EVENT   20
 PAGE   1
  ShowMessageFace("",0,0,2,1)
  ShowMessage("【女の子】")
  ShowMessage("わーい、わーい、マルケルスさんがまた戻ってきた！")
  ShowMessage("ねぇ、毎回イメチェンしてるの？")
  ShowMessageFace("",0,0,2,2)
  ShowMessage("【女の子】")
  ShowMessage("あのタルタロスには、絶対に近付かないようにって言われたの。")
  ShowMessage("二度目に来た、怖いマルケルスさんの時だよ。")
  0()



EVENT   21
 PAGE   1
  ShowMessageFace("",0,0,2,1)
  ShowMessage("【旅の戦士】")
  ShowMessage("勇者マルケルスか……")
  ShowMessage("以前に、イリアスベルクで会ったことがある。")
  ShowMessageFace("",0,0,2,2)
  ShowMessage("【旅の戦士】")
  ShowMessage("前途有望で、人当たりの良さそうな少年勇者という感じだったな。")
  ShowMessage("修羅のような雰囲気というのは、全くイメージに合わないよ。")
  If(0,6,0)
   ShowMessageFace("sonia_fc1",2,0,2,3)
   ShowMessage("【ソニア】")
   ShowMessage("重要な話の後で、少し気が引けるんだけど……")
   ShowMessage("仲間の女性僧侶って、どんな感じだった？")
   ShowMessageFace("",0,0,2,4)
   ShowMessage("【旅の戦士】")
   ShowMessage("……ああ、エロい格好だったな。")
   ShowMessageFace("sonia_fc3",2,0,2,5)
   ShowMessage("【ソニア】")
   ShowMessage("何ですとー！？")
   ShowMessageFace("",0,0,2,6)
   ShowMessage("【旅の戦士】")
   ShowMessage("あんな格好で外を練り歩くなんて、親が悲しむだろうなぁ……")
   ShowMessageFace("sonia_fc3",2,0,2,7)
   ShowMessage("【ソニア】")
   ShowMessage("娘も悲しむと思いますよ！？")
   0()
  EndIf()
  0()



EVENT   22
 PAGE   1
  ShowMessageFace("",0,0,2,1)
  ShowMessage("【衛兵】")
  ShowMessage("勇者マルケルスですか……")
  ShowMessage("一度目の来訪の際は非番で、会っておりません。")
  ShowMessageFace("",0,0,2,2)
  ShowMessage("【衛兵】")
  ShowMessage("二度目の来訪の際も、遠くから見ただけなのですが……")
  ShowMessage("若くして、歴戦の風格を漂わせておりました。")
  ShowMessageFace("",0,0,2,3)
  ShowMessage("【衛兵】")
  ShowMessage("タルタロスについて村人に尋ねたあと、村長の家にも立ち寄ったはず。")
  ShowMessage("詳しい話なら、村長に伺ってみては？")
  ShowMessageFace("",0,0,2,4)
  ShowMessage("【衛兵】")
  ShowMessage("村長の家は、私のいる向かい側ですよ。")
  0()



EVENT   23
 PAGE   1
  ShowMessageFace("",0,0,2,1)
  ShowMessage("【おじさん】")
  ShowMessage("山脈越えの洞窟が、地震による土砂崩れで埋まっちまった。")
  ShowMessage("開通工事が終わるまで、数ヶ月はかかるんじゃないか……？")
  ShowMessageFace("",0,0,2,2)
  ShowMessage("【おじさん】")
  ShowMessage("土砂崩れが起きたのは、確か一ヶ月前。")
  ShowMessage("勇者マルケルス一行が村を出た、三日後だったかな……")
  ShowMessageFace("",0,0,2,3)
  ShowMessage("【おじさん】")
  ShowMessage("……あれ？")
  ShowMessage("じゃあ二度目に現れた時は、どうやって村に来たんだ？")
  355("actor_label_jump")
  EndEventProcessing()
  DefineLabel("71")
  ShowMessageFace("okami_fc1",0,0,2,4)
  ShowMessage("【アマラ】")
  ShowMessage("泳いできたんじゃないのか？")
  EndEventProcessing()
  0()



EVENT   24
 PAGE   1
  ShowMessageFace("",0,0,2,1)
  ShowMessage("【若者】")
  ShowMessage("一ヶ月前の土砂崩れで山脈洞窟が埋まって、通行不能になった。")
  ShowMessage("まあ物資の搬入は主に船だから、流通に影響はほとんどないけどな。")
  ShowMessageFace("",0,0,2,2)
  ShowMessage("【若者】")
  ShowMessage("困るのは、イリアスベルクの方からやって来る旅人だけ……")
  ShowMessage("……って、あんた達はどうやってここまで来たんだい？")
  355("actor_label_jump")
  EndEventProcessing()
  DefineLabel("62")
  ShowMessageFace("gob_fc1",0,0,2,3)
  ShowMessage("【ゴブ】")
  ShowMessage("ヒミツだよっ！")
  EndEventProcessing()
  DefineLabel("74")
  ShowMessageFace("usagi_fc1",0,0,2,4)
  ShowMessage("【バーニー】")
  ShowMessage("さすがに、本当の事は言えないわよね……")
  EndEventProcessing()
  0()



EVENT   25
 PAGE   1
  250(bytes(0x04,0x08,0x6f,0x3a,0x0c,0x52,0x50,0x47,0x3a,0x3a,0x53,0x45,0x08,0x3a,0x0a,0x40,0x6e,0x61,0x6d,0x65,0x49,0x22,0x0a,0x49,0x74,0x65,0x6d,0x31,0x06,0x3a,0x06,0x45,0x54,0x3a,0x0b,0x40,0x70,0x69,0x74,0x63,0x68,0x69,0x69,0x3a,0x0c,0x40,0x76,0x6f,0x6c,0x75,0x6d,0x65,0x69,0x55))
  ChangeSelfSwitch("A",0)
  ChangeInventory_Item(310,0,0,1)
  0()
 PAGE   2
  // condition: self-switch A is ON
  0()



EVENT   26
 PAGE   1
  250(bytes(0x04,0x08,0x6f,0x3a,0x0c,0x52,0x50,0x47,0x3a,0x3a,0x53,0x45,0x08,0x3a,0x0a,0x40,0x6e,0x61,0x6d,0x65,0x49,0x22,0x0a,0x49,0x74,0x65,0x6d,0x31,0x06,0x3a,0x06,0x45,0x54,0x3a,0x0b,0x40,0x70,0x69,0x74,0x63,0x68,0x69,0x69,0x3a,0x0c,0x40,0x76,0x6f,0x6c,0x75,0x6d,0x65,0x69,0x55))
  ChangeSelfSwitch("A",0)
  ChangeInventory_Item(2,0,0,1)
  0()
 PAGE   2
  // condition: self-switch A is ON
  0()



EVENT   27
 PAGE   1
  250(bytes(0x04,0x08,0x6f,0x3a,0x0c,0x52,0x50,0x47,0x3a,0x3a,0x53,0x45,0x08,0x3a,0x0a,0x40,0x6e,0x61,0x6d,0x65,0x49,0x22,0x0a,0x49,0x74,0x65,0x6d,0x31,0x06,0x3a,0x06,0x45,0x54,0x3a,0x0b,0x40,0x70,0x69,0x74,0x63,0x68,0x69,0x69,0x3a,0x0c,0x40,0x76,0x6f,0x6c,0x75,0x6d,0x65,0x69,0x55))
  ChangeSelfSwitch("A",0)
  ChangeInventory_Item(79,0,0,1)
  0()
 PAGE   2
  // condition: self-switch A is ON
  0()



EVENT   28
 PAGE   1
  ShowMessageFace("",0,0,2,1)
  ShowMessage("【犬】")
  ShowMessage("わん！　わん！")
  355("actor_label_jump")
  EndEventProcessing()
  DefineLabel("60")
  ShowMessageFace("dog_fc1",4,0,2,2)
  ShowMessage("【ポチ】")
  ShowMessage("わん！　わん！")
  EndEventProcessing()
  0()



EVENT   29
 PAGE   1
  ShowMessageFace("",0,0,2,1)
  ShowMessage("【犬】")
  ShowMessage("くーん、くーん……")
  355("actor_label_jump")
  EndEventProcessing()
  DefineLabel("60")
  ShowMessageFace("dog_fc1",4,0,2,2)
  ShowMessage("【ポチ】")
  ShowMessage("わんわん……")
  EndEventProcessing()
  0()



EVENT   11
 PAGE   1
  ChangeSelfSwitch("A",0)
  ShowMessageFace("ruka_fc1",0,0,2,1)
  ShowMessage("【ルカ】")
  ShowMessage("ここはロストルム村……？")
  ShowMessage("でも、滅びてない……")
  If(0,4,0)
   ShowMessageFace("alice_fc5",0,0,2,2)
   ShowMessage("【アリス】")
   ShowMessage("すると、20年以上は前になるのか……？")
   0()
  EndIf()
  If(0,5,0)
   ShowMessageFace("iriasu_fc4",7,0,2,3)
   ShowMessage("【イリアス】")
   ShowMessage("すると、20年以上は前になりますね……")
   0()
  EndIf()
  205(-1,bytes(0x04,0x08,0x6f,0x3a,0x13,0x52,0x50,0x47,0x3a,0x3a,0x4d,0x6f,0x76,0x65,0x52,0x6f,0x75,0x74,0x65,0x09,0x3a,0x0c,0x40,0x72,0x65,0x70,0x65,0x61,0x74,0x46,0x3a,0x0f,0x40,0x73,0x6b,0x69,0x70,0x70,0x61,0x62,0x6c,0x65,0x46,0x3a,0x0a,0x40,0x77,0x61,0x69,0x74,0x54,0x3a,0x0a,0x40,0x6c,0x69,0x73,0x74,0x5b,0x07,0x6f,0x3a,0x15,0x52,0x50,0x47,0x3a,0x3a,0x4d,0x6f,0x76,0x65,0x43,0x6f,0x6d,0x6d,0x61,0x6e,0x64,0x07,0x3a,0x0a,0x40,0x63,0x6f,0x64,0x65,0x69,0x18,0x3a,0x10,0x40,0x70,0x61,0x72,0x61,0x6d,0x65,0x74,0x65,0x72,0x73,0x5b,0x00,0x6f,0x3b,0x0a,0x07,0x3b,0x0b,0x69,0x00,0x3b,0x0c,0x5b,0x00))
  ShowMessageFace("",0,0,2,4)
  ShowMessage("【青年】")
  ShowMessage("おや、マルケルスさん。")
  ShowMessage("三度もこの村に立ち寄るなんて、よほどお気に入りみたいだね。")
  ShowSpeechBalloon(-1,1,false)
  ShowMessageFace("ruka_fc1",0,0,2,5)
  ShowMessage("【ルカ】")
  ShowMessage("えっ！？")
  ShowMessageFace("",0,0,2,6)
  ShowMessage("【青年】")
  ShowMessage("でも、来るたびに雰囲気が変わるね。")
  ShowMessage("今回は背丈まで違うような……")
  ShowMessageFace("ruka_fc1",0,0,2,7)
  ShowMessage("【ルカ】")
  ShowMessage("ち、違うよ……")
  ShowMessage("マルケルスは、僕の父さんなんだ！")
  ShowMessageFace("",0,0,2,8)
  ShowMessage("【青年】")
  ShowMessage("えっ？　何を言ってるんだ……？")
  ShowMessage("ひょっとして、マルケルスさんとは別人？")
  ShowMessageFace("",0,0,2,9)
  ShowMessage("【青年】")
  ShowMessage("でもあの人、君くらいの子供がいる年齢じゃないはずだよ。")
  ShowMessage("まあ確かに、外見は生き写しだけどね。")
  If(4,41,0)
   ShowMessageFace("stein_fc2",0,0,2,10)
   ShowMessage("【プロメスティン】")
   ShowMessage("あの、今年のヨハネス暦を伺ってもよろしいですか？")
   ShowMessageFace("",0,0,2,11)
   ShowMessage("【青年】")
   ShowMessage("変なこと聞くんだな……")
   ShowMessage("今年はヨハネス暦、1430年だよ。")
   If(0,4,0)
    ShowMessageFace("alice_fc5",0,0,2,12)
    ShowMessage("【アリス】")
    ShowMessage("なるほど、25年前か……")
    ShowMessage("ルカの父が冒険をしていた時期と重なるな。")
    0()
   EndIf()
   If(0,5,0)
    ShowMessageFace("iriasu_fc4",2,0,2,13)
    ShowMessage("【イリアス】")
    ShowMessage("なるほど、25年前ですか……")
    ShowMessage("マルケルスが冒険をしていた時期と重なりますね。")
    0()
   EndIf()
   0()
  EndIf()
  ShowMessageFace("ruka_fc1",0,0,2,14)
  ShowMessage("【ルカ】")
  ShowMessage("父さん……")
  ShowMessage("いや、マルケルスさんはいつこの村に来たんですか？")
  ShowMessageFace("",0,0,2,15)
  ShowMessage("【青年】")
  ShowMessage("最初は一ヶ月前だよ。")
  ShowMessage("3人の仲間を連れて、新米だが有望な勇者って感じだったな。")
  ShowMessageFace("",0,0,2,16)
  ShowMessage("【青年】")
  ShowMessage("2回目は、それより1週間後だ。")
  ShowMessage("その時はなぜか1人だったよ。雰囲気もかなり違ったし……")
  ShowMessageFace("ruka_fc1",0,0,2,17)
  ShowMessage("【ルカ】")
  ShowMessage("1週間後に、1人で再訪した……？")
  ShowMessage("雰囲気が違ったって、どんな感じだったんですか？")
  ShowMessageFace("",0,0,2,18)
  ShowMessage("【青年】")
  ShowMessage("歴戦の勇者の風格ってのかな……")
  ShowMessage("しかも、なんだか鬼気迫る感じだったよ。")
  ShowMessageFace("",0,0,2,19)
  ShowMessage("【青年】")
  ShowMessage("たった1週間で、人があれほど変わるって事はあるのかね？")
  ShowMessage("何があったかは、俺は知らないよ。")
  If(0,4,0)
   ShowMessageFace("alice_fc5",3,0,2,20)
   ShowMessage("【アリス】")
   ShowMessage("仲間連れで村に訪れた新米の勇者……")
   ShowMessage("それが1週間後に1人で再訪、様子も違っていた……")
   ShowMessageFace("alice_fc5",0,0,2,21)
   ShowMessage("【アリス】")
   ShowMessage("……それはずいぶん奇妙な話だな。")
   ShowMessage("他の者にも、話を聞いてみるぞ。")
   0()
  EndIf()
  If(0,5,0)
   ShowMessageFace("iriasu_fc4",7,0,2,22)
   ShowMessage("【イリアス】")
   ShowMessage("仲間連れで村に訪れた新米の勇者……")
   ShowMessage("それが1週間後に1人で再訪、様子も違っていた……")
   ShowMessageFace("iriasu_fc4",7,0,2,23)
   ShowMessage("【イリアス】")
   ShowMessage("それは、実に奇妙な話ですね。")
   ShowMessage("他の者にも、話を聞いてみましょう。")
   0()
  EndIf()
  If(4,64,0)
   ShowMessageFace("pramia_fc1",0,0,2,24)
   ShowMessage("【プチ】")
   ShowMessage("でも、怖いのはいなさそようね……")
   ShowMessage("ちょっと安心。")
   0()
  EndIf()
  If(4,79,0)
   ShowMessageFace("nuruko_fc1",0,0,2,25)
   ShowMessage("【ヌルコ】")
   ShowMessage("きゅっ！")
   0()
  EndIf()
  0()
 PAGE   2
  // condition: self-switch A is ON
  0()
