﻿
DisplayName "聖山アモス"



EVENT   1
 PAGE   1
  250(bytes(0x04,0x08,0x6f,0x3a,0x0c,0x52,0x50,0x47,0x3a,0x3a,0x53,0x45,0x08,0x3a,0x0a,0x40,0x6e,0x61,0x6d,0x65,0x49,0x22,0x09,0x4d,0x6f,0x76,0x65,0x06,0x3a,0x06,0x45,0x54,0x3a,0x0b,0x40,0x70,0x69,0x74,0x63,0x68,0x69,0x69,0x3a,0x0c,0x40,0x76,0x6f,0x6c,0x75,0x6d,0x65,0x69,0x55))
  TeleportPlayer(0,2,237,238,0,0)
  0()



EVENT   2
 PAGE   1
  250(bytes(0x04,0x08,0x6f,0x3a,0x0c,0x52,0x50,0x47,0x3a,0x3a,0x53,0x45,0x08,0x3a,0x0a,0x40,0x6e,0x61,0x6d,0x65,0x49,0x22,0x09,0x4d,0x6f,0x76,0x65,0x06,0x3a,0x06,0x45,0x54,0x3a,0x0b,0x40,0x70,0x69,0x74,0x63,0x68,0x69,0x69,0x3a,0x0c,0x40,0x76,0x6f,0x6c,0x75,0x6d,0x65,0x69,0x55))
  TeleportPlayer(0,2,237,238,0,0)
  0()



EVENT   3
 PAGE   1
  250(bytes(0x04,0x08,0x6f,0x3a,0x0c,0x52,0x50,0x47,0x3a,0x3a,0x53,0x45,0x08,0x3a,0x0a,0x40,0x6e,0x61,0x6d,0x65,0x49,0x22,0x09,0x4d,0x6f,0x76,0x65,0x06,0x3a,0x06,0x45,0x54,0x3a,0x0b,0x40,0x70,0x69,0x74,0x63,0x68,0x69,0x69,0x3a,0x0c,0x40,0x76,0x6f,0x6c,0x75,0x6d,0x65,0x69,0x55))
  TeleportPlayer(0,2,237,238,0,0)
  0()



EVENT   4
 PAGE   1
  250(bytes(0x04,0x08,0x6f,0x3a,0x0c,0x52,0x50,0x47,0x3a,0x3a,0x53,0x45,0x08,0x3a,0x0a,0x40,0x6e,0x61,0x6d,0x65,0x49,0x22,0x09,0x4d,0x6f,0x76,0x65,0x06,0x3a,0x06,0x45,0x54,0x3a,0x0b,0x40,0x70,0x69,0x74,0x63,0x68,0x69,0x69,0x3a,0x0c,0x40,0x76,0x6f,0x6c,0x75,0x6d,0x65,0x69,0x55))
  TeleportPlayer(0,2,237,238,0,0)
  0()



EVENT   5
 PAGE   1
  250(bytes(0x04,0x08,0x6f,0x3a,0x0c,0x52,0x50,0x47,0x3a,0x3a,0x53,0x45,0x08,0x3a,0x0a,0x40,0x6e,0x61,0x6d,0x65,0x49,0x22,0x09,0x4d,0x6f,0x76,0x65,0x06,0x3a,0x06,0x45,0x54,0x3a,0x0b,0x40,0x70,0x69,0x74,0x63,0x68,0x69,0x69,0x3a,0x0c,0x40,0x76,0x6f,0x6c,0x75,0x6d,0x65,0x69,0x55))
  TeleportPlayer(0,2,237,238,0,0)
  0()



EVENT   6
 PAGE   1
  250(bytes(0x04,0x08,0x6f,0x3a,0x0c,0x52,0x50,0x47,0x3a,0x3a,0x53,0x45,0x08,0x3a,0x0a,0x40,0x6e,0x61,0x6d,0x65,0x49,0x22,0x09,0x4d,0x6f,0x76,0x65,0x06,0x3a,0x06,0x45,0x54,0x3a,0x0b,0x40,0x70,0x69,0x74,0x63,0x68,0x69,0x69,0x3a,0x0c,0x40,0x76,0x6f,0x6c,0x75,0x6d,0x65,0x69,0x55))
  TeleportPlayer(0,2,237,238,0,0)
  0()



EVENT   7
 PAGE   1
  250(bytes(0x04,0x08,0x6f,0x3a,0x0c,0x52,0x50,0x47,0x3a,0x3a,0x53,0x45,0x08,0x3a,0x0a,0x40,0x6e,0x61,0x6d,0x65,0x49,0x22,0x09,0x4d,0x6f,0x76,0x65,0x06,0x3a,0x06,0x45,0x54,0x3a,0x0b,0x40,0x70,0x69,0x74,0x63,0x68,0x69,0x69,0x3a,0x0c,0x40,0x76,0x6f,0x6c,0x75,0x6d,0x65,0x69,0x55))
  TeleportPlayer(0,2,237,238,0,0)
  0()



EVENT   8
 PAGE   1
  250(bytes(0x04,0x08,0x6f,0x3a,0x0c,0x52,0x50,0x47,0x3a,0x3a,0x53,0x45,0x08,0x3a,0x0a,0x40,0x6e,0x61,0x6d,0x65,0x49,0x22,0x0a,0x43,0x68,0x65,0x73,0x74,0x06,0x3a,0x06,0x45,0x54,0x3a,0x0b,0x40,0x70,0x69,0x74,0x63,0x68,0x69,0x69,0x3a,0x0c,0x40,0x76,0x6f,0x6c,0x75,0x6d,0x65,0x69,0x55))
  205(0,bytes(0x04,0x08,0x6f,0x3a,0x13,0x52,0x50,0x47,0x3a,0x3a,0x4d,0x6f,0x76,0x65,0x52,0x6f,0x75,0x74,0x65,0x09,0x3a,0x0c,0x40,0x72,0x65,0x70,0x65,0x61,0x74,0x46,0x3a,0x0f,0x40,0x73,0x6b,0x69,0x70,0x70,0x61,0x62,0x6c,0x65,0x46,0x3a,0x0a,0x40,0x77,0x61,0x69,0x74,0x54,0x3a,0x0a,0x40,0x6c,0x69,0x73,0x74,0x5b,0x0b,0x6f,0x3a,0x15,0x52,0x50,0x47,0x3a,0x3a,0x4d,0x6f,0x76,0x65,0x43,0x6f,0x6d,0x6d,0x61,0x6e,0x64,0x07,0x3a,0x0a,0x40,0x63,0x6f,0x64,0x65,0x69,0x29,0x3a,0x10,0x40,0x70,0x61,0x72,0x61,0x6d,0x65,0x74,0x65,0x72,0x73,0x5b,0x00,0x6f,0x3b,0x0a,0x07,0x3b,0x0b,0x69,0x16,0x3b,0x0c,0x5b,0x00,0x6f,0x3b,0x0a,0x07,0x3b,0x0b,0x69,0x14,0x3b,0x0c,0x5b,0x06,0x69,0x08,0x6f,0x3b,0x0a,0x07,0x3b,0x0b,0x69,0x17,0x3b,0x0c,0x5b,0x00,0x6f,0x3b,0x0a,0x07,0x3b,0x0b,0x69,0x14,0x3b,0x0c,0x5b,0x06,0x69,0x08,0x6f,0x3b,0x0a,0x07,0x3b,0x0b,0x69,0x00,0x3b,0x0c,0x5b,0x00))
  ChangeSelfSwitch("A",0)
  ChangeInventoryWeapon(10,0,0,1)
  0()
 PAGE   2
  // condition: self-switch A is ON
  0()



EVENT   9
 PAGE   1
  ShowMessageFace("",0,0,2,1)
  ShowMessage("ミスリル鉱石があるようだが……")
  ShowMessageFace("ruka_fc1",0,0,2,2)
  ShowMessage("【ルカ】")
  ShowMessage("聖山のミスリル鉱石って、勝手に採ってもいいのかな……？")
  If(0,6,0)
   ShowMessageFace("sonia_fc2",2,0,2,3)
   ShowMessage("【ソニア】")
   ShowMessage("確か、サン・イリアの許可が必要だったような……")
   ShowMessage("勝手に採掘するのって、まずいんじゃない？")
   0()
  EndIf()
  ShowMessageFace("",0,0,2,4)
  ShowMessage("無断で採るのはまずいようだ。")
  ShowMessage("サン・イリアの採掘許可を得ておくか……")
  0()
 PAGE   2
  // condition: variable 1021 >= 1
  If(4,66,0)
   ShowMessageFace("vgirl_fc1",0,0,2,1)
   ShowMessage("【ヴァニラ】")
   ShowMessage("あったぞ、これだな！")
   0()
  EndIf()
  ChangeSelfSwitch("A",0)
  250(bytes(0x04,0x08,0x6f,0x3a,0x0c,0x52,0x50,0x47,0x3a,0x3a,0x53,0x45,0x08,0x3a,0x0a,0x40,0x6e,0x61,0x6d,0x65,0x49,0x22,0x0a,0x49,0x74,0x65,0x6d,0x31,0x06,0x3a,0x06,0x45,0x54,0x3a,0x0b,0x40,0x70,0x69,0x74,0x63,0x68,0x69,0x69,0x3a,0x0c,0x40,0x76,0x6f,0x6c,0x75,0x6d,0x65,0x69,0x55))
  ChangeInventory_Item(153,0,0,1)
  ChangeSwitch(2066,2066,0)
  ShowMessageFace("ruka_fc1",0,0,2,2)
  ShowMessage("【ルカ】")
  ShowMessage("よし、ミスリルを手に入れたぞ！")
  ShowMessage("これをサン・イリアの鍛冶屋に持っていけばいいんだね。")
  If(4,68,0)
   ShowMessageFace("dragonp_fc1",0,0,2,3)
   ShowMessage("【パピ】")
   ShowMessage("ミスリルの装備を造ってもらえるのだ～！")
   ShowMessage("ついでに、その技術も学びたいのだ！")
   If(1,1007,0,0,0)
    ShowMessageFace("dragonp_fc1",2,0,2,4)
    ShowMessage("【パピ】")
    ShowMessage("……といっても、今のあたしの腕では手が出ないのだ。")
    ShowMessage("ミスリルを打つ前に、もっと鍛えなければいけないのだ……")
    0()
   EndIf()
   EndEventProcessing()
   0()
  EndIf()
  If(1,1021,0,1,0)
   If(0,4,0)
    ShowMessageFace("alice_fc5",0,0,2,5)
    ShowMessage("【アリス】")
    ShowMessage("それでは、山頂を確認するぞ。")
    ShowMessage("この異様な力、無視してはおけんからな……")
    0()
   EndIf()
   If(0,5,0)
    ShowMessageFace("iriasu_fc4",2,0,2,6)
    ShowMessage("【イリアス】")
    ShowMessage("それでは、山頂まで登りましょう。")
    ShowMessage("もしかすると、高位の天使がいるかもしれません……")
    0()
   EndIf()
   0()
  EndIf()
  0()
 PAGE   3
  // condition: self-switch A is ON
  0()



EVENT   10
 PAGE   1
  If(12,"unlock_level < 1")
   ShowMessageFace("",0,0,2,1)
   ShowMessage("宝箱には鍵が掛かっている……")
   EndEventProcessing()
   0()
  EndIf()
  250(bytes(0x04,0x08,0x6f,0x3a,0x0c,0x52,0x50,0x47,0x3a,0x3a,0x53,0x45,0x08,0x3a,0x0a,0x40,0x6e,0x61,0x6d,0x65,0x49,0x22,0x0a,0x43,0x68,0x65,0x73,0x74,0x06,0x3a,0x06,0x45,0x54,0x3a,0x0b,0x40,0x70,0x69,0x74,0x63,0x68,0x69,0x69,0x3a,0x0c,0x40,0x76,0x6f,0x6c,0x75,0x6d,0x65,0x69,0x55))
  205(0,bytes(0x04,0x08,0x6f,0x3a,0x13,0x52,0x50,0x47,0x3a,0x3a,0x4d,0x6f,0x76,0x65,0x52,0x6f,0x75,0x74,0x65,0x09,0x3a,0x0c,0x40,0x72,0x65,0x70,0x65,0x61,0x74,0x46,0x3a,0x0f,0x40,0x73,0x6b,0x69,0x70,0x70,0x61,0x62,0x6c,0x65,0x46,0x3a,0x0a,0x40,0x77,0x61,0x69,0x74,0x54,0x3a,0x0a,0x40,0x6c,0x69,0x73,0x74,0x5b,0x0b,0x6f,0x3a,0x15,0x52,0x50,0x47,0x3a,0x3a,0x4d,0x6f,0x76,0x65,0x43,0x6f,0x6d,0x6d,0x61,0x6e,0x64,0x07,0x3a,0x0a,0x40,0x63,0x6f,0x64,0x65,0x69,0x29,0x3a,0x10,0x40,0x70,0x61,0x72,0x61,0x6d,0x65,0x74,0x65,0x72,0x73,0x5b,0x00,0x6f,0x3b,0x0a,0x07,0x3b,0x0b,0x69,0x16,0x3b,0x0c,0x5b,0x00,0x6f,0x3b,0x0a,0x07,0x3b,0x0b,0x69,0x14,0x3b,0x0c,0x5b,0x06,0x69,0x08,0x6f,0x3b,0x0a,0x07,0x3b,0x0b,0x69,0x17,0x3b,0x0c,0x5b,0x00,0x6f,0x3b,0x0a,0x07,0x3b,0x0b,0x69,0x14,0x3b,0x0c,0x5b,0x06,0x69,0x08,0x6f,0x3b,0x0a,0x07,0x3b,0x0b,0x69,0x00,0x3b,0x0c,0x5b,0x00))
  ChangeSelfSwitch("A",0)
  ChangeInventoryWeapon(921,0,0,1)
  0()
 PAGE   2
  // condition: self-switch A is ON
  0()



EVENT   11
 PAGE   1
  250(bytes(0x04,0x08,0x6f,0x3a,0x0c,0x52,0x50,0x47,0x3a,0x3a,0x53,0x45,0x08,0x3a,0x0a,0x40,0x6e,0x61,0x6d,0x65,0x49,0x22,0x0a,0x43,0x68,0x65,0x73,0x74,0x06,0x3a,0x06,0x45,0x54,0x3a,0x0b,0x40,0x70,0x69,0x74,0x63,0x68,0x69,0x69,0x3a,0x0c,0x40,0x76,0x6f,0x6c,0x75,0x6d,0x65,0x69,0x55))
  205(0,bytes(0x04,0x08,0x6f,0x3a,0x13,0x52,0x50,0x47,0x3a,0x3a,0x4d,0x6f,0x76,0x65,0x52,0x6f,0x75,0x74,0x65,0x09,0x3a,0x0c,0x40,0x72,0x65,0x70,0x65,0x61,0x74,0x46,0x3a,0x0f,0x40,0x73,0x6b,0x69,0x70,0x70,0x61,0x62,0x6c,0x65,0x46,0x3a,0x0a,0x40,0x77,0x61,0x69,0x74,0x54,0x3a,0x0a,0x40,0x6c,0x69,0x73,0x74,0x5b,0x0b,0x6f,0x3a,0x15,0x52,0x50,0x47,0x3a,0x3a,0x4d,0x6f,0x76,0x65,0x43,0x6f,0x6d,0x6d,0x61,0x6e,0x64,0x07,0x3a,0x0a,0x40,0x63,0x6f,0x64,0x65,0x69,0x29,0x3a,0x10,0x40,0x70,0x61,0x72,0x61,0x6d,0x65,0x74,0x65,0x72,0x73,0x5b,0x00,0x6f,0x3b,0x0a,0x07,0x3b,0x0b,0x69,0x16,0x3b,0x0c,0x5b,0x00,0x6f,0x3b,0x0a,0x07,0x3b,0x0b,0x69,0x14,0x3b,0x0c,0x5b,0x06,0x69,0x08,0x6f,0x3b,0x0a,0x07,0x3b,0x0b,0x69,0x17,0x3b,0x0c,0x5b,0x00,0x6f,0x3b,0x0a,0x07,0x3b,0x0b,0x69,0x14,0x3b,0x0c,0x5b,0x06,0x69,0x08,0x6f,0x3b,0x0a,0x07,0x3b,0x0b,0x69,0x00,0x3b,0x0c,0x5b,0x00))
  ChangeSelfSwitch("A",0)
  ChangeInventoryArmor(71,0,0,1)
  0()
 PAGE   2
  // condition: self-switch A is ON
  0()



EVENT   14
 PAGE   1
  250(bytes(0x04,0x08,0x6f,0x3a,0x0c,0x52,0x50,0x47,0x3a,0x3a,0x53,0x45,0x08,0x3a,0x0a,0x40,0x6e,0x61,0x6d,0x65,0x49,0x22,0x0a,0x43,0x68,0x65,0x73,0x74,0x06,0x3a,0x06,0x45,0x54,0x3a,0x0b,0x40,0x70,0x69,0x74,0x63,0x68,0x69,0x69,0x3a,0x0c,0x40,0x76,0x6f,0x6c,0x75,0x6d,0x65,0x69,0x55))
  205(0,bytes(0x04,0x08,0x6f,0x3a,0x13,0x52,0x50,0x47,0x3a,0x3a,0x4d,0x6f,0x76,0x65,0x52,0x6f,0x75,0x74,0x65,0x09,0x3a,0x0c,0x40,0x72,0x65,0x70,0x65,0x61,0x74,0x46,0x3a,0x0f,0x40,0x73,0x6b,0x69,0x70,0x70,0x61,0x62,0x6c,0x65,0x46,0x3a,0x0a,0x40,0x77,0x61,0x69,0x74,0x54,0x3a,0x0a,0x40,0x6c,0x69,0x73,0x74,0x5b,0x0b,0x6f,0x3a,0x15,0x52,0x50,0x47,0x3a,0x3a,0x4d,0x6f,0x76,0x65,0x43,0x6f,0x6d,0x6d,0x61,0x6e,0x64,0x07,0x3a,0x0a,0x40,0x63,0x6f,0x64,0x65,0x69,0x29,0x3a,0x10,0x40,0x70,0x61,0x72,0x61,0x6d,0x65,0x74,0x65,0x72,0x73,0x5b,0x00,0x6f,0x3b,0x0a,0x07,0x3b,0x0b,0x69,0x16,0x3b,0x0c,0x5b,0x00,0x6f,0x3b,0x0a,0x07,0x3b,0x0b,0x69,0x14,0x3b,0x0c,0x5b,0x06,0x69,0x08,0x6f,0x3b,0x0a,0x07,0x3b,0x0b,0x69,0x17,0x3b,0x0c,0x5b,0x00,0x6f,0x3b,0x0a,0x07,0x3b,0x0b,0x69,0x14,0x3b,0x0c,0x5b,0x06,0x69,0x08,0x6f,0x3b,0x0a,0x07,0x3b,0x0b,0x69,0x00,0x3b,0x0c,0x5b,0x00))
  ChangeSelfSwitch("A",0)
  ChangeInventory_Item(75,0,0,1)
  0()
 PAGE   2
  // condition: self-switch A is ON
  0()



EVENT   13
 PAGE   1
  250(bytes(0x04,0x08,0x6f,0x3a,0x0c,0x52,0x50,0x47,0x3a,0x3a,0x53,0x45,0x08,0x3a,0x0a,0x40,0x6e,0x61,0x6d,0x65,0x49,0x22,0x0a,0x43,0x68,0x65,0x73,0x74,0x06,0x3a,0x06,0x45,0x54,0x3a,0x0b,0x40,0x70,0x69,0x74,0x63,0x68,0x69,0x69,0x3a,0x0c,0x40,0x76,0x6f,0x6c,0x75,0x6d,0x65,0x69,0x55))
  205(0,bytes(0x04,0x08,0x6f,0x3a,0x13,0x52,0x50,0x47,0x3a,0x3a,0x4d,0x6f,0x76,0x65,0x52,0x6f,0x75,0x74,0x65,0x09,0x3a,0x0c,0x40,0x72,0x65,0x70,0x65,0x61,0x74,0x46,0x3a,0x0f,0x40,0x73,0x6b,0x69,0x70,0x70,0x61,0x62,0x6c,0x65,0x46,0x3a,0x0a,0x40,0x77,0x61,0x69,0x74,0x54,0x3a,0x0a,0x40,0x6c,0x69,0x73,0x74,0x5b,0x0b,0x6f,0x3a,0x15,0x52,0x50,0x47,0x3a,0x3a,0x4d,0x6f,0x76,0x65,0x43,0x6f,0x6d,0x6d,0x61,0x6e,0x64,0x07,0x3a,0x0a,0x40,0x63,0x6f,0x64,0x65,0x69,0x29,0x3a,0x10,0x40,0x70,0x61,0x72,0x61,0x6d,0x65,0x74,0x65,0x72,0x73,0x5b,0x00,0x6f,0x3b,0x0a,0x07,0x3b,0x0b,0x69,0x16,0x3b,0x0c,0x5b,0x00,0x6f,0x3b,0x0a,0x07,0x3b,0x0b,0x69,0x14,0x3b,0x0c,0x5b,0x06,0x69,0x08,0x6f,0x3b,0x0a,0x07,0x3b,0x0b,0x69,0x17,0x3b,0x0c,0x5b,0x00,0x6f,0x3b,0x0a,0x07,0x3b,0x0b,0x69,0x14,0x3b,0x0c,0x5b,0x06,0x69,0x08,0x6f,0x3b,0x0a,0x07,0x3b,0x0b,0x69,0x00,0x3b,0x0c,0x5b,0x00))
  ChangeSelfSwitch("A",0)
  ChangeInventory_Item(12,0,0,1)
  0()
 PAGE   2
  // condition: self-switch A is ON
  0()



EVENT   12
 PAGE   1
  250(bytes(0x04,0x08,0x6f,0x3a,0x0c,0x52,0x50,0x47,0x3a,0x3a,0x53,0x45,0x08,0x3a,0x0a,0x40,0x6e,0x61,0x6d,0x65,0x49,0x22,0x0a,0x43,0x68,0x65,0x73,0x74,0x06,0x3a,0x06,0x45,0x54,0x3a,0x0b,0x40,0x70,0x69,0x74,0x63,0x68,0x69,0x69,0x3a,0x0c,0x40,0x76,0x6f,0x6c,0x75,0x6d,0x65,0x69,0x55))
  205(0,bytes(0x04,0x08,0x6f,0x3a,0x13,0x52,0x50,0x47,0x3a,0x3a,0x4d,0x6f,0x76,0x65,0x52,0x6f,0x75,0x74,0x65,0x09,0x3a,0x0c,0x40,0x72,0x65,0x70,0x65,0x61,0x74,0x46,0x3a,0x0f,0x40,0x73,0x6b,0x69,0x70,0x70,0x61,0x62,0x6c,0x65,0x46,0x3a,0x0a,0x40,0x77,0x61,0x69,0x74,0x54,0x3a,0x0a,0x40,0x6c,0x69,0x73,0x74,0x5b,0x0b,0x6f,0x3a,0x15,0x52,0x50,0x47,0x3a,0x3a,0x4d,0x6f,0x76,0x65,0x43,0x6f,0x6d,0x6d,0x61,0x6e,0x64,0x07,0x3a,0x0a,0x40,0x63,0x6f,0x64,0x65,0x69,0x29,0x3a,0x10,0x40,0x70,0x61,0x72,0x61,0x6d,0x65,0x74,0x65,0x72,0x73,0x5b,0x00,0x6f,0x3b,0x0a,0x07,0x3b,0x0b,0x69,0x16,0x3b,0x0c,0x5b,0x00,0x6f,0x3b,0x0a,0x07,0x3b,0x0b,0x69,0x14,0x3b,0x0c,0x5b,0x06,0x69,0x08,0x6f,0x3b,0x0a,0x07,0x3b,0x0b,0x69,0x17,0x3b,0x0c,0x5b,0x00,0x6f,0x3b,0x0a,0x07,0x3b,0x0b,0x69,0x14,0x3b,0x0c,0x5b,0x06,0x69,0x08,0x6f,0x3b,0x0a,0x07,0x3b,0x0b,0x69,0x00,0x3b,0x0c,0x5b,0x00))
  ChangeSelfSwitch("A",0)
  ChangeInventoryArmor(1541,0,0,1,false)
  0()
 PAGE   2
  // condition: self-switch A is ON
  0()



EVENT   16
 PAGE   1
  250(bytes(0x04,0x08,0x6f,0x3a,0x0c,0x52,0x50,0x47,0x3a,0x3a,0x53,0x45,0x08,0x3a,0x0a,0x40,0x6e,0x61,0x6d,0x65,0x49,0x22,0x0a,0x43,0x68,0x65,0x73,0x74,0x06,0x3a,0x06,0x45,0x54,0x3a,0x0b,0x40,0x70,0x69,0x74,0x63,0x68,0x69,0x69,0x3a,0x0c,0x40,0x76,0x6f,0x6c,0x75,0x6d,0x65,0x69,0x55))
  205(0,bytes(0x04,0x08,0x6f,0x3a,0x13,0x52,0x50,0x47,0x3a,0x3a,0x4d,0x6f,0x76,0x65,0x52,0x6f,0x75,0x74,0x65,0x09,0x3a,0x0c,0x40,0x72,0x65,0x70,0x65,0x61,0x74,0x46,0x3a,0x0f,0x40,0x73,0x6b,0x69,0x70,0x70,0x61,0x62,0x6c,0x65,0x46,0x3a,0x0a,0x40,0x77,0x61,0x69,0x74,0x54,0x3a,0x0a,0x40,0x6c,0x69,0x73,0x74,0x5b,0x0b,0x6f,0x3a,0x15,0x52,0x50,0x47,0x3a,0x3a,0x4d,0x6f,0x76,0x65,0x43,0x6f,0x6d,0x6d,0x61,0x6e,0x64,0x07,0x3a,0x0a,0x40,0x63,0x6f,0x64,0x65,0x69,0x29,0x3a,0x10,0x40,0x70,0x61,0x72,0x61,0x6d,0x65,0x74,0x65,0x72,0x73,0x5b,0x00,0x6f,0x3b,0x0a,0x07,0x3b,0x0b,0x69,0x16,0x3b,0x0c,0x5b,0x00,0x6f,0x3b,0x0a,0x07,0x3b,0x0b,0x69,0x14,0x3b,0x0c,0x5b,0x06,0x69,0x08,0x6f,0x3b,0x0a,0x07,0x3b,0x0b,0x69,0x17,0x3b,0x0c,0x5b,0x00,0x6f,0x3b,0x0a,0x07,0x3b,0x0b,0x69,0x14,0x3b,0x0c,0x5b,0x06,0x69,0x08,0x6f,0x3b,0x0a,0x07,0x3b,0x0b,0x69,0x00,0x3b,0x0c,0x5b,0x00))
  ChangeSelfSwitch("A",0)
  ChangeInventory_Item(179,0,0,1)
  0()
 PAGE   2
  // condition: self-switch A is ON
  0()



EVENT   17
 PAGE   1
  250(bytes(0x04,0x08,0x6f,0x3a,0x0c,0x52,0x50,0x47,0x3a,0x3a,0x53,0x45,0x08,0x3a,0x0a,0x40,0x6e,0x61,0x6d,0x65,0x49,0x22,0x0a,0x43,0x68,0x65,0x73,0x74,0x06,0x3a,0x06,0x45,0x54,0x3a,0x0b,0x40,0x70,0x69,0x74,0x63,0x68,0x69,0x69,0x3a,0x0c,0x40,0x76,0x6f,0x6c,0x75,0x6d,0x65,0x69,0x55))
  205(0,bytes(0x04,0x08,0x6f,0x3a,0x13,0x52,0x50,0x47,0x3a,0x3a,0x4d,0x6f,0x76,0x65,0x52,0x6f,0x75,0x74,0x65,0x09,0x3a,0x0c,0x40,0x72,0x65,0x70,0x65,0x61,0x74,0x46,0x3a,0x0f,0x40,0x73,0x6b,0x69,0x70,0x70,0x61,0x62,0x6c,0x65,0x46,0x3a,0x0a,0x40,0x77,0x61,0x69,0x74,0x54,0x3a,0x0a,0x40,0x6c,0x69,0x73,0x74,0x5b,0x0b,0x6f,0x3a,0x15,0x52,0x50,0x47,0x3a,0x3a,0x4d,0x6f,0x76,0x65,0x43,0x6f,0x6d,0x6d,0x61,0x6e,0x64,0x07,0x3a,0x0a,0x40,0x63,0x6f,0x64,0x65,0x69,0x29,0x3a,0x10,0x40,0x70,0x61,0x72,0x61,0x6d,0x65,0x74,0x65,0x72,0x73,0x5b,0x00,0x6f,0x3b,0x0a,0x07,0x3b,0x0b,0x69,0x16,0x3b,0x0c,0x5b,0x00,0x6f,0x3b,0x0a,0x07,0x3b,0x0b,0x69,0x14,0x3b,0x0c,0x5b,0x06,0x69,0x08,0x6f,0x3b,0x0a,0x07,0x3b,0x0b,0x69,0x17,0x3b,0x0c,0x5b,0x00,0x6f,0x3b,0x0a,0x07,0x3b,0x0b,0x69,0x14,0x3b,0x0c,0x5b,0x06,0x69,0x08,0x6f,0x3b,0x0a,0x07,0x3b,0x0b,0x69,0x00,0x3b,0x0c,0x5b,0x00))
  ChangeSelfSwitch("A",0)
  ChangeInventory_Item(178,0,0,1)
  0()
 PAGE   2
  // condition: self-switch A is ON
  0()



EVENT   19
 PAGE   1
  250(bytes(0x04,0x08,0x6f,0x3a,0x0c,0x52,0x50,0x47,0x3a,0x3a,0x53,0x45,0x08,0x3a,0x0a,0x40,0x6e,0x61,0x6d,0x65,0x49,0x22,0x0a,0x43,0x68,0x65,0x73,0x74,0x06,0x3a,0x06,0x45,0x54,0x3a,0x0b,0x40,0x70,0x69,0x74,0x63,0x68,0x69,0x69,0x3a,0x0c,0x40,0x76,0x6f,0x6c,0x75,0x6d,0x65,0x69,0x55))
  205(0,bytes(0x04,0x08,0x6f,0x3a,0x13,0x52,0x50,0x47,0x3a,0x3a,0x4d,0x6f,0x76,0x65,0x52,0x6f,0x75,0x74,0x65,0x09,0x3a,0x0c,0x40,0x72,0x65,0x70,0x65,0x61,0x74,0x46,0x3a,0x0f,0x40,0x73,0x6b,0x69,0x70,0x70,0x61,0x62,0x6c,0x65,0x46,0x3a,0x0a,0x40,0x77,0x61,0x69,0x74,0x54,0x3a,0x0a,0x40,0x6c,0x69,0x73,0x74,0x5b,0x0b,0x6f,0x3a,0x15,0x52,0x50,0x47,0x3a,0x3a,0x4d,0x6f,0x76,0x65,0x43,0x6f,0x6d,0x6d,0x61,0x6e,0x64,0x07,0x3a,0x0a,0x40,0x63,0x6f,0x64,0x65,0x69,0x29,0x3a,0x10,0x40,0x70,0x61,0x72,0x61,0x6d,0x65,0x74,0x65,0x72,0x73,0x5b,0x00,0x6f,0x3b,0x0a,0x07,0x3b,0x0b,0x69,0x16,0x3b,0x0c,0x5b,0x00,0x6f,0x3b,0x0a,0x07,0x3b,0x0b,0x69,0x14,0x3b,0x0c,0x5b,0x06,0x69,0x08,0x6f,0x3b,0x0a,0x07,0x3b,0x0b,0x69,0x17,0x3b,0x0c,0x5b,0x00,0x6f,0x3b,0x0a,0x07,0x3b,0x0b,0x69,0x14,0x3b,0x0c,0x5b,0x06,0x69,0x08,0x6f,0x3b,0x0a,0x07,0x3b,0x0b,0x69,0x00,0x3b,0x0c,0x5b,0x00))
  ShowMessageFace("",0,0,2,1)
  ShowMessage("宝箱はミミック娘だった！")
  Battle(0,118,false,false)
  ChangeSelfSwitch("A",0)
  0()
 PAGE   2
  // condition: self-switch A is ON
  0()



EVENT   20
 PAGE   1
  // condition: switch 4 is ON
  // condition: variable 1021 >= 1
  If(1,1021,0,1,0)
   ShowMessageFace("iriasu_fc4",2,0,2,1)
   ShowMessage("【イリアス】")
   ShowMessage("はぁはぁ……")
   ShowMessage("ここを登れば、ようやく山頂ですよ……")
   ShowMessageFace("iriasu_fc4",2,0,2,2)
   ShowMessage("【イリアス】")
   ShowMessage("あなた達も気付いたようですが……")
   ShowMessage("山頂から、異様な力を感じます。")
   ShowMessageFace("iriasu_fc4",2,0,2,3)
   ShowMessage("【イリアス】")
   ShowMessage("そこで、あなた達に先を譲りましょう。")
   ShowMessage("何か良いことが起きるかもしれませんよ……")
   ShowMessageFace("alice_fc5",2,0,2,4)
   ShowMessage("【アリス】")
   ShowMessage("ふん……我々を先に行かせて、安全確認をさせる気だろう。")
   ShowMessage("貴様のこずるい魂胆など、お見通しだ。")
   ShowMessageFace("iriasu_fc4",2,0,2,5)
   ShowMessage("【イリアス】")
   ShowMessage("否定はしません……が、気になりませんか？")
   ShowMessageFace("ruka_fc1",0,0,2,6)
   ShowMessage("【ルカ】")
   ShowMessage("確かに……山頂に、何があるんだろう？")
   If(4,64,0)
    ShowMessageFace("pramia_fc1",0,0,2,7)
    ShowMessage("【プチ】")
    ShowMessage("こ、心の準備をしないと……")
    ShowMessage("いざという時、すぐに逃げられるようにね……")
    0()
   EndIf()
   EndEventProcessing()
   0()
  EndIf()
  If(1,1021,0,2,0)
   ShowMessageFace("iriasu_fc4",2,0,2,8)
   ShowMessage("【イリアス】")
   ShowMessage("ええ……事の成り行き、私も目にしました。")
   ShowMessage("グノーシスなどという熾天使、私は知りません。")
   ShowMessageFace("iriasu_fc4",2,0,2,9)
   ShowMessage("【イリアス】")
   ShowMessage("創世の女神が知らない熾天使など、存在するはずもない……")
   ShowMessage("だとすると、やはり別の並行世界から……")
   EndEventProcessing()
   0()
  EndIf()
  0()
 PAGE   2
  // condition: variable 1001 >= 16
  0()



EVENT   21
 PAGE   1
  // condition: switch 4 is ON
  // condition: variable 1021 >= 1
  If(1,1021,0,1,0)
   ShowMessageFace("dog_fc1",0,0,2,1)
   ShowMessage("【わんこ】")
   ShowMessage("あたし、まだまだ元気！　犬だもん！")
   ShowMessageFace("dog_fc1",0,0,2,2)
   ShowMessage("【わんこ】")
   ShowMessage("右の方にまっすぐ進むと、キラキラ光る鉱石があったよ！")
   ShowMessage("とってもキレイだったよ！")
   EndEventProcessing()
   0()
  EndIf()
  If(1,1021,0,2,0)
   205(0,bytes(0x04,0x08,0x6f,0x3a,0x13,0x52,0x50,0x47,0x3a,0x3a,0x4d,0x6f,0x76,0x65,0x52,0x6f,0x75,0x74,0x65,0x09,0x3a,0x0c,0x40,0x72,0x65,0x70,0x65,0x61,0x74,0x46,0x3a,0x0f,0x40,0x73,0x6b,0x69,0x70,0x70,0x61,0x62,0x6c,0x65,0x46,0x3a,0x0a,0x40,0x77,0x61,0x69,0x74,0x54,0x3a,0x0a,0x40,0x6c,0x69,0x73,0x74,0x5b,0x07,0x6f,0x3a,0x15,0x52,0x50,0x47,0x3a,0x3a,0x4d,0x6f,0x76,0x65,0x43,0x6f,0x6d,0x6d,0x61,0x6e,0x64,0x07,0x3a,0x0a,0x40,0x63,0x6f,0x64,0x65,0x69,0x27,0x3a,0x10,0x40,0x70,0x61,0x72,0x61,0x6d,0x65,0x74,0x65,0x72,0x73,0x5b,0x00,0x6f,0x3b,0x0a,0x07,0x3b,0x0b,0x69,0x00,0x3b,0x0c,0x5b,0x00))
   ShowMessageFace("dog_fc1",4,0,2,3)
   ShowMessage("【わんこ】")
   ShowMessage("……………………")
   ShowMessageFace("",0,0,2,4)
   ShowMessage("わんこは死んだふりをしている……")
   ShowMessage("グノーシスを遠目に見て度肝を抜かれたようだ。")
   EndEventProcessing()
   0()
  EndIf()
  0()
 PAGE   2
  // condition: variable 1001 >= 16
  0()



EVENT   18
 PAGE   1
  // condition: switch 4 is ON
  // condition: variable 1021 >= 1
  If(1,1021,0,1,0)
   ShowMessageFace("slime_fc1",2,0,2,1)
   ShowMessage("【ぷるこ】")
   ShowMessage("つかれたよぉ……")
   ShowMessage("おさかな、食べたいよぉ……")
   EndEventProcessing()
   0()
  EndIf()
  If(1,1021,0,2,0)
   ShowMessageFace("slime_fc1",2,0,2,2)
   ShowMessage("【ぷるこ】")
   ShowMessage("あんなのと戦ったら、死んじゃうよぉ……")
   ShowMessage("逃げる準備、しておかないと……")
   EndEventProcessing()
   0()
  EndIf()
  0()
 PAGE   2
  // condition: variable 1001 >= 16
  0()



EVENT   22
 PAGE   1
  // condition: variable 1021 >= 1
  ChangeSelfSwitch("A",0)
  If(0,4,0)
   ShowMessageFace("alice_fc5",1,0,2,1)
   ShowMessage("【アリス】")
   ShowMessage("この山に、ミスリル鉱石があるのだったな。")
   ShowMessage("さあ、さっさと登るぞ！")
   ShowMessageFace("alice_fc5",0,0,2,2)
   ShowMessage("【アリス】")
   ShowMessage("…………？")
   ShowMessage("山頂の方から、大きな力を感じるな……")
   ShowMessageFace("alice_fc6",0,0,2,3)
   ShowMessage("【アリス】")
   ShowMessage("この嫌な感じ、もしかして天使か……？")
   ShowMessage("だとすると、かなり高位の天使だぞ……")
   0()
  EndIf()
  If(0,5,0)
   ShowMessageFace("iriasu_fc4",0,0,2,4)
   ShowMessage("【イリアス】")
   ShowMessage("この山に、ミスリル鉱石があるのでしたね。")
   ShowMessage("さあ、登りましょう！")
   ShowMessageFace("iriasu_fc4",0,0,2,5)
   ShowMessage("【イリアス】")
   ShowMessage("また山頂で、天界と交信を……")
   ShowMessageFace("iriasu_fc4",2,0,2,6)
   ShowMessage("【イリアス】")
   ShowMessage("……なんでしょう、山頂から大きな力を感じます。")
   ShowMessage("しかもこの波動は……高位の天使のような……")
   0()
  EndIf()
  If(4,41,0)
   ShowMessageFace("stein_fc2",2,0,2,7)
   ShowMessage("【プロメスティン】")
   ShowMessage("ええ……若輩天使の私でさえ感じ取れます。")
   ShowMessage("羽根がビリビリしていますよ……")
   0()
  EndIf()
  ShowMessageFace("ruka_fc1",0,0,2,8)
  ShowMessage("【ルカ】")
  ShowMessage("山頂に、高位の天使が……？")
  ShowMessage("ミスリルを採った後、そっちも確認するべきだね。")
  0()
 PAGE   2
  // condition: self-switch A is ON
  0()



EVENT   23
 PAGE   1
  // condition: variable 1021 >= 1
  If(6,-1,2)
   ShowMessageFace("",0,0,2,1)
   ShowMessage("山頂で事態を確かめなければ……！")
   205(-1,bytes(0x04,0x08,0x6f,0x3a,0x13,0x52,0x50,0x47,0x3a,0x3a,0x4d,0x6f,0x76,0x65,0x52,0x6f,0x75,0x74,0x65,0x09,0x3a,0x0c,0x40,0x72,0x65,0x70,0x65,0x61,0x74,0x46,0x3a,0x0f,0x40,0x73,0x6b,0x69,0x70,0x70,0x61,0x62,0x6c,0x65,0x46,0x3a,0x0a,0x40,0x77,0x61,0x69,0x74,0x54,0x3a,0x0a,0x40,0x6c,0x69,0x73,0x74,0x5b,0x07,0x6f,0x3a,0x15,0x52,0x50,0x47,0x3a,0x3a,0x4d,0x6f,0x76,0x65,0x43,0x6f,0x6d,0x6d,0x61,0x6e,0x64,0x07,0x3a,0x0a,0x40,0x63,0x6f,0x64,0x65,0x69,0x09,0x3a,0x10,0x40,0x70,0x61,0x72,0x61,0x6d,0x65,0x74,0x65,0x72,0x73,0x5b,0x00,0x6f,0x3b,0x0a,0x07,0x3b,0x0b,0x69,0x00,0x3b,0x0c,0x5b,0x00))
   0()
  EndIf()
  0()
 PAGE   2
  // condition: variable 1021 >= 2
  0()



EVENT   24
 PAGE   1
  // condition: variable 1021 >= 1
  If(2,"A",1)
   ChangeSelfSwitch("A",0)
   ChangeSwitch(100,100,0)
   ChangeSwitch(2116,2116,1)
   ChangeRandomEncounterEnabled(0)
   223(bytes(0x04,0x08,0x75,0x3a,0x09,0x54,0x6f,0x6e,0x65,0x25,0x00,0x00,0x00,0x00,0x00,0x00,0x51,0xc0,0x00,0x00,0x00,0x00,0x00,0x00,0x51,0xc0,0x00,0x00,0x00,0x00,0x00,0x00,0x00,0x00,0x00,0x00,0x00,0x00,0x00,0x00,0x51,0x40),120,true)
   ShowMessageFace("ruka_fc1",0,0,2,1)
   ShowMessage("【ルカ】")
   ShowMessage("なんだ……！？　急に暗くなるなんて……！")
   If(4,66,0)
    ShowMessageFace("vgirl_fc1",2,0,2,2)
    ShowMessage("【ヴァニラ】")
    ShowMessage("な、なんなのだ！？")
    ShowMessage("どうなっているのだ……！？")
    0()
   EndIf()
   If(0,4,0)
    ShowMessageFace("alice_fc6",0,0,2,3)
    ShowMessage("【アリス】")
    ShowMessage("強力な魔力が、気候や天候にさえ影響を与えているのだ……")
    ShowMessage("いったい、山頂に何がいるというのだ？")
    If(4,41,0)
     ShowMessageFace("stein_fc2",2,0,2,4)
     ShowMessage("【プロメスティン】")
     ShowMessage("これ、熾天使級じゃないんですか……？")
     ShowMessage("地上に降臨するクラスじゃないですよ……！")
     0()
    EndIf()
    0()
   EndIf()
   If(0,5,0)
    ShowMessageFace("iriasu_fc4",7,0,2,5)
    ShowMessage("【イリアス】")
    ShowMessage("強力な魔力が、気候や天候にまで影響を及ぼしているのです。")
    ShowMessage("ここまでとなると、確実に熾天使クラスでしょう……")
    If(4,41,0)
     ShowMessageFace("stein_fc2",2,0,2,6)
     ShowMessage("【プロメスティン】")
     ShowMessage("そんなの、地上に降臨するクラスじゃないですよ……！")
     ShowMessage("いったい何の用があって、この山に……")
     0()
    EndIf()
    0()
   EndIf()
   If(4,118,0)
    ShowMessageFace("meia_fc1",3,0,2,7)
    ShowMessage("【メイア】")
    ShowMessage("山頂で食べようと、せっかくお弁当を作ってきたのに……")
    ShowMessage("真っ暗じゃ、景色も楽しめませんよね……")
    0()
   EndIf()
   0()
  EndIf()
  0()
 PAGE   2
  // condition: variable 1021 >= 2
  0()



EVENT   15
 PAGE   1
  250(bytes(0x04,0x08,0x6f,0x3a,0x0c,0x52,0x50,0x47,0x3a,0x3a,0x53,0x45,0x08,0x3a,0x0a,0x40,0x6e,0x61,0x6d,0x65,0x49,0x22,0x0a,0x43,0x68,0x65,0x73,0x74,0x06,0x3a,0x06,0x45,0x54,0x3a,0x0b,0x40,0x70,0x69,0x74,0x63,0x68,0x69,0x69,0x3a,0x0c,0x40,0x76,0x6f,0x6c,0x75,0x6d,0x65,0x69,0x55))
  205(0,bytes(0x04,0x08,0x6f,0x3a,0x13,0x52,0x50,0x47,0x3a,0x3a,0x4d,0x6f,0x76,0x65,0x52,0x6f,0x75,0x74,0x65,0x09,0x3a,0x0c,0x40,0x72,0x65,0x70,0x65,0x61,0x74,0x46,0x3a,0x0f,0x40,0x73,0x6b,0x69,0x70,0x70,0x61,0x62,0x6c,0x65,0x46,0x3a,0x0a,0x40,0x77,0x61,0x69,0x74,0x54,0x3a,0x0a,0x40,0x6c,0x69,0x73,0x74,0x5b,0x0b,0x6f,0x3a,0x15,0x52,0x50,0x47,0x3a,0x3a,0x4d,0x6f,0x76,0x65,0x43,0x6f,0x6d,0x6d,0x61,0x6e,0x64,0x07,0x3a,0x0a,0x40,0x63,0x6f,0x64,0x65,0x69,0x29,0x3a,0x10,0x40,0x70,0x61,0x72,0x61,0x6d,0x65,0x74,0x65,0x72,0x73,0x5b,0x00,0x6f,0x3b,0x0a,0x07,0x3b,0x0b,0x69,0x16,0x3b,0x0c,0x5b,0x00,0x6f,0x3b,0x0a,0x07,0x3b,0x0b,0x69,0x14,0x3b,0x0c,0x5b,0x06,0x69,0x08,0x6f,0x3b,0x0a,0x07,0x3b,0x0b,0x69,0x17,0x3b,0x0c,0x5b,0x00,0x6f,0x3b,0x0a,0x07,0x3b,0x0b,0x69,0x14,0x3b,0x0c,0x5b,0x06,0x69,0x08,0x6f,0x3b,0x0a,0x07,0x3b,0x0b,0x69,0x00,0x3b,0x0c,0x5b,0x00))
  ChangeSelfSwitch("A",0)
  ChangeInventory_Item(241,0,0,1)
  0()
 PAGE   2
  // condition: self-switch A is ON
  0()



EVENT   25
 PAGE   1
  // condition: variable 1021 >= 1
  ChangeSwitch(2116,2116,0)
  ChangeSwitch(100,100,1)
  ChangeRandomEncounterEnabled(1)
  241(bytes(0x04,0x08,0x6f,0x3a,0x0d,0x52,0x50,0x47,0x3a,0x3a,0x42,0x47,0x4d,0x08,0x3a,0x0a,0x40,0x6e,0x61,0x6d,0x65,0x49,0x22,0x0b,0x65,0x6e,0x72,0x69,0x6b,0x61,0x06,0x3a,0x06,0x45,0x54,0x3a,0x0c,0x40,0x76,0x6f,0x6c,0x75,0x6d,0x65,0x69,0x69,0x3a,0x0b,0x40,0x70,0x69,0x74,0x63,0x68,0x69,0x69))
  ShowMessageFace("micaela_fc1",5,0,2,1)
  ShowMessage("【？？？】")
  ShowMessage("う……ううっ……")
  ShowMessageFace("",0,0,2,2)
  ShowMessage("天使が倒れている。")
  ShowMessage("瀕死の重傷を負っているようだが――")
  ShowMessageFace("ruka_fc1",0,0,2,3)
  ShowMessage("【ルカ】")
  ShowMessage("そ、そんな……あの人は……")
  241(bytes(0x04,0x08,0x6f,0x3a,0x0d,0x52,0x50,0x47,0x3a,0x3a,0x42,0x47,0x4d,0x08,0x3a,0x0a,0x40,0x6e,0x61,0x6d,0x65,0x49,0x22,0x00,0x06,0x3a,0x06,0x45,0x54,0x3a,0x0c,0x40,0x76,0x6f,0x6c,0x75,0x6d,0x65,0x69,0x69,0x3a,0x0b,0x40,0x70,0x69,0x74,0x63,0x68,0x69,0x69))
  223(bytes(0x04,0x08,0x75,0x3a,0x09,0x54,0x6f,0x6e,0x65,0x25,0x00,0x00,0x00,0x00,0x00,0x00,0x00,0x00,0x00,0x00,0x00,0x00,0x00,0x00,0x00,0x00,0x00,0x00,0x00,0x00,0x00,0x00,0x00,0x00,0x00,0x00,0x00,0x00,0x00,0xe0,0x6f,0x40),30,true)
  Wait(30)
  250(bytes(0x04,0x08,0x6f,0x3a,0x0c,0x52,0x50,0x47,0x3a,0x3a,0x53,0x45,0x08,0x3a,0x0a,0x40,0x6e,0x61,0x6d,0x65,0x49,0x22,0x0e,0x6d,0x6f,0x6e,0x5f,0x6b,0x6f,0x64,0x6f,0x75,0x06,0x3a,0x06,0x45,0x54,0x3a,0x0b,0x40,0x70,0x69,0x74,0x63,0x68,0x69,0x69,0x3a,0x0c,0x40,0x76,0x6f,0x6c,0x75,0x6d,0x65,0x69,0x69))
  PictureDisplay(7,"80_micaela_st11",0,0,0,0,100,100,0,0)
  PictureMove(7,null,0,0,0,0,100,100,255,0,30,true)
  PictureMove(7,null,0,0,0,0,100,100,0,0,30,true)
  Wait(30)
  250(bytes(0x04,0x08,0x6f,0x3a,0x0c,0x52,0x50,0x47,0x3a,0x3a,0x53,0x45,0x08,0x3a,0x0a,0x40,0x6e,0x61,0x6d,0x65,0x49,0x22,0x0e,0x6d,0x6f,0x6e,0x5f,0x6b,0x6f,0x64,0x6f,0x75,0x06,0x3a,0x06,0x45,0x54,0x3a,0x0b,0x40,0x70,0x69,0x74,0x63,0x68,0x69,0x69,0x3a,0x0c,0x40,0x76,0x6f,0x6c,0x75,0x6d,0x65,0x69,0x69))
  PictureDisplay(7,"80_micaela_st21",0,0,0,0,100,100,0,0)
  PictureMove(7,null,0,0,0,0,100,100,255,0,30,true)
  PictureMove(7,null,0,0,0,0,100,100,0,0,30,true)
  223(bytes(0x04,0x08,0x75,0x3a,0x09,0x54,0x6f,0x6e,0x65,0x25,0x00,0x00,0x00,0x00,0x00,0x00,0x51,0xc0,0x00,0x00,0x00,0x00,0x00,0x00,0x51,0xc0,0x00,0x00,0x00,0x00,0x00,0x00,0x00,0x00,0x00,0x00,0x00,0x00,0x00,0x00,0x51,0x40),30,true)
  241(bytes(0x04,0x08,0x6f,0x3a,0x0d,0x52,0x50,0x47,0x3a,0x3a,0x42,0x47,0x4d,0x08,0x3a,0x0a,0x40,0x6e,0x61,0x6d,0x65,0x49,0x22,0x14,0x73,0x63,0x65,0x6e,0x65,0x5f,0x6b,0x61,0x6e,0x61,0x73,0x69,0x6d,0x69,0x34,0x06,0x3a,0x06,0x45,0x54,0x3a,0x0c,0x40,0x76,0x6f,0x6c,0x75,0x6d,0x65,0x69,0x69,0x3a,0x0b,0x40,0x70,0x69,0x74,0x63,0x68,0x69,0x69))
  ShowMessageFace("ruka_fc1",0,0,2,4)
  ShowMessage("【ルカ】")
  ShowMessage("ミカエラさん！？")
  If(0,4,0)
   ShowMessageFace("alice_fc6",0,0,2,5)
   ShowMessage("【アリス】")
   ShowMessage("ミカエラだと？　それは貴様の伯母の……")
   ShowMessage("いったい何があった、生命力が今にも消えそうだぞ！？")
   0()
  EndIf()
  If(0,5,0)
   ShowMessageFace("iriasu_fc4",5,0,2,6)
   ShowMessage("【イリアス】")
   ShowMessage("まさか、ミカエラ……？")
   ShowMessage("いったい、何があったのです……！？")
   0()
  EndIf()
  ShowMessageFace("micaela_fc1",5,0,2,7)
  ShowMessage("【ミカエラ】")
  ShowMessage("ルカ、なのですか……")
  ShowMessage("まさか、最期の時に会おうとは……")
  If(0,4,0)
   ShowMessageFace("alice_fc6",0,0,2,8)
   ShowMessage("【アリス】")
   ShowMessage("最高位の天使と見たが……")
   ShowMessage("いったい誰が、これほどの事を……")
   0()
  EndIf()
  If(0,5,0)
   ShowMessageFace("iriasu_fc4",5,0,2,9)
   ShowMessage("【イリアス】")
   ShowMessage("まさか、ミカエラをここまで……")
   ShowMessage("ありえません、いったい何者がこんな……")
   0()
  EndIf()
  ShowMessageFace("micaela_fc1",5,0,2,10)
  ShowMessage("【ミカエラ】")
  ShowMessage("油断してはいけません……")
  ShowMessage("奴は、まだここに……")
  ShowMessageFace("ruka_fc1",0,0,2,11)
  ShowMessage("【ルカ】")
  ShowMessage("えっ……！？")
  If(0,4,0)
   ShowMessageFace("alice_fc6",0,0,2,12)
   ShowMessage("【アリス】")
   ShowMessage("この気配……上か！")
   0()
  EndIf()
  If(0,5,0)
   ShowMessageFace("iriasu_fc4",7,0,2,13)
   ShowMessage("【イリアス】")
   ShowMessage("この気配……上です！")
   0()
  EndIf()
  ShowMessageFace("",0,0,2,14)
  ShowMessage("次の瞬間、真上から異様な気配がした。")
  ShowMessage("すぐさま空を仰ぎ見ると――")
  241(bytes(0x04,0x08,0x6f,0x3a,0x0d,0x52,0x50,0x47,0x3a,0x3a,0x42,0x47,0x4d,0x08,0x3a,0x0a,0x40,0x6e,0x61,0x6d,0x65,0x49,0x22,0x0c,0x62,0x6f,0x73,0x73,0x30,0x2d,0x32,0x06,0x3a,0x06,0x45,0x54,0x3a,0x0c,0x40,0x76,0x6f,0x6c,0x75,0x6d,0x65,0x69,0x69,0x3a,0x0b,0x40,0x70,0x69,0x74,0x63,0x68,0x69,0x69))
  PictureDisplay(5,"iv_gnosis1",0,0,0,0,100,100,0,0)
  PictureMove(5,null,0,0,0,0,100,100,255,0,30,true)
  ShowMessageFace("",0,0,2,15)
  ShowMessage("そこには、異形の天使が浮遊していた。")
  ShowMessage("周囲に立ちこめた強大な魔力は、この天使のものに違いない。")
  ShowMessageFace("ruka_fc1",0,0,2,16)
  ShowMessage("【ルカ】")
  ShowMessage("お、お前はいったい……")
  ShowMessageFace("gnosis_fc1",0,0,2,17)
  ShowMessage("【グノーシス】")
  ShowMessage("我は、熾天使グノーシス……")
  ShowMessage("罪人に天罰を下すのが、我が使命……")
  ShowMessageFace("",0,0,2,18)
  ShowMessage("熾天使グノーシス――")
  ShowMessage("確か前に船上で襲ってきたシオンとやらも、熾天使だったはず。")
  ShowMessageFace("ruka_fc1",0,0,2,19)
  ShowMessage("【ルカ】")
  ShowMessage("ミカエラさんをこんなにしたのは、お前か！！")
  ShowMessageFace("gnosis_fc1",0,0,2,20)
  ShowMessage("【グノーシス】")
  ShowMessage("半分は私だが……")
  ShowMessage("もう半分は、彼女がこの地上で暮らした日々。")
  ShowMessageFace("gnosis_fc1",0,0,2,21)
  ShowMessage("【グノーシス】")
  ShowMessage("汚れた大地で、自ら力を断っての長い暮らし……")
  ShowMessage("その日々が、強大であったはずの力を大幅に弱めたのだ。")
  ShowMessageFace("gnosis_fc1",0,0,2,22)
  ShowMessage("【グノーシス】")
  ShowMessage("全盛期の力であれば、私に勝ち目などなかったろう……")
  ShowMessage("なんとも惨めで、哀れなものだ。")
  If(0,4,0)
   ShowMessageFace("alice_fc6",1,0,2,23)
   ShowMessage("【アリス】")
   ShowMessage("なるほど……地上暮らしで弱った天使を倒して得意顔か！")
   ShowMessage("降りてこい、叩きのめしてくれるわ！")
   ShowMessageFace("gnosis_fc1",0,0,2,24)
   ShowMessage("【グノーシス】")
   ShowMessage("待て、少し試算する……")
   ShowMessageFace("gnosis_fc1",0,0,2,25)
   ShowMessage("【グノーシス】")
   ShowMessage("現在のルカおよび魔王の断界乖離26%――")
   ShowMessage("平均に比べて大きいものの、決定的段階には至らない。")
   ShowMessageFace("gnosis_fc1",0,0,2,26)
   ShowMessage("【グノーシス】")
   ShowMessage("全員を処刑した場合、第三種断界接触に該当――")
   ShowMessage("カオス化の進行率125%、浸食範囲67%増――")
   ShowMessageFace("gnosis_fc1",0,0,2,27)
   ShowMessage("【グノーシス】")
   ShowMessage("また1人はマルケルスの血統。")
   ShowMessage("この世界において、かの男の周辺が最も時空偏差が大きい――")
   ShowMessageFace("ruka_fc1",0,0,2,28)
   ShowMessage("【ルカ】")
   ShowMessage("マルケルス……？")
   ShowMessage("お前、父さんを知ってるのか……！？")
   ShowMessageFace("gnosis_fc1",0,0,2,29)
   ShowMessage("【グノーシス】")
   ShowMessage("……リスクが大きすぎる。お前達は処刑できない。")
   ShowMessage("まだお前達は、歴史に沿って動いているのだから。")
   ShowMessageFace("alice_fc6",1,0,2,30)
   ShowMessage("【アリス】")
   ShowMessage("なんだと、どういう事だ！？")
   ShowMessageFace("gnosis_fc1",0,0,2,31)
   ShowMessage("【グノーシス】")
   ShowMessage("神の導きに従い、慎ましく生きるがいい。")
   ShowMessage("歴史の流れから逸れた時、我々が裁きに現れよう……")
   0()
  EndIf()
  If(0,5,0)
   ShowMessageFace("iriasu_fc4",7,0,2,32)
   ShowMessage("【イリアス】")
   ShowMessage("いかに下界暮らしが長く、衰弱したミカエラといえども……")
   ShowMessage("そこらの天使がどうこうできる相手ではないはず……")
   ShowMessageFace("iriasu_fc4",7,0,2,33)
   ShowMessage("【イリアス】")
   ShowMessage("それに、熾天使グノーシスなど私は知りません。")
   ShowMessage("あなたは、別の並行世界から来た熾天使ですね……？")
   ShowMessageFace("gnosis_fc1",0,0,2,34)
   ShowMessage("【グノーシス】")
   ShowMessage("イリアス様……")
   ShowMessage("今しばらく、お力になれない事をお許し下さい。")
   ShowMessageFace("gnosis_fc1",0,0,2,35)
   ShowMessage("【グノーシス】")
   ShowMessage("その時が来れば、必ず御身の力となりましょう。")
   ShowMessage("それまで、しばし失礼致します……")
   0()
  EndIf()
  ShowMessageFace("ruka_fc1",0,0,2,36)
  ShowMessage("【ルカ】")
  ShowMessage("おい、待て……！")
  250(bytes(0x04,0x08,0x6f,0x3a,0x0c,0x52,0x50,0x47,0x3a,0x3a,0x53,0x45,0x08,0x3a,0x0a,0x40,0x6e,0x61,0x6d,0x65,0x49,0x22,0x0d,0x6d,0x6f,0x6e,0x5f,0x77,0x61,0x72,0x70,0x06,0x3a,0x06,0x45,0x54,0x3a,0x0b,0x40,0x70,0x69,0x74,0x63,0x68,0x69,0x69,0x3a,0x0c,0x40,0x76,0x6f,0x6c,0x75,0x6d,0x65,0x69,0x69))
  PictureClear(5)
  223(bytes(0x04,0x08,0x75,0x3a,0x09,0x54,0x6f,0x6e,0x65,0x25,0x00,0x00,0x00,0x00,0x00,0x00,0x00,0x00,0x00,0x00,0x00,0x00,0x00,0x00,0x00,0x00,0x00,0x00,0x00,0x00,0x00,0x00,0x00,0x00,0x00,0x00,0x00,0x00,0x00,0x00,0x00,0x00),30,false)
  ShowMessageFace("",0,0,2,37)
  ShowMessage("グノーシスはその場から消えた……")
  ShowMessage("同時に、周囲に張り詰めていた魔力も消え失せてしまう。")
  If(0,4,0)
   ShowMessageFace("alice_fc6",0,0,2,38)
   ShowMessage("【アリス】")
   ShowMessage("なんなのだ、あいつは！")
   ShowMessage("訳の分からない事を並べて、結局逃げるとは……！")
   0()
  EndIf()
  If(0,5,0)
   ShowMessageFace("iriasu_fc4",2,0,2,39)
   ShowMessage("【イリアス】")
   ShowMessage("あれが、別の並行世界から現れた熾天使……")
   ShowMessage("いったい、どうやってこの世界に……")
   0()
  EndIf()
  241(bytes(0x04,0x08,0x6f,0x3a,0x0d,0x52,0x50,0x47,0x3a,0x3a,0x42,0x47,0x4d,0x08,0x3a,0x0a,0x40,0x6e,0x61,0x6d,0x65,0x49,0x22,0x14,0x73,0x63,0x65,0x6e,0x65,0x5f,0x6b,0x61,0x6e,0x61,0x73,0x69,0x6d,0x69,0x33,0x06,0x3a,0x06,0x45,0x54,0x3a,0x0c,0x40,0x76,0x6f,0x6c,0x75,0x6d,0x65,0x69,0x69,0x3a,0x0b,0x40,0x70,0x69,0x74,0x63,0x68,0x69,0x69))
  ShowMessageFace("micaela_fc1",5,0,2,40)
  ShowMessage("【ミカエラ】")
  ShowMessage("奴は去りましたか……")
  ShowMessage("よかった……今のあなた達では、勝ち目など……")
  If(0,6,0)
   ShowMessageFace("ruka_fc1",0,0,2,41)
   ShowMessage("【ルカ】")
   ShowMessage("ミカエラさん、しっかり……！")
   ShowMessage("ソニア、回復をお願い！")
   ShowMessageFace("sonia_fc2",4,0,2,42)
   ShowMessage("【ソニア】")
   ShowMessage("すでに回復魔法を使ってるんだけど……")
   ShowMessage("全然効かなくて……")
   0()
  Else()
   ShowMessageFace("ruka_fc1",0,0,2,43)
   ShowMessage("【ルカ】")
   ShowMessage("ミカエラさん、しっかり……！")
   ShowMessage("今、回復します！")
   0()
  EndIf()
  If(4,118,0)
   ShowMessageFace("meia_fc1",3,0,2,44)
   ShowMessage("【メイア】")
   ShowMessage("なんてこと……")
   ShowMessage("人魚の癒しの力さえ、受け付けないなんて……")
   0()
  EndIf()
  If(4,72,0)
   ShowMessageFace("phoenix_fc1",5,0,2,45)
   ShowMessage("【ミニ】")
   ShowMessage("あたしの尻尾、全部むしってもいいのだ！")
   ShowMessage("だから、死んじゃダメなのだ！")
   0()
  EndIf()
  ShowMessageFace("micaela_fc1",5,0,2,46)
  ShowMessage("【ミカエラ】")
  ShowMessage("無駄です……")
  ShowMessage("すでにこの体は、生命力のほとんどを失っていますから……")
  If(0,6,0)
   ShowMessageFace("sonia_fc2",2,0,2,47)
   ShowMessage("【ソニア】")
   ShowMessage("そ、そんな……何もできないなんて……")
   0()
  EndIf()
  ShowMessageFace("micaela_fc1",5,0,2,48)
  ShowMessage("【ミカエラ】")
  ShowMessage("ひとつ、心残りがあります……")
  ShowMessage("ルカ、あなたに何もしてやれなかったこと……")
  ShowMessageFace("ruka_fc1",0,0,2,49)
  ShowMessage("【ルカ】")
  ShowMessage("……………………")
  ShowMessageFace("micaela_fc1",5,0,2,50)
  ShowMessage("【ミカエラ】")
  ShowMessage("せめて、残された最期の力で……")
  ShowMessage("あなたに、勇者としての力を……")
  ShowMessageFace("",0,0,2,51)
  ShowMessage("ミカエラは手を差し伸べ、僕の掌に重ねた。")
  ShowMessage("その瞬間、温かな力が体に流れ込んでくる――")
  250(bytes(0x04,0x08,0x6f,0x3a,0x0c,0x52,0x50,0x47,0x3a,0x3a,0x53,0x45,0x08,0x3a,0x0a,0x40,0x6e,0x61,0x6d,0x65,0x49,0x22,0x0b,0x53,0x61,0x69,0x6e,0x74,0x37,0x06,0x3a,0x06,0x45,0x54,0x3a,0x0b,0x40,0x70,0x69,0x74,0x63,0x68,0x69,0x69,0x3a,0x0c,0x40,0x76,0x6f,0x6c,0x75,0x6d,0x65,0x69,0x55))
  ChangeInventory_Item(621,0,0,1)
  If(12,"actor_class_level_over?(1, 142, 1)")
   0()
  Else()
   355("set_class_level(1, 1, 10, false, false)")
   355("set_class_level(1, 141, 10, false, false)")
   355("set_class_level(1, 142, 1, false, true)")
   0()
  EndIf()
  ShowMessageFace("",0,0,2,52)
  ShowMessage("ルカは勇者に転職した！")
  ShowMessageFace("ruka_fc1",0,0,2,53)
  ShowMessage("【ルカ】")
  ShowMessage("こ、これは……")
  ShowMessage("この力は……")
  ShowMessageFace("",0,0,2,54)
  ShowMessage("温かな力と共に、ミカエラの強い意志が流れ込んでくる。")
  ShowMessage("いや、僕の中に受け継がれていく――")
  If(0,4,0)
   ShowMessageFace("alice_fc6",0,0,2,55)
   ShowMessage("【アリス】")
   ShowMessage("まさか、これは洗礼か……？")
   ShowMessage("女神イリアスにしか使えないはずの、聖素循環の力……！")
   0()
  EndIf()
  If(0,5,0)
   ShowMessageFace("iriasu_fc4",6,0,2,56)
   ShowMessage("【イリアス】")
   ShowMessage("洗礼ですか……")
   ShowMessage("ミカエラ、あなたは最期の力でルカを勇者に……")
   0()
  EndIf()
  ShowMessageFace("micaela_fc1",5,0,2,57)
  ShowMessage("【ミカエラ】")
  ShowMessage("私にできる事は、ここまでです……")
  ShowMessage("ルカ……どうか、世界を……")
  241(bytes(0x04,0x08,0x6f,0x3a,0x0d,0x52,0x50,0x47,0x3a,0x3a,0x42,0x47,0x4d,0x08,0x3a,0x0a,0x40,0x6e,0x61,0x6d,0x65,0x49,0x22,0x00,0x06,0x3a,0x06,0x45,0x54,0x3a,0x0c,0x40,0x76,0x6f,0x6c,0x75,0x6d,0x65,0x69,0x69,0x3a,0x0b,0x40,0x70,0x69,0x74,0x63,0x68,0x69,0x69))
  ShowMessageFace("micaela_fc1",5,0,2,58)
  ShowMessage("【ミカエラ】")
  ShowMessage("……………………")
  205(0,bytes(0x04,0x08,0x6f,0x3a,0x13,0x52,0x50,0x47,0x3a,0x3a,0x4d,0x6f,0x76,0x65,0x52,0x6f,0x75,0x74,0x65,0x09,0x3a,0x0c,0x40,0x72,0x65,0x70,0x65,0x61,0x74,0x46,0x3a,0x0f,0x40,0x73,0x6b,0x69,0x70,0x70,0x61,0x62,0x6c,0x65,0x46,0x3a,0x0a,0x40,0x77,0x61,0x69,0x74,0x54,0x3a,0x0a,0x40,0x6c,0x69,0x73,0x74,0x5b,0x07,0x6f,0x3a,0x15,0x52,0x50,0x47,0x3a,0x3a,0x4d,0x6f,0x76,0x65,0x43,0x6f,0x6d,0x6d,0x61,0x6e,0x64,0x07,0x3a,0x0a,0x40,0x63,0x6f,0x64,0x65,0x69,0x2c,0x3a,0x10,0x40,0x70,0x61,0x72,0x61,0x6d,0x65,0x74,0x65,0x72,0x73,0x5b,0x00,0x6f,0x3b,0x0a,0x07,0x3b,0x0b,0x69,0x00,0x3b,0x0c,0x5b,0x00))
  ChangeVariable(1021,1021,0,0,2)
  ShowMessageFace("",0,0,2,59)
  ShowMessage("ミカエラは力尽きた……")
  ShowMessage("その体は光の粒子となって消えていく……")
  ShowMessageFace("ruka_fc1",0,0,2,60)
  ShowMessage("【ルカ】")
  ShowMessage("ミカエラさん……")
  If(0,4,0)
   ShowMessageFace("alice_fc5",3,0,2,61)
   ShowMessage("【アリス】")
   ShowMessage("……………………")
   0()
  EndIf()
  If(0,5,0)
   ShowMessageFace("iriasu_fc4",6,0,2,62)
   ShowMessage("【イリアス】")
   ShowMessage("ミカエラ……")
   0()
  EndIf()
  ShowMessageFace("",0,0,2,63)
  ShowMessage("目の前で、ミカエラが死んだ――")
  ShowMessage("その悲しみと無力感が、胸に広がっていく。")
  241(bytes(0x04,0x08,0x6f,0x3a,0x0d,0x52,0x50,0x47,0x3a,0x3a,0x42,0x47,0x4d,0x08,0x3a,0x0a,0x40,0x6e,0x61,0x6d,0x65,0x49,0x22,0x14,0x73,0x63,0x65,0x6e,0x65,0x5f,0x65,0x70,0x69,0x6c,0x6f,0x67,0x75,0x65,0x33,0x06,0x3a,0x06,0x45,0x54,0x3a,0x0c,0x40,0x76,0x6f,0x6c,0x75,0x6d,0x65,0x69,0x69,0x3a,0x0b,0x40,0x70,0x69,0x74,0x63,0x68,0x69,0x69))
  ShowMessageFace("",0,0,2,64)
  ShowMessage("だが、この胸にあるのは悲しみだけじゃない――")
  If(0,6,0)
   ShowMessageFace("sonia_fc3",7,0,2,65)
   ShowMessage("【ソニア】")
   ShowMessage("ルカ、大丈夫？")
   ShowMessage("ここでしばらく休んでいく……？")
   If(4,79,0)
    ShowMessageFace("nuruko_fc1",0,0,2,66)
    ShowMessage("【ヌルコ】")
    ShowMessage("きゅ……きゅきゅ……")
    0()
   EndIf()
   ShowMessageFace("ruka_fc1",0,0,2,67)
   ShowMessage("【ルカ】")
   ShowMessage("……いや、大丈夫だよ。")
   ShowMessage("ミカエラさんから、大切なものを受け取ったから。")
   0()
  Else()
   ShowMessageFace("ruka_fc1",0,0,2,68)
   ShowMessage("【ルカ】")
   ShowMessage("……………………")
   0()
  EndIf()
  ShowMessageFace("",0,0,2,69)
  ShowMessage("これまで僕は、ずっと勇者に憧れていた。")
  ShowMessage("無邪気に、ただ童心のままに勇者になりたいと願っていた。")
  ShowMessageFace("",0,0,2,70)
  ShowMessage("しかし勇者の力を手にした今、その重みがありありと分かる。")
  ShowMessage("これは、ミカエラさんが命と引き替えに託してくれた力なのだ。")
  ShowMessageFace("",0,0,2,71)
  ShowMessage("そしてミカエラさんが託したのは、力だけではない。")
  ShowMessage("信念と希望、そして世界を守る意志――")
  ShowMessageFace("ruka_fc1",0,0,2,72)
  ShowMessage("【ルカ】")
  ShowMessage("ミカエラさん、安らかに眠って下さい。")
  ShowMessage("僕は、その想いに恥じない勇者になります！")
  ShowMessageFace("",0,0,2,73)
  ShowMessage("受け継がれた力と、そして想い。")
  ShowMessage("僕には、またひとつ倒れられない理由が出来たのだった。")
  355("gain_medal(20)")
  241(bytes(0x04,0x08,0x6f,0x3a,0x0d,0x52,0x50,0x47,0x3a,0x3a,0x42,0x47,0x4d,0x08,0x3a,0x0a,0x40,0x6e,0x61,0x6d,0x65,0x49,0x22,0x14,0x73,0x63,0x65,0x6e,0x65,0x5f,0x65,0x70,0x69,0x6c,0x6f,0x67,0x75,0x65,0x32,0x06,0x3a,0x06,0x45,0x54,0x3a,0x0c,0x40,0x76,0x6f,0x6c,0x75,0x6d,0x65,0x69,0x69,0x3a,0x0b,0x40,0x70,0x69,0x74,0x63,0x68,0x69,0x69))
  If(0,4,0)
   ShowMessageFace("alice_fc5",3,0,2,74)
   ShowMessage("【アリス】")
   ShowMessage("またひとつ強くなったな、ルカ……")
   ShowMessage("貴様は、人の想いを抱えて強くなるのかもしれん。")
   0()
  EndIf()
  If(0,5,0)
   ShowMessageFace("iriasu_fc4",2,0,2,75)
   ShowMessage("【イリアス】")
   ShowMessage("あなたは、人の想いを受け継いで強くなるのですね。")
   ShowMessage("それが、あなたの力の源……")
   0()
  EndIf()
  If(0,6,0)
   ShowMessageFace("sonia_fc1",4,0,2,76)
   ShowMessage("【ソニア】")
   ShowMessage("辛いときは私に頼ってよね、ルカ。")
   ShowMessage("いくらでも力になるから……")
   0()
  EndIf()
  If(0,4,0)
   ShowMessageFace("alice_fc5",0,0,2,77)
   ShowMessage("【アリス】")
   ShowMessage("しかし、なぜ同じ天使のはずのグノーシスがミカエラを……")
   ShowMessageFace("alice_fc5",0,0,2,78)
   ShowMessage("【アリス】")
   ShowMessage("それに、ルカ……貴様はミカエラと面識がなかったはず。")
   ShowMessage("なぜ、一目で分かったのだ？")
   0()
  EndIf()
  If(0,5,0)
   ShowMessageFace("iriasu_fc4",2,0,2,79)
   ShowMessage("【イリアス】")
   ShowMessage("しかし、なぜグノーシスとやらが同じ熾天使のミカエラを……")
   ShowMessageFace("iriasu_fc4",2,0,2,80)
   ShowMessage("【イリアス】")
   ShowMessage("それにルカ、あなたはミカエラと面識がないはず。")
   ShowMessage("なぜ一目で彼女だと分かったのですか？")
   0()
  EndIf()
  ShowMessageFace("ruka_fc1",0,0,2,81)
  ShowMessage("【ルカ】")
  ShowMessage("……知ってる感じがしたんだ。")
  ShowMessage("一瞬、目の前に色々な光景が浮かんで……")
  If(0,4,0)
   ShowMessageFace("alice_fc5",3,0,2,82)
   ShowMessage("【アリス】")
   ShowMessage("なにか精神的な繋がりがあったのか……")
   ShowMessage("それとも、並行世界を行き来できる力が絡んで……")
   0()
  EndIf()
  If(0,5,0)
   ShowMessageFace("iriasu_fc4",2,0,2,83)
   ShowMessage("【イリアス】")
   ShowMessage("精神的な繋がりによるものとは思えません。")
   ShowMessage("やはり、並行世界を知覚できる力が根底にあるのでは……")
   0()
  EndIf()
  ShowMessageFace("ruka_fc1",0,0,2,84)
  ShowMessage("【ルカ】")
  ShowMessage("とにかく、行こう！")
  ShowMessage("まだまだやる事が山積みなんだからね！")
  ShowMessageFace("",0,0,2,85)
  ShowMessage("ミカエラから受け継いだ想い。")
  ShowMessage("それは、この世界を救うこと。")
  ShowMessageFace("",0,0,2,86)
  ShowMessage("僕はその信念と、そのための力を託された。")
  ShowMessage("悲しみをも胸に、前に歩き出さなければいけない――")
  ShowMessageFace("",0,0,2,87)
  ShowMessage("冒険はまだまだ続く。")
  ShowMessage("僕は、さらなる一歩を踏み出した！")
  241(bytes(0x04,0x08,0x6f,0x3a,0x0d,0x52,0x50,0x47,0x3a,0x3a,0x42,0x47,0x4d,0x08,0x3a,0x0a,0x40,0x6e,0x61,0x6d,0x65,0x49,0x22,0x13,0x64,0x75,0x6e,0x67,0x65,0x6f,0x6e,0x5f,0x73,0x65,0x69,0x7a,0x61,0x6e,0x06,0x3a,0x06,0x45,0x54,0x3a,0x0c,0x40,0x76,0x6f,0x6c,0x75,0x6d,0x65,0x69,0x69,0x3a,0x0b,0x40,0x70,0x69,0x74,0x63,0x68,0x69,0x69))
  0()
 PAGE   2
  // condition: variable 1021 >= 2
  0()



EVENT   26
 PAGE   1
  // condition: switch 2116 is ON
  // condition: variable 1041 >= 2
  // condition: party contains actor #56
  ChangeVariable(1041,1041,0,0,3)
  217()
  205(-1,bytes(0x04,0x08,0x6f,0x3a,0x13,0x52,0x50,0x47,0x3a,0x3a,0x4d,0x6f,0x76,0x65,0x52,0x6f,0x75,0x74,0x65,0x09,0x3a,0x0c,0x40,0x72,0x65,0x70,0x65,0x61,0x74,0x46,0x3a,0x0f,0x40,0x73,0x6b,0x69,0x70,0x70,0x61,0x62,0x6c,0x65,0x46,0x3a,0x0a,0x40,0x77,0x61,0x69,0x74,0x54,0x3a,0x0a,0x40,0x6c,0x69,0x73,0x74,0x5b,0x07,0x6f,0x3a,0x15,0x52,0x50,0x47,0x3a,0x3a,0x4d,0x6f,0x76,0x65,0x43,0x6f,0x6d,0x6d,0x61,0x6e,0x64,0x07,0x3a,0x0a,0x40,0x63,0x6f,0x64,0x65,0x69,0x18,0x3a,0x10,0x40,0x70,0x61,0x72,0x61,0x6d,0x65,0x74,0x65,0x72,0x73,0x5b,0x00,0x6f,0x3b,0x0a,0x07,0x3b,0x0b,0x69,0x00,0x3b,0x0c,0x5b,0x00))
  TeleportEvent(27,0,32,4,0)
  205(27,bytes(0x04,0x08,0x6f,0x3a,0x13,0x52,0x50,0x47,0x3a,0x3a,0x4d,0x6f,0x76,0x65,0x52,0x6f,0x75,0x74,0x65,0x09,0x3a,0x0c,0x40,0x72,0x65,0x70,0x65,0x61,0x74,0x46,0x3a,0x0f,0x40,0x73,0x6b,0x69,0x70,0x70,0x61,0x62,0x6c,0x65,0x46,0x3a,0x0a,0x40,0x77,0x61,0x69,0x74,0x54,0x3a,0x0a,0x40,0x6c,0x69,0x73,0x74,0x5b,0x08,0x6f,0x3a,0x15,0x52,0x50,0x47,0x3a,0x3a,0x4d,0x6f,0x76,0x65,0x43,0x6f,0x6d,0x6d,0x61,0x6e,0x64,0x07,0x3a,0x0a,0x40,0x63,0x6f,0x64,0x65,0x69,0x08,0x3a,0x10,0x40,0x70,0x61,0x72,0x61,0x6d,0x65,0x74,0x65,0x72,0x73,0x5b,0x00,0x6f,0x3b,0x0a,0x07,0x3b,0x0b,0x69,0x18,0x3b,0x0c,0x5b,0x00,0x6f,0x3b,0x0a,0x07,0x3b,0x0b,0x69,0x00,0x3b,0x0c,0x5b,0x00))
  281(1)
  ShowMessageFace("",0,0,2,1)
  ShowMessage("ラミが空を飛ぶ練習をするため、山頂に来たのだが――")
  ShowMessageFace("inp_fc1",3,0,2,2)
  ShowMessage("【ラミ】")
  ShowMessage("ねぇ……高すぎて、地面が見えないんだけど……")
  If(0,4,0)
   ShowMessageFace("alice_fc5",0,0,2,3)
   ShowMessage("【アリス】")
   ShowMessage("まあ、死にはせんだろ……たぶん。")
   ShowMessage("もしもの事があっても、ここは天国に最も近い山だしな。")
   0()
  EndIf()
  If(0,5,0)
   ShowMessageFace("iriasu_fc4",1,0,2,4)
   ShowMessage("【イリアス】")
   ShowMessage("身を捨ててこそ浮かぶ瀬もあれ……")
   ShowMessage("さあ、私を信じて飛ぶのです。")
   0()
  EndIf()
  If(4,41,0)
   ShowMessageFace("stein_fc2",0,0,2,5)
   ShowMessage("【プロメスティン】")
   ShowMessage("マグヌス効果を利用するといいでしょう。")
   ShowMessage("落下中、なるべく回転する事を心掛けて下さい。")
   0()
  EndIf()
  ShowMessageFace("inp_fc1",3,0,2,6)
  ShowMessage("【ラミ】")
  ShowMessage("ここで逃げちゃ、ずっと飛べないままだよね！")
  ShowMessage("それじゃあ、行くよ！！")
  ShowMessageFace("",0,0,2,7)
  ShowMessage("ラミは覚悟を決めた！")
  ShowMessageFace("inp_fc1",2,0,2,8)
  ShowMessage("【ラミ】")
  ShowMessage("や～～っ！！")
  250(bytes(0x04,0x08,0x6f,0x3a,0x0c,0x52,0x50,0x47,0x3a,0x3a,0x53,0x45,0x08,0x3a,0x0a,0x40,0x6e,0x61,0x6d,0x65,0x49,0x22,0x0e,0x6d,0x6f,0x6e,0x5f,0x66,0x61,0x6c,0x6c,0x31,0x06,0x3a,0x06,0x45,0x54,0x3a,0x0b,0x40,0x70,0x69,0x74,0x63,0x68,0x69,0x69,0x3a,0x0c,0x40,0x76,0x6f,0x6c,0x75,0x6d,0x65,0x69,0x55))
  205(27,bytes(0x04,0x08,0x6f,0x3a,0x13,0x52,0x50,0x47,0x3a,0x3a,0x4d,0x6f,0x76,0x65,0x52,0x6f,0x75,0x74,0x65,0x09,0x3a,0x0c,0x40,0x72,0x65,0x70,0x65,0x61,0x74,0x46,0x3a,0x0f,0x40,0x73,0x6b,0x69,0x70,0x70,0x61,0x62,0x6c,0x65,0x46,0x3a,0x0a,0x40,0x77,0x61,0x69,0x74,0x54,0x3a,0x0a,0x40,0x6c,0x69,0x73,0x74,0x5b,0x08,0x6f,0x3a,0x15,0x52,0x50,0x47,0x3a,0x3a,0x4d,0x6f,0x76,0x65,0x43,0x6f,0x6d,0x6d,0x61,0x6e,0x64,0x07,0x3a,0x0a,0x40,0x63,0x6f,0x64,0x65,0x69,0x13,0x3a,0x10,0x40,0x70,0x61,0x72,0x61,0x6d,0x65,0x74,0x65,0x72,0x73,0x5b,0x07,0x69,0x00,0x69,0xfa,0x6f,0x3b,0x0a,0x07,0x3b,0x0b,0x69,0x2c,0x3b,0x0c,0x5b,0x00,0x6f,0x3b,0x0a,0x07,0x3b,0x0b,0x69,0x00,0x3b,0x0c,0x5b,0x00))
  If(0,4,0)
   ShowMessageFace("alice_fc5",0,0,2,9)
   ShowMessage("【アリス】")
   ShowMessage("ただ落ちているだけだな……やっぱりダメか。")
   If(4,41,0)
    ShowMessageFace("stein_fc2",1,0,2,10)
    ShowMessage("【プロメスティン】")
    ShowMessage("見事な自由落下です。")
    ShowMessage("そろそろ終端速度に達しますね……")
    0()
   EndIf()
   0()
  EndIf()
  If(0,5,0)
   If(4,41,0)
    ShowMessageFace("iriasu_fc4",1,0,2,11)
    ShowMessage("【イリアス】")
    ShowMessage("見てごらんなさい、プロメスティン。")
    ShowMessage("あなたの好きな自由落下ですよ。")
    ShowMessageFace("stein_fc2",1,0,2,12)
    ShowMessage("【プロメスティン】")
    ShowMessage("ええ、そろそろ終端速度に達しますね……")
    0()
   Else()
    ShowMessageFace("iriasu_fc4",1,0,2,13)
    ShowMessage("【イリアス】")
    ShowMessage("まったくもって自由落下ですね。")
    ShowMessage("ほら、そろそろ終端速度に達しますよ……")
    0()
   EndIf()
   0()
  EndIf()
  ShowMessageFace("ruka_fc1",0,0,2,14)
  ShowMessage("【ルカ】")
  ShowMessage("……………………")
  250(bytes(0x04,0x08,0x6f,0x3a,0x0c,0x52,0x50,0x47,0x3a,0x3a,0x53,0x45,0x08,0x3a,0x0a,0x40,0x6e,0x61,0x6d,0x65,0x49,0x22,0x0d,0x6d,0x6f,0x6e,0x5f,0x62,0x6f,0x6d,0x32,0x06,0x3a,0x06,0x45,0x54,0x3a,0x0b,0x40,0x70,0x69,0x74,0x63,0x68,0x69,0x69,0x3a,0x0c,0x40,0x76,0x6f,0x6c,0x75,0x6d,0x65,0x69,0x55))
  If(0,4,0)
   ShowMessageFace("alice_fc5",0,0,2,15)
   ShowMessage("【アリス】")
   ShowMessage("では、拾いに行くか……")
   0()
  EndIf()
  If(0,5,0)
   ShowMessageFace("iriasu_fc4",0,0,2,16)
   ShowMessage("【イリアス】")
   ShowMessage("さて、回収しましょうか……")
   0()
  EndIf()
  221()
  Wait(60)
  TeleportPlayer(0,645,35,95,4,2)
  TeleportEvent(27,0,34,95,6)
  205(27,bytes(0x04,0x08,0x6f,0x3a,0x13,0x52,0x50,0x47,0x3a,0x3a,0x4d,0x6f,0x76,0x65,0x52,0x6f,0x75,0x74,0x65,0x09,0x3a,0x0c,0x40,0x72,0x65,0x70,0x65,0x61,0x74,0x46,0x3a,0x0f,0x40,0x73,0x6b,0x69,0x70,0x70,0x61,0x62,0x6c,0x65,0x46,0x3a,0x0a,0x40,0x77,0x61,0x69,0x74,0x54,0x3a,0x0a,0x40,0x6c,0x69,0x73,0x74,0x5b,0x07,0x6f,0x3a,0x15,0x52,0x50,0x47,0x3a,0x3a,0x4d,0x6f,0x76,0x65,0x43,0x6f,0x6d,0x6d,0x61,0x6e,0x64,0x07,0x3a,0x0a,0x40,0x63,0x6f,0x64,0x65,0x69,0x2d,0x3a,0x10,0x40,0x70,0x61,0x72,0x61,0x6d,0x65,0x74,0x65,0x72,0x73,0x5b,0x00,0x6f,0x3b,0x0a,0x07,0x3b,0x0b,0x69,0x00,0x3b,0x0c,0x5b,0x00))
  222()
  ShowMessageFace("inp_fc1",2,0,2,17)
  ShowMessage("【ラミ】")
  ShowMessage("わ～ん、いたいよ～！")
  ShowMessage("ツノがちょっと欠けちゃった～！")
  ShowMessageFace("inp_fc1",1,0,2,18)
  ShowMessage("【ラミ】")
  ShowMessage("でもおっぱいがクッションになって、ボディは無傷！")
  318(0,56,0,545)
  250(bytes(0x04,0x08,0x6f,0x3a,0x0c,0x52,0x50,0x47,0x3a,0x3a,0x53,0x45,0x08,0x3a,0x0a,0x40,0x6e,0x61,0x6d,0x65,0x49,0x22,0x0a,0x49,0x74,0x65,0x6d,0x31,0x06,0x3a,0x06,0x45,0x54,0x3a,0x0b,0x40,0x70,0x69,0x74,0x63,0x68,0x69,0x69,0x3a,0x0c,0x40,0x76,0x6f,0x6c,0x75,0x6d,0x65,0x69,0x55))
  ShowMessageFace("",0,0,2,19)
  ShowMessage("ラミは\\I[98]\\C[1]防御力20%アップ\\C[0]を修得した！")
  If(0,4,0)
   ShowMessageFace("alice_fc5",0,0,2,20)
   ShowMessage("【アリス】")
   ShowMessage("飛べないまま、だんだん頑丈になっていくな……")
   ShowMessage("いったい何を鍛えているのだか分からんぞ。")
   0()
  EndIf()
  If(0,5,0)
   ShowMessageFace("iriasu_fc4",2,0,2,21)
   ShowMessage("【イリアス】")
   ShowMessage("空は飛べないのに、体は頑丈になっていきますね……")
   ShowMessage("いったい何を鍛えているのやら。")
   0()
  EndIf()
  ShowMessageFace("ruka_fc1",0,0,2,22)
  ShowMessage("【ルカ】")
  ShowMessage("ここでダメなら、もっと高い山で挑んでみる？")
  ShowMessageFace("inp_fc1",0,0,2,23)
  ShowMessage("【ラミ】")
  ShowMessage("身投げ上等！　ガンガン行くよ！")
  If(0,4,0)
   ShowMessageFace("alice_fc5",0,0,2,24)
   ShowMessage("【アリス】")
   ShowMessage("アモス聖山以上に高い山となれば……")
   ShowMessage("世界最高峰、蓬莱山以外にあるまい。")
   0()
  EndIf()
  If(0,5,0)
   ShowMessageFace("iriasu_fc4",2,0,2,25)
   ShowMessage("【イリアス】")
   ShowMessage("アモス聖山以上に高い山となると……")
   ShowMessage("世界最高峰である蓬莱山以外にはありませんね。")
   0()
  EndIf()
  ShowMessageFace("inp_fc1",0,0,2,26)
  ShowMessage("【ラミ】")
  ShowMessage("それじゃあ、行くよ！")
  ShowMessage("身投げで世界の山を制覇するんだから！")
  If(0,6,0)
   ShowMessageFace("sonia_fc3",2,0,2,27)
   ShowMessage("【ソニア】")
   ShowMessage("なんか、趣旨が変わってない！？")
   0()
  Else()
   ShowMessageFace("ruka_fc1",0,0,2,28)
   ShowMessage("【ルカ】")
   ShowMessage("（なんだか趣旨が変わってるような……）")
   0()
  EndIf()
  205(27,bytes(0x04,0x08,0x6f,0x3a,0x13,0x52,0x50,0x47,0x3a,0x3a,0x4d,0x6f,0x76,0x65,0x52,0x6f,0x75,0x74,0x65,0x09,0x3a,0x0c,0x40,0x72,0x65,0x70,0x65,0x61,0x74,0x46,0x3a,0x0f,0x40,0x73,0x6b,0x69,0x70,0x70,0x61,0x62,0x6c,0x65,0x46,0x3a,0x0a,0x40,0x77,0x61,0x69,0x74,0x54,0x3a,0x0a,0x40,0x6c,0x69,0x73,0x74,0x5b,0x08,0x6f,0x3a,0x15,0x52,0x50,0x47,0x3a,0x3a,0x4d,0x6f,0x76,0x65,0x43,0x6f,0x6d,0x6d,0x61,0x6e,0x64,0x07,0x3a,0x0a,0x40,0x63,0x6f,0x64,0x65,0x69,0x08,0x3a,0x10,0x40,0x70,0x61,0x72,0x61,0x6d,0x65,0x74,0x65,0x72,0x73,0x5b,0x00,0x6f,0x3b,0x0a,0x07,0x3b,0x0b,0x69,0x2c,0x3b,0x0c,0x5b,0x00,0x6f,0x3b,0x0a,0x07,0x3b,0x0b,0x69,0x00,0x3b,0x0c,0x5b,0x00))
  TeleportEvent(27,0,71,0,0)
  ShowMessageFace("",0,0,2,29)
  ShowMessage("蓬莱山は、東方の地にあるという。")
  ShowMessage("今はとても行けないが、立ち寄る機会もあるはずだ――")
  355("gain_medal(2017)")
  0()
 PAGE   2
  // condition: variable 1041 >= 3
  0()



EVENT   27
 PAGE   1
  0()



EVENT   28
 PAGE   1
  // condition: variable 1088 >= 1
  ChangeVariable(1088,1088,0,0,2)
  205(-1,bytes(0x04,0x08,0x6f,0x3a,0x13,0x52,0x50,0x47,0x3a,0x3a,0x4d,0x6f,0x76,0x65,0x52,0x6f,0x75,0x74,0x65,0x09,0x3a,0x0c,0x40,0x72,0x65,0x70,0x65,0x61,0x74,0x46,0x3a,0x0f,0x40,0x73,0x6b,0x69,0x70,0x70,0x61,0x62,0x6c,0x65,0x46,0x3a,0x0a,0x40,0x77,0x61,0x69,0x74,0x54,0x3a,0x0a,0x40,0x6c,0x69,0x73,0x74,0x5b,0x07,0x6f,0x3a,0x15,0x52,0x50,0x47,0x3a,0x3a,0x4d,0x6f,0x76,0x65,0x43,0x6f,0x6d,0x6d,0x61,0x6e,0x64,0x07,0x3a,0x0a,0x40,0x63,0x6f,0x64,0x65,0x69,0x17,0x3a,0x10,0x40,0x70,0x61,0x72,0x61,0x6d,0x65,0x74,0x65,0x72,0x73,0x5b,0x00,0x6f,0x3b,0x0a,0x07,0x3b,0x0b,0x69,0x00,0x3b,0x0c,0x5b,0x00))
  217()
  ShowMessageFace("micaelac_fc1",3,0,2,1)
  ShowMessage("【ミカエラちゃん】")
  ShowMessage("すごい……景色が綺麗……")
  ShowMessageFace("rucyfinac_fc1",0,0,2,2)
  ShowMessage("【ルシフィナちゃん】")
  ShowMessage("うわ～！　とっても高～い！")
  ShowMessageFace("iriasu_fc4",2,0,2,3)
  ShowMessage("【イリアス】")
  ShowMessage("ここで、ミカエラは……")
  ShowMessage("……いえ、悲しい話は抜きにしましょうか。")
  205(-1,bytes(0x04,0x08,0x6f,0x3a,0x13,0x52,0x50,0x47,0x3a,0x3a,0x4d,0x6f,0x76,0x65,0x52,0x6f,0x75,0x74,0x65,0x09,0x3a,0x0c,0x40,0x72,0x65,0x70,0x65,0x61,0x74,0x46,0x3a,0x0f,0x40,0x73,0x6b,0x69,0x70,0x70,0x61,0x62,0x6c,0x65,0x46,0x3a,0x0a,0x40,0x77,0x61,0x69,0x74,0x54,0x3a,0x0a,0x40,0x6c,0x69,0x73,0x74,0x5b,0x07,0x6f,0x3a,0x15,0x52,0x50,0x47,0x3a,0x3a,0x4d,0x6f,0x76,0x65,0x43,0x6f,0x6d,0x6d,0x61,0x6e,0x64,0x07,0x3a,0x0a,0x40,0x63,0x6f,0x64,0x65,0x69,0x16,0x3a,0x10,0x40,0x70,0x61,0x72,0x61,0x6d,0x65,0x74,0x65,0x72,0x73,0x5b,0x00,0x6f,0x3b,0x0a,0x07,0x3b,0x0b,0x69,0x00,0x3b,0x0c,0x5b,0x00))
  ShowMessageFace("eden_fc1",0,0,2,4)
  ShowMessage("【エデン】")
  ShowMessage("ここまで登って、疲れたでしょう。")
  ShowMessage("少し一服しませんか……？")
  ShowMessageFace("micaelac_fc1",3,0,2,5)
  ShowMessage("【ミカエラちゃん】")
  ShowMessage("うん、一休みする……")
  ShowMessageFace("rucyfinac_fc1",0,0,2,6)
  ShowMessage("【ルシフィナちゃん】")
  ShowMessage("ミカエラお姉ちゃん！")
  ShowMessage("お花で冠つくろうよ～！")
  ShowMessageFace("eden_fc1",0,0,2,7)
  ShowMessage("【エデン】")
  ShowMessage("うふふっ……")
  221()
  Wait(60)
  ChangeSwitch(2306,2306,0)
  216(1)
  TeleportPlayer(0,645,42,12,6,2)
  222()
  241(bytes(0x04,0x08,0x6f,0x3a,0x0d,0x52,0x50,0x47,0x3a,0x3a,0x42,0x47,0x4d,0x08,0x3a,0x0a,0x40,0x6e,0x61,0x6d,0x65,0x49,0x22,0x13,0x73,0x63,0x65,0x6e,0x65,0x5f,0x6f,0x64,0x61,0x79,0x61,0x6b,0x61,0x31,0x06,0x3a,0x06,0x45,0x54,0x3a,0x0c,0x40,0x76,0x6f,0x6c,0x75,0x6d,0x65,0x69,0x69,0x3a,0x0b,0x40,0x70,0x69,0x74,0x63,0x68,0x69,0x69))
  ShowMessageFace("micaelac_fc1",3,0,2,8)
  ShowMessage("【ミカエラちゃん】")
  ShowMessage("綺麗な花……こんなにいっぱい……")
  ShowMessageFace("rucyfinac_fc1",0,0,2,9)
  ShowMessage("【ルシフィナちゃん】")
  ShowMessage("このお花、血の色みたい～♪")
  ShowMessageFace("eden_fc1",0,0,2,10)
  ShowMessage("【エデン】")
  ShowMessage("ふふふ……")
  If(0,6,0)
   ShowMessageFace("sonia_fc1",0,0,2,11)
   ShowMessage("【ソニア】")
   ShowMessage("二人とも、とっても楽しそうね。")
   0()
  Else()
   ShowMessageFace("ruka_fc1",0,0,2,12)
   ShowMessage("【ルカ】")
   ShowMessage("二人とも、とっても楽しそうだね。")
   0()
  EndIf()
  ShowMessageFace("iriasu_fc4",0,0,2,13)
  ShowMessage("【イリアス】")
  ShowMessage("ええ……二人はもちろん、エデンも。")
  ShowMessage("あんなに楽しそうなエデンは、初めて見ますね。")
  Wait(60)
  205(30,bytes(0x04,0x08,0x6f,0x3a,0x13,0x52,0x50,0x47,0x3a,0x3a,0x4d,0x6f,0x76,0x65,0x52,0x6f,0x75,0x74,0x65,0x09,0x3a,0x0c,0x40,0x72,0x65,0x70,0x65,0x61,0x74,0x46,0x3a,0x0f,0x40,0x73,0x6b,0x69,0x70,0x70,0x61,0x62,0x6c,0x65,0x46,0x3a,0x0a,0x40,0x77,0x61,0x69,0x74,0x54,0x3a,0x0a,0x40,0x6c,0x69,0x73,0x74,0x5b,0x09,0x6f,0x3a,0x15,0x52,0x50,0x47,0x3a,0x3a,0x4d,0x6f,0x76,0x65,0x43,0x6f,0x6d,0x6d,0x61,0x6e,0x64,0x07,0x3a,0x0a,0x40,0x63,0x6f,0x64,0x65,0x69,0x16,0x3a,0x10,0x40,0x70,0x61,0x72,0x61,0x6d,0x65,0x74,0x65,0x72,0x73,0x5b,0x00,0x6f,0x3b,0x0a,0x07,0x3b,0x0b,0x69,0x13,0x3b,0x0c,0x5b,0x07,0x69,0x00,0x69,0x00,0x6f,0x3b,0x0a,0x07,0x3b,0x0b,0x69,0x13,0x3b,0x0c,0x5b,0x07,0x69,0x00,0x69,0x00,0x6f,0x3b,0x0a,0x07,0x3b,0x0b,0x69,0x00,0x3b,0x0c,0x5b,0x00))
  ShowMessageFace("rucyfinac_fc1",1,0,2,14)
  ShowMessage("【ルシフィナちゃん】")
  ShowMessage("はい、ルカにプレゼント！")
  ShowMessage("お花の冠を作ったよ～♪")
  ShowMessageFace("micaelac_fc1",1,0,2,15)
  ShowMessage("【ミカエラちゃん】")
  ShowMessage("こういうの、初めて作ったの……")
  ShowMessageFace("ruka_fc1",0,0,2,16)
  ShowMessage("【ルカ】")
  ShowMessage("うん、ありがとう。大切にするよ。")
  Wait(60)
  205(29,bytes(0x04,0x08,0x6f,0x3a,0x13,0x52,0x50,0x47,0x3a,0x3a,0x4d,0x6f,0x76,0x65,0x52,0x6f,0x75,0x74,0x65,0x09,0x3a,0x0c,0x40,0x72,0x65,0x70,0x65,0x61,0x74,0x46,0x3a,0x0f,0x40,0x73,0x6b,0x69,0x70,0x70,0x61,0x62,0x6c,0x65,0x46,0x3a,0x0a,0x40,0x77,0x61,0x69,0x74,0x54,0x3a,0x0a,0x40,0x6c,0x69,0x73,0x74,0x5b,0x07,0x6f,0x3a,0x15,0x52,0x50,0x47,0x3a,0x3a,0x4d,0x6f,0x76,0x65,0x43,0x6f,0x6d,0x6d,0x61,0x6e,0x64,0x07,0x3a,0x0a,0x40,0x63,0x6f,0x64,0x65,0x69,0x15,0x3a,0x10,0x40,0x70,0x61,0x72,0x61,0x6d,0x65,0x74,0x65,0x72,0x73,0x5b,0x00,0x6f,0x3b,0x0a,0x07,0x3b,0x0b,0x69,0x00,0x3b,0x0c,0x5b,0x00))
  205(30,bytes(0x04,0x08,0x6f,0x3a,0x13,0x52,0x50,0x47,0x3a,0x3a,0x4d,0x6f,0x76,0x65,0x52,0x6f,0x75,0x74,0x65,0x09,0x3a,0x0c,0x40,0x72,0x65,0x70,0x65,0x61,0x74,0x46,0x3a,0x0f,0x40,0x73,0x6b,0x69,0x70,0x70,0x61,0x62,0x6c,0x65,0x46,0x3a,0x0a,0x40,0x77,0x61,0x69,0x74,0x54,0x3a,0x0a,0x40,0x6c,0x69,0x73,0x74,0x5b,0x07,0x6f,0x3a,0x15,0x52,0x50,0x47,0x3a,0x3a,0x4d,0x6f,0x76,0x65,0x43,0x6f,0x6d,0x6d,0x61,0x6e,0x64,0x07,0x3a,0x0a,0x40,0x63,0x6f,0x64,0x65,0x69,0x15,0x3a,0x10,0x40,0x70,0x61,0x72,0x61,0x6d,0x65,0x74,0x65,0x72,0x73,0x5b,0x00,0x6f,0x3b,0x0a,0x07,0x3b,0x0b,0x69,0x00,0x3b,0x0c,0x5b,0x00))
  ShowMessageFace("eden_fc1",0,0,2,17)
  ShowMessage("【エデン】")
  ShowMessage("……エデンお姉さんには、プレゼントはないのですか？")
  ShowMessageFace("micaelac_fc1",1,0,2,18)
  ShowMessage("【ミカエラちゃん】")
  ShowMessage("エデン姉さんにも、プレゼント……")
  ShowMessage("はい、イバラの冠。")
  ShowMessageFace("rucyfinac_fc1",1,0,2,19)
  ShowMessage("【ルシフィナちゃん】")
  ShowMessage("かぶって！　かぶって！")
  ShowMessageFace("eden_fc1",0,0,2,20)
  ShowMessage("【エデン】")
  ShowMessage("ああ～")
  ShowMessageFace("ruka_fc1",0,0,2,21)
  ShowMessage("【ルカ】")
  ShowMessage("……………………")
  ShowMessageFace("iriasu_fc4",2,0,2,22)
  ShowMessage("【イリアス】")
  ShowMessage("エデン、頭から血が出ていますよ……")
  Wait(60)
  221()
  Wait(60)
  216(0)
  ChangeSwitch(2306,2306,1)
  TeleportPlayer(0,645,42,12,2,2)
  241(bytes(0x04,0x08,0x6f,0x3a,0x0d,0x52,0x50,0x47,0x3a,0x3a,0x42,0x47,0x4d,0x08,0x3a,0x0a,0x40,0x6e,0x61,0x6d,0x65,0x49,0x22,0x13,0x64,0x75,0x6e,0x67,0x65,0x6f,0x6e,0x5f,0x73,0x65,0x69,0x7a,0x61,0x6e,0x06,0x3a,0x06,0x45,0x54,0x3a,0x0c,0x40,0x76,0x6f,0x6c,0x75,0x6d,0x65,0x69,0x69,0x3a,0x0b,0x40,0x70,0x69,0x74,0x63,0x68,0x69,0x69))
  222()
  ShowMessageFace("micaelac_fc1",3,0,2,23)
  ShowMessage("【ミカエラちゃん】")
  ShowMessage("次は、海に行きたいな……")
  ShowMessageFace("iriasu_fc4",0,0,2,24)
  ShowMessage("【イリアス】")
  ShowMessage("それでは、ゴルド海岸に行ってみるとしましょうか。")
  0()
 PAGE   2
  // condition: variable 1088 >= 2
  0()



EVENT   29
 PAGE   1
  // condition: switch 2306 is ON
  0()



EVENT   30
 PAGE   1
  // condition: switch 2306 is ON
  0()



EVENT   31
 PAGE   1
  // condition: switch 2306 is ON
  0()



EVENT   32
 PAGE   1
  // condition: switch 2306 is ON
  0()
