﻿
DisplayName "おさかな号 B1F"



EVENT   1
 PAGE   1
  281(0)
  If(6,-1,8)
   250(bytes(0x04,0x08,0x6f,0x3a,0x0c,0x52,0x50,0x47,0x3a,0x3a,0x53,0x45,0x08,0x3a,0x0a,0x40,0x6e,0x61,0x6d,0x65,0x49,0x22,0x09,0x4d,0x6f,0x76,0x65,0x06,0x3a,0x06,0x45,0x54,0x3a,0x0b,0x40,0x70,0x69,0x74,0x63,0x68,0x69,0x69,0x3a,0x0c,0x40,0x76,0x6f,0x6c,0x75,0x6d,0x65,0x69,0x55))
   TeleportPlayer(0,724,13,27,0,0)
   0()
  EndIf()
  0()



EVENT   3
 PAGE   1
  281(0)
  If(6,-1,2)
   250(bytes(0x04,0x08,0x6f,0x3a,0x0c,0x52,0x50,0x47,0x3a,0x3a,0x53,0x45,0x08,0x3a,0x0a,0x40,0x6e,0x61,0x6d,0x65,0x49,0x22,0x09,0x4d,0x6f,0x76,0x65,0x06,0x3a,0x06,0x45,0x54,0x3a,0x0b,0x40,0x70,0x69,0x74,0x63,0x68,0x69,0x69,0x3a,0x0c,0x40,0x76,0x6f,0x6c,0x75,0x6d,0x65,0x69,0x55))
   TeleportPlayer(0,744,20,16,0,0)
   0()
  EndIf()
  0()



EVENT   7
 PAGE   1
  281(0)
  250(bytes(0x04,0x08,0x6f,0x3a,0x0c,0x52,0x50,0x47,0x3a,0x3a,0x53,0x45,0x08,0x3a,0x0a,0x40,0x6e,0x61,0x6d,0x65,0x49,0x22,0x09,0x4d,0x6f,0x76,0x65,0x06,0x3a,0x06,0x45,0x54,0x3a,0x0b,0x40,0x70,0x69,0x74,0x63,0x68,0x69,0x69,0x3a,0x0c,0x40,0x76,0x6f,0x6c,0x75,0x6d,0x65,0x69,0x55))
  TeleportPlayer(0,724,7,43,0,0)
  0()



EVENT   5
 PAGE   1
  ShowMessageFace("",0,0,2,1)
  ShowMessage("【牛】")
  ShowMessage("モ～！")
  0()



EVENT   17
 PAGE   1
  ShowMessageFace("",0,0,2,1)
  ShowMessage("「台所　おかしら立ち入り禁止」と書いてある……")
  0()



EVENT   18
 PAGE   1
  ShowMessageFace("",0,0,2,1)
  ShowMessage("「食料貯蔵庫　おかしら立ち入り禁止」と書いてある……")
  0()



EVENT   24
 PAGE   1
  RunCommonEvent(120)
  0()



EVENT   2
 PAGE   1
  281(0)
  If(6,-1,8)
   250(bytes(0x04,0x08,0x6f,0x3a,0x0c,0x52,0x50,0x47,0x3a,0x3a,0x53,0x45,0x08,0x3a,0x0a,0x40,0x6e,0x61,0x6d,0x65,0x49,0x22,0x09,0x4d,0x6f,0x76,0x65,0x06,0x3a,0x06,0x45,0x54,0x3a,0x0b,0x40,0x70,0x69,0x74,0x63,0x68,0x69,0x69,0x3a,0x0c,0x40,0x76,0x6f,0x6c,0x75,0x6d,0x65,0x69,0x55))
   TeleportPlayer(0,724,13,27,0,0)
   0()
  EndIf()
  0()



EVENT   4
 PAGE   1
  281(0)
  If(6,-1,2)
   250(bytes(0x04,0x08,0x6f,0x3a,0x0c,0x52,0x50,0x47,0x3a,0x3a,0x53,0x45,0x08,0x3a,0x0a,0x40,0x6e,0x61,0x6d,0x65,0x49,0x22,0x09,0x4d,0x6f,0x76,0x65,0x06,0x3a,0x06,0x45,0x54,0x3a,0x0b,0x40,0x70,0x69,0x74,0x63,0x68,0x69,0x69,0x3a,0x0c,0x40,0x76,0x6f,0x6c,0x75,0x6d,0x65,0x69,0x55))
   TeleportPlayer(0,744,20,16,0,0)
   0()
  EndIf()
  0()



EVENT   8
 PAGE   1
  281(0)
  250(bytes(0x04,0x08,0x6f,0x3a,0x0c,0x52,0x50,0x47,0x3a,0x3a,0x53,0x45,0x08,0x3a,0x0a,0x40,0x6e,0x61,0x6d,0x65,0x49,0x22,0x09,0x4d,0x6f,0x76,0x65,0x06,0x3a,0x06,0x45,0x54,0x3a,0x0b,0x40,0x70,0x69,0x74,0x63,0x68,0x69,0x69,0x3a,0x0c,0x40,0x76,0x6f,0x6c,0x75,0x6d,0x65,0x69,0x55))
  TeleportPlayer(0,724,7,43,0,0)
  0()



EVENT   9
 PAGE   1
  // condition: switch 1201 is ON
  PictureDisplay(5,"80_ashel_st01",0,0,0,0,100,100,0,0)
  PictureMove(5,null,0,0,0,0,100,100,255,0,30,true)
  If(1,3201,0,100,1)
   If(1,4201,0,0,0)
    ChangeVariable(4201,4201,0,0,1)
    ShowMessageFace("ashel_fc1",1,0,2,1)
    ShowMessage("【アシェル】（好感度：\\V[3201]）")
    ShowMessage("ほら、今日の成果だよ！")
    250(bytes(0x04,0x08,0x6f,0x3a,0x0c,0x52,0x50,0x47,0x3a,0x3a,0x53,0x45,0x08,0x3a,0x0a,0x40,0x6e,0x61,0x6d,0x65,0x49,0x22,0x0a,0x49,0x74,0x65,0x6d,0x31,0x06,0x3a,0x06,0x45,0x54,0x3a,0x0b,0x40,0x70,0x69,0x74,0x63,0x68,0x69,0x69,0x3a,0x0c,0x40,0x76,0x6f,0x6c,0x75,0x6d,0x65,0x69,0x55))
    ChangeInventoryArmor(1171,0,0,1,false)
    0()
   EndIf()
   0()
  EndIf()
  If(1,3201,0,500,1)
   If(1,4201,0,1,0)
    ChangeVariable(4201,4201,0,0,2)
    ShowMessageFace("ashel_fc1",1,0,2,2)
    ShowMessage("【アシェル】（好感度：\\V[3201]）")
    ShowMessage("ほら、今日の成果だよ！")
    250(bytes(0x04,0x08,0x6f,0x3a,0x0c,0x52,0x50,0x47,0x3a,0x3a,0x53,0x45,0x08,0x3a,0x0a,0x40,0x6e,0x61,0x6d,0x65,0x49,0x22,0x0a,0x49,0x74,0x65,0x6d,0x31,0x06,0x3a,0x06,0x45,0x54,0x3a,0x0b,0x40,0x70,0x69,0x74,0x63,0x68,0x69,0x69,0x3a,0x0c,0x40,0x76,0x6f,0x6c,0x75,0x6d,0x65,0x69,0x55))
    ChangeInventoryArmor(1369,0,0,1,false)
    0()
   EndIf()
   0()
  EndIf()
  If(1,3201,0,2000,1)
   If(1,4201,0,2,0)
    ChangeVariable(4201,4201,0,0,3)
    ShowMessageFace("ashel_fc1",1,0,2,3)
    ShowMessage("【アシェル】（好感度：\\V[3201]）")
    ShowMessage("ほら、今日の成果だよ！")
    250(bytes(0x04,0x08,0x6f,0x3a,0x0c,0x52,0x50,0x47,0x3a,0x3a,0x53,0x45,0x08,0x3a,0x0a,0x40,0x6e,0x61,0x6d,0x65,0x49,0x22,0x0a,0x49,0x74,0x65,0x6d,0x31,0x06,0x3a,0x06,0x45,0x54,0x3a,0x0b,0x40,0x70,0x69,0x74,0x63,0x68,0x69,0x69,0x3a,0x0c,0x40,0x76,0x6f,0x6c,0x75,0x6d,0x65,0x69,0x55))
    ChangeInventoryArmor(1183,0,0,1,false)
    0()
   EndIf()
   0()
  EndIf()
  If(1,3201,0,4000,1)
   If(1,4201,0,3,0)
    ChangeVariable(4201,4201,0,0,4)
    ShowMessageFace("ashel_fc1",1,0,2,4)
    ShowMessage("【アシェル】（好感度：\\V[3201]）")
    ShowMessage("ほら、今日の成果だよ！")
    250(bytes(0x04,0x08,0x6f,0x3a,0x0c,0x52,0x50,0x47,0x3a,0x3a,0x53,0x45,0x08,0x3a,0x0a,0x40,0x6e,0x61,0x6d,0x65,0x49,0x22,0x0a,0x49,0x74,0x65,0x6d,0x31,0x06,0x3a,0x06,0x45,0x54,0x3a,0x0b,0x40,0x70,0x69,0x74,0x63,0x68,0x69,0x69,0x3a,0x0c,0x40,0x76,0x6f,0x6c,0x75,0x6d,0x65,0x69,0x55))
    ChangeInventoryArmor(1614,0,0,1,false)
    0()
   EndIf()
   0()
  EndIf()
  355("actor_label_jump")
  ShowMessageFace("ashel_fc1",1,0,2,5)
  ShowMessage("【アシェル】（好感度：\\V[3201]）")
  ShowMessage("稼ぎに行くかい？")
  ShowMessage("皿洗いも済んだ事だし、連れて行ってくれよ。")
  JumpToLabel("メニュー")
  DefineLabel("196")
  ShowMessageFace("s_mermaid_fc1",0,0,2,6)
  ShowMessage("【ミンク】（好感度：\\V[3196]）")
  ShowMessage("アシェルの姉御、調子はどうでっか？")
  ShowMessageFace("ashel_fc1",1,0,2,7)
  ShowMessage("【アシェル】（好感度：\\V[3201]）")
  ShowMessage("絶好調さ、おさかな号も大活躍だよ。")
  ShowMessage("いつもの取引に、カンヅメ150食分も追加しといてくれ。")
  ShowMessageFace("s_mermaid_fc1",1,0,2,8)
  ShowMessage("【ミンク】（好感度：\\V[3196]）")
  ShowMessage("毎度あり～！")
  ShowMessage("おさかな団さんが景気いいと、うちまで景気良くなりますわ。")
  ShowMessageFace("ashel_fc1",1,0,2,9)
  ShowMessage("【アシェル】（好感度：\\V[3201]）")
  ShowMessage("あと、砲弾60発と……団長用の浮き輪も頼むよ。")
  ShowMessageFace("s_mermaid_fc1",0,0,2,10)
  ShowMessage("【ミンク】（好感度：\\V[3196]）")
  ShowMessage("ボニー団長、まだ泳げるようにならんのでっか……")
  ShowMessage("こりゃ、浮き輪も定例の納入品になるな。")
  JumpToLabel("メニュー")
  DefineLabel("197")
  ShowMessageFace("k_mermaid_fc1",0,0,2,11)
  ShowMessage("【ロリッタ】（好感度：\\V[3197]）")
  ShowMessage("アシェルの姉御！")
  ShowMessage("航海長が呼んでたよ！")
  ShowMessageFace("ashel_fc1",0,0,2,12)
  ShowMessage("【アシェル】（好感度：\\V[3201]）")
  ShowMessage("ん……分かった、後で行くよ。")
  ShowMessageFace("k_mermaid_fc1",0,0,2,13)
  ShowMessage("【ロリッタ】（好感度：\\V[3197]）")
  ShowMessage("あと、操舵手と砲術長と作戦長と料理長と団長が呼んでたよ！")
  ShowMessageFace("ashel_fc1",2,0,2,14)
  ShowMessage("【アシェル】（好感度：\\V[3201]）")
  ShowMessage("まったく、忙しいね……")
  ShowMessage("体がいくつあっても、足りやしないよ。")
  JumpToLabel("メニュー")
  DefineLabel("202")
  ShowMessageFace("ashel_fc1",0,0,2,15)
  ShowMessage("【アシェル】（好感度：\\V[3201]）")
  ShowMessage("お嬢……また、非常食を盗み食いしたでしょう？")
  ShowMessageFace("bonny_fc1",0,0,2,16)
  ShowMessage("【ボニー】（好感度：\\V[3202]）")
  ShowMessage("あたしは知らん。")
  ShowMessage("ネズミの仕業ではないか……？")
  If(4,70,0)
   ShowMessageFace("nezumi_fc1",2,0,2,17)
   ShowMessage("【ラティ】")
   ShowMessage("あたしじゃないよー！")
   0()
  EndIf()
  ShowMessageFace("ashel_fc1",0,0,2,18)
  ShowMessage("【アシェル】（好感度：\\V[3201]）")
  ShowMessage("そういうわけでお嬢、今日のおやつは抜きです。")
  ShowMessageFace("bonny_fc1",2,0,2,19)
  ShowMessage("【ボニー】（好感度：\\V[3202]）")
  ShowMessage("ううー！！")
  JumpToLabel("メニュー")
  DefineLabel("372")
  ShowMessageFace("ashel_fc1",0,0,2,20)
  ShowMessage("【アシェル】（好感度：\\V[3201]）")
  ShowMessage("海賊女王ロザ……")
  ShowMessage("こうしてお会いできて、光栄です。")
  ShowMessageFace("cirqueb_fc3",0,0,2,21)
  ShowMessage("【ロザ】（好感度：\\V[3372]）")
  ShowMessage("生きていた頃の事は、あまり覚えていないわ……")
  ShowMessage("あなたの主は、私の末裔なのよね？")
  ShowMessageFace("ashel_fc1",0,0,2,22)
  ShowMessage("【アシェル】（好感度：\\V[3201]）")
  ShowMessage("そういう血筋という話ですが……")
  ShowMessage("事実かどうかは、ちょっと何とも。")
  ShowMessageFace("cirqueb_fc3",0,0,2,23)
  ShowMessage("【ロザ】（好感度：\\V[3372]）")
  ShowMessage("まあ、血縁が重要なわけではないわ……")
  ShowMessage("あなたも分かっているでしょう。")
  JumpToLabel("メニュー")
  DefineLabel("536")
  ShowMessageFace("ashel_fc1",0,0,2,24)
  ShowMessage("【アシェル】（好感度：\\V[3201]）")
  ShowMessage("あなたが、伝説のキャプテン・セレーネ……")
  ShowMessage("どうか、海賊女王を育てる秘訣を教えてもらえませんか？")
  ShowMessageFace("serene_fc1",3,0,2,25)
  ShowMessage("【セレーネ】（好感度：\\V[3536]）")
  ShowMessage("そんな秘訣は、多分ないわね……")
  ShowMessage("資質と努力、そして当人の自覚次第よ。")
  ShowMessageFace("ashel_fc1",0,0,2,26)
  ShowMessage("【アシェル】（好感度：\\V[3201]）")
  ShowMessage("そうですか……")
  ShowMessageFace("serene_fc1",4,0,2,27)
  ShowMessage("【セレーネ】（好感度：\\V[3536]）")
  ShowMessage("面白みのない答えで、ごめんなさいね。")
  ShowMessage("でも、ボニーちゃんは確かに資質があるわよ。")
  ShowMessageFace("ashel_fc1",0,0,2,28)
  ShowMessage("【アシェル】（好感度：\\V[3201]）")
  ShowMessage("後は努力と自覚ですか……")
  ShowMessage("やれやれ、道のりは長そうですね。")
  JumpToLabel("メニュー")
  DefineLabel("メニュー")
  StartLoop()
   355("unlimited_choices(11, [\"プレゼントをあげる\",")
   655("\"パーティに加える\",")
   655("\"プレゼントリストを見る\",\"おねだりする\",")
   655("\"やめる\"])")
   If(1,11,0,0,0)
    355("present_start(201)")
    0()
   EndIf()
   If(1,11,0,1,0)
    PictureClear(5)
    355("move_actor_ex(201)")
    EndEventProcessing()
    0()
   EndIf()
   If(1,11,0,2,0)
    ShowMessageFace("",0,0,2,29)
    ShowMessage("好感度 100:緊縛の縄")
    ShowMessage("好感度 500:海技の書")
    ShowMessage("好感度2000:あやしい宝箱")
    ShowMessage("好感度4000:包丁の勲章")
    0()
   EndIf()
   If(1,11,0,3,0)
    PictureClear(5)
    ShowMessageFace("",0,0,2,30)
    ShowMessage("何をおねだりしますか？（好感度：\\V[3201]）")
    ShowChoices(strings("パイズリ（好感度:10）","逆レイプ（好感度:100）","やめる"),3)
    IfPlayerPicksChoice(0,null)
     If(1,3201,0,10,1)
      355("call_novel_scene(4816)")
      EndEventProcessing()
      0()
     Else()
      ShowMessageFace("ashel_fc1",0,0,2,31)
      ShowMessage("【アシェル】（好感度：\\V[3201]）")
      ShowMessage("そういうのは、また今度さ。")
      0()
     EndIf()
     0()
    IfPlayerPicksChoice(1,null)
     If(1,3201,0,100,1)
      355("call_novel_scene(4817)")
      EndEventProcessing()
      0()
     Else()
      ShowMessageFace("ashel_fc1",0,0,2,32)
      ShowMessage("【アシェル】（好感度：\\V[3201]）")
      ShowMessage("そういうのは、また今度さ。")
      0()
     EndIf()
     0()
    IfPlayerPicksChoice(2,null)
     0()
    404()
    0()
   EndIf()
   If(1,11,0,4,1)
    PictureClear(5)
    EndEventProcessing()
    0()
   EndIf()
   0()
  EndLoop()
  0()
 PAGE   2
  // condition: party contains actor #201
  0()



EVENT   6
 PAGE   1
  // condition: switch 1202 is ON
  PictureDisplay(5,"80_bonny_st01",0,0,0,0,100,100,0,0)
  PictureMove(5,null,0,0,0,0,100,100,255,0,30,true)
  If(1,3202,0,100,1)
   If(1,4202,0,0,0)
    ChangeVariable(4202,4202,0,0,1)
    ShowMessageFace("bonny_fc1",1,0,2,1)
    ShowMessage("【ボニー】（好感度：\\V[3202]）")
    ShowMessage("これをゲットしたぞ！")
    250(bytes(0x04,0x08,0x6f,0x3a,0x0c,0x52,0x50,0x47,0x3a,0x3a,0x53,0x45,0x08,0x3a,0x0a,0x40,0x6e,0x61,0x6d,0x65,0x49,0x22,0x0a,0x49,0x74,0x65,0x6d,0x31,0x06,0x3a,0x06,0x45,0x54,0x3a,0x0b,0x40,0x70,0x69,0x74,0x63,0x68,0x69,0x69,0x3a,0x0c,0x40,0x76,0x6f,0x6c,0x75,0x6d,0x65,0x69,0x55))
    ChangeInventoryArmor(1706,0,0,1,false)
    0()
   EndIf()
   0()
  EndIf()
  If(1,3202,0,500,1)
   If(1,4202,0,1,0)
    ChangeVariable(4202,4202,0,0,2)
    ShowMessageFace("bonny_fc1",1,0,2,2)
    ShowMessage("【ボニー】（好感度：\\V[3202]）")
    ShowMessage("これをゲットしたぞ！")
    250(bytes(0x04,0x08,0x6f,0x3a,0x0c,0x52,0x50,0x47,0x3a,0x3a,0x53,0x45,0x08,0x3a,0x0a,0x40,0x6e,0x61,0x6d,0x65,0x49,0x22,0x0a,0x49,0x74,0x65,0x6d,0x31,0x06,0x3a,0x06,0x45,0x54,0x3a,0x0b,0x40,0x70,0x69,0x74,0x63,0x68,0x69,0x69,0x3a,0x0c,0x40,0x76,0x6f,0x6c,0x75,0x6d,0x65,0x69,0x55))
    ChangeInventoryArmor(1707,0,0,1,false)
    0()
   EndIf()
   0()
  EndIf()
  If(1,3202,0,2000,1)
   If(1,4202,0,2,0)
    ChangeVariable(4202,4202,0,0,3)
    ShowMessageFace("bonny_fc1",1,0,2,3)
    ShowMessage("【ボニー】（好感度：\\V[3202]）")
    ShowMessage("これをゲットしたぞ！")
    250(bytes(0x04,0x08,0x6f,0x3a,0x0c,0x52,0x50,0x47,0x3a,0x3a,0x53,0x45,0x08,0x3a,0x0a,0x40,0x6e,0x61,0x6d,0x65,0x49,0x22,0x0a,0x49,0x74,0x65,0x6d,0x31,0x06,0x3a,0x06,0x45,0x54,0x3a,0x0b,0x40,0x70,0x69,0x74,0x63,0x68,0x69,0x69,0x3a,0x0c,0x40,0x76,0x6f,0x6c,0x75,0x6d,0x65,0x69,0x55))
    ChangeInventoryArmor(1161,0,0,1,false)
    0()
   EndIf()
   0()
  EndIf()
  If(1,3202,0,4000,1)
   If(1,4202,0,3,0)
    ChangeVariable(4202,4202,0,0,4)
    ShowMessageFace("bonny_fc1",1,0,2,4)
    ShowMessage("【ボニー】（好感度：\\V[3202]）")
    ShowMessage("これをゲットしたぞ！")
    250(bytes(0x04,0x08,0x6f,0x3a,0x0c,0x52,0x50,0x47,0x3a,0x3a,0x53,0x45,0x08,0x3a,0x0a,0x40,0x6e,0x61,0x6d,0x65,0x49,0x22,0x0a,0x49,0x74,0x65,0x6d,0x31,0x06,0x3a,0x06,0x45,0x54,0x3a,0x0b,0x40,0x70,0x69,0x74,0x63,0x68,0x69,0x69,0x3a,0x0c,0x40,0x76,0x6f,0x6c,0x75,0x6d,0x65,0x69,0x55))
    ChangeInventoryArmor(1259,0,0,1,false)
    0()
   EndIf()
   0()
  EndIf()
  355("actor_label_jump")
  ShowMessageFace("bonny_fc1",1,0,2,5)
  ShowMessage("【ボニー】（好感度：\\V[3202]）")
  ShowMessage("おさかな海賊団、行くぞっ！")
  ShowMessage("……行くんだよな？")
  JumpToLabel("メニュー")
  DefineLabel("53")
  ShowMessageFace("slime_fc1",0,0,2,6)
  ShowMessage("【ライム】（好感度：\\V[3053]）")
  ShowMessage("おかしら～！　よ～そろ～！")
  ShowMessageFace("bonny_fc1",1,0,2,7)
  ShowMessage("【ボニー】（好感度：\\V[3202]）")
  ShowMessage("うむ、ライムはいつも気合いが入っているな！")
  ShowMessage("感心、感心！")
  ShowMessageFace("slime_fc1",0,0,2,8)
  ShowMessage("【ライム】（好感度：\\V[3053]）")
  ShowMessage("わ～い！")
  ShowMessageFace("bonny_fc1",1,0,2,9)
  ShowMessage("【ボニー】（好感度：\\V[3202]）")
  ShowMessage("他の団員も、もっとあたしに敬意を払うべきだぞ。")
  ShowMessage("特に、あのガミガミ副団長が……")
  ShowMessageFace("ashel_fc1",0,0,2,10)
  ShowMessage("【アシェル】（好感度：\\V[3201]）")
  ShowMessage("お嬢……ガミガミ副団長って誰の事です？")
  ShowMessageFace("bonny_fc1",0,0,2,11)
  ShowMessage("【ボニー】（好感度：\\V[3202]）")
  ShowMessage("わぁっ！　逃げろ～！")
  ShowMessageFace("slime_fc1",0,0,2,12)
  ShowMessage("【ライム】（好感度：\\V[3053]）")
  ShowMessage("にげろ～！")
  ShowMessageFace("ashel_fc1",1,0,2,13)
  ShowMessage("【アシェル】（好感度：\\V[3201]）")
  ShowMessage("やれやれ、まったく……")
  JumpToLabel("メニュー")
  DefineLabel("197")
  ShowMessageFace("k_mermaid_fc1",0,0,2,14)
  ShowMessage("【ロリッタ】（好感度：\\V[3197]）")
  ShowMessage("おかしら！　よーそろー！")
  ShowMessageFace("bonny_fc1",0,0,2,15)
  ShowMessage("【ボニー】（好感度：\\V[3202]）")
  ShowMessage("うむ、おつとめご苦労！")
  ShowMessage("ところで、おやつの時間はまだか？")
  ShowMessageFace("k_mermaid_fc1",0,0,2,16)
  ShowMessage("【ロリッタ】（好感度：\\V[3197]）")
  ShowMessage("アシェルの姉御から伝言ね。")
  ShowMessage("「またつまみ食いしたから、おやつは抜き」だってさ。")
  ShowMessageFace("bonny_fc1",2,0,2,17)
  ShowMessage("【ボニー】（好感度：\\V[3202]）")
  ShowMessage("うう～！")
  JumpToLabel("メニュー")
  DefineLabel("201")
  ShowMessageFace("ashel_fc1",0,0,2,18)
  ShowMessage("【アシェル】（好感度：\\V[3201]）")
  ShowMessage("お嬢……また、非常食を盗み食いしたでしょう？")
  ShowMessageFace("bonny_fc1",0,0,2,19)
  ShowMessage("【ボニー】（好感度：\\V[3202]）")
  ShowMessage("あたしは知らん。")
  ShowMessage("ネズミの仕業ではないか……？")
  If(4,70,0)
   ShowMessageFace("nezumi_fc1",2,0,2,20)
   ShowMessage("【ラティ】")
   ShowMessage("あたしじゃないよー！")
   0()
  EndIf()
  ShowMessageFace("ashel_fc1",0,0,2,21)
  ShowMessage("【アシェル】（好感度：\\V[3201]）")
  ShowMessage("そういうわけでお嬢、今日のおやつは抜きです。")
  ShowMessageFace("bonny_fc1",2,0,2,22)
  ShowMessage("【ボニー】（好感度：\\V[3202]）")
  ShowMessage("ううー！！")
  JumpToLabel("メニュー")
  DefineLabel("203")
  ShowMessageFace("tatunoko_k_fc1",1,0,2,23)
  ShowMessage("【たつこ】（好感度：\\V[3203]）")
  ShowMessage("おさかな海賊団団長ボニー、逮捕するのです！")
  ShowMessageFace("bonny_fc1",0,0,2,24)
  ShowMessage("【ボニー】（好感度：\\V[3202]）")
  ShowMessage("ここでは、我々は仲間ではないか……")
  ShowMessage("見逃してはくれんか？")
  ShowMessageFace("tatunoko_k_fc1",1,0,2,25)
  ShowMessage("【たつこ】（好感度：\\V[3203]）")
  ShowMessage("海兵には鉄の規律があるのです！")
  ShowMessage("手配犯を見逃す事はできないのです！")
  ShowMessageFace("bonny_fc1",0,0,2,26)
  ShowMessage("【ボニー】（好感度：\\V[3202]）")
  ShowMessage("ほれ、めざしをやろう。")
  ShowMessageFace("tatunoko_k_fc1",1,0,2,27)
  ShowMessage("【たつこ】（好感度：\\V[3203]）")
  ShowMessage("我々は仲間なのです！")
  ShowMessage("組織を超えた絆で結ばれているのです！")
  JumpToLabel("メニュー")
  DefineLabel("205")
  ShowMessageFace("levia_fc1",0,0,2,28)
  ShowMessage("【リヴィア】（好感度：\\V[3205]）")
  ShowMessage("おさかな海賊団団長、ボニーか……")
  ShowMessageFace("bonny_fc1",0,0,2,29)
  ShowMessage("【ボニー】（好感度：\\V[3202]）")
  ShowMessage("ぬおっ、海軍大将リヴァイアサン！")
  ShowMessage("まさか、あたしをここで逮捕しようというのか！？")
  ShowMessageFace("levia_fc1",0,0,2,30)
  ShowMessage("【リヴィア】（好感度：\\V[3205]）")
  ShowMessage("我々が直面している世界的危機に比べれば、お前など小物。")
  ShowMessage("少なくとも私達がルカの元にいる間は、見なかった事にしてやる。")
  ShowMessageFace("bonny_fc1",0,0,2,31)
  ShowMessage("【ボニー】（好感度：\\V[3202]）")
  ShowMessage("見逃してくれるのは嬉しいが……")
  ShowMessage("小物と言われると、悔しいな……")
  JumpToLabel("メニュー")
  DefineLabel("372")
  ShowMessageFace("bonny_fc1",1,0,2,32)
  ShowMessage("【ボニー】（好感度：\\V[3202]）")
  ShowMessage("伝説の海賊女王ロザ！")
  ShowMessage("あなたは、我が祖先にして憧れです！")
  ShowMessageFace("cirqueb_fc3",0,0,2,33)
  ShowMessage("【ロザ】（好感度：\\V[3372]）")
  ShowMessage("悪いけど……")
  ShowMessage("生きていた頃の事は、細かくは覚えていないの。")
  ShowMessageFace("bonny_fc1",1,0,2,34)
  ShowMessage("【ボニー】（好感度：\\V[3202]）")
  ShowMessage("わくわく、どきどき……")
  ShowMessageFace("cirqueb_fc3",1,0,2,35)
  ShowMessage("【ロザ】（好感度：\\V[3372]）")
  ShowMessage("キラキラした目で見られても……")
  ShowMessage("困るわね……")
  JumpToLabel("メニュー")
  DefineLabel("536")
  ShowMessageFace("bonny_fc1",1,0,2,36)
  ShowMessage("【ボニー】（好感度：\\V[3202]）")
  ShowMessage("おお、偉大なるキャプテン・セレーネ！")
  ShowMessage("団長としての心掛けを教えてもらいたいです！")
  ShowMessageFace("serene_fc1",4,0,2,37)
  ShowMessage("【セレーネ】（好感度：\\V[3536]）")
  ShowMessage("大切なのは……余裕と空元気ね。")
  ShowMessageFace("bonny_fc1",0,0,2,38)
  ShowMessage("【ボニー】（好感度：\\V[3202]）")
  ShowMessage("余裕と空元気……！？")
  ShowMessage("どちらも得意技だけど、そんなんでいいのですか？")
  ShowMessageFace("serene_fc1",3,0,2,39)
  ShowMessage("【セレーネ】（好感度：\\V[3536]）")
  ShowMessage("武力も知恵も、あるに越した事はないけど……")
  ShowMessage("それがなくても、立派に団長を務めた者はいくらでもいるわ。")
  ShowMessageFace("serene_fc1",3,0,2,40)
  ShowMessage("【セレーネ】（好感度：\\V[3536]）")
  ShowMessage("でも、上に立つ者は余裕の態度が絶対に必要よ。")
  ShowMessage("これ無しには下はついて来ないわ。")
  ShowMessageFace("bonny_fc1",1,0,2,41)
  ShowMessage("【ボニー】（好感度：\\V[3202]）")
  ShowMessage("なるほど……勉強になりました！")
  JumpToLabel("メニュー")
  DefineLabel("メニュー")
  StartLoop()
   355("unlimited_choices(11, [\"プレゼントをあげる\",")
   655("\"パーティに加える\",")
   655("\"プレゼントリストを見る\",\"おねだりする\",")
   655("\"やめる\"])")
   If(1,11,0,0,0)
    355("present_start(202)")
    0()
   EndIf()
   If(1,11,0,1,0)
    PictureClear(5)
    355("move_actor_ex(202)")
    EndEventProcessing()
    0()
   EndIf()
   If(1,11,0,2,0)
    ShowMessageFace("",0,0,2,42)
    ShowMessage("好感度 100:盗賊の手袋")
    ShowMessage("好感度 500:大盗賊の手袋")
    ShowMessage("好感度2000:盗賊の小手")
    ShowMessage("好感度4000:水の秘伝書")
    0()
   EndIf()
   If(1,11,0,3,0)
    PictureClear(5)
    ShowMessageFace("",0,0,2,43)
    ShowMessage("何をおねだりしますか？（好感度：\\V[3202]）")
    ShowChoices(strings("パイズリ（好感度:10）","逆レイプ（好感度:100）","やめる"),3)
    IfPlayerPicksChoice(0,null)
     If(1,3202,0,10,1)
      355("call_novel_scene(4821)")
      EndEventProcessing()
      0()
     Else()
      ShowMessageFace("bonny_fc1",0,0,2,44)
      ShowMessage("【ボニー】（好感度：\\V[3202]）")
      ShowMessage("それは、まだだ……")
      0()
     EndIf()
     0()
    IfPlayerPicksChoice(1,null)
     If(1,3202,0,100,1)
      355("call_novel_scene(4822)")
      EndEventProcessing()
      0()
     Else()
      ShowMessageFace("bonny_fc1",0,0,2,45)
      ShowMessage("【ボニー】（好感度：\\V[3202]）")
      ShowMessage("それは、まだだ……")
      0()
     EndIf()
     0()
    IfPlayerPicksChoice(2,null)
     0()
    404()
    0()
   EndIf()
   If(1,11,0,4,1)
    PictureClear(5)
    EndEventProcessing()
    0()
   EndIf()
   0()
  EndLoop()
  0()
 PAGE   2
  // condition: party contains actor #202
  0()



EVENT   15
 PAGE   1
  // condition: switch 1284 is ON
  PictureDisplay(5,"80_minccubus_st21",0,0,0,0,100,100,0,0)
  PictureMove(5,null,0,0,0,0,100,100,255,0,30,true)
  If(1,3284,0,100,1)
   If(1,4284,0,0,0)
    ChangeVariable(4284,4284,0,0,1)
    ShowMessageFace("minccubus_fc1",1,0,2,1)
    ShowMessage("【セーラ】（好感度：\\V[3284]）")
    ShowMessage("これ、あげるねっ♪")
    250(bytes(0x04,0x08,0x6f,0x3a,0x0c,0x52,0x50,0x47,0x3a,0x3a,0x53,0x45,0x08,0x3a,0x0a,0x40,0x6e,0x61,0x6d,0x65,0x49,0x22,0x0a,0x49,0x74,0x65,0x6d,0x31,0x06,0x3a,0x06,0x45,0x54,0x3a,0x0b,0x40,0x70,0x69,0x74,0x63,0x68,0x69,0x69,0x3a,0x0c,0x40,0x76,0x6f,0x6c,0x75,0x6d,0x65,0x69,0x55))
    ChangeInventoryArmor(1061,0,0,1,false)
    0()
   EndIf()
   0()
  EndIf()
  If(1,3284,0,500,1)
   If(1,4284,0,1,0)
    ChangeVariable(4284,4284,0,0,2)
    ShowMessageFace("minccubus_fc1",1,0,2,2)
    ShowMessage("【セーラ】（好感度：\\V[3284]）")
    ShowMessage("これ、あげるねっ♪")
    250(bytes(0x04,0x08,0x6f,0x3a,0x0c,0x52,0x50,0x47,0x3a,0x3a,0x53,0x45,0x08,0x3a,0x0a,0x40,0x6e,0x61,0x6d,0x65,0x49,0x22,0x0a,0x49,0x74,0x65,0x6d,0x31,0x06,0x3a,0x06,0x45,0x54,0x3a,0x0b,0x40,0x70,0x69,0x74,0x63,0x68,0x69,0x69,0x3a,0x0c,0x40,0x76,0x6f,0x6c,0x75,0x6d,0x65,0x69,0x55))
    ChangeInventoryArmor(1348,0,0,1,false)
    0()
   EndIf()
   0()
  EndIf()
  If(1,3284,0,2000,1)
   If(1,4284,0,2,0)
    ChangeVariable(4284,4284,0,0,3)
    ShowMessageFace("minccubus_fc1",1,0,2,3)
    ShowMessage("【セーラ】（好感度：\\V[3284]）")
    ShowMessage("これ、あげるねっ♪")
    250(bytes(0x04,0x08,0x6f,0x3a,0x0c,0x52,0x50,0x47,0x3a,0x3a,0x53,0x45,0x08,0x3a,0x0a,0x40,0x6e,0x61,0x6d,0x65,0x49,0x22,0x0a,0x49,0x74,0x65,0x6d,0x31,0x06,0x3a,0x06,0x45,0x54,0x3a,0x0b,0x40,0x70,0x69,0x74,0x63,0x68,0x69,0x69,0x3a,0x0c,0x40,0x76,0x6f,0x6c,0x75,0x6d,0x65,0x69,0x55))
    ChangeInventoryArmor(1008,0,0,1,false)
    0()
   EndIf()
   0()
  EndIf()
  If(1,3284,0,4000,1)
   If(1,4284,0,3,0)
    ChangeVariable(4284,4284,0,0,4)
    ShowMessageFace("minccubus_fc1",1,0,2,4)
    ShowMessage("【セーラ】（好感度：\\V[3284]）")
    ShowMessage("これ、あげるねっ♪")
    250(bytes(0x04,0x08,0x6f,0x3a,0x0c,0x52,0x50,0x47,0x3a,0x3a,0x53,0x45,0x08,0x3a,0x0a,0x40,0x6e,0x61,0x6d,0x65,0x49,0x22,0x0a,0x49,0x74,0x65,0x6d,0x31,0x06,0x3a,0x06,0x45,0x54,0x3a,0x0b,0x40,0x70,0x69,0x74,0x63,0x68,0x69,0x69,0x3a,0x0c,0x40,0x76,0x6f,0x6c,0x75,0x6d,0x65,0x69,0x55))
    ChangeInventoryArmor(1583,0,0,1,false)
    0()
   EndIf()
   0()
  EndIf()
  355("actor_label_jump")
  ShowMessageFace("minccubus_fc1",1,0,2,5)
  ShowMessage("【セーラ】（好感度：\\V[3284]）")
  ShowMessage("町に遊びに行きたいな～♪")
  ShowMessage("服着なきゃ、ダメだよね……？")
  JumpToLabel("メニュー")
  DefineLabel("249")
  ShowMessageFace("minccubus_fc1",1,0,2,6)
  ShowMessage("【セーラ】（好感度：\\V[3284]）")
  ShowMessage("アリさんだ！　一緒に遊ぼうよ♪")
  ShowMessageFace("ant_fc1",0,0,2,7)
  ShowMessage("【アント】（好感度：\\V[3249]）")
  ShowMessage("仕事デ忙シイ……マタ今度。")
  ShowMessageFace("minccubus_fc1",1,0,2,8)
  ShowMessage("【セーラ】（好感度：\\V[3284]）")
  ShowMessage("アリさんは、働き者だなぁ……")
  ShowMessage("……あたしも、牧場の手伝いしよっと。")
  JumpToLabel("メニュー")
  DefineLabel("285")
  ShowMessageFace("minccubus_fc1",2,0,2,9)
  ShowMessage("【セーラ】（好感度：\\V[3284]）")
  ShowMessage("おねぇちゃ～ん！")
  ShowMessage("今日もいっぱい、ミルク搾ったよっ♪")
  ShowMessageFace("renccubus_fc1",2,0,2,10)
  ShowMessage("【ニーナ】（好感度：\\V[3285]）")
  ShowMessage("あたしも、たくさんミルク搾りをしました。")
  ShowMessage("今日もどっぷりですよ……")
  ShowMessageFace("minccubus_fc1",2,0,2,11)
  ShowMessage("【セーラ】（好感度：\\V[3284]）")
  ShowMessage("姉妹ふれあい牧場、当分安泰だねっ♪")
  ShowMessageFace("renccubus_fc1",3,0,2,12)
  ShowMessage("【ニーナ】（好感度：\\V[3285]）")
  ShowMessage("大牧場も夢じゃないですね、ふふふっ……")
  JumpToLabel("メニュー")
  DefineLabel("287")
  ShowMessageFace("succubus_fc1",0,0,2,13)
  ShowMessage("【サキュバス】（好感度：\\V[3287]）")
  ShowMessage("はい、イモをどうぞ……")
  ShowMessageFace("minccubus_fc1",3,0,2,14)
  ShowMessage("【セーラ】（好感度：\\V[3284]）")
  ShowMessage("ワーイ！　アタシ、オイモダイスキー！")
  ShowMessageFace("succubus_fc1",1,0,2,15)
  ShowMessage("【サキュバス】（好感度：\\V[3287]）")
  ShowMessage("うふふっ、おかわりもありますよ……")
  ShowMessageFace("minccubus_fc1",3,0,2,16)
  ShowMessage("【セーラ】（好感度：\\V[3284]）")
  ShowMessage("○×△□◇※☆◇！！")
  JumpToLabel("メニュー")
  DefineLabel("メニュー")
  StartLoop()
   355("unlimited_choices(11, [\"プレゼントをあげる\",")
   655("\"パーティに加える\",")
   655("\"プレゼントリストを見る\",\"おねだりする\",")
   655("\"やめる\"])")
   If(1,11,0,0,0)
    355("present_start(284)")
    0()
   EndIf()
   If(1,11,0,1,0)
    PictureClear(5)
    355("move_actor_ex(284)")
    EndEventProcessing()
    0()
   EndIf()
   If(1,11,0,2,0)
    ShowMessageFace("",0,0,2,17)
    ShowMessage("好感度 100:不思議なかんざし")
    ShowMessage("好感度 500:カードの書")
    ShowMessage("好感度2000:スターオーブ")
    ShowMessage("好感度4000:センシブガード")
    0()
   EndIf()
   If(1,11,0,3,0)
    PictureClear(5)
    ShowMessageFace("",0,0,2,18)
    ShowMessage("何をおねだりしますか？（好感度：\\V[3284]）")
    355("unlimited_choices(12,")
    655(" [\"靴下コキ（好感度:10）\",")
    655("\"パンツコキ（好感度:30）\",")
    655("\"髪コキ（好感度:50）\",")
    655("\"フェラ（好感度:100）\",")
    655("\"やめる\"])")
    If(1,12,0,0,0)
     If(1,3284,0,10,1)
      355("call_novel_scene(5231)")
      EndEventProcessing()
      0()
     Else()
      ShowMessageFace("minccubus_fc1",1,0,2,19)
      ShowMessage("【セーラ】（好感度：\\V[3284]）")
      ShowMessage("あたしが大きくなってからね♪")
      0()
     EndIf()
     0()
    EndIf()
    If(1,12,0,1,0)
     If(1,3284,0,30,1)
      355("call_novel_scene(5232)")
      EndEventProcessing()
      0()
     Else()
      ShowMessageFace("minccubus_fc1",1,0,2,20)
      ShowMessage("【セーラ】（好感度：\\V[3284]）")
      ShowMessage("あたしが大きくなってからね♪")
      0()
     EndIf()
     0()
    EndIf()
    If(1,12,0,2,0)
     If(1,3284,0,50,1)
      355("call_novel_scene(5233)")
      EndEventProcessing()
      0()
     Else()
      ShowMessageFace("minccubus_fc1",1,0,2,21)
      ShowMessage("【セーラ】（好感度：\\V[3284]）")
      ShowMessage("あたしが大きくなってからね♪")
      0()
     EndIf()
     0()
    EndIf()
    If(1,12,0,3,0)
     If(1,3284,0,100,1)
      355("call_novel_scene(5234)")
      EndEventProcessing()
      0()
     Else()
      ShowMessageFace("minccubus_fc1",1,0,2,22)
      ShowMessage("【セーラ】（好感度：\\V[3284]）")
      ShowMessage("あたしが大きくなってからね♪")
      0()
     EndIf()
     0()
    EndIf()
    0()
   EndIf()
   If(1,11,0,4,1)
    PictureClear(5)
    EndEventProcessing()
    0()
   EndIf()
   0()
  EndLoop()
  0()
 PAGE   2
  // condition: party contains actor #284
  0()



EVENT   16
 PAGE   1
  // condition: switch 1285 is ON
  PictureDisplay(5,"80_renccubus_st21",0,0,0,0,100,100,0,0)
  PictureMove(5,null,0,0,0,0,100,100,255,0,30,true)
  If(1,3285,0,100,1)
   If(1,4285,0,0,0)
    ChangeVariable(4285,4285,0,0,1)
    ShowMessageFace("renccubus_fc1",1,0,2,1)
    ShowMessage("【ニーナ】（好感度：\\V[3285]）")
    ShowMessage("これ、使って下さい。")
    250(bytes(0x04,0x08,0x6f,0x3a,0x0c,0x52,0x50,0x47,0x3a,0x3a,0x53,0x45,0x08,0x3a,0x0a,0x40,0x6e,0x61,0x6d,0x65,0x49,0x22,0x0a,0x49,0x74,0x65,0x6d,0x31,0x06,0x3a,0x06,0x45,0x54,0x3a,0x0b,0x40,0x70,0x69,0x74,0x63,0x68,0x69,0x69,0x3a,0x0c,0x40,0x76,0x6f,0x6c,0x75,0x6d,0x65,0x69,0x55))
    ChangeInventoryArmor(1113,0,0,1,false)
    0()
   EndIf()
   0()
  EndIf()
  If(1,3285,0,500,1)
   If(1,4285,0,1,0)
    ChangeVariable(4285,4285,0,0,2)
    ShowMessageFace("renccubus_fc1",1,0,2,2)
    ShowMessage("【ニーナ】（好感度：\\V[3285]）")
    ShowMessage("これ、使って下さい。")
    250(bytes(0x04,0x08,0x6f,0x3a,0x0c,0x52,0x50,0x47,0x3a,0x3a,0x53,0x45,0x08,0x3a,0x0a,0x40,0x6e,0x61,0x6d,0x65,0x49,0x22,0x0a,0x49,0x74,0x65,0x6d,0x31,0x06,0x3a,0x06,0x45,0x54,0x3a,0x0b,0x40,0x70,0x69,0x74,0x63,0x68,0x69,0x69,0x3a,0x0c,0x40,0x76,0x6f,0x6c,0x75,0x6d,0x65,0x69,0x55))
    ChangeInventoryArmor(1582,0,0,1,false)
    0()
   EndIf()
   0()
  EndIf()
  If(1,3285,0,2000,1)
   If(1,4285,0,2,0)
    ChangeVariable(4285,4285,0,0,3)
    ShowMessageFace("renccubus_fc1",1,0,2,3)
    ShowMessage("【ニーナ】（好感度：\\V[3285]）")
    ShowMessage("これ、使って下さい。")
    250(bytes(0x04,0x08,0x6f,0x3a,0x0c,0x52,0x50,0x47,0x3a,0x3a,0x53,0x45,0x08,0x3a,0x0a,0x40,0x6e,0x61,0x6d,0x65,0x49,0x22,0x0a,0x49,0x74,0x65,0x6d,0x31,0x06,0x3a,0x06,0x45,0x54,0x3a,0x0b,0x40,0x70,0x69,0x74,0x63,0x68,0x69,0x69,0x3a,0x0c,0x40,0x76,0x6f,0x6c,0x75,0x6d,0x65,0x69,0x55))
    ChangeInventoryArmor(1434,0,0,1,false)
    0()
   EndIf()
   0()
  EndIf()
  If(1,3285,0,4000,1)
   If(1,4285,0,3,0)
    ChangeVariable(4285,4285,0,0,4)
    ShowMessageFace("renccubus_fc1",1,0,2,4)
    ShowMessage("【ニーナ】（好感度：\\V[3285]）")
    ShowMessage("これ、使って下さい。")
    250(bytes(0x04,0x08,0x6f,0x3a,0x0c,0x52,0x50,0x47,0x3a,0x3a,0x53,0x45,0x08,0x3a,0x0a,0x40,0x6e,0x61,0x6d,0x65,0x49,0x22,0x0a,0x49,0x74,0x65,0x6d,0x31,0x06,0x3a,0x06,0x45,0x54,0x3a,0x0b,0x40,0x70,0x69,0x74,0x63,0x68,0x69,0x69,0x3a,0x0c,0x40,0x76,0x6f,0x6c,0x75,0x6d,0x65,0x69,0x55))
    ChangeInventoryArmor(1048,0,0,1,false)
    0()
   EndIf()
   0()
  EndIf()
  355("actor_label_jump")
  ShowMessageFace("renccubus_fc1",1,0,2,5)
  ShowMessage("【ニーナ】（好感度：\\V[3285]）")
  ShowMessage("このお城でも、牧場を開きたいな……")
  ShowMessage("牛かヒトを飼ってもいいですよね？")
  JumpToLabel("メニュー")
  DefineLabel("284")
  ShowMessageFace("minccubus_fc1",2,0,2,6)
  ShowMessage("【セーラ】（好感度：\\V[3284]）")
  ShowMessage("おねぇちゃ～ん！")
  ShowMessage("今日もいっぱい、ミルク搾ったよっ♪")
  ShowMessageFace("renccubus_fc1",2,0,2,7)
  ShowMessage("【ニーナ】（好感度：\\V[3285]）")
  ShowMessage("あたしも、たくさんミルク搾りをしました。")
  ShowMessage("今日もどっぷりですよ……")
  ShowMessageFace("minccubus_fc1",2,0,2,8)
  ShowMessage("【セーラ】（好感度：\\V[3284]）")
  ShowMessage("姉妹ふれあい牧場、当分安泰だねっ♪")
  ShowMessageFace("renccubus_fc1",3,0,2,9)
  ShowMessage("【ニーナ】（好感度：\\V[3285]）")
  ShowMessage("大牧場も夢じゃないですね、ふふふっ……")
  JumpToLabel("メニュー")
  DefineLabel("285")
  ShowMessageFace("succubus_fc1",0,0,2,10)
  ShowMessage("【サキュバス】（好感度：\\V[3287]）")
  ShowMessage("はい、イモをどうぞ……")
  ShowMessageFace("renccubus_fc1",4,0,2,11)
  ShowMessage("【ニーナ】（好感度：\\V[3285]）")
  ShowMessage("その……たまには、他のものも食べたいと思いません？")
  ShowMessageFace("succubus_fc1",0,0,2,12)
  ShowMessage("【サキュバス】（好感度：\\V[3287]）")
  ShowMessage("イモは美味しくて、栄養があるのですよ。")
  ShowMessageFace("renccubus_fc1",4,0,2,13)
  ShowMessage("【ニーナ】（好感度：\\V[3285]）")
  ShowMessage("はぅぅ……")
  ShowMessage("これさえなければ、良い村長さんなのに……")
  JumpToLabel("メニュー")
  DefineLabel("287")
  ShowMessageFace("succubus_fc1",0,0,2,14)
  ShowMessage("【サキュバス】（好感度：\\V[3287]）")
  ShowMessage("はい、イモをどうぞ……")
  ShowMessageFace("renccubus_fc1",4,0,2,15)
  ShowMessage("【ニーナ】（好感度：\\V[3285]）")
  ShowMessage("その……たまには、他のものも食べたいと思いません？")
  ShowMessageFace("succubus_fc1",0,0,2,16)
  ShowMessage("【サキュバス】（好感度：\\V[3287]）")
  ShowMessage("イモは美味しくて、栄養があるのですよ。")
  ShowMessageFace("renccubus_fc1",4,0,2,17)
  ShowMessage("【ニーナ】（好感度：\\V[3285]）")
  ShowMessage("はぅぅ……")
  ShowMessage("これさえなければ、良い村長さんなのに……")
  JumpToLabel("メニュー")
  DefineLabel("メニュー")
  StartLoop()
   355("unlimited_choices(11, [\"プレゼントをあげる\",")
   655("\"パーティに加える\",")
   655("\"プレゼントリストを見る\",\"おねだりする\",")
   655("\"やめる\"])")
   If(1,11,0,0,0)
    355("present_start(285)")
    0()
   EndIf()
   If(1,11,0,1,0)
    PictureClear(5)
    355("move_actor_ex(285)")
    EndEventProcessing()
    0()
   EndIf()
   If(1,11,0,2,0)
    ShowMessageFace("",0,0,2,18)
    ShowMessage("好感度 100:ライトリング")
    ShowMessage("好感度 500:センシブチェック")
    ShowMessage("好感度2000:睡眠の印")
    ShowMessage("好感度4000:千里眼の櫛")
    0()
   EndIf()
   If(1,11,0,3,0)
    PictureClear(5)
    ShowMessageFace("",0,0,2,19)
    ShowMessage("何をおねだりしますか？（好感度：\\V[3285]）")
    ShowChoices(strings("逆レイプ（好感度:10）","やめる"),2)
    IfPlayerPicksChoice(0,null)
     If(1,3285,0,10,1)
      355("call_novel_scene(5236)")
      EndEventProcessing()
      0()
     Else()
      ShowMessageFace("renccubus_fc1",1,0,2,20)
      ShowMessage("【ニーナ】（好感度：\\V[3285]）")
      ShowMessage("明日でもいいですか……？")
      0()
     EndIf()
     0()
    IfPlayerPicksChoice(1,null)
     0()
    404()
    0()
   EndIf()
   If(1,11,0,4,1)
    PictureClear(5)
    EndEventProcessing()
    0()
   EndIf()
   0()
  EndLoop()
  0()
 PAGE   2
  // condition: party contains actor #285
  0()



EVENT   12
 PAGE   1
  // condition: switch 1252 is ON
  PictureDisplay(5,"80_scylla_st01",0,0,0,0,100,100,0,0)
  PictureMove(5,null,0,0,0,0,100,100,255,0,30,true)
  If(1,3252,0,100,1)
   If(1,4252,0,0,0)
    ChangeVariable(4252,4252,0,0,1)
    ShowMessageFace("scylla_fc1",0,0,2,1)
    ShowMessage("【キューラ】（好感度：\\V[3252]）")
    ShowMessage("はいどうぞ、受け取りなさい。")
    250(bytes(0x04,0x08,0x6f,0x3a,0x0c,0x52,0x50,0x47,0x3a,0x3a,0x53,0x45,0x08,0x3a,0x0a,0x40,0x6e,0x61,0x6d,0x65,0x49,0x22,0x0a,0x49,0x74,0x65,0x6d,0x31,0x06,0x3a,0x06,0x45,0x54,0x3a,0x0b,0x40,0x70,0x69,0x74,0x63,0x68,0x69,0x69,0x3a,0x0c,0x40,0x76,0x6f,0x6c,0x75,0x6d,0x65,0x69,0x55))
    ChangeInventoryArmor(1041,0,0,1,false)
    0()
   EndIf()
   0()
  EndIf()
  If(1,3252,0,500,1)
   If(1,4252,0,1,0)
    ChangeVariable(4252,4252,0,0,2)
    ShowMessageFace("scylla_fc1",0,0,2,2)
    ShowMessage("【キューラ】（好感度：\\V[3252]）")
    ShowMessage("はいどうぞ、受け取りなさい。")
    250(bytes(0x04,0x08,0x6f,0x3a,0x0c,0x52,0x50,0x47,0x3a,0x3a,0x53,0x45,0x08,0x3a,0x0a,0x40,0x6e,0x61,0x6d,0x65,0x49,0x22,0x0a,0x49,0x74,0x65,0x6d,0x31,0x06,0x3a,0x06,0x45,0x54,0x3a,0x0b,0x40,0x70,0x69,0x74,0x63,0x68,0x69,0x69,0x3a,0x0c,0x40,0x76,0x6f,0x6c,0x75,0x6d,0x65,0x69,0x55))
    ChangeInventoryArmor(1384,0,0,1,false)
    0()
   EndIf()
   0()
  EndIf()
  If(1,3252,0,2000,1)
   If(1,4252,0,2,0)
    ChangeVariable(4252,4252,0,0,3)
    ShowMessageFace("scylla_fc1",0,0,2,3)
    ShowMessage("【キューラ】（好感度：\\V[3252]）")
    ShowMessage("はいどうぞ、受け取りなさい。")
    250(bytes(0x04,0x08,0x6f,0x3a,0x0c,0x52,0x50,0x47,0x3a,0x3a,0x53,0x45,0x08,0x3a,0x0a,0x40,0x6e,0x61,0x6d,0x65,0x49,0x22,0x0a,0x49,0x74,0x65,0x6d,0x31,0x06,0x3a,0x06,0x45,0x54,0x3a,0x0b,0x40,0x70,0x69,0x74,0x63,0x68,0x69,0x69,0x3a,0x0c,0x40,0x76,0x6f,0x6c,0x75,0x6d,0x65,0x69,0x55))
    ChangeInventoryArmor(1043,0,0,1,false)
    0()
   EndIf()
   0()
  EndIf()
  If(1,3252,0,4000,1)
   If(1,4252,0,3,0)
    ChangeVariable(4252,4252,0,0,4)
    ShowMessageFace("scylla_fc1",0,0,2,4)
    ShowMessage("【キューラ】（好感度：\\V[3252]）")
    ShowMessage("はいどうぞ、受け取りなさい。")
    250(bytes(0x04,0x08,0x6f,0x3a,0x0c,0x52,0x50,0x47,0x3a,0x3a,0x53,0x45,0x08,0x3a,0x0a,0x40,0x6e,0x61,0x6d,0x65,0x49,0x22,0x0a,0x49,0x74,0x65,0x6d,0x31,0x06,0x3a,0x06,0x45,0x54,0x3a,0x0b,0x40,0x70,0x69,0x74,0x63,0x68,0x69,0x69,0x3a,0x0c,0x40,0x76,0x6f,0x6c,0x75,0x6d,0x65,0x69,0x55))
    ChangeInventoryArmor(1223,0,0,1,false)
    0()
   EndIf()
   0()
  EndIf()
  355("actor_label_jump")
  ShowMessageFace("scylla_fc1",0,0,2,5)
  ShowMessage("【キューラ】（好感度：\\V[3252]）")
  ShowMessage("触手が退屈よ……")
  ShowMessage("ねぇ、何か楽しい事はないの？")
  JumpToLabel("メニュー")
  DefineLabel("113")
  ShowMessageFace("lamia_fc1",2,0,2,6)
  ShowMessage("【アナスタシア】（好感度：\\V[3113]）")
  ShowMessage("スキュラは嫌いよ……")
  ShowMessageFace("scylla_fc1",2,0,2,7)
  ShowMessage("【キューラ】（好感度：\\V[3252]）")
  ShowMessage("ラミアなんて、最悪ね……")
  ShowMessageFace("lamia_fc1",2,0,2,8)
  ShowMessage("【アナスタシア】（好感度：\\V[3113]）")
  ShowMessage("にゅるにゅるしていて、気持ち悪いわ……")
  ShowMessageFace("scylla_fc1",2,0,2,9)
  ShowMessage("【キューラ】（好感度：\\V[3252]）")
  ShowMessage("あんたこそ、にゅるにゅるしてて不気味ね……")
  JumpToLabel("メニュー")
  DefineLabel("193")
  ShowMessageFace("scylla_fc1",2,0,2,10)
  ShowMessage("【キューラ】（好感度：\\V[3252]）")
  ShowMessage("下半身から、オオカミが生えてるじゃない……")
  ShowMessage("あなた、変わったスキュラね。")
  ShowMessageFace("u_scylla_fc1",0,0,2,11)
  ShowMessage("【フリル】（好感度：\\V[3193]）")
  ShowMessage("スキュラは元々、こういう魔物だったんだって。")
  ShowMessage("私の種族は、オリジナルのスキュラに近いのよ。")
  ShowMessageFace("scylla_fc1",2,0,2,12)
  ShowMessage("【キューラ】（好感度：\\V[3252]）")
  ShowMessage("そのオオカミ……あなたの触手をかじってるわよ……？")
  ShowMessageFace("u_scylla_fc1",0,0,2,13)
  ShowMessage("【フリル】（好感度：\\V[3193]）")
  ShowMessage("ああ、これ？")
  ShowMessage("お腹が減ると、触手を食べるのよ。")
  ShowMessageFace("scylla_fc1",2,0,2,14)
  ShowMessage("【キューラ】（好感度：\\V[3252]）")
  ShowMessage("ありえないわ……")
  JumpToLabel("メニュー")
  DefineLabel("199")
  ShowMessageFace("dagon_fc1",0,0,2,15)
  ShowMessage("【セラフィ】（好感度：\\V[3199]）")
  ShowMessage("タコです！")
  ShowMessageFace("scylla_fc1",2,0,2,16)
  ShowMessage("【キューラ】（好感度：\\V[3252]）")
  ShowMessage("私は、イカじゃないわよ……")
  ShowMessageFace("dagon_fc1",0,0,2,17)
  ShowMessage("【セラフィ】（好感度：\\V[3199]）")
  ShowMessage("なぜ素直に認めないんですかぁ……？")
  ShowMessageFace("scylla_fc1",2,0,2,18)
  ShowMessage("【キューラ】（好感度：\\V[3252]）")
  ShowMessage("だから、イカじゃないって言ってるでしょ！")
  JumpToLabel("メニュー")
  DefineLabel("279")
  ShowMessageFace("scylla_fc1",0,0,2,19)
  ShowMessage("【キューラ】（好感度：\\V[3252]）")
  ShowMessage("あなたは、海棲タイプのスキュラなのね。")
  ShowMessageFace("e_scylla_fc1",0,0,2,20)
  ShowMessage("【オーマ】（好感度：\\V[3279]）")
  ShowMessage("そうよ……")
  ShowMessage("深海をこの触手で泳ぐの。")
  ShowMessageFace("scylla_fc1",0,0,2,21)
  ShowMessage("【キューラ】（好感度：\\V[3252]）")
  ShowMessage("でも、イカじゃないわね……")
  ShowMessageFace("e_scylla_fc1",0,0,2,22)
  ShowMessage("【オーマ】（好感度：\\V[3279]）")
  ShowMessage("ええ、イカじゃないわね……")
  ShowMessageFace("sonia_fc4",0,0,2,23)
  ShowMessage("【ソニア】")
  ShowMessage("スキュラって、イカじゃないのにこだわるわね……")
  JumpToLabel("メニュー")
  DefineLabel("メニュー")
  StartLoop()
   355("unlimited_choices(11, [\"プレゼントをあげる\",")
   655("\"パーティに加える\",")
   655("\"プレゼントリストを見る\",\"おねだりする\",")
   655("\"やめる\"])")
   If(1,11,0,0,0)
    355("present_start(252)")
    0()
   EndIf()
   If(1,11,0,1,0)
    PictureClear(5)
    355("move_actor_ex(252)")
    EndEventProcessing()
    0()
   EndIf()
   If(1,11,0,2,0)
    ShowMessageFace("",0,0,2,24)
    ShowMessage("好感度 100:細心の首飾り")
    ShowMessage("好感度 500:触手技の書")
    ShowMessage("好感度2000:技巧の首飾り")
    ShowMessage("好感度4000:ラミア破りの呪符")
    0()
   EndIf()
   If(1,11,0,3,0)
    PictureClear(5)
    ShowMessageFace("",0,0,2,25)
    ShowMessage("何をおねだりしますか？（好感度：\\V[3252]）")
    ShowChoices(strings("逆レイプ（好感度:10）","やめる"),2)
    IfPlayerPicksChoice(0,null)
     If(1,3252,0,10,1)
      355("call_novel_scene(5071)")
      EndEventProcessing()
      0()
     Else()
      ShowMessageFace("scylla_fc1",0,0,2,26)
      ShowMessage("【キューラ】（好感度：\\V[3252]）")
      ShowMessage("もう少し、おあずけよ……")
      0()
     EndIf()
     0()
    IfPlayerPicksChoice(1,null)
     0()
    404()
    0()
   EndIf()
   If(1,11,0,4,1)
    PictureClear(5)
    EndEventProcessing()
    0()
   EndIf()
   0()
  EndLoop()
  0()
 PAGE   2
  // condition: party contains actor #252
  0()



EVENT   13
 PAGE   1
  // condition: switch 1253 is ON
  PictureDisplay(5,"80_medusa_st01",0,0,0,0,100,100,0,0)
  PictureMove(5,null,0,0,0,0,100,100,255,0,30,true)
  If(1,3253,0,100,1)
   If(1,4253,0,0,0)
    ChangeVariable(4253,4253,0,0,1)
    ShowMessageFace("medusa_fc1",1,0,2,1)
    ShowMessage("【デューサ】（好感度：\\V[3253]）")
    ShowMessage("蛇達が、拾ってきたわ……")
    250(bytes(0x04,0x08,0x6f,0x3a,0x0c,0x52,0x50,0x47,0x3a,0x3a,0x53,0x45,0x08,0x3a,0x0a,0x40,0x6e,0x61,0x6d,0x65,0x49,0x22,0x0a,0x49,0x74,0x65,0x6d,0x31,0x06,0x3a,0x06,0x45,0x54,0x3a,0x0b,0x40,0x70,0x69,0x74,0x63,0x68,0x69,0x69,0x3a,0x0c,0x40,0x76,0x6f,0x6c,0x75,0x6d,0x65,0x69,0x55))
    ChangeInventoryArmor(1026,0,0,1,false)
    0()
   EndIf()
   0()
  EndIf()
  If(1,3253,0,500,1)
   If(1,4253,0,1,0)
    ChangeVariable(4253,4253,0,0,2)
    ShowMessageFace("medusa_fc1",1,0,2,2)
    ShowMessage("【デューサ】（好感度：\\V[3253]）")
    ShowMessage("蛇達が、拾ってきたわ……")
    250(bytes(0x04,0x08,0x6f,0x3a,0x0c,0x52,0x50,0x47,0x3a,0x3a,0x53,0x45,0x08,0x3a,0x0a,0x40,0x6e,0x61,0x6d,0x65,0x49,0x22,0x0a,0x49,0x74,0x65,0x6d,0x31,0x06,0x3a,0x06,0x45,0x54,0x3a,0x0b,0x40,0x70,0x69,0x74,0x63,0x68,0x69,0x69,0x3a,0x0c,0x40,0x76,0x6f,0x6c,0x75,0x6d,0x65,0x69,0x55))
    ChangeInventoryArmor(1381,0,0,1,false)
    0()
   EndIf()
   0()
  EndIf()
  If(1,3253,0,2000,1)
   If(1,4253,0,2,0)
    ChangeVariable(4253,4253,0,0,3)
    ShowMessageFace("medusa_fc1",1,0,2,3)
    ShowMessage("【デューサ】（好感度：\\V[3253]）")
    ShowMessage("蛇達が、拾ってきたわ……")
    250(bytes(0x04,0x08,0x6f,0x3a,0x0c,0x52,0x50,0x47,0x3a,0x3a,0x53,0x45,0x08,0x3a,0x0a,0x40,0x6e,0x61,0x6d,0x65,0x49,0x22,0x0a,0x49,0x74,0x65,0x6d,0x31,0x06,0x3a,0x06,0x45,0x54,0x3a,0x0b,0x40,0x70,0x69,0x74,0x63,0x68,0x69,0x69,0x3a,0x0c,0x40,0x76,0x6f,0x6c,0x75,0x6d,0x65,0x69,0x55))
    ChangeInventoryArmor(1473,0,0,1,false)
    0()
   EndIf()
   0()
  EndIf()
  If(1,3253,0,4000,1)
   If(1,4253,0,3,0)
    ChangeVariable(4253,4253,0,0,4)
    ShowMessageFace("medusa_fc1",1,0,2,4)
    ShowMessage("【デューサ】（好感度：\\V[3253]）")
    ShowMessage("蛇達が、拾ってきたわ……")
    250(bytes(0x04,0x08,0x6f,0x3a,0x0c,0x52,0x50,0x47,0x3a,0x3a,0x53,0x45,0x08,0x3a,0x0a,0x40,0x6e,0x61,0x6d,0x65,0x49,0x22,0x0a,0x49,0x74,0x65,0x6d,0x31,0x06,0x3a,0x06,0x45,0x54,0x3a,0x0b,0x40,0x70,0x69,0x74,0x63,0x68,0x69,0x69,0x3a,0x0c,0x40,0x76,0x6f,0x6c,0x75,0x6d,0x65,0x69,0x55))
    ChangeInventoryArmor(1575,0,0,1,false)
    0()
   EndIf()
   0()
  EndIf()
  355("actor_label_jump")
  ShowMessageFace("medusa_fc1",0,0,2,5)
  ShowMessage("【デューサ】（好感度：\\V[3253]）")
  ShowMessage("頭の蛇が、また一匹迷子になったわ……")
  ShowMessage("またネズミ採りを仕掛けなくちゃ。")
  JumpToLabel("メニュー")
  DefineLabel("214")
  ShowMessageFace("medusa_fc1",0,0,2,6)
  ShowMessage("【デューサ】（好感度：\\V[3253]）")
  ShowMessage("あなたは、ラミアかメデューサか分からないわね……")
  ShowMessageFace("nureonnna_fc1",0,0,2,7)
  ShowMessage("【白波】（好感度：\\V[3214]）")
  ShowMessage("濡れ女……妖怪の一種よ。")
  ShowMessage("濡れているけど、いちおうラミアかしら？")
  ShowMessageFace("medusa_fc1",1,0,2,8)
  ShowMessage("【デューサ】（好感度：\\V[3253]）")
  ShowMessage("濡れ女……いやらしい名前ね。")
  ShowMessageFace("nureonnna_fc1",0,0,2,9)
  ShowMessage("【白波】（好感度：\\V[3214]）")
  ShowMessage("ふふっ……私の蛇も、いやらしいわよ。")
  JumpToLabel("メニュー")
  DefineLabel("297")
  ShowMessageFace("medusa_fc1",1,0,2,10)
  ShowMessage("【デューサ】（好感度：\\V[3253]）")
  ShowMessage("あなたも、獲物を石にするのが好きと見たわ……")
  ShowMessageFace("basilisk_fc1",0,0,2,11)
  ShowMessage("【バージリン】（好感度：\\V[3297]）")
  ShowMessage("いかにもその通りだ、メデューサよ。")
  ShowMessageFace("medusa_fc1",0,0,2,12)
  ShowMessage("【デューサ】（好感度：\\V[3253]）")
  ShowMessage("私もそうなのよ……")
  ShowMessage("……えっと、ニワトリ娘？")
  ShowMessageFace("basilisk_fc1",0,0,2,13)
  ShowMessage("【バージリン】（好感度：\\V[3297]）")
  ShowMessage("バジリスクだ！　コケーッ！！")
  JumpToLabel("メニュー")
  DefineLabel("345")
  ShowMessageFace("medusa_fc1",1,0,2,14)
  ShowMessage("【デューサ】（好感度：\\V[3253]）")
  ShowMessage("お互い、蛇の世話は大変よね……")
  ShowMessageFace("zyakotuonna_fc1",0,0,2,15)
  ShowMessage("【蛇骨殿】（好感度：\\V[3345]）")
  ShowMessage("お主の蛇は小さいが、数が多いな……")
  ShowMessage("餌は少なく済んでも、世話が大変だろう。")
  ShowMessageFace("medusa_fc1",0,0,2,16)
  ShowMessage("【デューサ】（好感度：\\V[3253]）")
  ShowMessage("ええ、確かに……")
  ShowMessage("こら蛇！　ケンカしないの！")
  ShowMessageFace("zyakotuonna_fc1",0,0,2,17)
  ShowMessage("【蛇骨殿】（好感度：\\V[3345]）")
  ShowMessage("おうおう、我が蛇まで荒ぶって……")
  ShowMessage("やはり、蛇同士は相性が悪いと見える。")
  JumpToLabel("メニュー")
  DefineLabel("メニュー")
  StartLoop()
   355("unlimited_choices(11, [\"プレゼントをあげる\",")
   655("\"パーティに加える\",")
   655("\"プレゼントリストを見る\",\"おねだりする\",")
   655("\"やめる\"])")
   If(1,11,0,0,0)
    355("present_start(253)")
    0()
   EndIf()
   If(1,11,0,1,0)
    PictureClear(5)
    355("move_actor_ex(253)")
    EndEventProcessing()
    0()
   EndIf()
   If(1,11,0,2,0)
    ShowMessageFace("",0,0,2,18)
    ShowMessage("好感度 100:イヤリング")
    ShowMessage("好感度 500:蛇技の書")
    ShowMessage("好感度2000:敏感の印")
    ShowMessage("好感度4000:ストーンガード")
    0()
   EndIf()
   If(1,11,0,3,0)
    PictureClear(5)
    ShowMessageFace("",0,0,2,19)
    ShowMessage("何をおねだりしますか？（好感度：\\V[3253]）")
    ShowChoices(strings("蛇責め（好感度:10）","やめる"),2)
    IfPlayerPicksChoice(0,null)
     If(1,3253,0,10,1)
      355("call_novel_scene(5076)")
      EndEventProcessing()
      0()
     Else()
      ShowMessageFace("medusa_fc1",0,0,2,20)
      ShowMessage("【デューサ】（好感度：\\V[3253]）")
      ShowMessage("仲良くないじゃない……")
      0()
     EndIf()
     0()
    IfPlayerPicksChoice(1,null)
     0()
    404()
    0()
   EndIf()
   If(1,11,0,4,1)
    PictureClear(5)
    EndEventProcessing()
    0()
   EndIf()
   0()
  EndLoop()
  0()
 PAGE   2
  // condition: party contains actor #253
  0()



EVENT   19
 PAGE   1
  // condition: switch 1270 is ON
  PictureDisplay(5,"80_lamiad_st01",0,0,0,0,100,100,0,0)
  PictureMove(5,null,0,0,0,0,100,100,255,0,30,true)
  If(1,3270,0,100,1)
   If(1,4270,0,0,0)
    ChangeVariable(4270,4270,0,0,1)
    ShowMessageFace("lamiad_fc1",1,0,2,1)
    ShowMessage("【アルビーナ】（好感度：\\V[3270]）")
    ShowMessage("ほら、受け取ってよ！")
    250(bytes(0x04,0x08,0x6f,0x3a,0x0c,0x52,0x50,0x47,0x3a,0x3a,0x53,0x45,0x08,0x3a,0x0a,0x40,0x6e,0x61,0x6d,0x65,0x49,0x22,0x0a,0x49,0x74,0x65,0x6d,0x31,0x06,0x3a,0x06,0x45,0x54,0x3a,0x0b,0x40,0x70,0x69,0x74,0x63,0x68,0x69,0x69,0x3a,0x0c,0x40,0x76,0x6f,0x6c,0x75,0x6d,0x65,0x69,0x55))
    ChangeInventoryArmor(1054,0,0,1,false)
    0()
   EndIf()
   0()
  EndIf()
  If(1,3270,0,500,1)
   If(1,4270,0,1,0)
    ChangeVariable(4270,4270,0,0,2)
    ShowMessageFace("lamiad_fc1",1,0,2,2)
    ShowMessage("【アルビーナ】（好感度：\\V[3270]）")
    ShowMessage("ほら、受け取ってよ！")
    250(bytes(0x04,0x08,0x6f,0x3a,0x0c,0x52,0x50,0x47,0x3a,0x3a,0x53,0x45,0x08,0x3a,0x0a,0x40,0x6e,0x61,0x6d,0x65,0x49,0x22,0x0a,0x49,0x74,0x65,0x6d,0x31,0x06,0x3a,0x06,0x45,0x54,0x3a,0x0b,0x40,0x70,0x69,0x74,0x63,0x68,0x69,0x69,0x3a,0x0c,0x40,0x76,0x6f,0x6c,0x75,0x6d,0x65,0x69,0x55))
    ChangeInventoryArmor(1366,0,0,1,false)
    0()
   EndIf()
   0()
  EndIf()
  If(1,3270,0,2000,1)
   If(1,4270,0,2,0)
    ChangeVariable(4270,4270,0,0,3)
    ShowMessageFace("lamiad_fc1",1,0,2,3)
    ShowMessage("【アルビーナ】（好感度：\\V[3270]）")
    ShowMessage("ほら、受け取ってよ！")
    250(bytes(0x04,0x08,0x6f,0x3a,0x0c,0x52,0x50,0x47,0x3a,0x3a,0x53,0x45,0x08,0x3a,0x0a,0x40,0x6e,0x61,0x6d,0x65,0x49,0x22,0x0a,0x49,0x74,0x65,0x6d,0x31,0x06,0x3a,0x06,0x45,0x54,0x3a,0x0b,0x40,0x70,0x69,0x74,0x63,0x68,0x69,0x69,0x3a,0x0c,0x40,0x76,0x6f,0x6c,0x75,0x6d,0x65,0x69,0x55))
    ChangeInventoryArmor(1422,0,0,1,false)
    0()
   EndIf()
   0()
  EndIf()
  If(1,3270,0,4000,1)
   If(1,4270,0,3,0)
    ChangeVariable(4270,4270,0,0,4)
    ShowMessageFace("lamiad_fc1",1,0,2,4)
    ShowMessage("【アルビーナ】（好感度：\\V[3270]）")
    ShowMessage("ほら、受け取ってよ！")
    250(bytes(0x04,0x08,0x6f,0x3a,0x0c,0x52,0x50,0x47,0x3a,0x3a,0x53,0x45,0x08,0x3a,0x0a,0x40,0x6e,0x61,0x6d,0x65,0x49,0x22,0x0a,0x49,0x74,0x65,0x6d,0x31,0x06,0x3a,0x06,0x45,0x54,0x3a,0x0b,0x40,0x70,0x69,0x74,0x63,0x68,0x69,0x69,0x3a,0x0c,0x40,0x76,0x6f,0x6c,0x75,0x6d,0x65,0x69,0x55))
    ChangeInventoryArmor(1224,0,0,1,false)
    0()
   EndIf()
   0()
  EndIf()
  355("actor_label_jump")
  ShowMessageFace("lamiad_fc1",0,0,2,5)
  ShowMessage("【アルビーナ】（好感度：\\V[3270]）")
  ShowMessage("今日もスキュラに闇討ちしないと……")
  ShowMessage("それはともかく、私に用事？")
  JumpToLabel("メニュー")
  DefineLabel("113")
  ShowMessageFace("lamia_fc1",2,0,2,6)
  ShowMessage("【アナスタシア】（好感度：\\V[3113]）")
  ShowMessage("あなた……なんだか悪そうなラミアよねぇ。")
  ShowMessageFace("lamiad_fc1",0,0,2,7)
  ShowMessage("【アルビーナ】（好感度：\\V[3270]）")
  ShowMessage("だって、デーモンラミアだもんね。")
  ShowMessage("デーモンだから、とっても悪いよ♪")
  ShowMessageFace("lamia_fc1",0,0,2,8)
  ShowMessage("【アナスタシア】（好感度：\\V[3113]）")
  ShowMessage("具体的に、どう悪いの？")
  ShowMessageFace("lamiad_fc1",0,0,2,9)
  ShowMessage("【アルビーナ】（好感度：\\V[3270]）")
  ShowMessage("ほら……えっと、体の色が紫だったり……")
  ShowMessage("変な模様があったり……")
  ShowMessageFace("lamia_fc1",2,0,2,10)
  ShowMessage("【アナスタシア】（好感度：\\V[3113]）")
  ShowMessage("別に悪くないわね……")
  JumpToLabel("メニュー")
  DefineLabel("227")
  ShowMessageFace("lamiad_fc1",0,0,2,11)
  ShowMessage("【アルビーナ】（好感度：\\V[3270]）")
  ShowMessage("巫女なんてやってて、よく禁欲できるよね。")
  ShowMessage("本当は、欲望を解放したいでしょ？")
  ShowMessageFace("mikolamia_fc1",2,0,2,12)
  ShowMessage("【魅月】（好感度：\\V[3227]）")
  ShowMessage("そ、そんな事はありません……")
  ShowMessageFace("lamiad_fc1",1,0,2,13)
  ShowMessage("【アルビーナ】（好感度：\\V[3270]）")
  ShowMessage("煩悩解放しちゃえ～♪")
  ShowMessage("欲にまみれちゃえ～♪")
  ShowMessageFace("mikolamia_fc1",2,0,2,14)
  ShowMessage("【魅月】（好感度：\\V[3227]）")
  ShowMessage("あぅぅっ……！　や、やめて下さい……！")
  JumpToLabel("メニュー")
  DefineLabel("271")
  ShowMessageFace("lamiad_fc1",0,0,2,15)
  ShowMessage("【アルビーナ】（好感度：\\V[3270]）")
  ShowMessage("デーモンスキュラ……")
  ShowMessage("同じデーモンといえど、スキュラとラミアは敵同士よ。")
  ShowMessageFace("scyllad_fc1",0,0,2,16)
  ShowMessage("【ミリアム】（好感度：\\V[3271]）")
  ShowMessage("こちらこそ、ラミアは嫌いです。")
  ShowMessage("しかし私達は、同じ脅威と戦う味方同士ではありませんか。")
  ShowMessageFace("lamiad_fc1",0,0,2,17)
  ShowMessage("【アルビーナ】（好感度：\\V[3270]）")
  ShowMessage("デーモン同士、力を合わせろって事ね……面白いじゃない。")
  ShowMessageFace("scyllad_fc1",0,0,2,18)
  ShowMessage("【ミリアム】（好感度：\\V[3271]）")
  ShowMessage("ええ、デーモンが世界を救います。")
  ShowMessage("はりきって行きますよ～♪")
  JumpToLabel("メニュー")
  DefineLabel("メニュー")
  StartLoop()
   355("unlimited_choices(11, [\"プレゼントをあげる\",")
   655("\"パーティに加える\",")
   655("\"プレゼントリストを見る\",\"おねだりする\",")
   655("\"やめる\"])")
   If(1,11,0,0,0)
    355("present_start(270)")
    0()
   EndIf()
   If(1,11,0,1,0)
    PictureClear(5)
    355("move_actor_ex(270)")
    EndEventProcessing()
    0()
   EndIf()
   If(1,11,0,2,0)
    ShowMessageFace("",0,0,2,19)
    ShowMessage("好感度 100:危機の数珠")
    ShowMessage("好感度 500:魔技の書")
    ShowMessage("好感度2000:毒の印")
    ShowMessage("好感度4000:スキュラ破りの呪符")
    0()
   EndIf()
   If(1,11,0,3,0)
    PictureClear(5)
    ShowMessageFace("",0,0,2,20)
    ShowMessage("何をおねだりしますか？（好感度：\\V[3270]）")
    ShowChoices(strings("尻尾コキ（好感度:10）","逆レイプ（好感度:100）","やめる"),3)
    IfPlayerPicksChoice(0,null)
     If(1,3270,0,10,1)
      355("call_novel_scene(5161)")
      EndEventProcessing()
      0()
     Else()
      ShowMessageFace("lamiad_fc1",0,0,2,21)
      ShowMessage("【アルビーナ】（好感度：\\V[3270]）")
      ShowMessage("まだ、イヤだな……")
      0()
     EndIf()
     0()
    IfPlayerPicksChoice(1,null)
     If(1,3270,0,100,1)
      355("call_novel_scene(5162)")
      EndEventProcessing()
      0()
     Else()
      ShowMessageFace("lamiad_fc1",0,0,2,22)
      ShowMessage("【アルビーナ】（好感度：\\V[3270]）")
      ShowMessage("まだ、イヤだな……")
      0()
     EndIf()
     0()
    IfPlayerPicksChoice(2,null)
     0()
    404()
    0()
   EndIf()
   If(1,11,0,4,1)
    PictureClear(5)
    EndEventProcessing()
    0()
   EndIf()
   0()
  EndLoop()
  0()
 PAGE   2
  // condition: party contains actor #270
  0()



EVENT   20
 PAGE   1
  // condition: switch 1271 is ON
  PictureDisplay(5,"80_scyllad_st01",0,0,0,0,100,100,0,0)
  PictureMove(5,null,0,0,0,0,100,100,255,0,30,true)
  If(1,3271,0,100,1)
   If(1,4271,0,0,0)
    ChangeVariable(4271,4271,0,0,1)
    ShowMessageFace("scyllad_fc1",0,0,2,1)
    ShowMessage("【ミリアム】（好感度：\\V[3271]）")
    ShowMessage("これ、使って下さいね。")
    250(bytes(0x04,0x08,0x6f,0x3a,0x0c,0x52,0x50,0x47,0x3a,0x3a,0x53,0x45,0x08,0x3a,0x0a,0x40,0x6e,0x61,0x6d,0x65,0x49,0x22,0x0a,0x49,0x74,0x65,0x6d,0x31,0x06,0x3a,0x06,0x45,0x54,0x3a,0x0b,0x40,0x70,0x69,0x74,0x63,0x68,0x69,0x69,0x3a,0x0c,0x40,0x76,0x6f,0x6c,0x75,0x6d,0x65,0x69,0x55))
    ChangeInventoryArmor(1050,0,0,1,false)
    0()
   EndIf()
   0()
  EndIf()
  If(1,3271,0,500,1)
   If(1,4271,0,1,0)
    ChangeVariable(4271,4271,0,0,2)
    ShowMessageFace("scyllad_fc1",0,0,2,2)
    ShowMessage("【ミリアム】（好感度：\\V[3271]）")
    ShowMessage("これ、使って下さいね。")
    250(bytes(0x04,0x08,0x6f,0x3a,0x0c,0x52,0x50,0x47,0x3a,0x3a,0x53,0x45,0x08,0x3a,0x0a,0x40,0x6e,0x61,0x6d,0x65,0x49,0x22,0x0a,0x49,0x74,0x65,0x6d,0x31,0x06,0x3a,0x06,0x45,0x54,0x3a,0x0b,0x40,0x70,0x69,0x74,0x63,0x68,0x69,0x69,0x3a,0x0c,0x40,0x76,0x6f,0x6c,0x75,0x6d,0x65,0x69,0x55))
    ChangeInventoryArmor(1042,0,0,1,false)
    0()
   EndIf()
   0()
  EndIf()
  If(1,3271,0,2000,1)
   If(1,4271,0,2,0)
    ChangeVariable(4271,4271,0,0,3)
    ShowMessageFace("scyllad_fc1",0,0,2,3)
    ShowMessage("【ミリアム】（好感度：\\V[3271]）")
    ShowMessage("これ、使って下さいね。")
    250(bytes(0x04,0x08,0x6f,0x3a,0x0c,0x52,0x50,0x47,0x3a,0x3a,0x53,0x45,0x08,0x3a,0x0a,0x40,0x6e,0x61,0x6d,0x65,0x49,0x22,0x0a,0x49,0x74,0x65,0x6d,0x31,0x06,0x3a,0x06,0x45,0x54,0x3a,0x0b,0x40,0x70,0x69,0x74,0x63,0x68,0x69,0x69,0x3a,0x0c,0x40,0x76,0x6f,0x6c,0x75,0x6d,0x65,0x69,0x55))
    ChangeInventoryArmor(1431,0,0,1,false)
    0()
   EndIf()
   0()
  EndIf()
  If(1,3271,0,4000,1)
   If(1,4271,0,3,0)
    ChangeVariable(4271,4271,0,0,4)
    ShowMessageFace("scyllad_fc1",0,0,2,4)
    ShowMessage("【ミリアム】（好感度：\\V[3271]）")
    ShowMessage("これ、使って下さいね。")
    250(bytes(0x04,0x08,0x6f,0x3a,0x0c,0x52,0x50,0x47,0x3a,0x3a,0x53,0x45,0x08,0x3a,0x0a,0x40,0x6e,0x61,0x6d,0x65,0x49,0x22,0x0a,0x49,0x74,0x65,0x6d,0x31,0x06,0x3a,0x06,0x45,0x54,0x3a,0x0b,0x40,0x70,0x69,0x74,0x63,0x68,0x69,0x69,0x3a,0x0c,0x40,0x76,0x6f,0x6c,0x75,0x6d,0x65,0x69,0x55))
    ChangeInventoryArmor(1223,0,0,1,false)
    0()
   EndIf()
   0()
  EndIf()
  355("actor_label_jump")
  ShowMessageFace("scyllad_fc1",0,0,2,5)
  ShowMessage("【ミリアム】（好感度：\\V[3271]）")
  ShowMessage("今日も、ラミアを締めまくらないと……")
  ShowMessage("あっ、お勤めですか？")
  JumpToLabel("メニュー")
  DefineLabel("161")
  ShowMessageFace("ustrel_fc1",0,0,2,6)
  ShowMessage("【レモン】（好感度：\\V[3161]）")
  ShowMessage("デーモンスキュラですか……")
  ShowMessage("あなたも、スキュラの亜種のようですね。")
  ShowMessageFace("scyllad_fc1",0,0,2,7)
  ShowMessage("【ミリアム】（好感度：\\V[3271]）")
  ShowMessage("私は、デーモンですよ。")
  ShowMessage("あなたは、見たところ……魔導タイプでしょうか？")
  ShowMessageFace("ustrel_fc1",0,0,2,8)
  ShowMessage("【レモン】（好感度：\\V[3161]）")
  ShowMessage("ええ……搾精触手がたくさんあるでしょう？")
  ShowMessage("周囲に噛みつくから、少々大変ですが……")
  ShowMessageFace("scyllad_fc1",0,0,2,9)
  ShowMessage("【ミリアム】（好感度：\\V[3271]）")
  ShowMessage("私の下半身のデーモンは……正直、よく分かりません。")
  ShowMessage("あんまり話とかしないですから……")
  JumpToLabel("メニュー")
  DefineLabel("270")
  ShowMessageFace("lamiad_fc1",0,0,2,10)
  ShowMessage("【アルビーナ】（好感度：\\V[3270]）")
  ShowMessage("デーモンスキュラ……")
  ShowMessage("同じデーモンといえど、スキュラとラミアは敵同士よ。")
  ShowMessageFace("scyllad_fc1",0,0,2,11)
  ShowMessage("【ミリアム】（好感度：\\V[3271]）")
  ShowMessage("こちらこそ、ラミアは嫌いです。")
  ShowMessage("しかし私達は、同じ脅威と戦う味方同士ではありませんか。")
  ShowMessageFace("lamiad_fc1",0,0,2,12)
  ShowMessage("【アルビーナ】（好感度：\\V[3270]）")
  ShowMessage("デーモン同士、力を合わせろって事ね……面白いじゃない。")
  ShowMessageFace("scyllad_fc1",0,0,2,13)
  ShowMessage("【ミリアム】（好感度：\\V[3271]）")
  ShowMessage("ええ、デーモンが世界を救います。")
  ShowMessage("はりきって行きますよ～♪")
  JumpToLabel("メニュー")
  DefineLabel("279")
  ShowMessageFace("scyllad_fc1",0,0,2,14)
  ShowMessage("【ミリアム】（好感度：\\V[3271]）")
  ShowMessage("あっ、深海タイプのスキュラですね！")
  ShowMessage("私も、海に潜ってみた事があるんですよ……")
  ShowMessageFace("e_scylla_fc1",0,0,2,15)
  ShowMessage("【オーマ】（好感度：\\V[3279]）")
  ShowMessage("へぇ……それでどうなったの？")
  ShowMessageFace("scyllad_fc1",2,0,2,16)
  ShowMessage("【ミリアム】（好感度：\\V[3271]）")
  ShowMessage("見事に溺れて、ゴルド海岸に半死半生で打ち上げられました……")
  ShowMessageFace("e_scylla_fc1",2,0,2,17)
  ShowMessage("【オーマ】（好感度：\\V[3279]）")
  ShowMessage("むぎゅっ……")
  JumpToLabel("メニュー")
  DefineLabel("メニュー")
  StartLoop()
   355("unlimited_choices(11, [\"プレゼントをあげる\",")
   655("\"パーティに加える\",")
   655("\"プレゼントリストを見る\",\"おねだりする\",")
   655("\"やめる\"])")
   If(1,11,0,0,0)
    355("present_start(271)")
    0()
   EndIf()
   If(1,11,0,1,0)
    PictureClear(5)
    355("move_actor_ex(271)")
    EndEventProcessing()
    0()
   EndIf()
   If(1,11,0,2,0)
    ShowMessageFace("",0,0,2,18)
    ShowMessage("好感度 100:カラテの数珠")
    ShowMessage("好感度 500:職人の首飾り")
    ShowMessage("好感度2000:混乱の印")
    ShowMessage("好感度4000:ラミア破りの呪符")
    0()
   EndIf()
   If(1,11,0,3,0)
    PictureClear(5)
    ShowMessageFace("",0,0,2,19)
    ShowMessage("何をおねだりしますか？（好感度：\\V[3271]）")
    ShowChoices(strings("尿道責め（好感度:10）","触手コキ（好感度:50）","逆レイプ（好感度:100）","やめる"),4)
    IfPlayerPicksChoice(0,null)
     If(1,3271,0,10,1)
      355("call_novel_scene(5166)")
      EndEventProcessing()
      0()
     Else()
      ShowMessageFace("scyllad_fc1",0,0,2,20)
      ShowMessage("【ミリアム】（好感度：\\V[3271]）")
      ShowMessage("もう少し先でいいですか……？")
      0()
     EndIf()
     0()
    IfPlayerPicksChoice(1,null)
     If(1,3271,0,50,1)
      355("call_novel_scene(5167)")
      EndEventProcessing()
      0()
     Else()
      ShowMessageFace("scyllad_fc1",0,0,2,21)
      ShowMessage("【ミリアム】（好感度：\\V[3271]）")
      ShowMessage("もう少し先でいいですか……？")
      0()
     EndIf()
     0()
    IfPlayerPicksChoice(2,null)
     If(1,3271,0,100,1)
      355("call_novel_scene(5168)")
      EndEventProcessing()
      0()
     Else()
      ShowMessageFace("scyllad_fc1",0,0,2,22)
      ShowMessage("【ミリアム】（好感度：\\V[3271]）")
      ShowMessage("もう少し先でいいですか……？")
      0()
     EndIf()
     0()
    IfPlayerPicksChoice(3,null)
     0()
    404()
    0()
   EndIf()
   If(1,11,0,4,1)
    PictureClear(5)
    EndEventProcessing()
    0()
   EndIf()
   0()
  EndLoop()
  0()
 PAGE   2
  // condition: party contains actor #271
  0()



EVENT   23
 PAGE   1
  // condition: switch 1307 is ON
  PictureDisplay(5,"80_seaanemone_st01",0,0,0,0,100,100,0,0)
  PictureMove(5,null,0,0,0,0,100,100,255,0,30,true)
  If(1,3307,0,500,1)
   If(1,4307,0,0,0)
    ChangeVariable(4307,4307,0,0,1)
    ShowMessageFace("seaanemone_fc1",0,0,2,1)
    ShowMessage("【アネモ】（好感度：\\V[3307]）")
    ShowMessage("ほら、受け取って……")
    250(bytes(0x04,0x08,0x6f,0x3a,0x0c,0x52,0x50,0x47,0x3a,0x3a,0x53,0x45,0x08,0x3a,0x0a,0x40,0x6e,0x61,0x6d,0x65,0x49,0x22,0x0a,0x49,0x74,0x65,0x6d,0x31,0x06,0x3a,0x06,0x45,0x54,0x3a,0x0b,0x40,0x70,0x69,0x74,0x63,0x68,0x69,0x69,0x3a,0x0c,0x40,0x76,0x6f,0x6c,0x75,0x6d,0x65,0x69,0x55))
    ChangeInventoryArmor(1580,0,0,1,false)
    0()
   EndIf()
   0()
  EndIf()
  If(1,3307,0,2000,1)
   If(1,4307,0,1,0)
    ChangeVariable(4307,4307,0,0,2)
    ShowMessageFace("seaanemone_fc1",0,0,2,2)
    ShowMessage("【アネモ】（好感度：\\V[3307]）")
    ShowMessage("ほら、受け取って……")
    250(bytes(0x04,0x08,0x6f,0x3a,0x0c,0x52,0x50,0x47,0x3a,0x3a,0x53,0x45,0x08,0x3a,0x0a,0x40,0x6e,0x61,0x6d,0x65,0x49,0x22,0x0a,0x49,0x74,0x65,0x6d,0x31,0x06,0x3a,0x06,0x45,0x54,0x3a,0x0b,0x40,0x70,0x69,0x74,0x63,0x68,0x69,0x69,0x3a,0x0c,0x40,0x76,0x6f,0x6c,0x75,0x6d,0x65,0x69,0x55))
    ChangeInventoryArmor(1476,0,0,1,false)
    0()
   EndIf()
   0()
  EndIf()
  If(1,3307,0,4000,1)
   If(1,4307,0,2,0)
    ChangeVariable(4307,4307,0,0,3)
    ShowMessageFace("seaanemone_fc1",0,0,2,3)
    ShowMessage("【アネモ】（好感度：\\V[3307]）")
    ShowMessage("ほら、受け取って……")
    250(bytes(0x04,0x08,0x6f,0x3a,0x0c,0x52,0x50,0x47,0x3a,0x3a,0x53,0x45,0x08,0x3a,0x0a,0x40,0x6e,0x61,0x6d,0x65,0x49,0x22,0x0a,0x49,0x74,0x65,0x6d,0x31,0x06,0x3a,0x06,0x45,0x54,0x3a,0x0b,0x40,0x70,0x69,0x74,0x63,0x68,0x69,0x69,0x3a,0x0c,0x40,0x76,0x6f,0x6c,0x75,0x6d,0x65,0x69,0x55))
    ChangeInventoryArmor(1217,0,0,1,false)
    0()
   EndIf()
   0()
  EndIf()
  If(1,3307,0,6000,1)
   If(1,4307,0,3,0)
    ChangeVariable(4307,4307,0,0,4)
    ShowMessageFace("seaanemone_fc1",0,0,2,4)
    ShowMessage("【アネモ】（好感度：\\V[3307]）")
    ShowMessage("ほら、受け取って……")
    250(bytes(0x04,0x08,0x6f,0x3a,0x0c,0x52,0x50,0x47,0x3a,0x3a,0x53,0x45,0x08,0x3a,0x0a,0x40,0x6e,0x61,0x6d,0x65,0x49,0x22,0x0a,0x49,0x74,0x65,0x6d,0x31,0x06,0x3a,0x06,0x45,0x54,0x3a,0x0b,0x40,0x70,0x69,0x74,0x63,0x68,0x69,0x69,0x3a,0x0c,0x40,0x76,0x6f,0x6c,0x75,0x6d,0x65,0x69,0x55))
    ChangeInventoryArmor(1638,0,0,1,false)
    0()
   EndIf()
   0()
  EndIf()
  355("actor_label_jump")
  ShowMessageFace("seaanemone_fc1",0,0,2,5)
  ShowMessage("【アネモ】（好感度：\\V[3307]）")
  ShowMessage("この体、床掃除に最適！")
  ShowMessage("……だと思った？　床も壁もヌルヌルのグチョグチョよ♪")
  JumpToLabel("メニュー")
  DefineLabel("116")
  ShowMessageFace("iso_fc1",0,0,2,6)
  ShowMessage("【イザベル】（好感度：\\V[3116]）")
  ShowMessage("あなたも、イソギンチャク……")
  ShowMessage("……なのかしら？")
  ShowMessageFace("seaanemone_fc1",0,0,2,7)
  ShowMessage("【アネモ】（好感度：\\V[3307]）")
  ShowMessage("そうだと思うわ……たぶん。")
  ShowMessageFace("iso_fc1",0,0,2,8)
  ShowMessage("【イザベル】（好感度：\\V[3116]）")
  ShowMessage("なんだか、変な生き物よね……")
  ShowMessageFace("seaanemone_fc1",0,0,2,9)
  ShowMessage("【アネモ】（好感度：\\V[3307]）")
  ShowMessage("自分でも不思議よ、なんなのかしら……")
  JumpToLabel("メニュー")
  DefineLabel("274")
  ShowMessageFace("seaanemone_fc1",0,0,2,10)
  ShowMessage("【アネモ】（好感度：\\V[3307]）")
  ShowMessage("あら、アスタ……")
  ShowMessage("調子は良いみたいね。")
  ShowMessageFace("hitode_fc1",2,0,2,11)
  ShowMessage("【アスタ】（好感度：\\V[3274]）")
  ShowMessage("前から思ってたんだけど……")
  ShowMessage("あなた、何の魔物なの？")
  ShowMessageFace("seaanemone_fc1",0,0,2,12)
  ShowMessage("【アネモ】（好感度：\\V[3307]）")
  ShowMessage("なんか、イソギンチャク……とか？")
  ShowMessageFace("hitode_fc1",2,0,2,13)
  ShowMessage("【アスタ】（好感度：\\V[3274]）")
  ShowMessage("とか！？")
  JumpToLabel("メニュー")
  DefineLabel("305")
  ShowMessageFace("seaanemone_fc1",0,0,2,14)
  ShowMessage("【アネモ】（好感度：\\V[3307]）")
  ShowMessage("（何かしらあれ、変な生物……）")
  ShowMessageFace("anfill_fc1",0,0,2,15)
  ShowMessage("【アンフィル】（好感度：\\V[3305]）")
  ShowMessage("（奇妙な生き物だ……）")
  ShowMessageFace("seaanemone_fc1",0,0,2,16)
  ShowMessage("【アネモ】（好感度：\\V[3307]）")
  ShowMessage("こんにちは、良い天気ね……")
  ShowMessageFace("anfill_fc1",0,0,2,17)
  ShowMessage("【アンフィル】（好感度：\\V[3305]）")
  ShowMessage("ええ、天気は良いものね……")
  ShowMessageFace("seaanemone_fc1",0,0,2,18)
  ShowMessage("【アネモ】（好感度：\\V[3307]）")
  ShowMessage("（変なの……）")
  ShowMessageFace("anfill_fc1",0,0,2,19)
  ShowMessage("【アンフィル】（好感度：\\V[3305]）")
  ShowMessage("（不気味だ……）")
  JumpToLabel("メニュー")
  DefineLabel("メニュー")
  StartLoop()
   355("unlimited_choices(11, [\"プレゼントをあげる\",")
   655("\"パーティに加える\",")
   655("\"プレゼントリストを見る\",\"おねだりする\",")
   655("\"やめる\"])")
   If(1,11,0,0,0)
    355("present_start(307)")
    0()
   EndIf()
   If(1,11,0,1,0)
    PictureClear(5)
    355("move_actor_ex(307)")
    EndEventProcessing()
    0()
   EndIf()
   If(1,11,0,2,0)
    ShowMessageFace("",0,0,2,20)
    ShowMessage("好感度 500:ヌルヌルチェック")
    ShowMessage("好感度2000:恍惚の印")
    ShowMessage("好感度4000:人魚破りの呪符")
    ShowMessage("好感度6000:冒険家の悟り")
    0()
   EndIf()
   If(1,11,0,3,0)
    PictureClear(5)
    ShowMessageFace("",0,0,2,21)
    ShowMessage("何をおねだりしますか？（好感度：\\V[3307]）")
    ShowChoices(strings("挟み込み搾精（好感度:10）","やめる"),2)
    IfPlayerPicksChoice(0,null)
     If(1,3307,0,10,1)
      355("call_novel_scene(5351)")
      EndEventProcessing()
      0()
     Else()
      ShowMessageFace("seaanemone_fc1",0,0,2,22)
      ShowMessage("【アネモ】（好感度：\\V[3307]）")
      ShowMessage("またにしない……？")
      0()
     EndIf()
     0()
    IfPlayerPicksChoice(1,null)
     0()
    404()
    0()
   EndIf()
   If(1,11,0,4,1)
    PictureClear(5)
    EndEventProcessing()
    0()
   EndIf()
   0()
  EndLoop()
  0()
 PAGE   2
  // condition: party contains actor #307
  0()



EVENT   14
 PAGE   1
  // condition: switch 1258 is ON
  PictureDisplay(5,"80_fakejelly_st01",0,0,0,0,100,100,0,0)
  PictureMove(5,null,0,0,0,0,100,100,255,0,30,true)
  If(1,3258,0,100,1)
   If(1,4258,0,0,0)
    ChangeVariable(4258,4258,0,0,1)
    ShowMessageFace("fakejelly_fc1",0,0,2,1)
    ShowMessage("【アルネ】（好感度：\\V[3258]）")
    ShowMessage("はい、どうぞ♪")
    250(bytes(0x04,0x08,0x6f,0x3a,0x0c,0x52,0x50,0x47,0x3a,0x3a,0x53,0x45,0x08,0x3a,0x0a,0x40,0x6e,0x61,0x6d,0x65,0x49,0x22,0x0a,0x49,0x74,0x65,0x6d,0x31,0x06,0x3a,0x06,0x45,0x54,0x3a,0x0b,0x40,0x70,0x69,0x74,0x63,0x68,0x69,0x69,0x3a,0x0c,0x40,0x76,0x6f,0x6c,0x75,0x6d,0x65,0x69,0x55))
    ChangeInventoryArmor(1735,0,0,1,false)
    0()
   EndIf()
   0()
  EndIf()
  If(1,3258,0,500,1)
   If(1,4258,0,1,0)
    ChangeVariable(4258,4258,0,0,2)
    ShowMessageFace("fakejelly_fc1",0,0,2,2)
    ShowMessage("【アルネ】（好感度：\\V[3258]）")
    ShowMessage("はい、どうぞ♪")
    250(bytes(0x04,0x08,0x6f,0x3a,0x0c,0x52,0x50,0x47,0x3a,0x3a,0x53,0x45,0x08,0x3a,0x0a,0x40,0x6e,0x61,0x6d,0x65,0x49,0x22,0x0a,0x49,0x74,0x65,0x6d,0x31,0x06,0x3a,0x06,0x45,0x54,0x3a,0x0b,0x40,0x70,0x69,0x74,0x63,0x68,0x69,0x69,0x3a,0x0c,0x40,0x76,0x6f,0x6c,0x75,0x6d,0x65,0x69,0x55))
    ChangeInventoryArmor(1558,0,0,1,false)
    0()
   EndIf()
   0()
  EndIf()
  If(1,3258,0,2000,1)
   If(1,4258,0,2,0)
    ChangeVariable(4258,4258,0,0,3)
    ShowMessageFace("fakejelly_fc1",0,0,2,3)
    ShowMessage("【アルネ】（好感度：\\V[3258]）")
    ShowMessage("はい、どうぞ♪")
    250(bytes(0x04,0x08,0x6f,0x3a,0x0c,0x52,0x50,0x47,0x3a,0x3a,0x53,0x45,0x08,0x3a,0x0a,0x40,0x6e,0x61,0x6d,0x65,0x49,0x22,0x0a,0x49,0x74,0x65,0x6d,0x31,0x06,0x3a,0x06,0x45,0x54,0x3a,0x0b,0x40,0x70,0x69,0x74,0x63,0x68,0x69,0x69,0x3a,0x0c,0x40,0x76,0x6f,0x6c,0x75,0x6d,0x65,0x69,0x55))
    ChangeInventoryArmor(1437,0,0,1,false)
    0()
   EndIf()
   0()
  EndIf()
  If(1,3258,0,4000,1)
   If(1,4258,0,3,0)
    ChangeVariable(4258,4258,0,0,4)
    ShowMessageFace("fakejelly_fc1",0,0,2,4)
    ShowMessage("【アルネ】（好感度：\\V[3258]）")
    ShowMessage("はい、どうぞ♪")
    250(bytes(0x04,0x08,0x6f,0x3a,0x0c,0x52,0x50,0x47,0x3a,0x3a,0x53,0x45,0x08,0x3a,0x0a,0x40,0x6e,0x61,0x6d,0x65,0x49,0x22,0x0a,0x49,0x74,0x65,0x6d,0x31,0x06,0x3a,0x06,0x45,0x54,0x3a,0x0b,0x40,0x70,0x69,0x74,0x63,0x68,0x69,0x69,0x3a,0x0c,0x40,0x76,0x6f,0x6c,0x75,0x6d,0x65,0x69,0x55))
    ChangeInventoryArmor(1250,0,0,1,false)
    0()
   EndIf()
   0()
  EndIf()
  355("actor_label_jump")
  ShowMessageFace("fakejelly_fc1",0,0,2,5)
  ShowMessage("【アルネ】（好感度：\\V[3258]）")
  ShowMessage("町に行きたいです。")
  ShowMessage("人間に化けてるから、大丈夫ですよね。")
  JumpToLabel("メニュー")
  DefineLabel("115")
  ShowMessageFace("kurage_fc1",0,0,2,6)
  ShowMessage("【くらげ】（好感度：\\V[3115]）")
  ShowMessage("くらげ、ゆらゆら……")
  ShowMessageFace("fakejelly_fc1",0,0,2,7)
  ShowMessage("【アルネ】（好感度：\\V[3258]）")
  ShowMessage("あっ、仲間ですね！")
  ShowMessage("あたしもくらげです♪")
  ShowMessageFace("kurage_fc1",0,0,2,8)
  ShowMessage("【くらげ】（好感度：\\V[3115]）")
  ShowMessage("くらげ……？")
  ShowMessage("でも、似てないね……")
  ShowMessageFace("fakejelly_fc1",0,0,2,9)
  ShowMessage("【アルネ】（好感度：\\V[3258]）")
  ShowMessage("あたし、人間に擬態してますから……")
  ShowMessage("でも、体はぷるんぷるんですよ♪")
  JumpToLabel("メニュー")
  DefineLabel("199")
  ShowMessageFace("dagon_fc1",0,0,2,10)
  ShowMessage("【セラフィ】（好感度：\\V[3199]）")
  ShowMessage("ふらふら～。")
  ShowMessage("私、人魚に化けてるんですよ。")
  ShowMessageFace("fakejelly_fc1",0,0,2,11)
  ShowMessage("【アルネ】（好感度：\\V[3258]）")
  ShowMessage("私も、人間に化けているんです。")
  ShowMessage("お互い、変装が得意なんですね……")
  ShowMessageFace("dagon_fc1",0,0,2,12)
  ShowMessage("【セラフィ】（好感度：\\V[3199]）")
  ShowMessage("（でも、体が透けてちゃバレバレですよね……）")
  ShowMessageFace("fakejelly_fc1",0,0,2,13)
  ShowMessage("【アルネ】（好感度：\\V[3258]）")
  ShowMessage("（人魚に見えないし、騙される人はいないんじゃ……）")
  JumpToLabel("メニュー")
  DefineLabel("278")
  ShowMessageFace("arkjelly_fc1",0,0,2,14)
  ShowMessage("【サマンサ】（好感度：\\V[3278]）")
  ShowMessage("くらげ、ふらふら……")
  ShowMessageFace("fakejelly_fc1",0,0,2,15)
  ShowMessage("【アルネ】（好感度：\\V[3258]）")
  ShowMessage("あっ、仲間ですね！")
  ShowMessage("あたしもくらげです♪")
  ShowMessageFace("arkjelly_fc1",0,0,2,16)
  ShowMessage("【サマンサ】（好感度：\\V[3278]）")
  ShowMessage("くらげなのに、服を着てる……")
  ShowMessage("窮屈じゃない……？")
  ShowMessageFace("fakejelly_fc1",0,0,2,17)
  ShowMessage("【アルネ】（好感度：\\V[3258]）")
  ShowMessage("ちょっと窮屈だけど、オシャレは好きですよ♪")
  JumpToLabel("メニュー")
  DefineLabel("メニュー")
  StartLoop()
   355("unlimited_choices(11, [\"プレゼントをあげる\",")
   655("\"パーティに加える\",")
   655("\"プレゼントリストを見る\",\"おねだりする\",")
   655("\"やめる\"])")
   If(1,11,0,0,0)
    355("present_start(258)")
    0()
   EndIf()
   If(1,11,0,1,0)
    PictureClear(5)
    355("move_actor_ex(258)")
    EndEventProcessing()
    0()
   EndIf()
   If(1,11,0,2,0)
    ShowMessageFace("",0,0,2,18)
    ShowMessage("好感度 100:ジョブリスト")
    ShowMessage("好感度 500:パラライチェック")
    ShowMessage("好感度2000:麻痺の印")
    ShowMessage("好感度4000:雷の秘伝書")
    0()
   EndIf()
   If(1,11,0,3,0)
    PictureClear(5)
    ShowMessageFace("",0,0,2,19)
    ShowMessage("何をおねだりしますか？（好感度：\\V[3258]）")
    ShowChoices(strings("軟体搾精腔（好感度:10）","やめる"),2)
    IfPlayerPicksChoice(0,null)
     If(1,3258,0,10,1)
      355("call_novel_scene(5101)")
      EndEventProcessing()
      0()
     Else()
      ShowMessageFace("fakejelly_fc1",0,0,2,20)
      ShowMessage("【アルネ】（好感度：\\V[3258]）")
      ShowMessage("今日は用事がありますので……")
      0()
     EndIf()
     0()
    IfPlayerPicksChoice(1,null)
     0()
    404()
    0()
   EndIf()
   If(1,11,0,4,1)
    PictureClear(5)
    EndEventProcessing()
    0()
   EndIf()
   0()
  EndLoop()
  0()
 PAGE   2
  // condition: party contains actor #258
  0()



EVENT   11
 PAGE   1
  // condition: switch 1204 is ON
  PictureDisplay(5,"80_umiusi_k_st01",0,0,0,0,100,100,0,0)
  PictureMove(5,null,0,0,0,0,100,100,255,0,30,true)
  If(1,3204,0,100,1)
   If(1,4204,0,0,0)
    ChangeVariable(4204,4204,0,0,1)
    ShowMessageFace("umiusi_k_fc1",1,0,2,1)
    ShowMessage("【ステイシー】（好感度：\\V[3204]）")
    ShowMessage("今月の給料で、買ったんですよ♪")
    250(bytes(0x04,0x08,0x6f,0x3a,0x0c,0x52,0x50,0x47,0x3a,0x3a,0x53,0x45,0x08,0x3a,0x0a,0x40,0x6e,0x61,0x6d,0x65,0x49,0x22,0x0a,0x49,0x74,0x65,0x6d,0x31,0x06,0x3a,0x06,0x45,0x54,0x3a,0x0b,0x40,0x70,0x69,0x74,0x63,0x68,0x69,0x69,0x3a,0x0c,0x40,0x76,0x6f,0x6c,0x75,0x6d,0x65,0x69,0x55))
    ChangeInventoryArmor(1011,0,0,1,false)
    0()
   EndIf()
   0()
  EndIf()
  If(1,3204,0,500,1)
   If(1,4204,0,1,0)
    ChangeVariable(4204,4204,0,0,2)
    ShowMessageFace("umiusi_k_fc1",1,0,2,2)
    ShowMessage("【ステイシー】（好感度：\\V[3204]）")
    ShowMessage("今月の給料で、買ったんですよ♪")
    250(bytes(0x04,0x08,0x6f,0x3a,0x0c,0x52,0x50,0x47,0x3a,0x3a,0x53,0x45,0x08,0x3a,0x0a,0x40,0x6e,0x61,0x6d,0x65,0x49,0x22,0x0a,0x49,0x74,0x65,0x6d,0x31,0x06,0x3a,0x06,0x45,0x54,0x3a,0x0b,0x40,0x70,0x69,0x74,0x63,0x68,0x69,0x69,0x3a,0x0c,0x40,0x76,0x6f,0x6c,0x75,0x6d,0x65,0x69,0x55))
    ChangeInventoryArmor(1564,0,0,1,false)
    0()
   EndIf()
   0()
  EndIf()
  If(1,3204,0,2000,1)
   If(1,4204,0,2,0)
    ChangeVariable(4204,4204,0,0,3)
    ShowMessageFace("umiusi_k_fc1",1,0,2,3)
    ShowMessage("【ステイシー】（好感度：\\V[3204]）")
    ShowMessage("今月の給料で、買ったんですよ♪")
    250(bytes(0x04,0x08,0x6f,0x3a,0x0c,0x52,0x50,0x47,0x3a,0x3a,0x53,0x45,0x08,0x3a,0x0a,0x40,0x6e,0x61,0x6d,0x65,0x49,0x22,0x0a,0x49,0x74,0x65,0x6d,0x31,0x06,0x3a,0x06,0x45,0x54,0x3a,0x0b,0x40,0x70,0x69,0x74,0x63,0x68,0x69,0x69,0x3a,0x0c,0x40,0x76,0x6f,0x6c,0x75,0x6d,0x65,0x69,0x55))
    ChangeInventoryArmor(1207,0,0,1,false)
    0()
   EndIf()
   0()
  EndIf()
  If(1,3204,0,4000,1)
   If(1,4204,0,3,0)
    ChangeVariable(4204,4204,0,0,4)
    ShowMessageFace("umiusi_k_fc1",1,0,2,4)
    ShowMessage("【ステイシー】（好感度：\\V[3204]）")
    ShowMessage("今月の給料で、買ったんですよ♪")
    250(bytes(0x04,0x08,0x6f,0x3a,0x0c,0x52,0x50,0x47,0x3a,0x3a,0x53,0x45,0x08,0x3a,0x0a,0x40,0x6e,0x61,0x6d,0x65,0x49,0x22,0x0a,0x49,0x74,0x65,0x6d,0x31,0x06,0x3a,0x06,0x45,0x54,0x3a,0x0b,0x40,0x70,0x69,0x74,0x63,0x68,0x69,0x69,0x3a,0x0c,0x40,0x76,0x6f,0x6c,0x75,0x6d,0x65,0x69,0x55))
    ChangeInventoryArmor(1593,0,0,1,false)
    0()
   EndIf()
   0()
  EndIf()
  355("actor_label_jump")
  ShowMessageFace("umiusi_k_fc1",0,0,2,5)
  ShowMessage("【ステイシー】（好感度：\\V[3204]）")
  ShowMessage("うみうしは、海の牛ではありませんよ～♪")
  ShowMessage("……たぶん。")
  JumpToLabel("メニュー")
  DefineLabel("203")
  ShowMessageFace("umiusi_k_fc1",0,0,2,6)
  ShowMessage("【ステイシー】（好感度：\\V[3204]）")
  ShowMessage("たつこちゃん、がんばってますか？")
  ShowMessageFace("tatunoko_k_fc1",0,0,2,7)
  ShowMessage("【たつこ】（好感度：\\V[3203]）")
  ShowMessage("上官殿！　ちゃんと働いているのです！")
  ShowMessageFace("umiusi_k_fc1",1,0,2,8)
  ShowMessage("【ステイシー】（好感度：\\V[3204]）")
  ShowMessage("いい子ですね……")
  ShowMessage("はい、ご褒美にめざしをあげましょう。")
  ShowMessageFace("tatunoko_k_fc1",1,0,2,9)
  ShowMessage("【たつこ】（好感度：\\V[3203]）")
  ShowMessage("わ～い！　これだから、軍隊暮らしはやめられないのです！")
  If(0,6,0)
   ShowMessageFace("sonia_fc4",0,0,2,10)
   ShowMessage("【ソニア】")
   ShowMessage("それ、軍隊暮らしって言うの……？")
   0()
  EndIf()
  JumpToLabel("メニュー")
  DefineLabel("205")
  ShowMessageFace("levia_fc1",0,0,2,11)
  ShowMessage("【リヴィア】（好感度：\\V[3205]）")
  ShowMessage("ウミウシ海兵、トワナ号の臨検報告はどうなった？")
  ShowMessage("報告書が出ていないようだが……")
  ShowMessageFace("umiusi_k_fc1",1,0,2,12)
  ShowMessage("【ステイシー】（好感度：\\V[3204]）")
  ShowMessage("ああ、あの報告書ですか？")
  ShowMessage("粘液でヌルヌルになったから、捨てちゃいました♪")
  ShowMessageFace("levia_fc1",0,0,2,13)
  ShowMessage("【リヴィア】（好感度：\\V[3205]）")
  ShowMessage("ヌルヌルになったなら仕方ないな……")
  ShowMessage("さて、今月分の報酬であるメザシをやろう。")
  ShowMessageFace("umiusi_k_fc1",0,0,2,14)
  ShowMessage("【ステイシー】（好感度：\\V[3204]）")
  ShowMessage("大将殿……あたしはたつのこちゃんではないですよ。")
  ShowMessage("メザシではなく、給料をもらいたいんですけど。")
  If(0,6,0)
   ShowMessageFace("sonia_fc4",0,0,2,15)
   ShowMessage("【ソニア】")
   ShowMessage("こんなので、海の治安は大丈夫なの……？")
   0()
  EndIf()
  JumpToLabel("メニュー")
  DefineLabel("274")
  ShowMessageFace("hitode_fc1",0,0,2,16)
  ShowMessage("【アスタ】（好感度：\\V[3274]）")
  ShowMessage("このサンゴ、おいしいわね……むしゃむしゃ。")
  ShowMessageFace("umiusi_k_fc1",0,0,2,17)
  ShowMessage("【ステイシー】（好感度：\\V[3204]）")
  ShowMessage("ちょっと、そこのヒトデさん！")
  ShowMessage("そのサンゴは保護種なので、捕食は禁じられていますよ！")
  ShowMessageFace("hitode_fc1",2,0,2,18)
  ShowMessage("【アスタ】（好感度：\\V[3274]）")
  ShowMessage("もう、面倒くさいわね……")
  ShowMessage("なんでこんな場所にまで、海兵がいるのよ。")
  ShowMessageFace("umiusi_k_fc1",0,0,2,19)
  ShowMessage("【ステイシー】（好感度：\\V[3204]）")
  ShowMessage("海軍の目は、いかなるところにも光っているのです！")
  JumpToLabel("メニュー")
  DefineLabel("メニュー")
  StartLoop()
   355("unlimited_choices(11, [\"プレゼントをあげる\",")
   655("\"パーティに加える\",")
   655("\"プレゼントリストを見る\",\"おねだりする\",")
   655("\"やめる\"])")
   If(1,11,0,0,0)
    355("present_start(204)")
    0()
   EndIf()
   If(1,11,0,1,0)
    PictureClear(5)
    355("move_actor_ex(204)")
    EndEventProcessing()
    0()
   EndIf()
   If(1,11,0,2,0)
    ShowMessageFace("",0,0,2,20)
    ShowMessage("好感度 100:不思議なタトゥー")
    ShowMessage("好感度 500:ショックチェック")
    ShowMessage("好感度2000:水のシンボル")
    ShowMessage("好感度4000:短剣の勲章")
    0()
   EndIf()
   If(1,11,0,3,0)
    PictureClear(5)
    ShowMessageFace("",0,0,2,21)
    ShowMessage("何をおねだりしますか？（好感度：\\V[3204]）")
    ShowChoices(strings("軟体コキ（好感度:10）","逆レイプ（好感度:100）","やめる"),3)
    IfPlayerPicksChoice(0,null)
     If(1,3204,0,10,1)
      355("call_novel_scene(4831)")
      EndEventProcessing()
      0()
     Else()
      ShowMessageFace("umiusi_k_fc1",0,0,2,22)
      ShowMessage("【ステイシー】（好感度：\\V[3204]）")
      ShowMessage("今度にしませんか……？")
      0()
     EndIf()
     0()
    IfPlayerPicksChoice(1,null)
     If(1,3204,0,100,1)
      355("call_novel_scene(4832)")
      EndEventProcessing()
      0()
     Else()
      ShowMessageFace("umiusi_k_fc1",0,0,2,23)
      ShowMessage("【ステイシー】（好感度：\\V[3204]）")
      ShowMessage("今度にしませんか……？")
      0()
     EndIf()
     0()
    IfPlayerPicksChoice(2,null)
     0()
    404()
    0()
   EndIf()
   If(1,11,0,4,1)
    PictureClear(5)
    EndEventProcessing()
    0()
   EndIf()
   0()
  EndLoop()
  0()
 PAGE   2
  // condition: party contains actor #204
  0()



EVENT   10
 PAGE   1
  // condition: switch 1203 is ON
  PictureDisplay(5,"80_tatunoko_k_st01",0,0,0,0,100,100,0,0)
  PictureMove(5,null,0,0,0,0,100,100,255,0,30,true)
  If(1,3203,0,100,1)
   If(1,4203,0,0,0)
    ChangeVariable(4203,4203,0,0,1)
    ShowMessageFace("tatunoko_k_fc1",1,0,2,1)
    ShowMessage("【たつこ】（好感度：\\V[3203]）")
    ShowMessage("砂浜で拾ったのです！")
    250(bytes(0x04,0x08,0x6f,0x3a,0x0c,0x52,0x50,0x47,0x3a,0x3a,0x53,0x45,0x08,0x3a,0x0a,0x40,0x6e,0x61,0x6d,0x65,0x49,0x22,0x0a,0x49,0x74,0x65,0x6d,0x31,0x06,0x3a,0x06,0x45,0x54,0x3a,0x0b,0x40,0x70,0x69,0x74,0x63,0x68,0x69,0x69,0x3a,0x0c,0x40,0x76,0x6f,0x6c,0x75,0x6d,0x65,0x69,0x55))
    ChangeInventoryArmor(1147,0,0,1,false)
    0()
   EndIf()
   0()
  EndIf()
  If(1,3203,0,500,1)
   If(1,4203,0,1,0)
    ChangeVariable(4203,4203,0,0,2)
    ShowMessageFace("tatunoko_k_fc1",1,0,2,2)
    ShowMessage("【たつこ】（好感度：\\V[3203]）")
    ShowMessage("砂浜で拾ったのです！")
    250(bytes(0x04,0x08,0x6f,0x3a,0x0c,0x52,0x50,0x47,0x3a,0x3a,0x53,0x45,0x08,0x3a,0x0a,0x40,0x6e,0x61,0x6d,0x65,0x49,0x22,0x0a,0x49,0x74,0x65,0x6d,0x31,0x06,0x3a,0x06,0x45,0x54,0x3a,0x0b,0x40,0x70,0x69,0x74,0x63,0x68,0x69,0x69,0x3a,0x0c,0x40,0x76,0x6f,0x6c,0x75,0x6d,0x65,0x69,0x55))
    ChangeInventoryArmor(1249,0,0,1,false)
    0()
   EndIf()
   0()
  EndIf()
  If(1,3203,0,2000,1)
   If(1,4203,0,2,0)
    ChangeVariable(4203,4203,0,0,3)
    ShowMessageFace("tatunoko_k_fc1",1,0,2,3)
    ShowMessage("【たつこ】（好感度：\\V[3203]）")
    ShowMessage("砂浜で拾ったのです！")
    250(bytes(0x04,0x08,0x6f,0x3a,0x0c,0x52,0x50,0x47,0x3a,0x3a,0x53,0x45,0x08,0x3a,0x0a,0x40,0x6e,0x61,0x6d,0x65,0x49,0x22,0x0a,0x49,0x74,0x65,0x6d,0x31,0x06,0x3a,0x06,0x45,0x54,0x3a,0x0b,0x40,0x70,0x69,0x74,0x63,0x68,0x69,0x69,0x3a,0x0c,0x40,0x76,0x6f,0x6c,0x75,0x6d,0x65,0x69,0x55))
    ChangeInventoryArmor(1501,0,0,1,false)
    0()
   EndIf()
   0()
  EndIf()
  If(1,3203,0,4000,1)
   If(1,4203,0,3,0)
    ChangeVariable(4203,4203,0,0,4)
    ShowMessageFace("tatunoko_k_fc1",1,0,2,4)
    ShowMessage("【たつこ】（好感度：\\V[3203]）")
    ShowMessage("砂浜で拾ったのです！")
    250(bytes(0x04,0x08,0x6f,0x3a,0x0c,0x52,0x50,0x47,0x3a,0x3a,0x53,0x45,0x08,0x3a,0x0a,0x40,0x6e,0x61,0x6d,0x65,0x49,0x22,0x0a,0x49,0x74,0x65,0x6d,0x31,0x06,0x3a,0x06,0x45,0x54,0x3a,0x0b,0x40,0x70,0x69,0x74,0x63,0x68,0x69,0x69,0x3a,0x0c,0x40,0x76,0x6f,0x6c,0x75,0x6d,0x65,0x69,0x55))
    ChangeInventoryArmor(1217,0,0,1,false)
    0()
   EndIf()
   0()
  EndIf()
  355("actor_label_jump")
  ShowMessageFace("tatunoko_k_fc1",1,0,2,5)
  ShowMessage("【たつこ】（好感度：\\V[3203]）")
  ShowMessage("出動ですか？　がんばるのです！")
  JumpToLabel("メニュー")
  DefineLabel("68")
  ShowMessageFace("dragonp_fc1",0,0,2,6)
  ShowMessage("【パピ】（好感度：\\V[3068]）")
  ShowMessage("お前は、ちっちゃな海のドラゴンなのだな！")
  ShowMessage("あたしは、ちっちゃな陸のドラゴンなのだ！")
  ShowMessageFace("tatunoko_k_fc1",1,0,2,7)
  ShowMessage("【たつこ】（好感度：\\V[3203]）")
  ShowMessage("ドラゴン同士、契りを結ぶのです！")
  ShowMessage("一緒に、海軍で賊と戦いませんか？")
  ShowMessageFace("dragonp_fc1",6,0,2,8)
  ShowMessage("【パピ】（好感度：\\V[3068]）")
  ShowMessage("賊って……山賊も、賊に入るのか？")
  ShowMessageFace("tatunoko_k_fc1",1,0,2,9)
  ShowMessage("【たつこ】（好感度：\\V[3203]）")
  ShowMessage("もちろんです！")
  ShowMessageFace("dragonp_fc1",6,0,2,10)
  ShowMessage("【パピ】（好感度：\\V[3068]）")
  ShowMessage("むむっ、陸と海は相容れんのだぞ……")
  JumpToLabel("メニュー")
  DefineLabel("202")
  ShowMessageFace("tatunoko_k_fc1",1,0,2,11)
  ShowMessage("【たつこ】（好感度：\\V[3203]）")
  ShowMessage("おさかな海賊団団長ボニー、逮捕するのです！")
  ShowMessageFace("bonny_fc1",0,0,2,12)
  ShowMessage("【ボニー】（好感度：\\V[3202]）")
  ShowMessage("ここでは、我々は仲間ではないか……")
  ShowMessage("見逃してはくれんか？")
  ShowMessageFace("tatunoko_k_fc1",1,0,2,13)
  ShowMessage("【たつこ】（好感度：\\V[3203]）")
  ShowMessage("海兵には鉄の規律があるのです！")
  ShowMessage("手配犯を見逃す事はできないのです！")
  ShowMessageFace("bonny_fc1",0,0,2,14)
  ShowMessage("【ボニー】（好感度：\\V[3202]）")
  ShowMessage("ほれ、めざしをやろう。")
  ShowMessageFace("tatunoko_k_fc1",1,0,2,15)
  ShowMessage("【たつこ】（好感度：\\V[3203]）")
  ShowMessage("我々は仲間なのです！")
  ShowMessage("組織を超えた絆で結ばれているのです！")
  JumpToLabel("メニュー")
  DefineLabel("203")
  ShowMessageFace("dragonp_fc1",0,0,2,16)
  ShowMessage("【パピ】（好感度：\\V[3068]）")
  ShowMessage("お前は、ちっちゃな海のドラゴンなのだな！")
  ShowMessage("あたしは、ちっちゃな陸のドラゴンなのだ！")
  ShowMessageFace("tatunoko_k_fc1",1,0,2,17)
  ShowMessage("【たつこ】（好感度：\\V[3203]）")
  ShowMessage("ドラゴン同士、契りを結ぶのです！")
  ShowMessage("一緒に、海軍で賊と戦いませんか？")
  ShowMessageFace("dragonp_fc1",6,0,2,18)
  ShowMessage("【パピ】（好感度：\\V[3068]）")
  ShowMessage("賊って……山賊も、賊に入るのか？")
  ShowMessageFace("tatunoko_k_fc1",1,0,2,19)
  ShowMessage("【たつこ】（好感度：\\V[3203]）")
  ShowMessage("もちろんです！")
  ShowMessageFace("dragonp_fc1",6,0,2,20)
  ShowMessage("【パピ】（好感度：\\V[3068]）")
  ShowMessage("むむっ、陸と海は相容れんのだぞ……")
  JumpToLabel("メニュー")
  DefineLabel("204")
  ShowMessageFace("umiusi_k_fc1",0,0,2,21)
  ShowMessage("【ステイシー】（好感度：\\V[3204]）")
  ShowMessage("たつこちゃん、がんばってますか？")
  ShowMessageFace("tatunoko_k_fc1",0,0,2,22)
  ShowMessage("【たつこ】（好感度：\\V[3203]）")
  ShowMessage("上官殿！　ちゃんと働いているのです！")
  ShowMessageFace("umiusi_k_fc1",1,0,2,23)
  ShowMessage("【ステイシー】（好感度：\\V[3204]）")
  ShowMessage("いい子ですね……")
  ShowMessage("はい、ご褒美にめざしをあげましょう。")
  ShowMessageFace("tatunoko_k_fc1",1,0,2,24)
  ShowMessage("【たつこ】（好感度：\\V[3203]）")
  ShowMessage("わ～い！　これだから、軍隊暮らしはやめられないのです！")
  If(0,6,0)
   ShowMessageFace("sonia_fc4",0,0,2,25)
   ShowMessage("【ソニア】")
   ShowMessage("それ、軍隊暮らしって言うの……？")
   0()
  EndIf()
  JumpToLabel("メニュー")
  DefineLabel("205")
  ShowMessageFace("tatunoko_k_fc1",1,0,2,26)
  ShowMessage("【たつこ】（好感度：\\V[3203]）")
  ShowMessage("大将殿！　お疲れ様なのです！")
  ShowMessageFace("levia_fc1",0,0,2,27)
  ShowMessage("【リヴィア】（好感度：\\V[3205]）")
  ShowMessage("うむ……えっと、お前は確か……")
  ShowMessageFace("tatunoko_k_fc1",1,0,2,28)
  ShowMessage("【たつこ】（好感度：\\V[3203]）")
  ShowMessage("お忘れですか、大将殿？")
  ShowMessage("あたしは、たつこなのです！")
  ShowMessageFace("levia_fc1",0,0,2,29)
  ShowMessage("【リヴィア】（好感度：\\V[3205]）")
  ShowMessage("（たつこという名の海兵も、200人以上……")
  ShowMessage("　おまけに、みんな同じ顔……どう覚えろというのだ）")
  JumpToLabel("メニュー")
  DefineLabel("308")
  ShowMessageFace("tatunoko_k_fc1",1,0,2,30)
  ShowMessage("【たつこ】（好感度：\\V[3203]）")
  ShowMessage("海のドラゴンなのです！")
  ShowMessage("格好良いのです！")
  ShowMessageFace("suiryu_fc1",1,0,2,31)
  ShowMessage("【みお】（好感度：\\V[3308]）")
  ShowMessage("くくく、龍の子か……")
  ShowMessage("海龍たる我を崇めるが良い。")
  ShowMessageFace("tatunoko_k_fc1",0,0,2,32)
  ShowMessage("【たつこ】（好感度：\\V[3203]）")
  ShowMessage("そんなに、年は変わりませんよね？")
  ShowMessageFace("suiryu_fc1",0,0,2,33)
  ShowMessage("【みお】（好感度：\\V[3308]）")
  ShowMessage("……バレた？")
  JumpToLabel("メニュー")
  DefineLabel("メニュー")
  StartLoop()
   355("unlimited_choices(11, [\"プレゼントをあげる\",")
   655("\"パーティに加える\",")
   655("\"プレゼントリストを見る\",\"おねだりする\",")
   655("\"やめる\"])")
   If(1,11,0,0,0)
    355("present_start(203)")
    0()
   EndIf()
   If(1,11,0,1,0)
    PictureClear(5)
    355("move_actor_ex(203)")
    EndEventProcessing()
    0()
   EndIf()
   If(1,11,0,2,0)
    ShowMessageFace("",0,0,2,34)
    ShowMessage("好感度 100:隠遁のシール")
    ShowMessage("好感度 500:雷の書")
    ShowMessage("好感度2000:雷のペンダント")
    ShowMessage("好感度4000:人魚破りの呪符")
    0()
   EndIf()
   If(1,11,0,3,0)
    PictureClear(5)
    ShowMessageFace("",0,0,2,35)
    ShowMessage("何をおねだりしますか？（好感度：\\V[3203]）")
    ShowChoices(strings("パイズリ（好感度:10）","逆レイプ（好感度:100）","やめる"),3)
    IfPlayerPicksChoice(0,null)
     If(1,3203,0,10,1)
      355("call_novel_scene(4826)")
      EndEventProcessing()
      0()
     Else()
      ShowMessageFace("tatunoko_k_fc1",2,0,2,36)
      ShowMessage("【たつこ】（好感度：\\V[3203]）")
      ShowMessage("むにゅ～。")
      0()
     EndIf()
     0()
    IfPlayerPicksChoice(1,null)
     If(1,3203,0,100,1)
      355("call_novel_scene(4827)")
      EndEventProcessing()
      0()
     Else()
      ShowMessageFace("tatunoko_k_fc1",2,0,2,37)
      ShowMessage("【たつこ】（好感度：\\V[3203]）")
      ShowMessage("むにゅ～。")
      0()
     EndIf()
     0()
    IfPlayerPicksChoice(2,null)
     0()
    404()
    0()
   EndIf()
   If(1,11,0,4,1)
    PictureClear(5)
    EndEventProcessing()
    0()
   EndIf()
   0()
  EndLoop()
  0()
 PAGE   2
  // condition: party contains actor #203
  0()



EVENT   22
 PAGE   1
  // condition: switch 1308 is ON
  PictureDisplay(5,"80_suiryu_st01",0,0,0,0,100,100,0,0)
  PictureMove(5,null,0,0,0,0,100,100,255,0,30,true)
  If(1,3308,0,500,1)
   If(1,4308,0,0,0)
    ChangeVariable(4308,4308,0,0,1)
    ShowMessageFace("suiryu_fc1",1,0,2,1)
    ShowMessage("【みお】（好感度：\\V[3308]）")
    ShowMessage("これをあげるのじゃ。")
    250(bytes(0x04,0x08,0x6f,0x3a,0x0c,0x52,0x50,0x47,0x3a,0x3a,0x53,0x45,0x08,0x3a,0x0a,0x40,0x6e,0x61,0x6d,0x65,0x49,0x22,0x0a,0x49,0x74,0x65,0x6d,0x31,0x06,0x3a,0x06,0x45,0x54,0x3a,0x0b,0x40,0x70,0x69,0x74,0x63,0x68,0x69,0x69,0x3a,0x0c,0x40,0x76,0x6f,0x6c,0x75,0x6d,0x65,0x69,0x55))
    ChangeInventoryArmor(1142,0,0,1,false)
    0()
   EndIf()
   0()
  EndIf()
  If(1,3308,0,2000,1)
   If(1,4308,0,1,0)
    ChangeVariable(4308,4308,0,0,2)
    ShowMessageFace("suiryu_fc1",1,0,2,2)
    ShowMessage("【みお】（好感度：\\V[3308]）")
    ShowMessage("これをあげるのじゃ。")
    250(bytes(0x04,0x08,0x6f,0x3a,0x0c,0x52,0x50,0x47,0x3a,0x3a,0x53,0x45,0x08,0x3a,0x0a,0x40,0x6e,0x61,0x6d,0x65,0x49,0x22,0x0a,0x49,0x74,0x65,0x6d,0x31,0x06,0x3a,0x06,0x45,0x54,0x3a,0x0b,0x40,0x70,0x69,0x74,0x63,0x68,0x69,0x69,0x3a,0x0c,0x40,0x76,0x6f,0x6c,0x75,0x6d,0x65,0x69,0x55))
    ChangeInventoryArmor(1204,0,0,1,false)
    0()
   EndIf()
   0()
  EndIf()
  If(1,3308,0,4000,1)
   If(1,4308,0,2,0)
    ChangeVariable(4308,4308,0,0,3)
    ShowMessageFace("suiryu_fc1",1,0,2,3)
    ShowMessage("【みお】（好感度：\\V[3308]）")
    ShowMessage("これをあげるのじゃ。")
    250(bytes(0x04,0x08,0x6f,0x3a,0x0c,0x52,0x50,0x47,0x3a,0x3a,0x53,0x45,0x08,0x3a,0x0a,0x40,0x6e,0x61,0x6d,0x65,0x49,0x22,0x0a,0x49,0x74,0x65,0x6d,0x31,0x06,0x3a,0x06,0x45,0x54,0x3a,0x0b,0x40,0x70,0x69,0x74,0x63,0x68,0x69,0x69,0x3a,0x0c,0x40,0x76,0x6f,0x6c,0x75,0x6d,0x65,0x69,0x55))
    ChangeInventoryArmor(1304,0,0,1,false)
    0()
   EndIf()
   0()
  EndIf()
  If(1,3308,0,6000,1)
   If(1,4308,0,3,0)
    ChangeVariable(4308,4308,0,0,4)
    ShowMessageFace("suiryu_fc1",1,0,2,4)
    ShowMessage("【みお】（好感度：\\V[3308]）")
    ShowMessage("これをあげるのじゃ。")
    250(bytes(0x04,0x08,0x6f,0x3a,0x0c,0x52,0x50,0x47,0x3a,0x3a,0x53,0x45,0x08,0x3a,0x0a,0x40,0x6e,0x61,0x6d,0x65,0x49,0x22,0x0a,0x49,0x74,0x65,0x6d,0x31,0x06,0x3a,0x06,0x45,0x54,0x3a,0x0b,0x40,0x70,0x69,0x74,0x63,0x68,0x69,0x69,0x3a,0x0c,0x40,0x76,0x6f,0x6c,0x75,0x6d,0x65,0x69,0x55))
    ChangeInventoryArmor(1260,0,0,1,false)
    0()
   EndIf()
   0()
  EndIf()
  355("actor_label_jump")
  ShowMessageFace("suiryu_fc1",0,0,2,5)
  ShowMessage("【みお】（好感度：\\V[3308]）")
  ShowMessage("これでもまだ、若輩の身……")
  ShowMessage("儂の力、天下万民に示したいのう。")
  JumpToLabel("メニュー")
  DefineLabel("203")
  ShowMessageFace("tatunoko_k_fc1",1,0,2,6)
  ShowMessage("【たつこ】（好感度：\\V[3203]）")
  ShowMessage("海のドラゴンなのです！")
  ShowMessage("格好良いのです！")
  ShowMessageFace("suiryu_fc1",1,0,2,7)
  ShowMessage("【みお】（好感度：\\V[3308]）")
  ShowMessage("くくく、龍の子か……")
  ShowMessage("海龍たる我を崇めるが良い。")
  ShowMessageFace("tatunoko_k_fc1",0,0,2,8)
  ShowMessage("【たつこ】（好感度：\\V[3203]）")
  ShowMessage("そんなに、年は変わりませんよね？")
  ShowMessageFace("suiryu_fc1",0,0,2,9)
  ShowMessage("【みお】（好感度：\\V[3308]）")
  ShowMessage("……バレた？")
  JumpToLabel("メニュー")
  DefineLabel("344")
  ShowMessageFace("suiryu_fc1",0,0,2,10)
  ShowMessage("【みお】（好感度：\\V[3308]）")
  ShowMessage("むっ、キリンか……")
  ShowMessageFace("kirin_fc1",0,0,2,11)
  ShowMessage("【キリン】（好感度：\\V[3344]）")
  ShowMessage("お主……若い癖に、なぜそんな喋り方なのじゃ？")
  ShowMessageFace("suiryu_fc1",0,0,2,12)
  ShowMessage("【みお】（好感度：\\V[3308]）")
  ShowMessage("儂は龍じゃからな。")
  ShowMessage("威厳がないと、なめられるのじゃ……")
  ShowMessageFace("kirin_fc1",0,0,2,13)
  ShowMessage("【キリン】（好感度：\\V[3344]）")
  ShowMessage("……変な奴じゃのう。")
  JumpToLabel("メニュー")
  DefineLabel("347")
  ShowMessageFace("suiryu_fc1",0,0,2,14)
  ShowMessage("【みお】（好感度：\\V[3308]）")
  ShowMessage("ほう、空のドラゴンか……")
  ShowMessage("儂は海を制する龍よ。")
  ShowMessageFace("wyvern_fc1",0,0,2,15)
  ShowMessage("【ワーバイン】（好感度：\\V[3347]）")
  ShowMessage("若い癖に、ずいぶんと変な喋り方をするな……")
  ShowMessageFace("suiryu_fc1",0,0,2,16)
  ShowMessage("【みお】（好感度：\\V[3308]）")
  ShowMessage("威厳あるかな……と思って。")
  ShowMessageFace("wyvern_fc1",0,0,2,17)
  ShowMessage("【ワーバイン】（好感度：\\V[3347]）")
  ShowMessage("ない。")
  JumpToLabel("メニュー")
  DefineLabel("メニュー")
  StartLoop()
   355("unlimited_choices(11, [\"プレゼントをあげる\",")
   655("\"パーティに加える\",")
   655("\"プレゼントリストを見る\",\"おねだりする\",")
   655("\"やめる\"])")
   If(1,11,0,0,0)
    355("present_start(308)")
    0()
   EndIf()
   If(1,11,0,1,0)
    PictureClear(5)
    355("move_actor_ex(308)")
    EndEventProcessing()
    0()
   EndIf()
   If(1,11,0,2,0)
    ShowMessageFace("",0,0,2,18)
    ShowMessage("好感度 500:清水")
    ShowMessage("好感度2000:雷のシンボル")
    ShowMessage("好感度4000:牙の秘伝書")
    ShowMessage("好感度6000:水の極意書")
    0()
   EndIf()
   If(1,11,0,3,0)
    PictureClear(5)
    ShowMessageFace("",0,0,2,19)
    ShowMessage("何をおねだりしますか？（好感度：\\V[3308]）")
    ShowChoices(strings("逆レイプ（好感度:10）","やめる"),2)
    IfPlayerPicksChoice(0,null)
     If(1,3308,0,10,1)
      355("call_novel_scene(5356)")
      EndEventProcessing()
      0()
     Else()
      ShowMessageFace("suiryu_fc1",0,0,2,20)
      ShowMessage("【みお】（好感度：\\V[3308]）")
      ShowMessage("ま、また今度にしないかのう……")
      0()
     EndIf()
     0()
    IfPlayerPicksChoice(1,null)
     0()
    404()
    0()
   EndIf()
   If(1,11,0,4,1)
    PictureClear(5)
    EndEventProcessing()
    0()
   EndIf()
   0()
  EndLoop()
  0()
 PAGE   2
  // condition: party contains actor #308
  0()



EVENT   21
 PAGE   1
  // condition: switch 1279 is ON
  PictureDisplay(5,"80_e_scylla_st01",0,0,0,0,100,100,0,0)
  PictureMove(5,null,0,0,0,0,100,100,255,0,30,true)
  If(1,3279,0,100,1)
   If(1,4279,0,0,0)
    ChangeVariable(4279,4279,0,0,1)
    ShowMessageFace("e_scylla_fc1",0,0,2,1)
    ShowMessage("【オーマ】（好感度：\\V[3279]）")
    ShowMessage("これを使いなさい……")
    250(bytes(0x04,0x08,0x6f,0x3a,0x0c,0x52,0x50,0x47,0x3a,0x3a,0x53,0x45,0x08,0x3a,0x0a,0x40,0x6e,0x61,0x6d,0x65,0x49,0x22,0x0a,0x49,0x74,0x65,0x6d,0x31,0x06,0x3a,0x06,0x45,0x54,0x3a,0x0b,0x40,0x70,0x69,0x74,0x63,0x68,0x69,0x69,0x3a,0x0c,0x40,0x76,0x6f,0x6c,0x75,0x6d,0x65,0x69,0x55))
    ChangeInventoryArmor(1735,0,0,1,false)
    0()
   EndIf()
   0()
  EndIf()
  If(1,3279,0,500,1)
   If(1,4279,0,1,0)
    ChangeVariable(4279,4279,0,0,2)
    ShowMessageFace("e_scylla_fc1",0,0,2,2)
    ShowMessage("【オーマ】（好感度：\\V[3279]）")
    ShowMessage("これを使いなさい……")
    250(bytes(0x04,0x08,0x6f,0x3a,0x0c,0x52,0x50,0x47,0x3a,0x3a,0x53,0x45,0x08,0x3a,0x0a,0x40,0x6e,0x61,0x6d,0x65,0x49,0x22,0x0a,0x49,0x74,0x65,0x6d,0x31,0x06,0x3a,0x06,0x45,0x54,0x3a,0x0b,0x40,0x70,0x69,0x74,0x63,0x68,0x69,0x69,0x3a,0x0c,0x40,0x76,0x6f,0x6c,0x75,0x6d,0x65,0x69,0x55))
    ChangeInventoryArmor(1384,0,0,1,false)
    0()
   EndIf()
   0()
  EndIf()
  If(1,3279,0,2000,1)
   If(1,4279,0,2,0)
    ChangeVariable(4279,4279,0,0,3)
    ShowMessageFace("e_scylla_fc1",0,0,2,3)
    ShowMessage("【オーマ】（好感度：\\V[3279]）")
    ShowMessage("これを使いなさい……")
    250(bytes(0x04,0x08,0x6f,0x3a,0x0c,0x52,0x50,0x47,0x3a,0x3a,0x53,0x45,0x08,0x3a,0x0a,0x40,0x6e,0x61,0x6d,0x65,0x49,0x22,0x0a,0x49,0x74,0x65,0x6d,0x31,0x06,0x3a,0x06,0x45,0x54,0x3a,0x0b,0x40,0x70,0x69,0x74,0x63,0x68,0x69,0x69,0x3a,0x0c,0x40,0x76,0x6f,0x6c,0x75,0x6d,0x65,0x69,0x55))
    ChangeInventoryArmor(1470,0,0,1,false)
    0()
   EndIf()
   0()
  EndIf()
  If(1,3279,0,4000,1)
   If(1,4279,0,3,0)
    ChangeVariable(4279,4279,0,0,4)
    ShowMessageFace("e_scylla_fc1",0,0,2,4)
    ShowMessage("【オーマ】（好感度：\\V[3279]）")
    ShowMessage("これを使いなさい……")
    250(bytes(0x04,0x08,0x6f,0x3a,0x0c,0x52,0x50,0x47,0x3a,0x3a,0x53,0x45,0x08,0x3a,0x0a,0x40,0x6e,0x61,0x6d,0x65,0x49,0x22,0x0a,0x49,0x74,0x65,0x6d,0x31,0x06,0x3a,0x06,0x45,0x54,0x3a,0x0b,0x40,0x70,0x69,0x74,0x63,0x68,0x69,0x69,0x3a,0x0c,0x40,0x76,0x6f,0x6c,0x75,0x6d,0x65,0x69,0x55))
    ChangeInventoryArmor(1325,0,0,1,false)
    0()
   EndIf()
   0()
  EndIf()
  355("actor_label_jump")
  ShowMessageFace("e_scylla_fc1",0,0,2,5)
  ShowMessage("【オーマ】（好感度：\\V[3279]）")
  ShowMessage("私の通った床、ヌルヌルになってるんだけど……")
  ShowMessage("掃除しておいてくれない？")
  JumpToLabel("メニュー")
  DefineLabel("252")
  ShowMessageFace("scylla_fc1",0,0,2,6)
  ShowMessage("【キューラ】（好感度：\\V[3252]）")
  ShowMessage("あなたは、海棲タイプのスキュラなのね。")
  ShowMessageFace("e_scylla_fc1",0,0,2,7)
  ShowMessage("【オーマ】（好感度：\\V[3279]）")
  ShowMessage("そうよ……")
  ShowMessage("深海をこの触手で泳ぐの。")
  ShowMessageFace("scylla_fc1",0,0,2,8)
  ShowMessage("【キューラ】（好感度：\\V[3252]）")
  ShowMessage("でも、イカじゃないわね……")
  ShowMessageFace("e_scylla_fc1",0,0,2,9)
  ShowMessage("【オーマ】（好感度：\\V[3279]）")
  ShowMessage("ええ、イカじゃないわね……")
  ShowMessageFace("sonia_fc4",0,0,2,10)
  ShowMessage("【ソニア】")
  ShowMessage("スキュラって、イカじゃないのにこだわるわね……")
  JumpToLabel("メニュー")
  DefineLabel("271")
  ShowMessageFace("scyllad_fc1",0,0,2,11)
  ShowMessage("【ミリアム】（好感度：\\V[3271]）")
  ShowMessage("あっ、深海タイプのスキュラですね！")
  ShowMessage("私も、海に潜ってみた事があるんですよ……")
  ShowMessageFace("e_scylla_fc1",0,0,2,12)
  ShowMessage("【オーマ】（好感度：\\V[3279]）")
  ShowMessage("へぇ……それでどうなったの？")
  ShowMessageFace("scyllad_fc1",2,0,2,13)
  ShowMessage("【ミリアム】（好感度：\\V[3271]）")
  ShowMessage("見事に溺れて、ゴルド海岸に半死半生で打ち上げられました……")
  ShowMessageFace("e_scylla_fc1",2,0,2,14)
  ShowMessage("【オーマ】（好感度：\\V[3279]）")
  ShowMessage("むぎゅっ……")
  JumpToLabel("メニュー")
  DefineLabel("351")
  ShowMessageFace("e_scylla_fc1",0,0,2,15)
  ShowMessage("【オーマ】（好感度：\\V[3279]）")
  ShowMessage("上位のスキュラのくせに、他者の下僕に甘んじるの……？")
  ShowMessageFace("scylla_s_fc1",0,0,2,16)
  ShowMessage("【セシール】（好感度：\\V[3351]）")
  ShowMessage("メイドは下僕ではありませんよ。")
  ShowMessage("それに腕がたくさんあるスキュラは、メイドと相性が良いのです。")
  ShowMessageFace("e_scylla_fc1",0,0,2,17)
  ShowMessage("【オーマ】（好感度：\\V[3279]）")
  ShowMessage("私には、理解できないわね。")
  ShowMessage("他の奴にこき使われるなんて……")
  ShowMessageFace("scylla_s_fc1",0,0,2,18)
  ShowMessage("【セシール】（好感度：\\V[3351]）")
  ShowMessage("尽くす悦びも、良いものですよ……")
  ShowMessage("最終的に、ご主人様が奉仕の虜になってしまうのも愉快です。")
  JumpToLabel("メニュー")
  DefineLabel("メニュー")
  StartLoop()
   355("unlimited_choices(11, [\"プレゼントをあげる\",")
   655("\"パーティに加える\",")
   655("\"プレゼントリストを見る\",\"おねだりする\",")
   655("\"やめる\"])")
   If(1,11,0,0,0)
    355("present_start(279)")
    0()
   EndIf()
   If(1,11,0,1,0)
    PictureClear(5)
    355("move_actor_ex(279)")
    EndEventProcessing()
    0()
   EndIf()
   If(1,11,0,2,0)
    ShowMessageFace("",0,0,2,19)
    ShowMessage("好感度 100:ジョブリスト")
    ShowMessage("好感度 500:触手技の書")
    ShowMessage("好感度2000:ヌルヌルの印")
    ShowMessage("好感度4000:鞭の秘伝書")
    0()
   EndIf()
   If(1,11,0,3,0)
    PictureClear(5)
    ShowMessageFace("",0,0,2,20)
    ShowMessage("何をおねだりしますか？（好感度：\\V[3279]）")
    ShowChoices(strings("触手フェラ（好感度:10）","触手コキ（好感度:50）","逆レイプ（好感度:100）","やめる"),4)
    IfPlayerPicksChoice(0,null)
     If(1,3279,0,10,1)
      355("call_novel_scene(5206)")
      EndEventProcessing()
      0()
     Else()
      ShowMessageFace("e_scylla_fc1",0,0,2,21)
      ShowMessage("【オーマ】（好感度：\\V[3279]）")
      ShowMessage("まだダメよ……")
      0()
     EndIf()
     0()
    IfPlayerPicksChoice(1,null)
     If(1,3279,0,50,1)
      355("call_novel_scene(5207)")
      EndEventProcessing()
      0()
     Else()
      ShowMessageFace("e_scylla_fc1",0,0,2,22)
      ShowMessage("【オーマ】（好感度：\\V[3279]）")
      ShowMessage("まだダメよ……")
      0()
     EndIf()
     0()
    IfPlayerPicksChoice(2,null)
     If(1,3279,0,100,1)
      355("call_novel_scene(5208)")
      EndEventProcessing()
      0()
     Else()
      ShowMessageFace("e_scylla_fc1",0,0,2,23)
      ShowMessage("【オーマ】（好感度：\\V[3279]）")
      ShowMessage("まだダメよ……")
      0()
     EndIf()
     0()
    IfPlayerPicksChoice(3,null)
     0()
    404()
    0()
   EndIf()
   If(1,11,0,4,1)
    PictureClear(5)
    EndEventProcessing()
    0()
   EndIf()
   0()
  EndLoop()
  0()
 PAGE   2
  // condition: party contains actor #279
  0()



EVENT   25
 PAGE   1
  // condition: switch 1580 is ON
  PictureDisplay(5,"80_mob_ozyou_st01",0,0,0,0,100,100,0,0)
  PictureMove(5,null,0,0,0,0,100,100,255,0,30,true)
  355("actor_label_jump")
  ShowMessageFace("mob_ozyou_fc1",0,0,2,1)
  ShowMessage("【アレリア】（好感度：\\V[3580]）")
  ShowMessage("わたくしに御用でしょうか？")
  ShowMessage("連れ出させてくれるなら、嬉しいですわ……")
  JumpToLabel("メニュー")
  DefineLabel("メニュー")
  ShowChoices(strings("パーティに加える","バトルファックをする","やめる"),3)
  IfPlayerPicksChoice(0,null)
   PictureClear(5)
   355("move_actor_ex(580)")
   EndEventProcessing()
   0()
  IfPlayerPicksChoice(1,null)
   ChangeSwitch(2331,2331,0)
   RunCommonEvent(7301)
   ChangeSwitch(2331,2331,1)
   PictureClear(5)
   241(bytes(0x04,0x08,0x6f,0x3a,0x0d,0x52,0x50,0x47,0x3a,0x3a,0x42,0x47,0x4d,0x08,0x3a,0x0a,0x40,0x6e,0x61,0x6d,0x65,0x49,0x22,0x08,0x75,0x6d,0x69,0x06,0x3a,0x06,0x45,0x54,0x3a,0x0c,0x40,0x76,0x6f,0x6c,0x75,0x6d,0x65,0x69,0x69,0x3a,0x0b,0x40,0x70,0x69,0x74,0x63,0x68,0x69,0x69))
   EndEventProcessing()
   0()
  IfPlayerPicksChoice(2,null)
   PictureClear(5)
   241(bytes(0x04,0x08,0x6f,0x3a,0x0d,0x52,0x50,0x47,0x3a,0x3a,0x42,0x47,0x4d,0x08,0x3a,0x0a,0x40,0x6e,0x61,0x6d,0x65,0x49,0x22,0x08,0x75,0x6d,0x69,0x06,0x3a,0x06,0x45,0x54,0x3a,0x0c,0x40,0x76,0x6f,0x6c,0x75,0x6d,0x65,0x69,0x69,0x3a,0x0b,0x40,0x70,0x69,0x74,0x63,0x68,0x69,0x69))
   EndEventProcessing()
   0()
  404()
  0()
 PAGE   2
  // condition: party contains actor #580
  0()



EVENT   26
 PAGE   1
  // condition: switch 1583 is ON
  PictureDisplay(5,"80_mob_kaizoku1_st01",0,0,0,0,100,100,0,0)
  PictureMove(5,null,0,0,0,0,100,100,255,0,30,true)
  355("actor_label_jump")
  ShowMessageFace("mob_kaizoku1_fc1",0,0,2,1)
  ShowMessage("【アリアドネ】（好感度：\\V[3583]）")
  ShowMessage("さあ、行くぜ！")
  ShowMessage("次はどこを襲えばいいんだ？")
  JumpToLabel("メニュー")
  DefineLabel("メニュー")
  ShowChoices(strings("パーティに加える","バトルファックをする","やめる"),3)
  IfPlayerPicksChoice(0,null)
   PictureClear(5)
   355("move_actor_ex(583)")
   EndEventProcessing()
   0()
  IfPlayerPicksChoice(1,null)
   ChangeSwitch(2331,2331,0)
   RunCommonEvent(7331)
   ChangeSwitch(2331,2331,1)
   PictureClear(5)
   241(bytes(0x04,0x08,0x6f,0x3a,0x0d,0x52,0x50,0x47,0x3a,0x3a,0x42,0x47,0x4d,0x08,0x3a,0x0a,0x40,0x6e,0x61,0x6d,0x65,0x49,0x22,0x08,0x75,0x6d,0x69,0x06,0x3a,0x06,0x45,0x54,0x3a,0x0c,0x40,0x76,0x6f,0x6c,0x75,0x6d,0x65,0x69,0x69,0x3a,0x0b,0x40,0x70,0x69,0x74,0x63,0x68,0x69,0x69))
   EndEventProcessing()
   0()
  IfPlayerPicksChoice(2,null)
   PictureClear(5)
   241(bytes(0x04,0x08,0x6f,0x3a,0x0d,0x52,0x50,0x47,0x3a,0x3a,0x42,0x47,0x4d,0x08,0x3a,0x0a,0x40,0x6e,0x61,0x6d,0x65,0x49,0x22,0x08,0x75,0x6d,0x69,0x06,0x3a,0x06,0x45,0x54,0x3a,0x0c,0x40,0x76,0x6f,0x6c,0x75,0x6d,0x65,0x69,0x69,0x3a,0x0b,0x40,0x70,0x69,0x74,0x63,0x68,0x69,0x69))
   EndEventProcessing()
   0()
  404()
  0()
 PAGE   2
  // condition: party contains actor #583
  0()



EVENT   27
 PAGE   1
  // condition: switch 1585 is ON
  PictureDisplay(5,"80_mob_kaizoku3_st01",0,0,0,0,100,100,0,0)
  PictureMove(5,null,0,0,0,0,100,100,255,0,30,true)
  355("actor_label_jump")
  ShowMessageFace("mob_kaizoku3_fc1",1,0,2,1)
  ShowMessage("【グロリア】（好感度：\\V[3585]）")
  ShowMessage("酒の準備はしたかい？")
  ShowMessage("それじゃあ、いざ出発だよっ！")
  JumpToLabel("メニュー")
  DefineLabel("メニュー")
  ShowChoices(strings("パーティに加える","バトルファックをする","やめる"),3)
  IfPlayerPicksChoice(0,null)
   PictureClear(5)
   355("move_actor_ex(585)")
   EndEventProcessing()
   0()
  IfPlayerPicksChoice(1,null)
   ChangeSwitch(2331,2331,0)
   RunCommonEvent(7351)
   ChangeSwitch(2331,2331,1)
   PictureClear(5)
   241(bytes(0x04,0x08,0x6f,0x3a,0x0d,0x52,0x50,0x47,0x3a,0x3a,0x42,0x47,0x4d,0x08,0x3a,0x0a,0x40,0x6e,0x61,0x6d,0x65,0x49,0x22,0x08,0x75,0x6d,0x69,0x06,0x3a,0x06,0x45,0x54,0x3a,0x0c,0x40,0x76,0x6f,0x6c,0x75,0x6d,0x65,0x69,0x69,0x3a,0x0b,0x40,0x70,0x69,0x74,0x63,0x68,0x69,0x69))
   EndEventProcessing()
   0()
  IfPlayerPicksChoice(2,null)
   PictureClear(5)
   241(bytes(0x04,0x08,0x6f,0x3a,0x0d,0x52,0x50,0x47,0x3a,0x3a,0x42,0x47,0x4d,0x08,0x3a,0x0a,0x40,0x6e,0x61,0x6d,0x65,0x49,0x22,0x08,0x75,0x6d,0x69,0x06,0x3a,0x06,0x45,0x54,0x3a,0x0c,0x40,0x76,0x6f,0x6c,0x75,0x6d,0x65,0x69,0x69,0x3a,0x0b,0x40,0x70,0x69,0x74,0x63,0x68,0x69,0x69))
   EndEventProcessing()
   0()
  404()
  0()
 PAGE   2
  // condition: party contains actor #585
  0()



EVENT   28
 PAGE   1
  // condition: switch 1584 is ON
  PictureDisplay(5,"80_mob_kaizoku2_st01",0,0,0,0,100,100,0,0)
  PictureMove(5,null,0,0,0,0,100,100,255,0,30,true)
  355("actor_label_jump")
  ShowMessageFace("mob_kaizoku2_fc1",0,0,2,1)
  ShowMessage("【クレスタ】（好感度：\\V[3584]）")
  ShowMessage("あたしの銃は、百発百中！")
  ShowMessage("どんな敵でも、狙い撃ちだよ？")
  JumpToLabel("メニュー")
  DefineLabel("メニュー")
  ShowChoices(strings("パーティに加える","バトルファックをする","やめる"),3)
  IfPlayerPicksChoice(0,null)
   PictureClear(5)
   355("move_actor_ex(584)")
   EndEventProcessing()
   0()
  IfPlayerPicksChoice(1,null)
   ChangeSwitch(2331,2331,0)
   RunCommonEvent(7341)
   ChangeSwitch(2331,2331,1)
   PictureClear(5)
   241(bytes(0x04,0x08,0x6f,0x3a,0x0d,0x52,0x50,0x47,0x3a,0x3a,0x42,0x47,0x4d,0x08,0x3a,0x0a,0x40,0x6e,0x61,0x6d,0x65,0x49,0x22,0x08,0x75,0x6d,0x69,0x06,0x3a,0x06,0x45,0x54,0x3a,0x0c,0x40,0x76,0x6f,0x6c,0x75,0x6d,0x65,0x69,0x69,0x3a,0x0b,0x40,0x70,0x69,0x74,0x63,0x68,0x69,0x69))
   EndEventProcessing()
   0()
  IfPlayerPicksChoice(2,null)
   PictureClear(5)
   241(bytes(0x04,0x08,0x6f,0x3a,0x0d,0x52,0x50,0x47,0x3a,0x3a,0x42,0x47,0x4d,0x08,0x3a,0x0a,0x40,0x6e,0x61,0x6d,0x65,0x49,0x22,0x08,0x75,0x6d,0x69,0x06,0x3a,0x06,0x45,0x54,0x3a,0x0c,0x40,0x76,0x6f,0x6c,0x75,0x6d,0x65,0x69,0x69,0x3a,0x0b,0x40,0x70,0x69,0x74,0x63,0x68,0x69,0x69))
   EndEventProcessing()
   0()
  404()
  0()
 PAGE   2
  // condition: party contains actor #584
  0()
