﻿


EVENT   4
 PAGE   1
  // condition: variable 125 >= 3
  RunCommonEvent(901)
  0()



EVENT   5
 PAGE   1
  // condition: variable 125 >= 3
  RunCommonEvent(901)
  0()



EVENT   6
 PAGE   1
  // condition: variable 125 >= 3
  RunCommonEvent(901)
  0()



EVENT   7
 PAGE   1
  // condition: variable 125 >= 2
  RunCommonEvent(901)
  0()
 PAGE   2
  // condition: variable 125 >= 3
  0()



EVENT   8
 PAGE   1
  // condition: variable 125 >= 2
  RunCommonEvent(901)
  0()
 PAGE   2
  // condition: variable 125 >= 3
  0()



EVENT   9
 PAGE   1
  // condition: variable 125 >= 2
  RunCommonEvent(901)
  0()
 PAGE   2
  // condition: variable 125 >= 3
  0()



EVENT   10
 PAGE   1
  // condition: variable 125 >= 1
  RunCommonEvent(901)
  0()
 PAGE   2
  // condition: variable 125 >= 2
  0()



EVENT   11
 PAGE   1
  // condition: variable 125 >= 1
  RunCommonEvent(901)
  0()
 PAGE   2
  // condition: variable 125 >= 2
  0()



EVENT   12
 PAGE   1
  // condition: variable 125 >= 1
  RunCommonEvent(901)
  0()
 PAGE   2
  // condition: variable 125 >= 2
  0()



EVENT   23
 PAGE   1
  // condition: variable 140 >= 20
  If(12,"unlock_level < 1")
   ShowMessageFace("",0,0,2,1)
   ShowMessage("宝箱には鍵が掛かっている……")
   EndEventProcessing()
   0()
  EndIf()
  250(bytes(0x04,0x08,0x6f,0x3a,0x0c,0x52,0x50,0x47,0x3a,0x3a,0x53,0x45,0x08,0x3a,0x0a,0x40,0x6e,0x61,0x6d,0x65,0x49,0x22,0x0a,0x43,0x68,0x65,0x73,0x74,0x06,0x3a,0x06,0x45,0x54,0x3a,0x0b,0x40,0x70,0x69,0x74,0x63,0x68,0x69,0x69,0x3a,0x0c,0x40,0x76,0x6f,0x6c,0x75,0x6d,0x65,0x69,0x55))
  205(0,bytes(0x04,0x08,0x6f,0x3a,0x13,0x52,0x50,0x47,0x3a,0x3a,0x4d,0x6f,0x76,0x65,0x52,0x6f,0x75,0x74,0x65,0x09,0x3a,0x0c,0x40,0x72,0x65,0x70,0x65,0x61,0x74,0x46,0x3a,0x0f,0x40,0x73,0x6b,0x69,0x70,0x70,0x61,0x62,0x6c,0x65,0x46,0x3a,0x0a,0x40,0x77,0x61,0x69,0x74,0x54,0x3a,0x0a,0x40,0x6c,0x69,0x73,0x74,0x5b,0x0b,0x6f,0x3a,0x15,0x52,0x50,0x47,0x3a,0x3a,0x4d,0x6f,0x76,0x65,0x43,0x6f,0x6d,0x6d,0x61,0x6e,0x64,0x07,0x3a,0x0a,0x40,0x63,0x6f,0x64,0x65,0x69,0x29,0x3a,0x10,0x40,0x70,0x61,0x72,0x61,0x6d,0x65,0x74,0x65,0x72,0x73,0x5b,0x00,0x6f,0x3b,0x0a,0x07,0x3b,0x0b,0x69,0x16,0x3b,0x0c,0x5b,0x00,0x6f,0x3b,0x0a,0x07,0x3b,0x0b,0x69,0x14,0x3b,0x0c,0x5b,0x06,0x69,0x08,0x6f,0x3b,0x0a,0x07,0x3b,0x0b,0x69,0x17,0x3b,0x0c,0x5b,0x00,0x6f,0x3b,0x0a,0x07,0x3b,0x0b,0x69,0x14,0x3b,0x0c,0x5b,0x06,0x69,0x08,0x6f,0x3b,0x0a,0x07,0x3b,0x0b,0x69,0x00,0x3b,0x0c,0x5b,0x00))
  ChangeSwitch(55,55,0)
  RunCommonEvent(913)
  0()
 PAGE   2
  // condition: switch 55 is ON
  // condition: variable 140 >= 20
  0()
 PAGE   3
  // condition: variable 140 >= 27
  If(12,"unlock_level < 2")
   ShowMessageFace("",0,0,2,1)
   ShowMessage("宝箱には鍵が掛かっている……")
   EndEventProcessing()
   0()
  EndIf()
  250(bytes(0x04,0x08,0x6f,0x3a,0x0c,0x52,0x50,0x47,0x3a,0x3a,0x53,0x45,0x08,0x3a,0x0a,0x40,0x6e,0x61,0x6d,0x65,0x49,0x22,0x0a,0x43,0x68,0x65,0x73,0x74,0x06,0x3a,0x06,0x45,0x54,0x3a,0x0b,0x40,0x70,0x69,0x74,0x63,0x68,0x69,0x69,0x3a,0x0c,0x40,0x76,0x6f,0x6c,0x75,0x6d,0x65,0x69,0x55))
  205(0,bytes(0x04,0x08,0x6f,0x3a,0x13,0x52,0x50,0x47,0x3a,0x3a,0x4d,0x6f,0x76,0x65,0x52,0x6f,0x75,0x74,0x65,0x09,0x3a,0x0c,0x40,0x72,0x65,0x70,0x65,0x61,0x74,0x46,0x3a,0x0f,0x40,0x73,0x6b,0x69,0x70,0x70,0x61,0x62,0x6c,0x65,0x46,0x3a,0x0a,0x40,0x77,0x61,0x69,0x74,0x54,0x3a,0x0a,0x40,0x6c,0x69,0x73,0x74,0x5b,0x0b,0x6f,0x3a,0x15,0x52,0x50,0x47,0x3a,0x3a,0x4d,0x6f,0x76,0x65,0x43,0x6f,0x6d,0x6d,0x61,0x6e,0x64,0x07,0x3a,0x0a,0x40,0x63,0x6f,0x64,0x65,0x69,0x29,0x3a,0x10,0x40,0x70,0x61,0x72,0x61,0x6d,0x65,0x74,0x65,0x72,0x73,0x5b,0x00,0x6f,0x3b,0x0a,0x07,0x3b,0x0b,0x69,0x16,0x3b,0x0c,0x5b,0x00,0x6f,0x3b,0x0a,0x07,0x3b,0x0b,0x69,0x14,0x3b,0x0c,0x5b,0x06,0x69,0x08,0x6f,0x3b,0x0a,0x07,0x3b,0x0b,0x69,0x17,0x3b,0x0c,0x5b,0x00,0x6f,0x3b,0x0a,0x07,0x3b,0x0b,0x69,0x14,0x3b,0x0c,0x5b,0x06,0x69,0x08,0x6f,0x3b,0x0a,0x07,0x3b,0x0b,0x69,0x00,0x3b,0x0c,0x5b,0x00))
  ChangeSwitch(55,55,0)
  RunCommonEvent(914)
  0()
 PAGE   4
  // condition: switch 55 is ON
  // condition: variable 140 >= 27
  0()
 PAGE   5
  // condition: variable 140 >= 30
  If(12,"unlock_level < 3")
   ShowMessageFace("",0,0,2,1)
   ShowMessage("宝箱には鍵が掛かっている……")
   EndEventProcessing()
   0()
  EndIf()
  250(bytes(0x04,0x08,0x6f,0x3a,0x0c,0x52,0x50,0x47,0x3a,0x3a,0x53,0x45,0x08,0x3a,0x0a,0x40,0x6e,0x61,0x6d,0x65,0x49,0x22,0x0a,0x43,0x68,0x65,0x73,0x74,0x06,0x3a,0x06,0x45,0x54,0x3a,0x0b,0x40,0x70,0x69,0x74,0x63,0x68,0x69,0x69,0x3a,0x0c,0x40,0x76,0x6f,0x6c,0x75,0x6d,0x65,0x69,0x55))
  205(0,bytes(0x04,0x08,0x6f,0x3a,0x13,0x52,0x50,0x47,0x3a,0x3a,0x4d,0x6f,0x76,0x65,0x52,0x6f,0x75,0x74,0x65,0x09,0x3a,0x0c,0x40,0x72,0x65,0x70,0x65,0x61,0x74,0x46,0x3a,0x0f,0x40,0x73,0x6b,0x69,0x70,0x70,0x61,0x62,0x6c,0x65,0x46,0x3a,0x0a,0x40,0x77,0x61,0x69,0x74,0x54,0x3a,0x0a,0x40,0x6c,0x69,0x73,0x74,0x5b,0x0b,0x6f,0x3a,0x15,0x52,0x50,0x47,0x3a,0x3a,0x4d,0x6f,0x76,0x65,0x43,0x6f,0x6d,0x6d,0x61,0x6e,0x64,0x07,0x3a,0x0a,0x40,0x63,0x6f,0x64,0x65,0x69,0x29,0x3a,0x10,0x40,0x70,0x61,0x72,0x61,0x6d,0x65,0x74,0x65,0x72,0x73,0x5b,0x00,0x6f,0x3b,0x0a,0x07,0x3b,0x0b,0x69,0x16,0x3b,0x0c,0x5b,0x00,0x6f,0x3b,0x0a,0x07,0x3b,0x0b,0x69,0x14,0x3b,0x0c,0x5b,0x06,0x69,0x08,0x6f,0x3b,0x0a,0x07,0x3b,0x0b,0x69,0x17,0x3b,0x0c,0x5b,0x00,0x6f,0x3b,0x0a,0x07,0x3b,0x0b,0x69,0x14,0x3b,0x0c,0x5b,0x06,0x69,0x08,0x6f,0x3b,0x0a,0x07,0x3b,0x0b,0x69,0x00,0x3b,0x0c,0x5b,0x00))
  ChangeSwitch(55,55,0)
  RunCommonEvent(915)
  0()
 PAGE   6
  // condition: switch 55 is ON
  // condition: variable 140 >= 30
  0()



EVENT   24
 PAGE   1
  // condition: variable 140 >= 20
  If(12,"unlock_level < 1")
   ShowMessageFace("",0,0,2,1)
   ShowMessage("宝箱には鍵が掛かっている……")
   EndEventProcessing()
   0()
  EndIf()
  250(bytes(0x04,0x08,0x6f,0x3a,0x0c,0x52,0x50,0x47,0x3a,0x3a,0x53,0x45,0x08,0x3a,0x0a,0x40,0x6e,0x61,0x6d,0x65,0x49,0x22,0x0a,0x43,0x68,0x65,0x73,0x74,0x06,0x3a,0x06,0x45,0x54,0x3a,0x0b,0x40,0x70,0x69,0x74,0x63,0x68,0x69,0x69,0x3a,0x0c,0x40,0x76,0x6f,0x6c,0x75,0x6d,0x65,0x69,0x55))
  205(0,bytes(0x04,0x08,0x6f,0x3a,0x13,0x52,0x50,0x47,0x3a,0x3a,0x4d,0x6f,0x76,0x65,0x52,0x6f,0x75,0x74,0x65,0x09,0x3a,0x0c,0x40,0x72,0x65,0x70,0x65,0x61,0x74,0x46,0x3a,0x0f,0x40,0x73,0x6b,0x69,0x70,0x70,0x61,0x62,0x6c,0x65,0x46,0x3a,0x0a,0x40,0x77,0x61,0x69,0x74,0x54,0x3a,0x0a,0x40,0x6c,0x69,0x73,0x74,0x5b,0x0b,0x6f,0x3a,0x15,0x52,0x50,0x47,0x3a,0x3a,0x4d,0x6f,0x76,0x65,0x43,0x6f,0x6d,0x6d,0x61,0x6e,0x64,0x07,0x3a,0x0a,0x40,0x63,0x6f,0x64,0x65,0x69,0x29,0x3a,0x10,0x40,0x70,0x61,0x72,0x61,0x6d,0x65,0x74,0x65,0x72,0x73,0x5b,0x00,0x6f,0x3b,0x0a,0x07,0x3b,0x0b,0x69,0x16,0x3b,0x0c,0x5b,0x00,0x6f,0x3b,0x0a,0x07,0x3b,0x0b,0x69,0x14,0x3b,0x0c,0x5b,0x06,0x69,0x08,0x6f,0x3b,0x0a,0x07,0x3b,0x0b,0x69,0x17,0x3b,0x0c,0x5b,0x00,0x6f,0x3b,0x0a,0x07,0x3b,0x0b,0x69,0x14,0x3b,0x0c,0x5b,0x06,0x69,0x08,0x6f,0x3b,0x0a,0x07,0x3b,0x0b,0x69,0x00,0x3b,0x0c,0x5b,0x00))
  ChangeSwitch(55,55,0)
  RunCommonEvent(913)
  0()
 PAGE   2
  // condition: switch 55 is ON
  // condition: variable 140 >= 20
  0()
 PAGE   3
  // condition: variable 140 >= 27
  If(12,"unlock_level < 2")
   ShowMessageFace("",0,0,2,1)
   ShowMessage("宝箱には鍵が掛かっている……")
   EndEventProcessing()
   0()
  EndIf()
  250(bytes(0x04,0x08,0x6f,0x3a,0x0c,0x52,0x50,0x47,0x3a,0x3a,0x53,0x45,0x08,0x3a,0x0a,0x40,0x6e,0x61,0x6d,0x65,0x49,0x22,0x0a,0x43,0x68,0x65,0x73,0x74,0x06,0x3a,0x06,0x45,0x54,0x3a,0x0b,0x40,0x70,0x69,0x74,0x63,0x68,0x69,0x69,0x3a,0x0c,0x40,0x76,0x6f,0x6c,0x75,0x6d,0x65,0x69,0x55))
  205(0,bytes(0x04,0x08,0x6f,0x3a,0x13,0x52,0x50,0x47,0x3a,0x3a,0x4d,0x6f,0x76,0x65,0x52,0x6f,0x75,0x74,0x65,0x09,0x3a,0x0c,0x40,0x72,0x65,0x70,0x65,0x61,0x74,0x46,0x3a,0x0f,0x40,0x73,0x6b,0x69,0x70,0x70,0x61,0x62,0x6c,0x65,0x46,0x3a,0x0a,0x40,0x77,0x61,0x69,0x74,0x54,0x3a,0x0a,0x40,0x6c,0x69,0x73,0x74,0x5b,0x0b,0x6f,0x3a,0x15,0x52,0x50,0x47,0x3a,0x3a,0x4d,0x6f,0x76,0x65,0x43,0x6f,0x6d,0x6d,0x61,0x6e,0x64,0x07,0x3a,0x0a,0x40,0x63,0x6f,0x64,0x65,0x69,0x29,0x3a,0x10,0x40,0x70,0x61,0x72,0x61,0x6d,0x65,0x74,0x65,0x72,0x73,0x5b,0x00,0x6f,0x3b,0x0a,0x07,0x3b,0x0b,0x69,0x16,0x3b,0x0c,0x5b,0x00,0x6f,0x3b,0x0a,0x07,0x3b,0x0b,0x69,0x14,0x3b,0x0c,0x5b,0x06,0x69,0x08,0x6f,0x3b,0x0a,0x07,0x3b,0x0b,0x69,0x17,0x3b,0x0c,0x5b,0x00,0x6f,0x3b,0x0a,0x07,0x3b,0x0b,0x69,0x14,0x3b,0x0c,0x5b,0x06,0x69,0x08,0x6f,0x3b,0x0a,0x07,0x3b,0x0b,0x69,0x00,0x3b,0x0c,0x5b,0x00))
  ChangeSwitch(55,55,0)
  RunCommonEvent(914)
  0()
 PAGE   4
  // condition: switch 55 is ON
  // condition: variable 140 >= 27
  0()
 PAGE   5
  // condition: variable 140 >= 30
  If(12,"unlock_level < 3")
   ShowMessageFace("",0,0,2,1)
   ShowMessage("宝箱には鍵が掛かっている……")
   EndEventProcessing()
   0()
  EndIf()
  250(bytes(0x04,0x08,0x6f,0x3a,0x0c,0x52,0x50,0x47,0x3a,0x3a,0x53,0x45,0x08,0x3a,0x0a,0x40,0x6e,0x61,0x6d,0x65,0x49,0x22,0x0a,0x43,0x68,0x65,0x73,0x74,0x06,0x3a,0x06,0x45,0x54,0x3a,0x0b,0x40,0x70,0x69,0x74,0x63,0x68,0x69,0x69,0x3a,0x0c,0x40,0x76,0x6f,0x6c,0x75,0x6d,0x65,0x69,0x55))
  205(0,bytes(0x04,0x08,0x6f,0x3a,0x13,0x52,0x50,0x47,0x3a,0x3a,0x4d,0x6f,0x76,0x65,0x52,0x6f,0x75,0x74,0x65,0x09,0x3a,0x0c,0x40,0x72,0x65,0x70,0x65,0x61,0x74,0x46,0x3a,0x0f,0x40,0x73,0x6b,0x69,0x70,0x70,0x61,0x62,0x6c,0x65,0x46,0x3a,0x0a,0x40,0x77,0x61,0x69,0x74,0x54,0x3a,0x0a,0x40,0x6c,0x69,0x73,0x74,0x5b,0x0b,0x6f,0x3a,0x15,0x52,0x50,0x47,0x3a,0x3a,0x4d,0x6f,0x76,0x65,0x43,0x6f,0x6d,0x6d,0x61,0x6e,0x64,0x07,0x3a,0x0a,0x40,0x63,0x6f,0x64,0x65,0x69,0x29,0x3a,0x10,0x40,0x70,0x61,0x72,0x61,0x6d,0x65,0x74,0x65,0x72,0x73,0x5b,0x00,0x6f,0x3b,0x0a,0x07,0x3b,0x0b,0x69,0x16,0x3b,0x0c,0x5b,0x00,0x6f,0x3b,0x0a,0x07,0x3b,0x0b,0x69,0x14,0x3b,0x0c,0x5b,0x06,0x69,0x08,0x6f,0x3b,0x0a,0x07,0x3b,0x0b,0x69,0x17,0x3b,0x0c,0x5b,0x00,0x6f,0x3b,0x0a,0x07,0x3b,0x0b,0x69,0x14,0x3b,0x0c,0x5b,0x06,0x69,0x08,0x6f,0x3b,0x0a,0x07,0x3b,0x0b,0x69,0x00,0x3b,0x0c,0x5b,0x00))
  ChangeSwitch(55,55,0)
  RunCommonEvent(915)
  0()
 PAGE   6
  // condition: switch 55 is ON
  // condition: variable 140 >= 30
  0()



EVENT   25
 PAGE   1
  // condition: variable 140 >= 20
  If(12,"unlock_level < 1")
   ShowMessageFace("",0,0,2,1)
   ShowMessage("宝箱には鍵が掛かっている……")
   EndEventProcessing()
   0()
  EndIf()
  250(bytes(0x04,0x08,0x6f,0x3a,0x0c,0x52,0x50,0x47,0x3a,0x3a,0x53,0x45,0x08,0x3a,0x0a,0x40,0x6e,0x61,0x6d,0x65,0x49,0x22,0x0a,0x43,0x68,0x65,0x73,0x74,0x06,0x3a,0x06,0x45,0x54,0x3a,0x0b,0x40,0x70,0x69,0x74,0x63,0x68,0x69,0x69,0x3a,0x0c,0x40,0x76,0x6f,0x6c,0x75,0x6d,0x65,0x69,0x55))
  205(0,bytes(0x04,0x08,0x6f,0x3a,0x13,0x52,0x50,0x47,0x3a,0x3a,0x4d,0x6f,0x76,0x65,0x52,0x6f,0x75,0x74,0x65,0x09,0x3a,0x0c,0x40,0x72,0x65,0x70,0x65,0x61,0x74,0x46,0x3a,0x0f,0x40,0x73,0x6b,0x69,0x70,0x70,0x61,0x62,0x6c,0x65,0x46,0x3a,0x0a,0x40,0x77,0x61,0x69,0x74,0x54,0x3a,0x0a,0x40,0x6c,0x69,0x73,0x74,0x5b,0x0b,0x6f,0x3a,0x15,0x52,0x50,0x47,0x3a,0x3a,0x4d,0x6f,0x76,0x65,0x43,0x6f,0x6d,0x6d,0x61,0x6e,0x64,0x07,0x3a,0x0a,0x40,0x63,0x6f,0x64,0x65,0x69,0x29,0x3a,0x10,0x40,0x70,0x61,0x72,0x61,0x6d,0x65,0x74,0x65,0x72,0x73,0x5b,0x00,0x6f,0x3b,0x0a,0x07,0x3b,0x0b,0x69,0x16,0x3b,0x0c,0x5b,0x00,0x6f,0x3b,0x0a,0x07,0x3b,0x0b,0x69,0x14,0x3b,0x0c,0x5b,0x06,0x69,0x08,0x6f,0x3b,0x0a,0x07,0x3b,0x0b,0x69,0x17,0x3b,0x0c,0x5b,0x00,0x6f,0x3b,0x0a,0x07,0x3b,0x0b,0x69,0x14,0x3b,0x0c,0x5b,0x06,0x69,0x08,0x6f,0x3b,0x0a,0x07,0x3b,0x0b,0x69,0x00,0x3b,0x0c,0x5b,0x00))
  ChangeSwitch(55,55,0)
  RunCommonEvent(913)
  0()
 PAGE   2
  // condition: switch 55 is ON
  // condition: variable 140 >= 20
  0()
 PAGE   3
  // condition: variable 140 >= 27
  If(12,"unlock_level < 2")
   ShowMessageFace("",0,0,2,1)
   ShowMessage("宝箱には鍵が掛かっている……")
   EndEventProcessing()
   0()
  EndIf()
  250(bytes(0x04,0x08,0x6f,0x3a,0x0c,0x52,0x50,0x47,0x3a,0x3a,0x53,0x45,0x08,0x3a,0x0a,0x40,0x6e,0x61,0x6d,0x65,0x49,0x22,0x0a,0x43,0x68,0x65,0x73,0x74,0x06,0x3a,0x06,0x45,0x54,0x3a,0x0b,0x40,0x70,0x69,0x74,0x63,0x68,0x69,0x69,0x3a,0x0c,0x40,0x76,0x6f,0x6c,0x75,0x6d,0x65,0x69,0x55))
  205(0,bytes(0x04,0x08,0x6f,0x3a,0x13,0x52,0x50,0x47,0x3a,0x3a,0x4d,0x6f,0x76,0x65,0x52,0x6f,0x75,0x74,0x65,0x09,0x3a,0x0c,0x40,0x72,0x65,0x70,0x65,0x61,0x74,0x46,0x3a,0x0f,0x40,0x73,0x6b,0x69,0x70,0x70,0x61,0x62,0x6c,0x65,0x46,0x3a,0x0a,0x40,0x77,0x61,0x69,0x74,0x54,0x3a,0x0a,0x40,0x6c,0x69,0x73,0x74,0x5b,0x0b,0x6f,0x3a,0x15,0x52,0x50,0x47,0x3a,0x3a,0x4d,0x6f,0x76,0x65,0x43,0x6f,0x6d,0x6d,0x61,0x6e,0x64,0x07,0x3a,0x0a,0x40,0x63,0x6f,0x64,0x65,0x69,0x29,0x3a,0x10,0x40,0x70,0x61,0x72,0x61,0x6d,0x65,0x74,0x65,0x72,0x73,0x5b,0x00,0x6f,0x3b,0x0a,0x07,0x3b,0x0b,0x69,0x16,0x3b,0x0c,0x5b,0x00,0x6f,0x3b,0x0a,0x07,0x3b,0x0b,0x69,0x14,0x3b,0x0c,0x5b,0x06,0x69,0x08,0x6f,0x3b,0x0a,0x07,0x3b,0x0b,0x69,0x17,0x3b,0x0c,0x5b,0x00,0x6f,0x3b,0x0a,0x07,0x3b,0x0b,0x69,0x14,0x3b,0x0c,0x5b,0x06,0x69,0x08,0x6f,0x3b,0x0a,0x07,0x3b,0x0b,0x69,0x00,0x3b,0x0c,0x5b,0x00))
  ChangeSwitch(55,55,0)
  RunCommonEvent(914)
  0()
 PAGE   4
  // condition: switch 55 is ON
  // condition: variable 140 >= 27
  0()
 PAGE   5
  // condition: variable 140 >= 30
  If(12,"unlock_level < 3")
   ShowMessageFace("",0,0,2,1)
   ShowMessage("宝箱には鍵が掛かっている……")
   EndEventProcessing()
   0()
  EndIf()
  250(bytes(0x04,0x08,0x6f,0x3a,0x0c,0x52,0x50,0x47,0x3a,0x3a,0x53,0x45,0x08,0x3a,0x0a,0x40,0x6e,0x61,0x6d,0x65,0x49,0x22,0x0a,0x43,0x68,0x65,0x73,0x74,0x06,0x3a,0x06,0x45,0x54,0x3a,0x0b,0x40,0x70,0x69,0x74,0x63,0x68,0x69,0x69,0x3a,0x0c,0x40,0x76,0x6f,0x6c,0x75,0x6d,0x65,0x69,0x55))
  205(0,bytes(0x04,0x08,0x6f,0x3a,0x13,0x52,0x50,0x47,0x3a,0x3a,0x4d,0x6f,0x76,0x65,0x52,0x6f,0x75,0x74,0x65,0x09,0x3a,0x0c,0x40,0x72,0x65,0x70,0x65,0x61,0x74,0x46,0x3a,0x0f,0x40,0x73,0x6b,0x69,0x70,0x70,0x61,0x62,0x6c,0x65,0x46,0x3a,0x0a,0x40,0x77,0x61,0x69,0x74,0x54,0x3a,0x0a,0x40,0x6c,0x69,0x73,0x74,0x5b,0x0b,0x6f,0x3a,0x15,0x52,0x50,0x47,0x3a,0x3a,0x4d,0x6f,0x76,0x65,0x43,0x6f,0x6d,0x6d,0x61,0x6e,0x64,0x07,0x3a,0x0a,0x40,0x63,0x6f,0x64,0x65,0x69,0x29,0x3a,0x10,0x40,0x70,0x61,0x72,0x61,0x6d,0x65,0x74,0x65,0x72,0x73,0x5b,0x00,0x6f,0x3b,0x0a,0x07,0x3b,0x0b,0x69,0x16,0x3b,0x0c,0x5b,0x00,0x6f,0x3b,0x0a,0x07,0x3b,0x0b,0x69,0x14,0x3b,0x0c,0x5b,0x06,0x69,0x08,0x6f,0x3b,0x0a,0x07,0x3b,0x0b,0x69,0x17,0x3b,0x0c,0x5b,0x00,0x6f,0x3b,0x0a,0x07,0x3b,0x0b,0x69,0x14,0x3b,0x0c,0x5b,0x06,0x69,0x08,0x6f,0x3b,0x0a,0x07,0x3b,0x0b,0x69,0x00,0x3b,0x0c,0x5b,0x00))
  ChangeSwitch(55,55,0)
  RunCommonEvent(915)
  0()
 PAGE   6
  // condition: switch 55 is ON
  // condition: variable 140 >= 30
  0()



EVENT   60
 PAGE   1
  RunCommonEvent(916)
  Battle(0,381,false,false)
  RunCommonEvent(917)
  TemporaryRemoveEvent()
  0()
 PAGE   2
  // condition: switch 73 is ON
  0()



EVENT   61
 PAGE   1
  RunCommonEvent(916)
  Battle(0,381,false,false)
  RunCommonEvent(917)
  TemporaryRemoveEvent()
  0()
 PAGE   2
  // condition: switch 73 is ON
  0()



EVENT   62
 PAGE   1
  RunCommonEvent(916)
  Battle(0,381,false,false)
  RunCommonEvent(917)
  TemporaryRemoveEvent()
  0()
 PAGE   2
  // condition: switch 73 is ON
  0()



EVENT   69
 PAGE   1
  // condition: switch 42 is ON
  250(bytes(0x04,0x08,0x6f,0x3a,0x0c,0x52,0x50,0x47,0x3a,0x3a,0x53,0x45,0x08,0x3a,0x0a,0x40,0x6e,0x61,0x6d,0x65,0x49,0x22,0x0a,0x43,0x68,0x65,0x73,0x74,0x06,0x3a,0x06,0x45,0x54,0x3a,0x0b,0x40,0x70,0x69,0x74,0x63,0x68,0x69,0x69,0x3a,0x0c,0x40,0x76,0x6f,0x6c,0x75,0x6d,0x65,0x69,0x55))
  205(0,bytes(0x04,0x08,0x6f,0x3a,0x13,0x52,0x50,0x47,0x3a,0x3a,0x4d,0x6f,0x76,0x65,0x52,0x6f,0x75,0x74,0x65,0x09,0x3a,0x0c,0x40,0x72,0x65,0x70,0x65,0x61,0x74,0x46,0x3a,0x0f,0x40,0x73,0x6b,0x69,0x70,0x70,0x61,0x62,0x6c,0x65,0x46,0x3a,0x0a,0x40,0x77,0x61,0x69,0x74,0x54,0x3a,0x0a,0x40,0x6c,0x69,0x73,0x74,0x5b,0x0b,0x6f,0x3a,0x15,0x52,0x50,0x47,0x3a,0x3a,0x4d,0x6f,0x76,0x65,0x43,0x6f,0x6d,0x6d,0x61,0x6e,0x64,0x07,0x3a,0x0a,0x40,0x63,0x6f,0x64,0x65,0x69,0x29,0x3a,0x10,0x40,0x70,0x61,0x72,0x61,0x6d,0x65,0x74,0x65,0x72,0x73,0x5b,0x00,0x6f,0x3b,0x0a,0x07,0x3b,0x0b,0x69,0x16,0x3b,0x0c,0x5b,0x00,0x6f,0x3b,0x0a,0x07,0x3b,0x0b,0x69,0x14,0x3b,0x0c,0x5b,0x06,0x69,0x08,0x6f,0x3b,0x0a,0x07,0x3b,0x0b,0x69,0x17,0x3b,0x0c,0x5b,0x00,0x6f,0x3b,0x0a,0x07,0x3b,0x0b,0x69,0x14,0x3b,0x0c,0x5b,0x06,0x69,0x08,0x6f,0x3b,0x0a,0x07,0x3b,0x0b,0x69,0x00,0x3b,0x0c,0x5b,0x00))
  ChangeSwitch(45,45,0)
  RunCommonEvent(903)
  0()
 PAGE   2
  // condition: switch 42 is ON
  // condition: switch 45 is ON
  0()



EVENT   70
 PAGE   1
  // condition: switch 42 is ON
  250(bytes(0x04,0x08,0x6f,0x3a,0x0c,0x52,0x50,0x47,0x3a,0x3a,0x53,0x45,0x08,0x3a,0x0a,0x40,0x6e,0x61,0x6d,0x65,0x49,0x22,0x0a,0x43,0x68,0x65,0x73,0x74,0x06,0x3a,0x06,0x45,0x54,0x3a,0x0b,0x40,0x70,0x69,0x74,0x63,0x68,0x69,0x69,0x3a,0x0c,0x40,0x76,0x6f,0x6c,0x75,0x6d,0x65,0x69,0x55))
  205(0,bytes(0x04,0x08,0x6f,0x3a,0x13,0x52,0x50,0x47,0x3a,0x3a,0x4d,0x6f,0x76,0x65,0x52,0x6f,0x75,0x74,0x65,0x09,0x3a,0x0c,0x40,0x72,0x65,0x70,0x65,0x61,0x74,0x46,0x3a,0x0f,0x40,0x73,0x6b,0x69,0x70,0x70,0x61,0x62,0x6c,0x65,0x46,0x3a,0x0a,0x40,0x77,0x61,0x69,0x74,0x54,0x3a,0x0a,0x40,0x6c,0x69,0x73,0x74,0x5b,0x0b,0x6f,0x3a,0x15,0x52,0x50,0x47,0x3a,0x3a,0x4d,0x6f,0x76,0x65,0x43,0x6f,0x6d,0x6d,0x61,0x6e,0x64,0x07,0x3a,0x0a,0x40,0x63,0x6f,0x64,0x65,0x69,0x29,0x3a,0x10,0x40,0x70,0x61,0x72,0x61,0x6d,0x65,0x74,0x65,0x72,0x73,0x5b,0x00,0x6f,0x3b,0x0a,0x07,0x3b,0x0b,0x69,0x16,0x3b,0x0c,0x5b,0x00,0x6f,0x3b,0x0a,0x07,0x3b,0x0b,0x69,0x14,0x3b,0x0c,0x5b,0x06,0x69,0x08,0x6f,0x3b,0x0a,0x07,0x3b,0x0b,0x69,0x17,0x3b,0x0c,0x5b,0x00,0x6f,0x3b,0x0a,0x07,0x3b,0x0b,0x69,0x14,0x3b,0x0c,0x5b,0x06,0x69,0x08,0x6f,0x3b,0x0a,0x07,0x3b,0x0b,0x69,0x00,0x3b,0x0c,0x5b,0x00))
  ChangeSwitch(45,45,0)
  RunCommonEvent(903)
  0()
 PAGE   2
  // condition: switch 42 is ON
  // condition: switch 45 is ON
  0()



EVENT   71
 PAGE   1
  // condition: switch 42 is ON
  250(bytes(0x04,0x08,0x6f,0x3a,0x0c,0x52,0x50,0x47,0x3a,0x3a,0x53,0x45,0x08,0x3a,0x0a,0x40,0x6e,0x61,0x6d,0x65,0x49,0x22,0x0a,0x43,0x68,0x65,0x73,0x74,0x06,0x3a,0x06,0x45,0x54,0x3a,0x0b,0x40,0x70,0x69,0x74,0x63,0x68,0x69,0x69,0x3a,0x0c,0x40,0x76,0x6f,0x6c,0x75,0x6d,0x65,0x69,0x55))
  205(0,bytes(0x04,0x08,0x6f,0x3a,0x13,0x52,0x50,0x47,0x3a,0x3a,0x4d,0x6f,0x76,0x65,0x52,0x6f,0x75,0x74,0x65,0x09,0x3a,0x0c,0x40,0x72,0x65,0x70,0x65,0x61,0x74,0x46,0x3a,0x0f,0x40,0x73,0x6b,0x69,0x70,0x70,0x61,0x62,0x6c,0x65,0x46,0x3a,0x0a,0x40,0x77,0x61,0x69,0x74,0x54,0x3a,0x0a,0x40,0x6c,0x69,0x73,0x74,0x5b,0x0b,0x6f,0x3a,0x15,0x52,0x50,0x47,0x3a,0x3a,0x4d,0x6f,0x76,0x65,0x43,0x6f,0x6d,0x6d,0x61,0x6e,0x64,0x07,0x3a,0x0a,0x40,0x63,0x6f,0x64,0x65,0x69,0x29,0x3a,0x10,0x40,0x70,0x61,0x72,0x61,0x6d,0x65,0x74,0x65,0x72,0x73,0x5b,0x00,0x6f,0x3b,0x0a,0x07,0x3b,0x0b,0x69,0x16,0x3b,0x0c,0x5b,0x00,0x6f,0x3b,0x0a,0x07,0x3b,0x0b,0x69,0x14,0x3b,0x0c,0x5b,0x06,0x69,0x08,0x6f,0x3b,0x0a,0x07,0x3b,0x0b,0x69,0x17,0x3b,0x0c,0x5b,0x00,0x6f,0x3b,0x0a,0x07,0x3b,0x0b,0x69,0x14,0x3b,0x0c,0x5b,0x06,0x69,0x08,0x6f,0x3b,0x0a,0x07,0x3b,0x0b,0x69,0x00,0x3b,0x0c,0x5b,0x00))
  ChangeSwitch(45,45,0)
  RunCommonEvent(903)
  0()
 PAGE   2
  // condition: switch 42 is ON
  // condition: switch 45 is ON
  0()



EVENT   72
 PAGE   1
  // condition: switch 43 is ON
  250(bytes(0x04,0x08,0x6f,0x3a,0x0c,0x52,0x50,0x47,0x3a,0x3a,0x53,0x45,0x08,0x3a,0x0a,0x40,0x6e,0x61,0x6d,0x65,0x49,0x22,0x0a,0x43,0x68,0x65,0x73,0x74,0x06,0x3a,0x06,0x45,0x54,0x3a,0x0b,0x40,0x70,0x69,0x74,0x63,0x68,0x69,0x69,0x3a,0x0c,0x40,0x76,0x6f,0x6c,0x75,0x6d,0x65,0x69,0x55))
  205(0,bytes(0x04,0x08,0x6f,0x3a,0x13,0x52,0x50,0x47,0x3a,0x3a,0x4d,0x6f,0x76,0x65,0x52,0x6f,0x75,0x74,0x65,0x09,0x3a,0x0c,0x40,0x72,0x65,0x70,0x65,0x61,0x74,0x46,0x3a,0x0f,0x40,0x73,0x6b,0x69,0x70,0x70,0x61,0x62,0x6c,0x65,0x46,0x3a,0x0a,0x40,0x77,0x61,0x69,0x74,0x54,0x3a,0x0a,0x40,0x6c,0x69,0x73,0x74,0x5b,0x0b,0x6f,0x3a,0x15,0x52,0x50,0x47,0x3a,0x3a,0x4d,0x6f,0x76,0x65,0x43,0x6f,0x6d,0x6d,0x61,0x6e,0x64,0x07,0x3a,0x0a,0x40,0x63,0x6f,0x64,0x65,0x69,0x29,0x3a,0x10,0x40,0x70,0x61,0x72,0x61,0x6d,0x65,0x74,0x65,0x72,0x73,0x5b,0x00,0x6f,0x3b,0x0a,0x07,0x3b,0x0b,0x69,0x16,0x3b,0x0c,0x5b,0x00,0x6f,0x3b,0x0a,0x07,0x3b,0x0b,0x69,0x14,0x3b,0x0c,0x5b,0x06,0x69,0x08,0x6f,0x3b,0x0a,0x07,0x3b,0x0b,0x69,0x17,0x3b,0x0c,0x5b,0x00,0x6f,0x3b,0x0a,0x07,0x3b,0x0b,0x69,0x14,0x3b,0x0c,0x5b,0x06,0x69,0x08,0x6f,0x3b,0x0a,0x07,0x3b,0x0b,0x69,0x00,0x3b,0x0c,0x5b,0x00))
  ChangeSwitch(45,45,0)
  RunCommonEvent(903)
  0()
 PAGE   2
  // condition: switch 43 is ON
  // condition: switch 45 is ON
  0()



EVENT   73
 PAGE   1
  // condition: switch 43 is ON
  250(bytes(0x04,0x08,0x6f,0x3a,0x0c,0x52,0x50,0x47,0x3a,0x3a,0x53,0x45,0x08,0x3a,0x0a,0x40,0x6e,0x61,0x6d,0x65,0x49,0x22,0x0a,0x43,0x68,0x65,0x73,0x74,0x06,0x3a,0x06,0x45,0x54,0x3a,0x0b,0x40,0x70,0x69,0x74,0x63,0x68,0x69,0x69,0x3a,0x0c,0x40,0x76,0x6f,0x6c,0x75,0x6d,0x65,0x69,0x55))
  205(0,bytes(0x04,0x08,0x6f,0x3a,0x13,0x52,0x50,0x47,0x3a,0x3a,0x4d,0x6f,0x76,0x65,0x52,0x6f,0x75,0x74,0x65,0x09,0x3a,0x0c,0x40,0x72,0x65,0x70,0x65,0x61,0x74,0x46,0x3a,0x0f,0x40,0x73,0x6b,0x69,0x70,0x70,0x61,0x62,0x6c,0x65,0x46,0x3a,0x0a,0x40,0x77,0x61,0x69,0x74,0x54,0x3a,0x0a,0x40,0x6c,0x69,0x73,0x74,0x5b,0x0b,0x6f,0x3a,0x15,0x52,0x50,0x47,0x3a,0x3a,0x4d,0x6f,0x76,0x65,0x43,0x6f,0x6d,0x6d,0x61,0x6e,0x64,0x07,0x3a,0x0a,0x40,0x63,0x6f,0x64,0x65,0x69,0x29,0x3a,0x10,0x40,0x70,0x61,0x72,0x61,0x6d,0x65,0x74,0x65,0x72,0x73,0x5b,0x00,0x6f,0x3b,0x0a,0x07,0x3b,0x0b,0x69,0x16,0x3b,0x0c,0x5b,0x00,0x6f,0x3b,0x0a,0x07,0x3b,0x0b,0x69,0x14,0x3b,0x0c,0x5b,0x06,0x69,0x08,0x6f,0x3b,0x0a,0x07,0x3b,0x0b,0x69,0x17,0x3b,0x0c,0x5b,0x00,0x6f,0x3b,0x0a,0x07,0x3b,0x0b,0x69,0x14,0x3b,0x0c,0x5b,0x06,0x69,0x08,0x6f,0x3b,0x0a,0x07,0x3b,0x0b,0x69,0x00,0x3b,0x0c,0x5b,0x00))
  ChangeSwitch(45,45,0)
  RunCommonEvent(903)
  0()
 PAGE   2
  // condition: switch 43 is ON
  // condition: switch 45 is ON
  0()



EVENT   74
 PAGE   1
  // condition: switch 43 is ON
  250(bytes(0x04,0x08,0x6f,0x3a,0x0c,0x52,0x50,0x47,0x3a,0x3a,0x53,0x45,0x08,0x3a,0x0a,0x40,0x6e,0x61,0x6d,0x65,0x49,0x22,0x0a,0x43,0x68,0x65,0x73,0x74,0x06,0x3a,0x06,0x45,0x54,0x3a,0x0b,0x40,0x70,0x69,0x74,0x63,0x68,0x69,0x69,0x3a,0x0c,0x40,0x76,0x6f,0x6c,0x75,0x6d,0x65,0x69,0x55))
  205(0,bytes(0x04,0x08,0x6f,0x3a,0x13,0x52,0x50,0x47,0x3a,0x3a,0x4d,0x6f,0x76,0x65,0x52,0x6f,0x75,0x74,0x65,0x09,0x3a,0x0c,0x40,0x72,0x65,0x70,0x65,0x61,0x74,0x46,0x3a,0x0f,0x40,0x73,0x6b,0x69,0x70,0x70,0x61,0x62,0x6c,0x65,0x46,0x3a,0x0a,0x40,0x77,0x61,0x69,0x74,0x54,0x3a,0x0a,0x40,0x6c,0x69,0x73,0x74,0x5b,0x0b,0x6f,0x3a,0x15,0x52,0x50,0x47,0x3a,0x3a,0x4d,0x6f,0x76,0x65,0x43,0x6f,0x6d,0x6d,0x61,0x6e,0x64,0x07,0x3a,0x0a,0x40,0x63,0x6f,0x64,0x65,0x69,0x29,0x3a,0x10,0x40,0x70,0x61,0x72,0x61,0x6d,0x65,0x74,0x65,0x72,0x73,0x5b,0x00,0x6f,0x3b,0x0a,0x07,0x3b,0x0b,0x69,0x16,0x3b,0x0c,0x5b,0x00,0x6f,0x3b,0x0a,0x07,0x3b,0x0b,0x69,0x14,0x3b,0x0c,0x5b,0x06,0x69,0x08,0x6f,0x3b,0x0a,0x07,0x3b,0x0b,0x69,0x17,0x3b,0x0c,0x5b,0x00,0x6f,0x3b,0x0a,0x07,0x3b,0x0b,0x69,0x14,0x3b,0x0c,0x5b,0x06,0x69,0x08,0x6f,0x3b,0x0a,0x07,0x3b,0x0b,0x69,0x00,0x3b,0x0c,0x5b,0x00))
  ChangeSwitch(45,45,0)
  RunCommonEvent(903)
  0()
 PAGE   2
  // condition: switch 43 is ON
  // condition: switch 45 is ON
  0()



EVENT   75
 PAGE   1
  // condition: switch 44 is ON
  250(bytes(0x04,0x08,0x6f,0x3a,0x0c,0x52,0x50,0x47,0x3a,0x3a,0x53,0x45,0x08,0x3a,0x0a,0x40,0x6e,0x61,0x6d,0x65,0x49,0x22,0x0a,0x43,0x68,0x65,0x73,0x74,0x06,0x3a,0x06,0x45,0x54,0x3a,0x0b,0x40,0x70,0x69,0x74,0x63,0x68,0x69,0x69,0x3a,0x0c,0x40,0x76,0x6f,0x6c,0x75,0x6d,0x65,0x69,0x55))
  205(0,bytes(0x04,0x08,0x6f,0x3a,0x13,0x52,0x50,0x47,0x3a,0x3a,0x4d,0x6f,0x76,0x65,0x52,0x6f,0x75,0x74,0x65,0x09,0x3a,0x0c,0x40,0x72,0x65,0x70,0x65,0x61,0x74,0x46,0x3a,0x0f,0x40,0x73,0x6b,0x69,0x70,0x70,0x61,0x62,0x6c,0x65,0x46,0x3a,0x0a,0x40,0x77,0x61,0x69,0x74,0x54,0x3a,0x0a,0x40,0x6c,0x69,0x73,0x74,0x5b,0x0b,0x6f,0x3a,0x15,0x52,0x50,0x47,0x3a,0x3a,0x4d,0x6f,0x76,0x65,0x43,0x6f,0x6d,0x6d,0x61,0x6e,0x64,0x07,0x3a,0x0a,0x40,0x63,0x6f,0x64,0x65,0x69,0x29,0x3a,0x10,0x40,0x70,0x61,0x72,0x61,0x6d,0x65,0x74,0x65,0x72,0x73,0x5b,0x00,0x6f,0x3b,0x0a,0x07,0x3b,0x0b,0x69,0x16,0x3b,0x0c,0x5b,0x00,0x6f,0x3b,0x0a,0x07,0x3b,0x0b,0x69,0x14,0x3b,0x0c,0x5b,0x06,0x69,0x08,0x6f,0x3b,0x0a,0x07,0x3b,0x0b,0x69,0x17,0x3b,0x0c,0x5b,0x00,0x6f,0x3b,0x0a,0x07,0x3b,0x0b,0x69,0x14,0x3b,0x0c,0x5b,0x06,0x69,0x08,0x6f,0x3b,0x0a,0x07,0x3b,0x0b,0x69,0x00,0x3b,0x0c,0x5b,0x00))
  ChangeSwitch(45,45,0)
  RunCommonEvent(903)
  0()
 PAGE   2
  // condition: switch 44 is ON
  // condition: switch 45 is ON
  0()



EVENT   76
 PAGE   1
  // condition: switch 44 is ON
  250(bytes(0x04,0x08,0x6f,0x3a,0x0c,0x52,0x50,0x47,0x3a,0x3a,0x53,0x45,0x08,0x3a,0x0a,0x40,0x6e,0x61,0x6d,0x65,0x49,0x22,0x0a,0x43,0x68,0x65,0x73,0x74,0x06,0x3a,0x06,0x45,0x54,0x3a,0x0b,0x40,0x70,0x69,0x74,0x63,0x68,0x69,0x69,0x3a,0x0c,0x40,0x76,0x6f,0x6c,0x75,0x6d,0x65,0x69,0x55))
  205(0,bytes(0x04,0x08,0x6f,0x3a,0x13,0x52,0x50,0x47,0x3a,0x3a,0x4d,0x6f,0x76,0x65,0x52,0x6f,0x75,0x74,0x65,0x09,0x3a,0x0c,0x40,0x72,0x65,0x70,0x65,0x61,0x74,0x46,0x3a,0x0f,0x40,0x73,0x6b,0x69,0x70,0x70,0x61,0x62,0x6c,0x65,0x46,0x3a,0x0a,0x40,0x77,0x61,0x69,0x74,0x54,0x3a,0x0a,0x40,0x6c,0x69,0x73,0x74,0x5b,0x0b,0x6f,0x3a,0x15,0x52,0x50,0x47,0x3a,0x3a,0x4d,0x6f,0x76,0x65,0x43,0x6f,0x6d,0x6d,0x61,0x6e,0x64,0x07,0x3a,0x0a,0x40,0x63,0x6f,0x64,0x65,0x69,0x29,0x3a,0x10,0x40,0x70,0x61,0x72,0x61,0x6d,0x65,0x74,0x65,0x72,0x73,0x5b,0x00,0x6f,0x3b,0x0a,0x07,0x3b,0x0b,0x69,0x16,0x3b,0x0c,0x5b,0x00,0x6f,0x3b,0x0a,0x07,0x3b,0x0b,0x69,0x14,0x3b,0x0c,0x5b,0x06,0x69,0x08,0x6f,0x3b,0x0a,0x07,0x3b,0x0b,0x69,0x17,0x3b,0x0c,0x5b,0x00,0x6f,0x3b,0x0a,0x07,0x3b,0x0b,0x69,0x14,0x3b,0x0c,0x5b,0x06,0x69,0x08,0x6f,0x3b,0x0a,0x07,0x3b,0x0b,0x69,0x00,0x3b,0x0c,0x5b,0x00))
  ChangeSwitch(45,45,0)
  RunCommonEvent(903)
  0()
 PAGE   2
  // condition: switch 44 is ON
  // condition: switch 45 is ON
  0()



EVENT   77
 PAGE   1
  // condition: switch 44 is ON
  250(bytes(0x04,0x08,0x6f,0x3a,0x0c,0x52,0x50,0x47,0x3a,0x3a,0x53,0x45,0x08,0x3a,0x0a,0x40,0x6e,0x61,0x6d,0x65,0x49,0x22,0x0a,0x43,0x68,0x65,0x73,0x74,0x06,0x3a,0x06,0x45,0x54,0x3a,0x0b,0x40,0x70,0x69,0x74,0x63,0x68,0x69,0x69,0x3a,0x0c,0x40,0x76,0x6f,0x6c,0x75,0x6d,0x65,0x69,0x55))
  205(0,bytes(0x04,0x08,0x6f,0x3a,0x13,0x52,0x50,0x47,0x3a,0x3a,0x4d,0x6f,0x76,0x65,0x52,0x6f,0x75,0x74,0x65,0x09,0x3a,0x0c,0x40,0x72,0x65,0x70,0x65,0x61,0x74,0x46,0x3a,0x0f,0x40,0x73,0x6b,0x69,0x70,0x70,0x61,0x62,0x6c,0x65,0x46,0x3a,0x0a,0x40,0x77,0x61,0x69,0x74,0x54,0x3a,0x0a,0x40,0x6c,0x69,0x73,0x74,0x5b,0x0b,0x6f,0x3a,0x15,0x52,0x50,0x47,0x3a,0x3a,0x4d,0x6f,0x76,0x65,0x43,0x6f,0x6d,0x6d,0x61,0x6e,0x64,0x07,0x3a,0x0a,0x40,0x63,0x6f,0x64,0x65,0x69,0x29,0x3a,0x10,0x40,0x70,0x61,0x72,0x61,0x6d,0x65,0x74,0x65,0x72,0x73,0x5b,0x00,0x6f,0x3b,0x0a,0x07,0x3b,0x0b,0x69,0x16,0x3b,0x0c,0x5b,0x00,0x6f,0x3b,0x0a,0x07,0x3b,0x0b,0x69,0x14,0x3b,0x0c,0x5b,0x06,0x69,0x08,0x6f,0x3b,0x0a,0x07,0x3b,0x0b,0x69,0x17,0x3b,0x0c,0x5b,0x00,0x6f,0x3b,0x0a,0x07,0x3b,0x0b,0x69,0x14,0x3b,0x0c,0x5b,0x06,0x69,0x08,0x6f,0x3b,0x0a,0x07,0x3b,0x0b,0x69,0x00,0x3b,0x0c,0x5b,0x00))
  ChangeSwitch(45,45,0)
  RunCommonEvent(903)
  0()
 PAGE   2
  // condition: switch 44 is ON
  // condition: switch 45 is ON
  0()



EVENT   13
 PAGE   1
  // condition: switch 42 is ON
  250(bytes(0x04,0x08,0x6f,0x3a,0x0c,0x52,0x50,0x47,0x3a,0x3a,0x53,0x45,0x08,0x3a,0x0a,0x40,0x6e,0x61,0x6d,0x65,0x49,0x22,0x0a,0x43,0x68,0x65,0x73,0x74,0x06,0x3a,0x06,0x45,0x54,0x3a,0x0b,0x40,0x70,0x69,0x74,0x63,0x68,0x69,0x69,0x3a,0x0c,0x40,0x76,0x6f,0x6c,0x75,0x6d,0x65,0x69,0x55))
  205(0,bytes(0x04,0x08,0x6f,0x3a,0x13,0x52,0x50,0x47,0x3a,0x3a,0x4d,0x6f,0x76,0x65,0x52,0x6f,0x75,0x74,0x65,0x09,0x3a,0x0c,0x40,0x72,0x65,0x70,0x65,0x61,0x74,0x46,0x3a,0x0f,0x40,0x73,0x6b,0x69,0x70,0x70,0x61,0x62,0x6c,0x65,0x46,0x3a,0x0a,0x40,0x77,0x61,0x69,0x74,0x54,0x3a,0x0a,0x40,0x6c,0x69,0x73,0x74,0x5b,0x0b,0x6f,0x3a,0x15,0x52,0x50,0x47,0x3a,0x3a,0x4d,0x6f,0x76,0x65,0x43,0x6f,0x6d,0x6d,0x61,0x6e,0x64,0x07,0x3a,0x0a,0x40,0x63,0x6f,0x64,0x65,0x69,0x29,0x3a,0x10,0x40,0x70,0x61,0x72,0x61,0x6d,0x65,0x74,0x65,0x72,0x73,0x5b,0x00,0x6f,0x3b,0x0a,0x07,0x3b,0x0b,0x69,0x16,0x3b,0x0c,0x5b,0x00,0x6f,0x3b,0x0a,0x07,0x3b,0x0b,0x69,0x14,0x3b,0x0c,0x5b,0x06,0x69,0x08,0x6f,0x3b,0x0a,0x07,0x3b,0x0b,0x69,0x17,0x3b,0x0c,0x5b,0x00,0x6f,0x3b,0x0a,0x07,0x3b,0x0b,0x69,0x14,0x3b,0x0c,0x5b,0x06,0x69,0x08,0x6f,0x3b,0x0a,0x07,0x3b,0x0b,0x69,0x00,0x3b,0x0c,0x5b,0x00))
  ChangeSwitch(46,46,0)
  RunCommonEvent(903)
  0()
 PAGE   2
  // condition: switch 42 is ON
  // condition: switch 46 is ON
  0()



EVENT   14
 PAGE   1
  // condition: switch 42 is ON
  250(bytes(0x04,0x08,0x6f,0x3a,0x0c,0x52,0x50,0x47,0x3a,0x3a,0x53,0x45,0x08,0x3a,0x0a,0x40,0x6e,0x61,0x6d,0x65,0x49,0x22,0x0a,0x43,0x68,0x65,0x73,0x74,0x06,0x3a,0x06,0x45,0x54,0x3a,0x0b,0x40,0x70,0x69,0x74,0x63,0x68,0x69,0x69,0x3a,0x0c,0x40,0x76,0x6f,0x6c,0x75,0x6d,0x65,0x69,0x55))
  205(0,bytes(0x04,0x08,0x6f,0x3a,0x13,0x52,0x50,0x47,0x3a,0x3a,0x4d,0x6f,0x76,0x65,0x52,0x6f,0x75,0x74,0x65,0x09,0x3a,0x0c,0x40,0x72,0x65,0x70,0x65,0x61,0x74,0x46,0x3a,0x0f,0x40,0x73,0x6b,0x69,0x70,0x70,0x61,0x62,0x6c,0x65,0x46,0x3a,0x0a,0x40,0x77,0x61,0x69,0x74,0x54,0x3a,0x0a,0x40,0x6c,0x69,0x73,0x74,0x5b,0x0b,0x6f,0x3a,0x15,0x52,0x50,0x47,0x3a,0x3a,0x4d,0x6f,0x76,0x65,0x43,0x6f,0x6d,0x6d,0x61,0x6e,0x64,0x07,0x3a,0x0a,0x40,0x63,0x6f,0x64,0x65,0x69,0x29,0x3a,0x10,0x40,0x70,0x61,0x72,0x61,0x6d,0x65,0x74,0x65,0x72,0x73,0x5b,0x00,0x6f,0x3b,0x0a,0x07,0x3b,0x0b,0x69,0x16,0x3b,0x0c,0x5b,0x00,0x6f,0x3b,0x0a,0x07,0x3b,0x0b,0x69,0x14,0x3b,0x0c,0x5b,0x06,0x69,0x08,0x6f,0x3b,0x0a,0x07,0x3b,0x0b,0x69,0x17,0x3b,0x0c,0x5b,0x00,0x6f,0x3b,0x0a,0x07,0x3b,0x0b,0x69,0x14,0x3b,0x0c,0x5b,0x06,0x69,0x08,0x6f,0x3b,0x0a,0x07,0x3b,0x0b,0x69,0x00,0x3b,0x0c,0x5b,0x00))
  ChangeSwitch(46,46,0)
  RunCommonEvent(903)
  0()
 PAGE   2
  // condition: switch 42 is ON
  // condition: switch 46 is ON
  0()



EVENT   15
 PAGE   1
  // condition: switch 42 is ON
  250(bytes(0x04,0x08,0x6f,0x3a,0x0c,0x52,0x50,0x47,0x3a,0x3a,0x53,0x45,0x08,0x3a,0x0a,0x40,0x6e,0x61,0x6d,0x65,0x49,0x22,0x0a,0x43,0x68,0x65,0x73,0x74,0x06,0x3a,0x06,0x45,0x54,0x3a,0x0b,0x40,0x70,0x69,0x74,0x63,0x68,0x69,0x69,0x3a,0x0c,0x40,0x76,0x6f,0x6c,0x75,0x6d,0x65,0x69,0x55))
  205(0,bytes(0x04,0x08,0x6f,0x3a,0x13,0x52,0x50,0x47,0x3a,0x3a,0x4d,0x6f,0x76,0x65,0x52,0x6f,0x75,0x74,0x65,0x09,0x3a,0x0c,0x40,0x72,0x65,0x70,0x65,0x61,0x74,0x46,0x3a,0x0f,0x40,0x73,0x6b,0x69,0x70,0x70,0x61,0x62,0x6c,0x65,0x46,0x3a,0x0a,0x40,0x77,0x61,0x69,0x74,0x54,0x3a,0x0a,0x40,0x6c,0x69,0x73,0x74,0x5b,0x0b,0x6f,0x3a,0x15,0x52,0x50,0x47,0x3a,0x3a,0x4d,0x6f,0x76,0x65,0x43,0x6f,0x6d,0x6d,0x61,0x6e,0x64,0x07,0x3a,0x0a,0x40,0x63,0x6f,0x64,0x65,0x69,0x29,0x3a,0x10,0x40,0x70,0x61,0x72,0x61,0x6d,0x65,0x74,0x65,0x72,0x73,0x5b,0x00,0x6f,0x3b,0x0a,0x07,0x3b,0x0b,0x69,0x16,0x3b,0x0c,0x5b,0x00,0x6f,0x3b,0x0a,0x07,0x3b,0x0b,0x69,0x14,0x3b,0x0c,0x5b,0x06,0x69,0x08,0x6f,0x3b,0x0a,0x07,0x3b,0x0b,0x69,0x17,0x3b,0x0c,0x5b,0x00,0x6f,0x3b,0x0a,0x07,0x3b,0x0b,0x69,0x14,0x3b,0x0c,0x5b,0x06,0x69,0x08,0x6f,0x3b,0x0a,0x07,0x3b,0x0b,0x69,0x00,0x3b,0x0c,0x5b,0x00))
  ChangeSwitch(46,46,0)
  RunCommonEvent(903)
  0()
 PAGE   2
  // condition: switch 42 is ON
  // condition: switch 46 is ON
  0()



EVENT   16
 PAGE   1
  // condition: switch 43 is ON
  250(bytes(0x04,0x08,0x6f,0x3a,0x0c,0x52,0x50,0x47,0x3a,0x3a,0x53,0x45,0x08,0x3a,0x0a,0x40,0x6e,0x61,0x6d,0x65,0x49,0x22,0x0a,0x43,0x68,0x65,0x73,0x74,0x06,0x3a,0x06,0x45,0x54,0x3a,0x0b,0x40,0x70,0x69,0x74,0x63,0x68,0x69,0x69,0x3a,0x0c,0x40,0x76,0x6f,0x6c,0x75,0x6d,0x65,0x69,0x55))
  205(0,bytes(0x04,0x08,0x6f,0x3a,0x13,0x52,0x50,0x47,0x3a,0x3a,0x4d,0x6f,0x76,0x65,0x52,0x6f,0x75,0x74,0x65,0x09,0x3a,0x0c,0x40,0x72,0x65,0x70,0x65,0x61,0x74,0x46,0x3a,0x0f,0x40,0x73,0x6b,0x69,0x70,0x70,0x61,0x62,0x6c,0x65,0x46,0x3a,0x0a,0x40,0x77,0x61,0x69,0x74,0x54,0x3a,0x0a,0x40,0x6c,0x69,0x73,0x74,0x5b,0x0b,0x6f,0x3a,0x15,0x52,0x50,0x47,0x3a,0x3a,0x4d,0x6f,0x76,0x65,0x43,0x6f,0x6d,0x6d,0x61,0x6e,0x64,0x07,0x3a,0x0a,0x40,0x63,0x6f,0x64,0x65,0x69,0x29,0x3a,0x10,0x40,0x70,0x61,0x72,0x61,0x6d,0x65,0x74,0x65,0x72,0x73,0x5b,0x00,0x6f,0x3b,0x0a,0x07,0x3b,0x0b,0x69,0x16,0x3b,0x0c,0x5b,0x00,0x6f,0x3b,0x0a,0x07,0x3b,0x0b,0x69,0x14,0x3b,0x0c,0x5b,0x06,0x69,0x08,0x6f,0x3b,0x0a,0x07,0x3b,0x0b,0x69,0x17,0x3b,0x0c,0x5b,0x00,0x6f,0x3b,0x0a,0x07,0x3b,0x0b,0x69,0x14,0x3b,0x0c,0x5b,0x06,0x69,0x08,0x6f,0x3b,0x0a,0x07,0x3b,0x0b,0x69,0x00,0x3b,0x0c,0x5b,0x00))
  ChangeSwitch(46,46,0)
  RunCommonEvent(903)
  0()
 PAGE   2
  // condition: switch 43 is ON
  // condition: switch 46 is ON
  0()



EVENT   17
 PAGE   1
  // condition: switch 43 is ON
  250(bytes(0x04,0x08,0x6f,0x3a,0x0c,0x52,0x50,0x47,0x3a,0x3a,0x53,0x45,0x08,0x3a,0x0a,0x40,0x6e,0x61,0x6d,0x65,0x49,0x22,0x0a,0x43,0x68,0x65,0x73,0x74,0x06,0x3a,0x06,0x45,0x54,0x3a,0x0b,0x40,0x70,0x69,0x74,0x63,0x68,0x69,0x69,0x3a,0x0c,0x40,0x76,0x6f,0x6c,0x75,0x6d,0x65,0x69,0x55))
  205(0,bytes(0x04,0x08,0x6f,0x3a,0x13,0x52,0x50,0x47,0x3a,0x3a,0x4d,0x6f,0x76,0x65,0x52,0x6f,0x75,0x74,0x65,0x09,0x3a,0x0c,0x40,0x72,0x65,0x70,0x65,0x61,0x74,0x46,0x3a,0x0f,0x40,0x73,0x6b,0x69,0x70,0x70,0x61,0x62,0x6c,0x65,0x46,0x3a,0x0a,0x40,0x77,0x61,0x69,0x74,0x54,0x3a,0x0a,0x40,0x6c,0x69,0x73,0x74,0x5b,0x0b,0x6f,0x3a,0x15,0x52,0x50,0x47,0x3a,0x3a,0x4d,0x6f,0x76,0x65,0x43,0x6f,0x6d,0x6d,0x61,0x6e,0x64,0x07,0x3a,0x0a,0x40,0x63,0x6f,0x64,0x65,0x69,0x29,0x3a,0x10,0x40,0x70,0x61,0x72,0x61,0x6d,0x65,0x74,0x65,0x72,0x73,0x5b,0x00,0x6f,0x3b,0x0a,0x07,0x3b,0x0b,0x69,0x16,0x3b,0x0c,0x5b,0x00,0x6f,0x3b,0x0a,0x07,0x3b,0x0b,0x69,0x14,0x3b,0x0c,0x5b,0x06,0x69,0x08,0x6f,0x3b,0x0a,0x07,0x3b,0x0b,0x69,0x17,0x3b,0x0c,0x5b,0x00,0x6f,0x3b,0x0a,0x07,0x3b,0x0b,0x69,0x14,0x3b,0x0c,0x5b,0x06,0x69,0x08,0x6f,0x3b,0x0a,0x07,0x3b,0x0b,0x69,0x00,0x3b,0x0c,0x5b,0x00))
  ChangeSwitch(46,46,0)
  RunCommonEvent(903)
  0()
 PAGE   2
  // condition: switch 43 is ON
  // condition: switch 46 is ON
  0()



EVENT   18
 PAGE   1
  // condition: switch 43 is ON
  250(bytes(0x04,0x08,0x6f,0x3a,0x0c,0x52,0x50,0x47,0x3a,0x3a,0x53,0x45,0x08,0x3a,0x0a,0x40,0x6e,0x61,0x6d,0x65,0x49,0x22,0x0a,0x43,0x68,0x65,0x73,0x74,0x06,0x3a,0x06,0x45,0x54,0x3a,0x0b,0x40,0x70,0x69,0x74,0x63,0x68,0x69,0x69,0x3a,0x0c,0x40,0x76,0x6f,0x6c,0x75,0x6d,0x65,0x69,0x55))
  205(0,bytes(0x04,0x08,0x6f,0x3a,0x13,0x52,0x50,0x47,0x3a,0x3a,0x4d,0x6f,0x76,0x65,0x52,0x6f,0x75,0x74,0x65,0x09,0x3a,0x0c,0x40,0x72,0x65,0x70,0x65,0x61,0x74,0x46,0x3a,0x0f,0x40,0x73,0x6b,0x69,0x70,0x70,0x61,0x62,0x6c,0x65,0x46,0x3a,0x0a,0x40,0x77,0x61,0x69,0x74,0x54,0x3a,0x0a,0x40,0x6c,0x69,0x73,0x74,0x5b,0x0b,0x6f,0x3a,0x15,0x52,0x50,0x47,0x3a,0x3a,0x4d,0x6f,0x76,0x65,0x43,0x6f,0x6d,0x6d,0x61,0x6e,0x64,0x07,0x3a,0x0a,0x40,0x63,0x6f,0x64,0x65,0x69,0x29,0x3a,0x10,0x40,0x70,0x61,0x72,0x61,0x6d,0x65,0x74,0x65,0x72,0x73,0x5b,0x00,0x6f,0x3b,0x0a,0x07,0x3b,0x0b,0x69,0x16,0x3b,0x0c,0x5b,0x00,0x6f,0x3b,0x0a,0x07,0x3b,0x0b,0x69,0x14,0x3b,0x0c,0x5b,0x06,0x69,0x08,0x6f,0x3b,0x0a,0x07,0x3b,0x0b,0x69,0x17,0x3b,0x0c,0x5b,0x00,0x6f,0x3b,0x0a,0x07,0x3b,0x0b,0x69,0x14,0x3b,0x0c,0x5b,0x06,0x69,0x08,0x6f,0x3b,0x0a,0x07,0x3b,0x0b,0x69,0x00,0x3b,0x0c,0x5b,0x00))
  ChangeSwitch(46,46,0)
  RunCommonEvent(903)
  0()
 PAGE   2
  // condition: switch 43 is ON
  // condition: switch 46 is ON
  0()



EVENT   19
 PAGE   1
  // condition: switch 44 is ON
  250(bytes(0x04,0x08,0x6f,0x3a,0x0c,0x52,0x50,0x47,0x3a,0x3a,0x53,0x45,0x08,0x3a,0x0a,0x40,0x6e,0x61,0x6d,0x65,0x49,0x22,0x0a,0x43,0x68,0x65,0x73,0x74,0x06,0x3a,0x06,0x45,0x54,0x3a,0x0b,0x40,0x70,0x69,0x74,0x63,0x68,0x69,0x69,0x3a,0x0c,0x40,0x76,0x6f,0x6c,0x75,0x6d,0x65,0x69,0x55))
  205(0,bytes(0x04,0x08,0x6f,0x3a,0x13,0x52,0x50,0x47,0x3a,0x3a,0x4d,0x6f,0x76,0x65,0x52,0x6f,0x75,0x74,0x65,0x09,0x3a,0x0c,0x40,0x72,0x65,0x70,0x65,0x61,0x74,0x46,0x3a,0x0f,0x40,0x73,0x6b,0x69,0x70,0x70,0x61,0x62,0x6c,0x65,0x46,0x3a,0x0a,0x40,0x77,0x61,0x69,0x74,0x54,0x3a,0x0a,0x40,0x6c,0x69,0x73,0x74,0x5b,0x0b,0x6f,0x3a,0x15,0x52,0x50,0x47,0x3a,0x3a,0x4d,0x6f,0x76,0x65,0x43,0x6f,0x6d,0x6d,0x61,0x6e,0x64,0x07,0x3a,0x0a,0x40,0x63,0x6f,0x64,0x65,0x69,0x29,0x3a,0x10,0x40,0x70,0x61,0x72,0x61,0x6d,0x65,0x74,0x65,0x72,0x73,0x5b,0x00,0x6f,0x3b,0x0a,0x07,0x3b,0x0b,0x69,0x16,0x3b,0x0c,0x5b,0x00,0x6f,0x3b,0x0a,0x07,0x3b,0x0b,0x69,0x14,0x3b,0x0c,0x5b,0x06,0x69,0x08,0x6f,0x3b,0x0a,0x07,0x3b,0x0b,0x69,0x17,0x3b,0x0c,0x5b,0x00,0x6f,0x3b,0x0a,0x07,0x3b,0x0b,0x69,0x14,0x3b,0x0c,0x5b,0x06,0x69,0x08,0x6f,0x3b,0x0a,0x07,0x3b,0x0b,0x69,0x00,0x3b,0x0c,0x5b,0x00))
  ChangeSwitch(46,46,0)
  RunCommonEvent(903)
  0()
 PAGE   2
  // condition: switch 44 is ON
  // condition: switch 46 is ON
  0()



EVENT   20
 PAGE   1
  // condition: switch 44 is ON
  250(bytes(0x04,0x08,0x6f,0x3a,0x0c,0x52,0x50,0x47,0x3a,0x3a,0x53,0x45,0x08,0x3a,0x0a,0x40,0x6e,0x61,0x6d,0x65,0x49,0x22,0x0a,0x43,0x68,0x65,0x73,0x74,0x06,0x3a,0x06,0x45,0x54,0x3a,0x0b,0x40,0x70,0x69,0x74,0x63,0x68,0x69,0x69,0x3a,0x0c,0x40,0x76,0x6f,0x6c,0x75,0x6d,0x65,0x69,0x55))
  205(0,bytes(0x04,0x08,0x6f,0x3a,0x13,0x52,0x50,0x47,0x3a,0x3a,0x4d,0x6f,0x76,0x65,0x52,0x6f,0x75,0x74,0x65,0x09,0x3a,0x0c,0x40,0x72,0x65,0x70,0x65,0x61,0x74,0x46,0x3a,0x0f,0x40,0x73,0x6b,0x69,0x70,0x70,0x61,0x62,0x6c,0x65,0x46,0x3a,0x0a,0x40,0x77,0x61,0x69,0x74,0x54,0x3a,0x0a,0x40,0x6c,0x69,0x73,0x74,0x5b,0x0b,0x6f,0x3a,0x15,0x52,0x50,0x47,0x3a,0x3a,0x4d,0x6f,0x76,0x65,0x43,0x6f,0x6d,0x6d,0x61,0x6e,0x64,0x07,0x3a,0x0a,0x40,0x63,0x6f,0x64,0x65,0x69,0x29,0x3a,0x10,0x40,0x70,0x61,0x72,0x61,0x6d,0x65,0x74,0x65,0x72,0x73,0x5b,0x00,0x6f,0x3b,0x0a,0x07,0x3b,0x0b,0x69,0x16,0x3b,0x0c,0x5b,0x00,0x6f,0x3b,0x0a,0x07,0x3b,0x0b,0x69,0x14,0x3b,0x0c,0x5b,0x06,0x69,0x08,0x6f,0x3b,0x0a,0x07,0x3b,0x0b,0x69,0x17,0x3b,0x0c,0x5b,0x00,0x6f,0x3b,0x0a,0x07,0x3b,0x0b,0x69,0x14,0x3b,0x0c,0x5b,0x06,0x69,0x08,0x6f,0x3b,0x0a,0x07,0x3b,0x0b,0x69,0x00,0x3b,0x0c,0x5b,0x00))
  ChangeSwitch(46,46,0)
  RunCommonEvent(903)
  0()
 PAGE   2
  // condition: switch 44 is ON
  // condition: switch 46 is ON
  0()



EVENT   21
 PAGE   1
  // condition: switch 44 is ON
  250(bytes(0x04,0x08,0x6f,0x3a,0x0c,0x52,0x50,0x47,0x3a,0x3a,0x53,0x45,0x08,0x3a,0x0a,0x40,0x6e,0x61,0x6d,0x65,0x49,0x22,0x0a,0x43,0x68,0x65,0x73,0x74,0x06,0x3a,0x06,0x45,0x54,0x3a,0x0b,0x40,0x70,0x69,0x74,0x63,0x68,0x69,0x69,0x3a,0x0c,0x40,0x76,0x6f,0x6c,0x75,0x6d,0x65,0x69,0x55))
  205(0,bytes(0x04,0x08,0x6f,0x3a,0x13,0x52,0x50,0x47,0x3a,0x3a,0x4d,0x6f,0x76,0x65,0x52,0x6f,0x75,0x74,0x65,0x09,0x3a,0x0c,0x40,0x72,0x65,0x70,0x65,0x61,0x74,0x46,0x3a,0x0f,0x40,0x73,0x6b,0x69,0x70,0x70,0x61,0x62,0x6c,0x65,0x46,0x3a,0x0a,0x40,0x77,0x61,0x69,0x74,0x54,0x3a,0x0a,0x40,0x6c,0x69,0x73,0x74,0x5b,0x0b,0x6f,0x3a,0x15,0x52,0x50,0x47,0x3a,0x3a,0x4d,0x6f,0x76,0x65,0x43,0x6f,0x6d,0x6d,0x61,0x6e,0x64,0x07,0x3a,0x0a,0x40,0x63,0x6f,0x64,0x65,0x69,0x29,0x3a,0x10,0x40,0x70,0x61,0x72,0x61,0x6d,0x65,0x74,0x65,0x72,0x73,0x5b,0x00,0x6f,0x3b,0x0a,0x07,0x3b,0x0b,0x69,0x16,0x3b,0x0c,0x5b,0x00,0x6f,0x3b,0x0a,0x07,0x3b,0x0b,0x69,0x14,0x3b,0x0c,0x5b,0x06,0x69,0x08,0x6f,0x3b,0x0a,0x07,0x3b,0x0b,0x69,0x17,0x3b,0x0c,0x5b,0x00,0x6f,0x3b,0x0a,0x07,0x3b,0x0b,0x69,0x14,0x3b,0x0c,0x5b,0x06,0x69,0x08,0x6f,0x3b,0x0a,0x07,0x3b,0x0b,0x69,0x00,0x3b,0x0c,0x5b,0x00))
  ChangeSwitch(46,46,0)
  RunCommonEvent(903)
  0()
 PAGE   2
  // condition: switch 44 is ON
  // condition: switch 46 is ON
  0()



EVENT   79
 PAGE   1
  RunCommonEvent(916)
  ChangeVariable(11,11,0,2,1,3)
  If(1,11,0,1,0)
   Battle(0,369,false,false)
   0()
  EndIf()
  If(1,11,0,2,0)
   Battle(0,370,false,false)
   0()
  EndIf()
  If(1,11,0,3,0)
   Battle(0,371,false,false)
   0()
  EndIf()
  RunCommonEvent(917)
  TemporaryRemoveEvent()
  0()
 PAGE   2
  // condition: switch 73 is ON
  0()



EVENT   1
 PAGE   1
  // condition: variable 126 >= 1
  RunCommonEvent(601)
  0()
 PAGE   2
  // condition: variable 126 >= 3
  RunCommonEvent(616)
  0()
 PAGE   3
  // condition: variable 126 >= 4
  RunCommonEvent(617)
  0()
 PAGE   4
  // condition: variable 126 >= 5
  RunCommonEvent(618)
  0()
 PAGE   5
  // condition: variable 126 >= 6
  RunCommonEvent(619)
  0()
 PAGE   6
  // condition: variable 126 >= 7
  RunCommonEvent(620)
  0()
 PAGE   7
  // condition: variable 126 >= 8
  RunCommonEvent(621)
  0()
 PAGE   8
  // condition: variable 126 >= 9
  RunCommonEvent(622)
  0()
 PAGE   9
  // condition: variable 126 >= 10
  RunCommonEvent(623)
  0()
 PAGE   10
  // condition: variable 126 >= 11
  RunCommonEvent(613)
  0()
 PAGE   11
  // condition: variable 126 >= 12
  RunCommonEvent(614)
  0()
 PAGE   12
  // condition: variable 126 >= 13
  RunCommonEvent(615)
  0()
 PAGE   13
  // condition: variable 126 >= 14
  RunCommonEvent(608)
  0()
 PAGE   14
  // condition: variable 126 >= 15
  RunCommonEvent(610)
  0()
 PAGE   15
  // condition: variable 126 >= 16
  RunCommonEvent(609)
  0()
 PAGE   16
  // condition: variable 126 >= 17
  RunCommonEvent(611)
  0()
 PAGE   17
  // condition: variable 126 >= 18
  RunCommonEvent(612)
  0()
 PAGE   18
  // condition: variable 126 >= 19
  RunCommonEvent(642)
  0()
 PAGE   19
  // condition: variable 126 >= 20
  RunCommonEvent(603)
  0()
 PAGE   20
  // condition: variable 126 >= 21
  RunCommonEvent(640)
  0()
 PAGE   21
  // condition: variable 126 >= 22
  RunCommonEvent(641)
  0()
 PAGE   22
  // condition: variable 126 >= 23
  RunCommonEvent(624)
  0()
 PAGE   23
  // condition: variable 126 >= 24
  RunCommonEvent(630)
  0()
 PAGE   24
  // condition: variable 126 >= 25
  RunCommonEvent(631)
  0()
 PAGE   25
  // condition: variable 126 >= 26
  RunCommonEvent(632)
  0()
 PAGE   26
  // condition: variable 126 >= 27
  RunCommonEvent(648)
  0()
 PAGE   27
  // condition: variable 126 >= 28
  RunCommonEvent(649)
  0()
 PAGE   28
  // condition: variable 126 >= 29
  RunCommonEvent(650)
  0()
 PAGE   29
  // condition: variable 126 >= 30
  RunCommonEvent(651)
  0()
 PAGE   30
  // condition: variable 126 >= 31
  RunCommonEvent(652)
  0()
 PAGE   31
  // condition: variable 126 >= 32
  RunCommonEvent(653)
  0()
 PAGE   32
  // condition: variable 126 >= 33
  RunCommonEvent(654)
  0()
 PAGE   33
  // condition: variable 126 >= 34
  RunCommonEvent(655)
  0()
 PAGE   34
  // condition: variable 126 >= 35
  RunCommonEvent(656)
  0()
 PAGE   35
  // condition: variable 126 >= 36
  RunCommonEvent(657)
  0()
 PAGE   36
  // condition: variable 126 >= 37
  RunCommonEvent(658)
  0()
 PAGE   37
  // condition: variable 126 >= 38
  RunCommonEvent(659)
  0()
 PAGE   38
  // condition: variable 126 >= 39
  RunCommonEvent(660)
  0()
 PAGE   39
  // condition: variable 126 >= 40
  RunCommonEvent(661)
  0()
 PAGE   40
  // condition: variable 126 >= 41
  RunCommonEvent(662)
  0()
 PAGE   41
  // condition: variable 126 >= 42
  RunCommonEvent(606)
  0()
 PAGE   42
  // condition: variable 126 >= 45
  RunCommonEvent(643)
  0()
 PAGE   43
  // condition: variable 126 >= 47
  RunCommonEvent(604)
  0()
 PAGE   44
  // condition: variable 126 >= 51
  RunCommonEvent(605)
  0()
 PAGE   45
  // condition: variable 126 >= 55
  RunCommonEvent(646)
  0()
 PAGE   46
  // condition: variable 126 >= 59
  RunCommonEvent(647)
  0()
 PAGE   47
  // condition: variable 126 >= 63
  RunCommonEvent(626)
  0()
 PAGE   48
  // condition: variable 126 >= 65
  RunCommonEvent(602)
  0()
 PAGE   49
  // condition: variable 126 >= 69
  RunCommonEvent(625)
  0()
 PAGE   50
  // condition: variable 126 >= 70
  RunCommonEvent(607)
  Wait(15)
  250(bytes(0x04,0x08,0x6f,0x3a,0x0c,0x52,0x50,0x47,0x3a,0x3a,0x53,0x45,0x08,0x3a,0x0a,0x40,0x6e,0x61,0x6d,0x65,0x49,0x22,0x0d,0x6d,0x6f,0x6e,0x5f,0x77,0x61,0x72,0x70,0x06,0x3a,0x06,0x45,0x54,0x3a,0x0b,0x40,0x70,0x69,0x74,0x63,0x68,0x69,0x69,0x3a,0x0c,0x40,0x76,0x6f,0x6c,0x75,0x6d,0x65,0x69,0x69))
  TemporaryRemoveEvent()
  ShowMessageFace("",0,0,2,1)
  ShowMessage("ネロは姿を消した……")
  0()



EVENT   2
 PAGE   1
  // condition: variable 126 >= 1
  RunCommonEvent(601)
  0()
 PAGE   2
  // condition: variable 126 >= 3
  RunCommonEvent(616)
  0()
 PAGE   3
  // condition: variable 126 >= 4
  RunCommonEvent(617)
  0()
 PAGE   4
  // condition: variable 126 >= 5
  RunCommonEvent(618)
  0()
 PAGE   5
  // condition: variable 126 >= 6
  RunCommonEvent(619)
  0()
 PAGE   6
  // condition: variable 126 >= 7
  RunCommonEvent(620)
  0()
 PAGE   7
  // condition: variable 126 >= 8
  RunCommonEvent(621)
  0()
 PAGE   8
  // condition: variable 126 >= 9
  RunCommonEvent(622)
  0()
 PAGE   9
  // condition: variable 126 >= 10
  RunCommonEvent(623)
  0()
 PAGE   10
  // condition: variable 126 >= 11
  RunCommonEvent(613)
  0()
 PAGE   11
  // condition: variable 126 >= 12
  RunCommonEvent(614)
  0()
 PAGE   12
  // condition: variable 126 >= 13
  RunCommonEvent(615)
  0()
 PAGE   13
  // condition: variable 126 >= 14
  RunCommonEvent(608)
  0()
 PAGE   14
  // condition: variable 126 >= 15
  RunCommonEvent(610)
  0()
 PAGE   15
  // condition: variable 126 >= 16
  RunCommonEvent(609)
  0()
 PAGE   16
  // condition: variable 126 >= 17
  RunCommonEvent(611)
  0()
 PAGE   17
  // condition: variable 126 >= 18
  RunCommonEvent(612)
  0()
 PAGE   18
  // condition: variable 126 >= 19
  RunCommonEvent(642)
  0()
 PAGE   19
  // condition: variable 126 >= 20
  RunCommonEvent(603)
  0()
 PAGE   20
  // condition: variable 126 >= 21
  RunCommonEvent(640)
  0()
 PAGE   21
  // condition: variable 126 >= 22
  RunCommonEvent(641)
  0()
 PAGE   22
  // condition: variable 126 >= 23
  RunCommonEvent(624)
  0()
 PAGE   23
  // condition: variable 126 >= 24
  RunCommonEvent(630)
  0()
 PAGE   24
  // condition: variable 126 >= 25
  RunCommonEvent(631)
  0()
 PAGE   25
  // condition: variable 126 >= 26
  RunCommonEvent(632)
  0()
 PAGE   26
  // condition: variable 126 >= 27
  RunCommonEvent(648)
  0()
 PAGE   27
  // condition: variable 126 >= 28
  RunCommonEvent(649)
  0()
 PAGE   28
  // condition: variable 126 >= 29
  RunCommonEvent(650)
  0()
 PAGE   29
  // condition: variable 126 >= 30
  RunCommonEvent(651)
  0()
 PAGE   30
  // condition: variable 126 >= 31
  RunCommonEvent(652)
  0()
 PAGE   31
  // condition: variable 126 >= 32
  RunCommonEvent(653)
  0()
 PAGE   32
  // condition: variable 126 >= 33
  RunCommonEvent(654)
  0()
 PAGE   33
  // condition: variable 126 >= 34
  RunCommonEvent(655)
  0()
 PAGE   34
  // condition: variable 126 >= 35
  RunCommonEvent(656)
  0()
 PAGE   35
  // condition: variable 126 >= 36
  RunCommonEvent(657)
  0()
 PAGE   36
  // condition: variable 126 >= 37
  RunCommonEvent(658)
  0()
 PAGE   37
  // condition: variable 126 >= 38
  RunCommonEvent(659)
  0()
 PAGE   38
  // condition: variable 126 >= 39
  RunCommonEvent(660)
  0()
 PAGE   39
  // condition: variable 126 >= 40
  RunCommonEvent(661)
  0()
 PAGE   40
  // condition: variable 126 >= 41
  RunCommonEvent(662)
  0()
 PAGE   41
  // condition: variable 126 >= 42
  RunCommonEvent(606)
  0()
 PAGE   42
  // condition: variable 126 >= 45
  RunCommonEvent(643)
  0()
 PAGE   43
  // condition: variable 126 >= 47
  RunCommonEvent(604)
  0()
 PAGE   44
  // condition: variable 126 >= 51
  RunCommonEvent(605)
  0()
 PAGE   45
  // condition: variable 126 >= 55
  RunCommonEvent(646)
  0()
 PAGE   46
  // condition: variable 126 >= 59
  RunCommonEvent(647)
  0()
 PAGE   47
  // condition: variable 126 >= 63
  RunCommonEvent(626)
  0()
 PAGE   48
  // condition: variable 126 >= 65
  RunCommonEvent(602)
  0()
 PAGE   49
  // condition: variable 126 >= 69
  RunCommonEvent(625)
  0()
 PAGE   50
  // condition: variable 126 >= 70
  RunCommonEvent(607)
  Wait(15)
  250(bytes(0x04,0x08,0x6f,0x3a,0x0c,0x52,0x50,0x47,0x3a,0x3a,0x53,0x45,0x08,0x3a,0x0a,0x40,0x6e,0x61,0x6d,0x65,0x49,0x22,0x0d,0x6d,0x6f,0x6e,0x5f,0x77,0x61,0x72,0x70,0x06,0x3a,0x06,0x45,0x54,0x3a,0x0b,0x40,0x70,0x69,0x74,0x63,0x68,0x69,0x69,0x3a,0x0c,0x40,0x76,0x6f,0x6c,0x75,0x6d,0x65,0x69,0x69))
  TemporaryRemoveEvent()
  ShowMessageFace("",0,0,2,1)
  ShowMessage("ネロは姿を消した……")
  0()



EVENT   3
 PAGE   1
  // condition: variable 126 >= 1
  RunCommonEvent(601)
  0()
 PAGE   2
  // condition: variable 126 >= 3
  RunCommonEvent(616)
  0()
 PAGE   3
  // condition: variable 126 >= 4
  RunCommonEvent(617)
  0()
 PAGE   4
  // condition: variable 126 >= 5
  RunCommonEvent(618)
  0()
 PAGE   5
  // condition: variable 126 >= 6
  RunCommonEvent(619)
  0()
 PAGE   6
  // condition: variable 126 >= 7
  RunCommonEvent(620)
  0()
 PAGE   7
  // condition: variable 126 >= 8
  RunCommonEvent(621)
  0()
 PAGE   8
  // condition: variable 126 >= 9
  RunCommonEvent(622)
  0()
 PAGE   9
  // condition: variable 126 >= 10
  RunCommonEvent(623)
  0()
 PAGE   10
  // condition: variable 126 >= 11
  RunCommonEvent(613)
  0()
 PAGE   11
  // condition: variable 126 >= 12
  RunCommonEvent(614)
  0()
 PAGE   12
  // condition: variable 126 >= 13
  RunCommonEvent(615)
  0()
 PAGE   13
  // condition: variable 126 >= 14
  RunCommonEvent(608)
  0()
 PAGE   14
  // condition: variable 126 >= 15
  RunCommonEvent(610)
  0()
 PAGE   15
  // condition: variable 126 >= 16
  RunCommonEvent(609)
  0()
 PAGE   16
  // condition: variable 126 >= 17
  RunCommonEvent(611)
  0()
 PAGE   17
  // condition: variable 126 >= 18
  RunCommonEvent(612)
  0()
 PAGE   18
  // condition: variable 126 >= 19
  RunCommonEvent(642)
  0()
 PAGE   19
  // condition: variable 126 >= 20
  RunCommonEvent(603)
  0()
 PAGE   20
  // condition: variable 126 >= 21
  RunCommonEvent(640)
  0()
 PAGE   21
  // condition: variable 126 >= 22
  RunCommonEvent(641)
  0()
 PAGE   22
  // condition: variable 126 >= 23
  RunCommonEvent(624)
  0()
 PAGE   23
  // condition: variable 126 >= 24
  RunCommonEvent(630)
  0()
 PAGE   24
  // condition: variable 126 >= 25
  RunCommonEvent(631)
  0()
 PAGE   25
  // condition: variable 126 >= 26
  RunCommonEvent(632)
  0()
 PAGE   26
  // condition: variable 126 >= 27
  RunCommonEvent(648)
  0()
 PAGE   27
  // condition: variable 126 >= 28
  RunCommonEvent(649)
  0()
 PAGE   28
  // condition: variable 126 >= 29
  RunCommonEvent(650)
  0()
 PAGE   29
  // condition: variable 126 >= 30
  RunCommonEvent(651)
  0()
 PAGE   30
  // condition: variable 126 >= 31
  RunCommonEvent(652)
  0()
 PAGE   31
  // condition: variable 126 >= 32
  RunCommonEvent(653)
  0()
 PAGE   32
  // condition: variable 126 >= 33
  RunCommonEvent(654)
  0()
 PAGE   33
  // condition: variable 126 >= 34
  RunCommonEvent(655)
  0()
 PAGE   34
  // condition: variable 126 >= 35
  RunCommonEvent(656)
  0()
 PAGE   35
  // condition: variable 126 >= 36
  RunCommonEvent(657)
  0()
 PAGE   36
  // condition: variable 126 >= 37
  RunCommonEvent(658)
  0()
 PAGE   37
  // condition: variable 126 >= 38
  RunCommonEvent(659)
  0()
 PAGE   38
  // condition: variable 126 >= 39
  RunCommonEvent(660)
  0()
 PAGE   39
  // condition: variable 126 >= 40
  RunCommonEvent(661)
  0()
 PAGE   40
  // condition: variable 126 >= 41
  RunCommonEvent(662)
  0()
 PAGE   41
  // condition: variable 126 >= 42
  RunCommonEvent(606)
  0()
 PAGE   42
  // condition: variable 126 >= 45
  RunCommonEvent(643)
  0()
 PAGE   43
  // condition: variable 126 >= 47
  RunCommonEvent(604)
  0()
 PAGE   44
  // condition: variable 126 >= 51
  RunCommonEvent(605)
  0()
 PAGE   45
  // condition: variable 126 >= 55
  RunCommonEvent(646)
  0()
 PAGE   46
  // condition: variable 126 >= 59
  RunCommonEvent(647)
  0()
 PAGE   47
  // condition: variable 126 >= 63
  RunCommonEvent(626)
  0()
 PAGE   48
  // condition: variable 126 >= 65
  RunCommonEvent(602)
  0()
 PAGE   49
  // condition: variable 126 >= 69
  RunCommonEvent(625)
  0()
 PAGE   50
  // condition: variable 126 >= 70
  RunCommonEvent(607)
  Wait(15)
  250(bytes(0x04,0x08,0x6f,0x3a,0x0c,0x52,0x50,0x47,0x3a,0x3a,0x53,0x45,0x08,0x3a,0x0a,0x40,0x6e,0x61,0x6d,0x65,0x49,0x22,0x0d,0x6d,0x6f,0x6e,0x5f,0x77,0x61,0x72,0x70,0x06,0x3a,0x06,0x45,0x54,0x3a,0x0b,0x40,0x70,0x69,0x74,0x63,0x68,0x69,0x69,0x3a,0x0c,0x40,0x76,0x6f,0x6c,0x75,0x6d,0x65,0x69,0x69))
  TemporaryRemoveEvent()
  ShowMessageFace("",0,0,2,1)
  ShowMessage("ネロは姿を消した……")
  0()



EVENT   42
 PAGE   1
  RunCommonEvent(916)
  ChangeVariable(11,11,0,2,1,10)
  If(1,11,0,1,0)
   Battle(0,341,false,false)
   RunCommonEvent(917)
   TemporaryRemoveEvent()
   EndEventProcessing()
   0()
  EndIf()
  If(1,11,0,2,0)
   Battle(0,345,false,false)
   RunCommonEvent(917)
   TemporaryRemoveEvent()
   EndEventProcessing()
   0()
  EndIf()
  If(1,11,0,3,0)
   Battle(0,346,false,false)
   RunCommonEvent(917)
   TemporaryRemoveEvent()
   EndEventProcessing()
   0()
  EndIf()
  If(1,11,0,4,0)
   Battle(0,347,false,false)
   RunCommonEvent(917)
   TemporaryRemoveEvent()
   EndEventProcessing()
   0()
  EndIf()
  If(1,11,0,5,0)
   Battle(0,356,false,false)
   RunCommonEvent(917)
   TemporaryRemoveEvent()
   EndEventProcessing()
   0()
  EndIf()
  If(1,11,0,6,0)
   Battle(0,358,false,false)
   RunCommonEvent(917)
   TemporaryRemoveEvent()
   EndEventProcessing()
   0()
  EndIf()
  If(1,11,0,7,0)
   Battle(0,360,false,false)
   RunCommonEvent(917)
   TemporaryRemoveEvent()
   EndEventProcessing()
   0()
  EndIf()
  If(1,11,0,8,0)
   Battle(0,361,false,false)
   RunCommonEvent(917)
   TemporaryRemoveEvent()
   EndEventProcessing()
   0()
  EndIf()
  If(1,11,0,9,0)
   Battle(0,362,false,false)
   RunCommonEvent(917)
   TemporaryRemoveEvent()
   EndEventProcessing()
   0()
  EndIf()
  If(1,11,0,10,0)
   Battle(0,374,false,false)
   RunCommonEvent(917)
   TemporaryRemoveEvent()
   EndEventProcessing()
   0()
  EndIf()
  0()
 PAGE   2
  // condition: switch 73 is ON
  0()



EVENT   43
 PAGE   1
  RunCommonEvent(916)
  ChangeVariable(11,11,0,2,1,10)
  If(1,11,0,1,0)
   Battle(0,341,false,false)
   RunCommonEvent(917)
   TemporaryRemoveEvent()
   EndEventProcessing()
   0()
  EndIf()
  If(1,11,0,2,0)
   Battle(0,345,false,false)
   RunCommonEvent(917)
   TemporaryRemoveEvent()
   EndEventProcessing()
   0()
  EndIf()
  If(1,11,0,3,0)
   Battle(0,346,false,false)
   RunCommonEvent(917)
   TemporaryRemoveEvent()
   EndEventProcessing()
   0()
  EndIf()
  If(1,11,0,4,0)
   Battle(0,347,false,false)
   RunCommonEvent(917)
   TemporaryRemoveEvent()
   EndEventProcessing()
   0()
  EndIf()
  If(1,11,0,5,0)
   Battle(0,356,false,false)
   RunCommonEvent(917)
   TemporaryRemoveEvent()
   EndEventProcessing()
   0()
  EndIf()
  If(1,11,0,6,0)
   Battle(0,358,false,false)
   RunCommonEvent(917)
   TemporaryRemoveEvent()
   EndEventProcessing()
   0()
  EndIf()
  If(1,11,0,7,0)
   Battle(0,360,false,false)
   RunCommonEvent(917)
   TemporaryRemoveEvent()
   EndEventProcessing()
   0()
  EndIf()
  If(1,11,0,8,0)
   Battle(0,361,false,false)
   RunCommonEvent(917)
   TemporaryRemoveEvent()
   EndEventProcessing()
   0()
  EndIf()
  If(1,11,0,9,0)
   Battle(0,362,false,false)
   RunCommonEvent(917)
   TemporaryRemoveEvent()
   EndEventProcessing()
   0()
  EndIf()
  If(1,11,0,10,0)
   Battle(0,374,false,false)
   RunCommonEvent(917)
   TemporaryRemoveEvent()
   EndEventProcessing()
   0()
  EndIf()
  0()
 PAGE   2
  // condition: switch 73 is ON
  0()



EVENT   44
 PAGE   1
  RunCommonEvent(916)
  ChangeVariable(11,11,0,2,1,10)
  If(1,11,0,1,0)
   Battle(0,341,false,false)
   RunCommonEvent(917)
   TemporaryRemoveEvent()
   EndEventProcessing()
   0()
  EndIf()
  If(1,11,0,2,0)
   Battle(0,345,false,false)
   RunCommonEvent(917)
   TemporaryRemoveEvent()
   EndEventProcessing()
   0()
  EndIf()
  If(1,11,0,3,0)
   Battle(0,346,false,false)
   RunCommonEvent(917)
   TemporaryRemoveEvent()
   EndEventProcessing()
   0()
  EndIf()
  If(1,11,0,4,0)
   Battle(0,347,false,false)
   RunCommonEvent(917)
   TemporaryRemoveEvent()
   EndEventProcessing()
   0()
  EndIf()
  If(1,11,0,5,0)
   Battle(0,356,false,false)
   RunCommonEvent(917)
   TemporaryRemoveEvent()
   EndEventProcessing()
   0()
  EndIf()
  If(1,11,0,6,0)
   Battle(0,358,false,false)
   RunCommonEvent(917)
   TemporaryRemoveEvent()
   EndEventProcessing()
   0()
  EndIf()
  If(1,11,0,7,0)
   Battle(0,360,false,false)
   RunCommonEvent(917)
   TemporaryRemoveEvent()
   EndEventProcessing()
   0()
  EndIf()
  If(1,11,0,8,0)
   Battle(0,361,false,false)
   RunCommonEvent(917)
   TemporaryRemoveEvent()
   EndEventProcessing()
   0()
  EndIf()
  If(1,11,0,9,0)
   Battle(0,362,false,false)
   RunCommonEvent(917)
   TemporaryRemoveEvent()
   EndEventProcessing()
   0()
  EndIf()
  If(1,11,0,10,0)
   Battle(0,374,false,false)
   RunCommonEvent(917)
   TemporaryRemoveEvent()
   EndEventProcessing()
   0()
  EndIf()
  0()
 PAGE   2
  // condition: switch 73 is ON
  0()



EVENT   59
 PAGE   1
  RunCommonEvent(916)
  ChangeVariable(11,11,0,2,1,4)
  If(1,11,0,1,0)
   Battle(0,377,false,false)
   RunCommonEvent(917)
   TemporaryRemoveEvent()
   EndEventProcessing()
   0()
  EndIf()
  If(1,11,0,2,0)
   Battle(0,378,false,false)
   RunCommonEvent(917)
   TemporaryRemoveEvent()
   EndEventProcessing()
   0()
  EndIf()
  If(1,11,0,3,0)
   Battle(0,379,false,false)
   RunCommonEvent(917)
   TemporaryRemoveEvent()
   EndEventProcessing()
   0()
  EndIf()
  If(1,11,0,4,0)
   Battle(0,380,false,false)
   RunCommonEvent(917)
   TemporaryRemoveEvent()
   EndEventProcessing()
   0()
  EndIf()
  0()
 PAGE   2
  // condition: switch 73 is ON
  0()



EVENT   58
 PAGE   1
  RunCommonEvent(916)
  ChangeVariable(11,11,0,2,1,4)
  If(1,11,0,1,0)
   Battle(0,377,false,false)
   RunCommonEvent(917)
   TemporaryRemoveEvent()
   EndEventProcessing()
   0()
  EndIf()
  If(1,11,0,2,0)
   Battle(0,378,false,false)
   RunCommonEvent(917)
   TemporaryRemoveEvent()
   EndEventProcessing()
   0()
  EndIf()
  If(1,11,0,3,0)
   Battle(0,379,false,false)
   RunCommonEvent(917)
   TemporaryRemoveEvent()
   EndEventProcessing()
   0()
  EndIf()
  If(1,11,0,4,0)
   Battle(0,380,false,false)
   RunCommonEvent(917)
   TemporaryRemoveEvent()
   EndEventProcessing()
   0()
  EndIf()
  0()
 PAGE   2
  // condition: switch 73 is ON
  0()



EVENT   57
 PAGE   1
  RunCommonEvent(916)
  ChangeVariable(11,11,0,2,1,4)
  If(1,11,0,1,0)
   Battle(0,377,false,false)
   RunCommonEvent(917)
   TemporaryRemoveEvent()
   EndEventProcessing()
   0()
  EndIf()
  If(1,11,0,2,0)
   Battle(0,378,false,false)
   RunCommonEvent(917)
   TemporaryRemoveEvent()
   EndEventProcessing()
   0()
  EndIf()
  If(1,11,0,3,0)
   Battle(0,379,false,false)
   RunCommonEvent(917)
   TemporaryRemoveEvent()
   EndEventProcessing()
   0()
  EndIf()
  If(1,11,0,4,0)
   Battle(0,380,false,false)
   RunCommonEvent(917)
   TemporaryRemoveEvent()
   EndEventProcessing()
   0()
  EndIf()
  0()
 PAGE   2
  // condition: switch 73 is ON
  0()



EVENT   33
 PAGE   1
  RunCommonEvent(916)
  ChangeVariable(11,11,0,2,1,3)
  If(1,11,0,1,0)
   Battle(0,369,false,false)
   RunCommonEvent(917)
   TemporaryRemoveEvent()
   EndEventProcessing()
   0()
  EndIf()
  If(1,11,0,2,0)
   Battle(0,370,false,false)
   RunCommonEvent(917)
   TemporaryRemoveEvent()
   EndEventProcessing()
   0()
  EndIf()
  If(1,11,0,3,0)
   Battle(0,371,false,false)
   RunCommonEvent(917)
   TemporaryRemoveEvent()
   EndEventProcessing()
   0()
  EndIf()
  0()
 PAGE   2
  // condition: switch 73 is ON
  0()



EVENT   29
 PAGE   1
  RunCommonEvent(916)
  ChangeVariable(11,11,0,2,1,3)
  If(1,11,0,1,0)
   Battle(0,369,false,false)
   RunCommonEvent(917)
   TemporaryRemoveEvent()
   EndEventProcessing()
   0()
  EndIf()
  If(1,11,0,2,0)
   Battle(0,370,false,false)
   RunCommonEvent(917)
   TemporaryRemoveEvent()
   EndEventProcessing()
   0()
  EndIf()
  If(1,11,0,3,0)
   Battle(0,371,false,false)
   RunCommonEvent(917)
   TemporaryRemoveEvent()
   EndEventProcessing()
   0()
  EndIf()
  0()
 PAGE   2
  // condition: switch 73 is ON
  0()



EVENT   34
 PAGE   1
  RunCommonEvent(916)
  ChangeVariable(11,11,0,2,1,3)
  If(1,11,0,1,0)
   Battle(0,369,false,false)
   RunCommonEvent(917)
   TemporaryRemoveEvent()
   EndEventProcessing()
   0()
  EndIf()
  If(1,11,0,2,0)
   Battle(0,370,false,false)
   RunCommonEvent(917)
   TemporaryRemoveEvent()
   EndEventProcessing()
   0()
  EndIf()
  If(1,11,0,3,0)
   Battle(0,371,false,false)
   RunCommonEvent(917)
   TemporaryRemoveEvent()
   EndEventProcessing()
   0()
  EndIf()
  0()
 PAGE   2
  // condition: switch 73 is ON
  0()



EVENT   35
 PAGE   1
  RunCommonEvent(916)
  ChangeVariable(11,11,0,2,1,3)
  If(1,11,0,1,0)
   Battle(0,334,false,false)
   RunCommonEvent(917)
   TemporaryRemoveEvent()
   EndEventProcessing()
   0()
  EndIf()
  If(1,11,0,2,0)
   Battle(0,335,false,false)
   RunCommonEvent(917)
   TemporaryRemoveEvent()
   EndEventProcessing()
   0()
  EndIf()
  If(1,11,0,3,0)
   Battle(0,363,false,false)
   RunCommonEvent(917)
   TemporaryRemoveEvent()
   EndEventProcessing()
   0()
  EndIf()
  0()
 PAGE   2
  // condition: switch 73 is ON
  0()



EVENT   36
 PAGE   1
  RunCommonEvent(916)
  ChangeVariable(11,11,0,2,1,3)
  If(1,11,0,1,0)
   Battle(0,334,false,false)
   RunCommonEvent(917)
   TemporaryRemoveEvent()
   EndEventProcessing()
   0()
  EndIf()
  If(1,11,0,2,0)
   Battle(0,335,false,false)
   RunCommonEvent(917)
   TemporaryRemoveEvent()
   EndEventProcessing()
   0()
  EndIf()
  If(1,11,0,3,0)
   Battle(0,363,false,false)
   RunCommonEvent(917)
   TemporaryRemoveEvent()
   EndEventProcessing()
   0()
  EndIf()
  0()
 PAGE   2
  // condition: switch 73 is ON
  0()



EVENT   22
 PAGE   1
  RunCommonEvent(916)
  ChangeVariable(11,11,0,2,1,3)
  If(1,11,0,1,0)
   Battle(0,334,false,false)
   RunCommonEvent(917)
   TemporaryRemoveEvent()
   EndEventProcessing()
   0()
  EndIf()
  If(1,11,0,2,0)
   Battle(0,335,false,false)
   RunCommonEvent(917)
   TemporaryRemoveEvent()
   EndEventProcessing()
   0()
  EndIf()
  If(1,11,0,3,0)
   Battle(0,363,false,false)
   RunCommonEvent(917)
   TemporaryRemoveEvent()
   EndEventProcessing()
   0()
  EndIf()
  0()
 PAGE   2
  // condition: switch 73 is ON
  0()



EVENT   27
 PAGE   1
  RunCommonEvent(916)
  ChangeVariable(11,11,0,2,1,3)
  If(1,11,0,1,0)
   Battle(0,334,false,false)
   RunCommonEvent(917)
   TemporaryRemoveEvent()
   EndEventProcessing()
   0()
  EndIf()
  If(1,11,0,2,0)
   Battle(0,335,false,false)
   RunCommonEvent(917)
   TemporaryRemoveEvent()
   EndEventProcessing()
   0()
  EndIf()
  If(1,11,0,3,0)
   Battle(0,363,false,false)
   RunCommonEvent(917)
   TemporaryRemoveEvent()
   EndEventProcessing()
   0()
  EndIf()
  0()
 PAGE   2
  // condition: switch 73 is ON
  0()



EVENT   26
 PAGE   1
  RunCommonEvent(916)
  ChangeVariable(11,11,0,2,1,4)
  If(1,11,0,1,0)
   Battle(0,331,false,false)
   RunCommonEvent(917)
   TemporaryRemoveEvent()
   EndEventProcessing()
   0()
  EndIf()
  If(1,11,0,2,0)
   Battle(0,332,false,false)
   RunCommonEvent(917)
   TemporaryRemoveEvent()
   EndEventProcessing()
   0()
  EndIf()
  If(1,11,0,3,0)
   Battle(0,333,false,false)
   RunCommonEvent(917)
   TemporaryRemoveEvent()
   EndEventProcessing()
   0()
  EndIf()
  If(1,11,0,4,0)
   Battle(0,351,false,false)
   RunCommonEvent(917)
   TemporaryRemoveEvent()
   EndEventProcessing()
   0()
  EndIf()
  0()
 PAGE   2
  // condition: switch 73 is ON
  0()



EVENT   31
 PAGE   1
  RunCommonEvent(916)
  ChangeVariable(11,11,0,2,1,4)
  If(1,11,0,1,0)
   Battle(0,331,false,false)
   RunCommonEvent(917)
   TemporaryRemoveEvent()
   EndEventProcessing()
   0()
  EndIf()
  If(1,11,0,2,0)
   Battle(0,332,false,false)
   RunCommonEvent(917)
   TemporaryRemoveEvent()
   EndEventProcessing()
   0()
  EndIf()
  If(1,11,0,3,0)
   Battle(0,333,false,false)
   RunCommonEvent(917)
   TemporaryRemoveEvent()
   EndEventProcessing()
   0()
  EndIf()
  If(1,11,0,4,0)
   Battle(0,351,false,false)
   RunCommonEvent(917)
   TemporaryRemoveEvent()
   EndEventProcessing()
   0()
  EndIf()
  0()
 PAGE   2
  // condition: switch 73 is ON
  0()



EVENT   32
 PAGE   1
  RunCommonEvent(916)
  ChangeVariable(11,11,0,2,1,4)
  If(1,11,0,1,0)
   Battle(0,331,false,false)
   RunCommonEvent(917)
   TemporaryRemoveEvent()
   EndEventProcessing()
   0()
  EndIf()
  If(1,11,0,2,0)
   Battle(0,332,false,false)
   RunCommonEvent(917)
   TemporaryRemoveEvent()
   EndEventProcessing()
   0()
  EndIf()
  If(1,11,0,3,0)
   Battle(0,333,false,false)
   RunCommonEvent(917)
   TemporaryRemoveEvent()
   EndEventProcessing()
   0()
  EndIf()
  If(1,11,0,4,0)
   Battle(0,351,false,false)
   RunCommonEvent(917)
   TemporaryRemoveEvent()
   EndEventProcessing()
   0()
  EndIf()
  0()
 PAGE   2
  // condition: switch 73 is ON
  0()



EVENT   80
 PAGE   1
  RunCommonEvent(916)
  ChangeVariable(11,11,0,2,1,4)
  If(1,11,0,1,0)
   Battle(0,331,false,false)
   RunCommonEvent(917)
   TemporaryRemoveEvent()
   EndEventProcessing()
   0()
  EndIf()
  If(1,11,0,2,0)
   Battle(0,332,false,false)
   RunCommonEvent(917)
   TemporaryRemoveEvent()
   EndEventProcessing()
   0()
  EndIf()
  If(1,11,0,3,0)
   Battle(0,333,false,false)
   RunCommonEvent(917)
   TemporaryRemoveEvent()
   EndEventProcessing()
   0()
  EndIf()
  If(1,11,0,4,0)
   Battle(0,351,false,false)
   RunCommonEvent(917)
   TemporaryRemoveEvent()
   EndEventProcessing()
   0()
  EndIf()
  0()
 PAGE   2
  // condition: switch 73 is ON
  0()



EVENT   40
 PAGE   1
  RunCommonEvent(916)
  ChangeVariable(11,11,0,2,1,4)
  If(1,11,0,1,0)
   Battle(0,337,false,false)
   RunCommonEvent(917)
   TemporaryRemoveEvent()
   EndEventProcessing()
   0()
  EndIf()
  If(1,11,0,2,0)
   Battle(0,338,false,false)
   RunCommonEvent(917)
   TemporaryRemoveEvent()
   EndEventProcessing()
   0()
  EndIf()
  If(1,11,0,3,0)
   Battle(0,339,false,false)
   RunCommonEvent(917)
   TemporaryRemoveEvent()
   EndEventProcessing()
   0()
  EndIf()
  If(1,11,0,4,0)
   Battle(0,340,false,false)
   RunCommonEvent(917)
   TemporaryRemoveEvent()
   EndEventProcessing()
   0()
  EndIf()
  0()
 PAGE   2
  // condition: switch 73 is ON
  0()



EVENT   41
 PAGE   1
  RunCommonEvent(916)
  ChangeVariable(11,11,0,2,1,4)
  If(1,11,0,1,0)
   Battle(0,337,false,false)
   RunCommonEvent(917)
   TemporaryRemoveEvent()
   EndEventProcessing()
   0()
  EndIf()
  If(1,11,0,2,0)
   Battle(0,338,false,false)
   RunCommonEvent(917)
   TemporaryRemoveEvent()
   EndEventProcessing()
   0()
  EndIf()
  If(1,11,0,3,0)
   Battle(0,339,false,false)
   RunCommonEvent(917)
   TemporaryRemoveEvent()
   EndEventProcessing()
   0()
  EndIf()
  If(1,11,0,4,0)
   Battle(0,340,false,false)
   RunCommonEvent(917)
   TemporaryRemoveEvent()
   EndEventProcessing()
   0()
  EndIf()
  0()
 PAGE   2
  // condition: switch 73 is ON
  0()



EVENT   30
 PAGE   1
  RunCommonEvent(916)
  ChangeVariable(11,11,0,2,1,4)
  If(1,11,0,1,0)
   Battle(0,337,false,false)
   RunCommonEvent(917)
   TemporaryRemoveEvent()
   EndEventProcessing()
   0()
  EndIf()
  If(1,11,0,2,0)
   Battle(0,338,false,false)
   RunCommonEvent(917)
   TemporaryRemoveEvent()
   EndEventProcessing()
   0()
  EndIf()
  If(1,11,0,3,0)
   Battle(0,339,false,false)
   RunCommonEvent(917)
   TemporaryRemoveEvent()
   EndEventProcessing()
   0()
  EndIf()
  If(1,11,0,4,0)
   Battle(0,340,false,false)
   RunCommonEvent(917)
   TemporaryRemoveEvent()
   EndEventProcessing()
   0()
  EndIf()
  0()
 PAGE   2
  // condition: switch 73 is ON
  0()



EVENT   45
 PAGE   1
  RunCommonEvent(916)
  ChangeVariable(11,11,0,2,1,8)
  If(1,11,0,1,0)
   Battle(0,342,false,false)
   RunCommonEvent(917)
   TemporaryRemoveEvent()
   EndEventProcessing()
   0()
  EndIf()
  If(1,11,0,2,0)
   Battle(0,343,false,false)
   RunCommonEvent(917)
   TemporaryRemoveEvent()
   EndEventProcessing()
   0()
  EndIf()
  If(1,11,0,3,0)
   Battle(0,344,false,false)
   RunCommonEvent(917)
   TemporaryRemoveEvent()
   EndEventProcessing()
   0()
  EndIf()
  If(1,11,0,4,0)
   Battle(0,355,false,false)
   RunCommonEvent(917)
   TemporaryRemoveEvent()
   EndEventProcessing()
   0()
  EndIf()
  If(1,11,0,5,0)
   Battle(0,357,false,false)
   RunCommonEvent(917)
   TemporaryRemoveEvent()
   EndEventProcessing()
   0()
  EndIf()
  If(1,11,0,6,0)
   Battle(0,359,false,false)
   RunCommonEvent(917)
   TemporaryRemoveEvent()
   EndEventProcessing()
   0()
  EndIf()
  If(1,11,0,7,0)
   Battle(0,375,false,false)
   RunCommonEvent(917)
   TemporaryRemoveEvent()
   EndEventProcessing()
   0()
  EndIf()
  If(1,11,0,8,0)
   Battle(0,376,false,false)
   RunCommonEvent(917)
   TemporaryRemoveEvent()
   EndEventProcessing()
   0()
  EndIf()
  0()
 PAGE   2
  // condition: switch 73 is ON
  0()



EVENT   46
 PAGE   1
  RunCommonEvent(916)
  ChangeVariable(11,11,0,2,1,8)
  If(1,11,0,1,0)
   Battle(0,342,false,false)
   RunCommonEvent(917)
   TemporaryRemoveEvent()
   EndEventProcessing()
   0()
  EndIf()
  If(1,11,0,2,0)
   Battle(0,343,false,false)
   RunCommonEvent(917)
   TemporaryRemoveEvent()
   EndEventProcessing()
   0()
  EndIf()
  If(1,11,0,3,0)
   Battle(0,344,false,false)
   RunCommonEvent(917)
   TemporaryRemoveEvent()
   EndEventProcessing()
   0()
  EndIf()
  If(1,11,0,4,0)
   Battle(0,355,false,false)
   RunCommonEvent(917)
   TemporaryRemoveEvent()
   EndEventProcessing()
   0()
  EndIf()
  If(1,11,0,5,0)
   Battle(0,357,false,false)
   RunCommonEvent(917)
   TemporaryRemoveEvent()
   EndEventProcessing()
   0()
  EndIf()
  If(1,11,0,6,0)
   Battle(0,359,false,false)
   RunCommonEvent(917)
   TemporaryRemoveEvent()
   EndEventProcessing()
   0()
  EndIf()
  If(1,11,0,7,0)
   Battle(0,375,false,false)
   RunCommonEvent(917)
   TemporaryRemoveEvent()
   EndEventProcessing()
   0()
  EndIf()
  If(1,11,0,8,0)
   Battle(0,376,false,false)
   RunCommonEvent(917)
   TemporaryRemoveEvent()
   EndEventProcessing()
   0()
  EndIf()
  0()
 PAGE   2
  // condition: switch 73 is ON
  0()



EVENT   78
 PAGE   1
  RunCommonEvent(916)
  ChangeVariable(11,11,0,2,1,8)
  If(1,11,0,1,0)
   Battle(0,342,false,false)
   RunCommonEvent(917)
   TemporaryRemoveEvent()
   EndEventProcessing()
   0()
  EndIf()
  If(1,11,0,2,0)
   Battle(0,343,false,false)
   RunCommonEvent(917)
   TemporaryRemoveEvent()
   EndEventProcessing()
   0()
  EndIf()
  If(1,11,0,3,0)
   Battle(0,344,false,false)
   RunCommonEvent(917)
   TemporaryRemoveEvent()
   EndEventProcessing()
   0()
  EndIf()
  If(1,11,0,4,0)
   Battle(0,355,false,false)
   RunCommonEvent(917)
   TemporaryRemoveEvent()
   EndEventProcessing()
   0()
  EndIf()
  If(1,11,0,5,0)
   Battle(0,357,false,false)
   RunCommonEvent(917)
   TemporaryRemoveEvent()
   EndEventProcessing()
   0()
  EndIf()
  If(1,11,0,6,0)
   Battle(0,359,false,false)
   RunCommonEvent(917)
   TemporaryRemoveEvent()
   EndEventProcessing()
   0()
  EndIf()
  If(1,11,0,7,0)
   Battle(0,375,false,false)
   RunCommonEvent(917)
   TemporaryRemoveEvent()
   EndEventProcessing()
   0()
  EndIf()
  If(1,11,0,8,0)
   Battle(0,376,false,false)
   RunCommonEvent(917)
   TemporaryRemoveEvent()
   EndEventProcessing()
   0()
  EndIf()
  0()
 PAGE   2
  // condition: switch 73 is ON
  0()



EVENT   47
 PAGE   1
  RunCommonEvent(916)
  ChangeVariable(11,11,0,2,1,8)
  If(1,11,0,1,0)
   Battle(0,342,false,false)
   RunCommonEvent(917)
   TemporaryRemoveEvent()
   EndEventProcessing()
   0()
  EndIf()
  If(1,11,0,2,0)
   Battle(0,343,false,false)
   RunCommonEvent(917)
   TemporaryRemoveEvent()
   EndEventProcessing()
   0()
  EndIf()
  If(1,11,0,3,0)
   Battle(0,344,false,false)
   RunCommonEvent(917)
   TemporaryRemoveEvent()
   EndEventProcessing()
   0()
  EndIf()
  If(1,11,0,4,0)
   Battle(0,355,false,false)
   RunCommonEvent(917)
   TemporaryRemoveEvent()
   EndEventProcessing()
   0()
  EndIf()
  If(1,11,0,5,0)
   Battle(0,357,false,false)
   RunCommonEvent(917)
   TemporaryRemoveEvent()
   EndEventProcessing()
   0()
  EndIf()
  If(1,11,0,6,0)
   Battle(0,359,false,false)
   RunCommonEvent(917)
   TemporaryRemoveEvent()
   EndEventProcessing()
   0()
  EndIf()
  If(1,11,0,7,0)
   Battle(0,375,false,false)
   RunCommonEvent(917)
   TemporaryRemoveEvent()
   EndEventProcessing()
   0()
  EndIf()
  If(1,11,0,8,0)
   Battle(0,376,false,false)
   RunCommonEvent(917)
   TemporaryRemoveEvent()
   EndEventProcessing()
   0()
  EndIf()
  0()
 PAGE   2
  // condition: switch 73 is ON
  0()



EVENT   65
 PAGE   1
  RunCommonEvent(916)
  ChangeVariable(11,11,0,2,1,3)
  If(1,11,0,1,0)
   Battle(0,382,false,false)
   RunCommonEvent(917)
   TemporaryRemoveEvent()
   EndEventProcessing()
   0()
  EndIf()
  If(1,11,0,2,0)
   Battle(0,384,false,false)
   RunCommonEvent(917)
   TemporaryRemoveEvent()
   EndEventProcessing()
   0()
  EndIf()
  If(1,11,0,3,0)
   Battle(0,385,false,false)
   RunCommonEvent(917)
   TemporaryRemoveEvent()
   EndEventProcessing()
   0()
  EndIf()
  0()
 PAGE   2
  // condition: switch 73 is ON
  0()



EVENT   64
 PAGE   1
  RunCommonEvent(916)
  ChangeVariable(11,11,0,2,1,3)
  If(1,11,0,1,0)
   Battle(0,382,false,false)
   RunCommonEvent(917)
   TemporaryRemoveEvent()
   EndEventProcessing()
   0()
  EndIf()
  If(1,11,0,2,0)
   Battle(0,384,false,false)
   RunCommonEvent(917)
   TemporaryRemoveEvent()
   EndEventProcessing()
   0()
  EndIf()
  If(1,11,0,3,0)
   Battle(0,385,false,false)
   RunCommonEvent(917)
   TemporaryRemoveEvent()
   EndEventProcessing()
   0()
  EndIf()
  0()
 PAGE   2
  // condition: switch 73 is ON
  0()



EVENT   63
 PAGE   1
  RunCommonEvent(916)
  ChangeVariable(11,11,0,2,1,3)
  If(1,11,0,1,0)
   Battle(0,382,false,false)
   RunCommonEvent(917)
   TemporaryRemoveEvent()
   EndEventProcessing()
   0()
  EndIf()
  If(1,11,0,2,0)
   Battle(0,384,false,false)
   RunCommonEvent(917)
   TemporaryRemoveEvent()
   EndEventProcessing()
   0()
  EndIf()
  If(1,11,0,3,0)
   Battle(0,385,false,false)
   RunCommonEvent(917)
   TemporaryRemoveEvent()
   EndEventProcessing()
   0()
  EndIf()
  0()
 PAGE   2
  // condition: switch 73 is ON
  0()



EVENT   51
 PAGE   1
  RunCommonEvent(916)
  ChangeVariable(11,11,0,2,1,3)
  If(1,11,0,1,0)
   Battle(0,365,false,false)
   RunCommonEvent(917)
   TemporaryRemoveEvent()
   EndEventProcessing()
   0()
  EndIf()
  If(1,11,0,2,0)
   Battle(0,372,false,false)
   RunCommonEvent(917)
   TemporaryRemoveEvent()
   EndEventProcessing()
   0()
  EndIf()
  If(1,11,0,3,0)
   Battle(0,373,false,false)
   RunCommonEvent(917)
   TemporaryRemoveEvent()
   EndEventProcessing()
   0()
  EndIf()
  0()
 PAGE   2
  // condition: switch 73 is ON
  0()



EVENT   52
 PAGE   1
  RunCommonEvent(916)
  ChangeVariable(11,11,0,2,1,3)
  If(1,11,0,1,0)
   Battle(0,365,false,false)
   RunCommonEvent(917)
   TemporaryRemoveEvent()
   EndEventProcessing()
   0()
  EndIf()
  If(1,11,0,2,0)
   Battle(0,372,false,false)
   RunCommonEvent(917)
   TemporaryRemoveEvent()
   EndEventProcessing()
   0()
  EndIf()
  If(1,11,0,3,0)
   Battle(0,373,false,false)
   RunCommonEvent(917)
   TemporaryRemoveEvent()
   EndEventProcessing()
   0()
  EndIf()
  0()
 PAGE   2
  // condition: switch 73 is ON
  0()



EVENT   53
 PAGE   1
  RunCommonEvent(916)
  ChangeVariable(11,11,0,2,1,3)
  If(1,11,0,1,0)
   Battle(0,365,false,false)
   RunCommonEvent(917)
   TemporaryRemoveEvent()
   EndEventProcessing()
   0()
  EndIf()
  If(1,11,0,2,0)
   Battle(0,372,false,false)
   RunCommonEvent(917)
   TemporaryRemoveEvent()
   EndEventProcessing()
   0()
  EndIf()
  If(1,11,0,3,0)
   Battle(0,373,false,false)
   RunCommonEvent(917)
   TemporaryRemoveEvent()
   EndEventProcessing()
   0()
  EndIf()
  0()
 PAGE   2
  // condition: switch 73 is ON
  0()



EVENT   68
 PAGE   1
  RunCommonEvent(916)
  ChangeVariable(11,11,0,2,1,4)
  If(1,11,0,1,0)
   Battle(0,383,false,false)
   RunCommonEvent(917)
   TemporaryRemoveEvent()
   EndEventProcessing()
   0()
  EndIf()
  If(1,11,0,2,0)
   Battle(0,386,false,false)
   RunCommonEvent(917)
   TemporaryRemoveEvent()
   EndEventProcessing()
   0()
  EndIf()
  If(1,11,0,3,0)
   Battle(0,387,false,false)
   RunCommonEvent(917)
   TemporaryRemoveEvent()
   EndEventProcessing()
   0()
  EndIf()
  If(1,11,0,4,0)
   Battle(0,388,false,false)
   RunCommonEvent(917)
   TemporaryRemoveEvent()
   EndEventProcessing()
   0()
  EndIf()
  0()
 PAGE   2
  // condition: switch 73 is ON
  0()



EVENT   67
 PAGE   1
  RunCommonEvent(916)
  ChangeVariable(11,11,0,2,1,4)
  If(1,11,0,1,0)
   Battle(0,383,false,false)
   RunCommonEvent(917)
   TemporaryRemoveEvent()
   EndEventProcessing()
   0()
  EndIf()
  If(1,11,0,2,0)
   Battle(0,386,false,false)
   RunCommonEvent(917)
   TemporaryRemoveEvent()
   EndEventProcessing()
   0()
  EndIf()
  If(1,11,0,3,0)
   Battle(0,387,false,false)
   RunCommonEvent(917)
   TemporaryRemoveEvent()
   EndEventProcessing()
   0()
  EndIf()
  If(1,11,0,4,0)
   Battle(0,388,false,false)
   RunCommonEvent(917)
   TemporaryRemoveEvent()
   EndEventProcessing()
   0()
  EndIf()
  0()
 PAGE   2
  // condition: switch 73 is ON
  0()



EVENT   66
 PAGE   1
  RunCommonEvent(916)
  ChangeVariable(11,11,0,2,1,4)
  If(1,11,0,1,0)
   Battle(0,383,false,false)
   RunCommonEvent(917)
   TemporaryRemoveEvent()
   EndEventProcessing()
   0()
  EndIf()
  If(1,11,0,2,0)
   Battle(0,386,false,false)
   RunCommonEvent(917)
   TemporaryRemoveEvent()
   EndEventProcessing()
   0()
  EndIf()
  If(1,11,0,3,0)
   Battle(0,387,false,false)
   RunCommonEvent(917)
   TemporaryRemoveEvent()
   EndEventProcessing()
   0()
  EndIf()
  If(1,11,0,4,0)
   Battle(0,388,false,false)
   RunCommonEvent(917)
   TemporaryRemoveEvent()
   EndEventProcessing()
   0()
  EndIf()
  0()
 PAGE   2
  // condition: switch 73 is ON
  0()



EVENT   28
 PAGE   1
  RunCommonEvent(916)
  ChangeVariable(11,11,0,2,1,4)
  If(1,11,0,1,0)
   Battle(0,336,false,false)
   RunCommonEvent(917)
   TemporaryRemoveEvent()
   EndEventProcessing()
   0()
  EndIf()
  If(1,11,0,2,0)
   Battle(0,338,false,false)
   RunCommonEvent(917)
   TemporaryRemoveEvent()
   EndEventProcessing()
   0()
  EndIf()
  If(1,11,0,3,0)
   Battle(0,367,false,false)
   RunCommonEvent(917)
   TemporaryRemoveEvent()
   EndEventProcessing()
   0()
  EndIf()
  If(1,11,0,4,0)
   Battle(0,368,false,false)
   RunCommonEvent(917)
   TemporaryRemoveEvent()
   EndEventProcessing()
   0()
  EndIf()
  0()
 PAGE   2
  // condition: switch 73 is ON
  0()



EVENT   37
 PAGE   1
  RunCommonEvent(916)
  ChangeVariable(11,11,0,2,1,4)
  If(1,11,0,1,0)
   Battle(0,336,false,false)
   RunCommonEvent(917)
   TemporaryRemoveEvent()
   EndEventProcessing()
   0()
  EndIf()
  If(1,11,0,2,0)
   Battle(0,338,false,false)
   RunCommonEvent(917)
   TemporaryRemoveEvent()
   EndEventProcessing()
   0()
  EndIf()
  If(1,11,0,3,0)
   Battle(0,367,false,false)
   RunCommonEvent(917)
   TemporaryRemoveEvent()
   EndEventProcessing()
   0()
  EndIf()
  If(1,11,0,4,0)
   Battle(0,368,false,false)
   RunCommonEvent(917)
   TemporaryRemoveEvent()
   EndEventProcessing()
   0()
  EndIf()
  0()
 PAGE   2
  // condition: switch 73 is ON
  0()



EVENT   38
 PAGE   1
  RunCommonEvent(916)
  ChangeVariable(11,11,0,2,1,4)
  If(1,11,0,1,0)
   Battle(0,336,false,false)
   RunCommonEvent(917)
   TemporaryRemoveEvent()
   EndEventProcessing()
   0()
  EndIf()
  If(1,11,0,2,0)
   Battle(0,338,false,false)
   RunCommonEvent(917)
   TemporaryRemoveEvent()
   EndEventProcessing()
   0()
  EndIf()
  If(1,11,0,3,0)
   Battle(0,367,false,false)
   RunCommonEvent(917)
   TemporaryRemoveEvent()
   EndEventProcessing()
   0()
  EndIf()
  If(1,11,0,4,0)
   Battle(0,368,false,false)
   RunCommonEvent(917)
   TemporaryRemoveEvent()
   EndEventProcessing()
   0()
  EndIf()
  0()
 PAGE   2
  // condition: switch 73 is ON
  0()



EVENT   39
 PAGE   1
  RunCommonEvent(916)
  ChangeVariable(11,11,0,2,1,4)
  If(1,11,0,1,0)
   Battle(0,336,false,false)
   RunCommonEvent(917)
   TemporaryRemoveEvent()
   EndEventProcessing()
   0()
  EndIf()
  If(1,11,0,2,0)
   Battle(0,338,false,false)
   RunCommonEvent(917)
   TemporaryRemoveEvent()
   EndEventProcessing()
   0()
  EndIf()
  If(1,11,0,3,0)
   Battle(0,367,false,false)
   RunCommonEvent(917)
   TemporaryRemoveEvent()
   EndEventProcessing()
   0()
  EndIf()
  If(1,11,0,4,0)
   Battle(0,368,false,false)
   RunCommonEvent(917)
   TemporaryRemoveEvent()
   EndEventProcessing()
   0()
  EndIf()
  0()
 PAGE   2
  // condition: switch 73 is ON
  0()



EVENT   56
 PAGE   1
  RunCommonEvent(916)
  ChangeVariable(11,11,0,2,1,3)
  If(1,11,0,1,0)
   Battle(0,349,false,false)
   RunCommonEvent(917)
   TemporaryRemoveEvent()
   EndEventProcessing()
   0()
  EndIf()
  If(1,11,0,2,0)
   Battle(0,364,false,false)
   RunCommonEvent(917)
   TemporaryRemoveEvent()
   EndEventProcessing()
   0()
  EndIf()
  If(1,11,0,3,0)
   Battle(0,366,false,false)
   RunCommonEvent(917)
   TemporaryRemoveEvent()
   EndEventProcessing()
   0()
  EndIf()
  0()
 PAGE   2
  // condition: switch 73 is ON
  0()



EVENT   55
 PAGE   1
  RunCommonEvent(916)
  ChangeVariable(11,11,0,2,1,3)
  If(1,11,0,1,0)
   Battle(0,349,false,false)
   RunCommonEvent(917)
   TemporaryRemoveEvent()
   EndEventProcessing()
   0()
  EndIf()
  If(1,11,0,2,0)
   Battle(0,364,false,false)
   RunCommonEvent(917)
   TemporaryRemoveEvent()
   EndEventProcessing()
   0()
  EndIf()
  If(1,11,0,3,0)
   Battle(0,366,false,false)
   RunCommonEvent(917)
   TemporaryRemoveEvent()
   EndEventProcessing()
   0()
  EndIf()
  0()
 PAGE   2
  // condition: switch 73 is ON
  0()



EVENT   54
 PAGE   1
  RunCommonEvent(916)
  ChangeVariable(11,11,0,2,1,3)
  If(1,11,0,1,0)
   Battle(0,349,false,false)
   RunCommonEvent(917)
   TemporaryRemoveEvent()
   EndEventProcessing()
   0()
  EndIf()
  If(1,11,0,2,0)
   Battle(0,364,false,false)
   RunCommonEvent(917)
   TemporaryRemoveEvent()
   EndEventProcessing()
   0()
  EndIf()
  If(1,11,0,3,0)
   Battle(0,366,false,false)
   RunCommonEvent(917)
   TemporaryRemoveEvent()
   EndEventProcessing()
   0()
  EndIf()
  0()
 PAGE   2
  // condition: switch 73 is ON
  0()



EVENT   48
 PAGE   1
  RunCommonEvent(916)
  ChangeVariable(11,11,0,2,1,5)
  If(1,11,0,1,0)
   Battle(0,348,false,false)
   RunCommonEvent(917)
   TemporaryRemoveEvent()
   EndEventProcessing()
   0()
  EndIf()
  If(1,11,0,2,0)
   Battle(0,350,false,false)
   RunCommonEvent(917)
   TemporaryRemoveEvent()
   EndEventProcessing()
   0()
  EndIf()
  If(1,11,0,3,0)
   Battle(0,352,false,false)
   RunCommonEvent(917)
   TemporaryRemoveEvent()
   EndEventProcessing()
   0()
  EndIf()
  If(1,11,0,4,0)
   Battle(0,353,false,false)
   RunCommonEvent(917)
   TemporaryRemoveEvent()
   EndEventProcessing()
   0()
  EndIf()
  If(1,11,0,5,0)
   Battle(0,354,false,false)
   RunCommonEvent(917)
   TemporaryRemoveEvent()
   EndEventProcessing()
   0()
  EndIf()
  0()
 PAGE   2
  // condition: switch 73 is ON
  0()



EVENT   49
 PAGE   1
  RunCommonEvent(916)
  ChangeVariable(11,11,0,2,1,5)
  If(1,11,0,1,0)
   Battle(0,348,false,false)
   RunCommonEvent(917)
   TemporaryRemoveEvent()
   EndEventProcessing()
   0()
  EndIf()
  If(1,11,0,2,0)
   Battle(0,350,false,false)
   RunCommonEvent(917)
   TemporaryRemoveEvent()
   EndEventProcessing()
   0()
  EndIf()
  If(1,11,0,3,0)
   Battle(0,352,false,false)
   RunCommonEvent(917)
   TemporaryRemoveEvent()
   EndEventProcessing()
   0()
  EndIf()
  If(1,11,0,4,0)
   Battle(0,353,false,false)
   RunCommonEvent(917)
   TemporaryRemoveEvent()
   EndEventProcessing()
   0()
  EndIf()
  If(1,11,0,5,0)
   Battle(0,354,false,false)
   RunCommonEvent(917)
   TemporaryRemoveEvent()
   EndEventProcessing()
   0()
  EndIf()
  0()
 PAGE   2
  // condition: switch 73 is ON
  0()



EVENT   50
 PAGE   1
  RunCommonEvent(916)
  ChangeVariable(11,11,0,2,1,5)
  If(1,11,0,1,0)
   Battle(0,348,false,false)
   RunCommonEvent(917)
   TemporaryRemoveEvent()
   EndEventProcessing()
   0()
  EndIf()
  If(1,11,0,2,0)
   Battle(0,350,false,false)
   RunCommonEvent(917)
   TemporaryRemoveEvent()
   EndEventProcessing()
   0()
  EndIf()
  If(1,11,0,3,0)
   Battle(0,352,false,false)
   RunCommonEvent(917)
   TemporaryRemoveEvent()
   EndEventProcessing()
   0()
  EndIf()
  If(1,11,0,4,0)
   Battle(0,353,false,false)
   RunCommonEvent(917)
   TemporaryRemoveEvent()
   EndEventProcessing()
   0()
  EndIf()
  If(1,11,0,5,0)
   Battle(0,354,false,false)
   RunCommonEvent(917)
   TemporaryRemoveEvent()
   EndEventProcessing()
   0()
  EndIf()
  0()
 PAGE   2
  // condition: switch 73 is ON
  0()
