﻿// EVENT 2156
Name "誘惑：商人マーメイド"

355("$game_troop.lose_event_id = 3156")
ChangeVariable(26,26,0,3,3,1,4)
ChangeVariable(26,26,4,0,10)
ShowMessageFace("s_mermaid_fc1",2,0,2,1)
ShowMessage("【商人マーメイド】")
ShowMessage("これ、大ピンチやん……")
ShowMessageFace("s_mermaid_fc1",1,0,2,2)
ShowMessage("【商人マーメイド】")
ShowMessage("あたしのおまんこ、ただで使ってもええで。")
ShowMessage("その代わり、命ばかりは見逃してや？")
ChangeSwitch(98,98,0)
ChangeSwitch(96,96,0)
ShowChoices(strings("無視する","誘惑に乗る"),1)
IfPlayerPicksChoice(0,"無視する")
 ShowMessageFace("",0,0,2,3)
 ShowMessage("しかしルカは誘惑を振り切った！")
 RunCommonEvent(1999)
 EndEventProcessing()
 0()
IfPlayerPicksChoice(1,"誘惑に乗る")
 0()
404()
ShowMessageFace("s_mermaid_fc1",1,0,2,4)
ShowMessage("【商人マーメイド】")
ShowMessage("それじゃあ、タダのマンコを楽しんでいってな！")
ChangeVariable(26,26,3,0,4)
250(bytes(0x04,0x08,0x6f,0x3a,0x0c,0x52,0x50,0x47,0x3a,0x3a,0x53,0x45,0x08,0x3a,0x0a,0x40,0x6e,0x61,0x6d,0x65,0x49,0x22,0x11,0x6d,0x6f,0x6e,0x5f,0x65,0x72,0x6f,0x5f,0x70,0x79,0x75,0x31,0x06,0x3a,0x06,0x45,0x54,0x3a,0x0b,0x40,0x70,0x69,0x74,0x63,0x68,0x69,0x69,0x3a,0x0c,0x40,0x76,0x6f,0x6c,0x75,0x6d,0x65,0x69,0x69))
311(0,1,1,1,26,true)
ShowMessageFace("",0,0,2,5)
ShowMessage("商人マーメイドは、ルカのペニスを自分の女性器に導いた！")
ShowMessage("柔らかな締め付けが、肉棒をぎゅっと包み込む！\\D")
ShowMessage("ルカは\\V[26]のダメージを受けた！")
ChangeVariable(27,27,0,3,3,1,2)
If(1,27,0,0,0)
 JumpToLabel("射精1")
 0()
EndIf()
ShowMessageFace("s_mermaid_fc1",1,0,2,6)
ShowMessage("【商人マーメイド】")
ShowMessage("人魚のマンコは気持ちいいやろ？")
ShowMessage("中にドピュドピュ出してもいいんやで♪")
250(bytes(0x04,0x08,0x6f,0x3a,0x0c,0x52,0x50,0x47,0x3a,0x3a,0x53,0x45,0x08,0x3a,0x0a,0x40,0x6e,0x61,0x6d,0x65,0x49,0x22,0x13,0x6d,0x6f,0x6e,0x5f,0x65,0x72,0x6f,0x5f,0x62,0x75,0x63,0x68,0x75,0x32,0x06,0x3a,0x06,0x45,0x54,0x3a,0x0b,0x40,0x70,0x69,0x74,0x63,0x68,0x69,0x69,0x3a,0x0c,0x40,0x76,0x6f,0x6c,0x75,0x6d,0x65,0x69,0x69))
311(0,1,1,1,26,true)
ShowMessageFace("",0,0,2,7)
ShowMessage("商人マーメイドの膣壁が、艶めかしくうねった！")
ShowMessage("ペニスがじんわり締め付けられ、じっくり揉みしだかれる！\\D")
ShowMessage("ルカは\\V[26]のダメージを受けた！")
ChangeVariable(27,27,0,3,3,1,2)
If(1,27,0,0,0)
 JumpToLabel("射精2")
 0()
EndIf()
ShowMessageFace("s_mermaid_fc1",1,0,2,8)
ShowMessage("【商人マーメイド】")
ShowMessage("ほ～ら、どっぷり出して天国行きやで♪")
250(bytes(0x04,0x08,0x6f,0x3a,0x0c,0x52,0x50,0x47,0x3a,0x3a,0x53,0x45,0x08,0x3a,0x0a,0x40,0x6e,0x61,0x6d,0x65,0x49,0x22,0x13,0x6d,0x6f,0x6e,0x5f,0x65,0x72,0x6f,0x5f,0x62,0x75,0x63,0x68,0x75,0x32,0x06,0x3a,0x06,0x45,0x54,0x3a,0x0b,0x40,0x70,0x69,0x74,0x63,0x68,0x69,0x69,0x3a,0x0c,0x40,0x76,0x6f,0x6c,0x75,0x6d,0x65,0x69,0x69))
311(0,1,1,1,26,true)
ShowMessageFace("",0,0,2,9)
ShowMessage("商人マーメイドの膣がにゅぐにゅぐと蠕動する！")
ShowMessage("ペニスが揉みしだかれ、極上の快楽が与えられた！\\D")
ShowMessage("ルカは\\V[26]のダメージを受けた！")
ChangeVariable(27,27,0,3,3,1,2)
If(1,27,0,0,0)
 JumpToLabel("射精2")
 0()
EndIf()
DefineLabel("射精1")
ShowMessageFace("",0,0,2,10)
ShowMessage("【ルカ】")
ShowMessage("だめ、出ちゃうよぉ……あぁぁぁ……")
RunCommonEvent(104)
RunCommonEvent(105)
ShowMessageFace("",0,0,2,11)
ShowMessage("商人マーメイドに挿入した瞬間、たちまちイってしまった。")
ShowMessage("その膣内に、精液をたっぷりと撒き散らしてしまう――")
ShowMessageFace("s_mermaid_fc1",1,0,2,12)
ShowMessage("【商人マーメイド】")
ShowMessage("なんや、一瞬でイったんか。")
ShowMessage("弱いチンチンで楽やったわ～♪")
RunCommonEvent(2000)
EndEventProcessing()
DefineLabel("射精2")
ShowMessageFace("",0,0,2,13)
ShowMessage("【ルカ】")
ShowMessage("だめ、出ちゃうよぉ……あぁぁぁ……")
RunCommonEvent(104)
RunCommonEvent(105)
ShowMessageFace("",0,0,2,14)
ShowMessage("極上の快楽を味わいながら、あえなくイってしまった。")
ShowMessage("その膣内に、精液をたっぷりと撒き散らしてしまう――")
ShowMessageFace("s_mermaid_fc1",1,0,2,15)
ShowMessage("【商人マーメイド】")
ShowMessage("なんや、もうイったんか。")
ShowMessage("弱いチンチンで楽やったわ～♪")
RunCommonEvent(2000)
EndEventProcessing()
0()
