﻿// EVENT 2238
Name "誘惑：あげは娘"

355("$game_troop.lose_event_id = 3238")
ChangeVariable(26,26,0,3,3,1,4)
ChangeVariable(26,26,4,0,10)
ShowMessageFace("ageha_fc1",2,0,2,1)
ShowMessage("【あげは娘】")
ShowMessage("わ～ん、やられちゃいますよぉ……")
ShowMessageFace("ageha_fc1",0,0,2,2)
ShowMessage("【あげは娘】")
ShowMessage("……あの、私と交尾しませんか？")
ShowMessage("逃がしてくれるなら、お礼に交わりましょう。")
ChangeSwitch(98,98,0)
ChangeSwitch(96,96,0)
ShowChoices(strings("無視する","誘惑に乗る"),1)
IfPlayerPicksChoice(0,"無視する")
 ShowMessageFace("",0,0,2,3)
 ShowMessage("しかしルカは誘惑を振り切った！")
 RunCommonEvent(1999)
 EndEventProcessing()
 0()
IfPlayerPicksChoice(1,"誘惑に乗る")
 0()
404()
ShowMessageFace("ageha_fc1",0,0,2,4)
ShowMessage("【あげは娘】")
ShowMessage("逃がしてくれるんですね……")
ShowMessage("それじゃあ、交尾しましょうよ♪")
ChangeVariable(26,26,3,0,4)
250(bytes(0x04,0x08,0x6f,0x3a,0x0c,0x52,0x50,0x47,0x3a,0x3a,0x53,0x45,0x08,0x3a,0x0a,0x40,0x6e,0x61,0x6d,0x65,0x49,0x22,0x12,0x6d,0x6f,0x6e,0x5f,0x65,0x72,0x6f,0x5f,0x6b,0x6f,0x6b,0x69,0x31,0x06,0x3a,0x06,0x45,0x54,0x3a,0x0b,0x40,0x70,0x69,0x74,0x63,0x68,0x69,0x69,0x3a,0x0c,0x40,0x76,0x6f,0x6c,0x75,0x6d,0x65,0x69,0x69))
311(0,1,1,1,26,true)
ShowMessageFace("",0,0,2,5)
ShowMessage("あげは娘はルカにのしかかり、腰を落としてきた！")
ShowMessage("狭い女性器に、ペニスがにゅるりと沈み込む！\\D")
ShowMessage("ルカは\\V[26]のダメージを受けた！")
ChangeVariable(27,27,0,3,3,1,2)
If(1,27,0,0,0)
 JumpToLabel("射精1")
 0()
EndIf()
ShowMessageFace("ageha_fc1",0,0,2,6)
ShowMessage("【あげは娘】")
ShowMessage("うふふっ、交わっちゃいましたね。")
ShowMessage("中にたっぷり、子種を出して下さい♪")
250(bytes(0x04,0x08,0x6f,0x3a,0x0c,0x52,0x50,0x47,0x3a,0x3a,0x53,0x45,0x08,0x3a,0x0a,0x40,0x6e,0x61,0x6d,0x65,0x49,0x22,0x12,0x6d,0x6f,0x6e,0x5f,0x65,0x72,0x6f,0x5f,0x6b,0x6f,0x6b,0x69,0x31,0x06,0x3a,0x06,0x45,0x54,0x3a,0x0b,0x40,0x70,0x69,0x74,0x63,0x68,0x69,0x69,0x3a,0x0c,0x40,0x76,0x6f,0x6c,0x75,0x6d,0x65,0x69,0x69))
311(0,1,1,1,26,true)
ShowMessageFace("",0,0,2,7)
ShowMessage("あげは娘の蜜壺が、にゅるにゅるとうねった！")
ShowMessage("妖しい蠕動が、ペニスに甘い刺激を与えてくる！\\D")
ShowMessage("ルカは\\V[26]のダメージを受けた！")
ChangeVariable(27,27,0,3,3,1,2)
If(1,27,0,0,0)
 JumpToLabel("射精1")
 0()
EndIf()
ShowMessageFace("ageha_fc1",0,0,2,8)
ShowMessage("【あげは娘】")
ShowMessage("昆虫娘のあそこは、とっても気持ちいいでしょう？")
ShowMessage("こうやれば、簡単にイっちゃいますよね～♪")
250(bytes(0x04,0x08,0x6f,0x3a,0x0c,0x52,0x50,0x47,0x3a,0x3a,0x53,0x45,0x08,0x3a,0x0a,0x40,0x6e,0x61,0x6d,0x65,0x49,0x22,0x12,0x6d,0x6f,0x6e,0x5f,0x65,0x72,0x6f,0x5f,0x6b,0x6f,0x6b,0x69,0x31,0x06,0x3a,0x06,0x45,0x54,0x3a,0x0b,0x40,0x70,0x69,0x74,0x63,0x68,0x69,0x69,0x3a,0x0c,0x40,0x76,0x6f,0x6c,0x75,0x6d,0x65,0x69,0x69))
311(0,1,1,1,26,true)
ShowMessageFace("",0,0,2,9)
ShowMessage("あげは娘の膣内が、じゅるじゅると収縮する！")
ShowMessage("ペニスが先端から根元まで揉み解され、とろける刺激が与えられた！\\D")
ShowMessage("ルカは\\V[26]のダメージを受けた！")
ChangeVariable(27,27,0,3,3,1,2)
If(1,27,0,0,0)
 JumpToLabel("射精1")
 0()
EndIf()
DefineLabel("射精1")
ShowMessageFace("",0,0,2,10)
ShowMessage("【ルカ】")
ShowMessage("だめ、出ちゃうよぉ……あぁぁぁ……")
RunCommonEvent(104)
RunCommonEvent(105)
ShowMessageFace("",0,0,2,11)
ShowMessage("あげは娘の膣内に、ドクドクと子種を注ぎ込んでしまう。")
ShowMessage("交尾の結果、種付けをしてしまったのだ――")
ShowMessageFace("ageha_fc1",0,0,2,12)
ShowMessage("【あげは娘】")
ShowMessage("うふふっ、漏らしちゃいましたね。")
ShowMessage("私との交尾、気持ち良かったでしょ？")
RunCommonEvent(2000)
EndEventProcessing()
0()
