﻿// EVENT 2027
Name "誘惑：ハーピーツインズ"

If(0,25,1)
 EndEventProcessing()
 0()
EndIf()
355("$game_troop.lose_event_id = 3027")
ChangeVariable(26,26,0,3,3,1,4)
ChangeVariable(26,26,4,0,10)
ShowMessageFace("hapy_bc_fc1",2,0,2,1)
ShowMessage("【ハーピー姉】")
ShowMessage("お願い、これ以上ぴぃちゃんをいじめないであげて……")
ShowMessageFace("hapy_bc_fc1",2,0,2,2)
ShowMessage("【ハーピー妹】")
ShowMessage("おねえちゃん……")
ShowMessageFace("hapy_bc_fc1",2,0,2,3)
ShowMessage("【ハーピー姉】")
ShowMessage("私なら、どうなってもいいから……")
ShowMessage("ぴぃちゃんには手を出さないで……ね？")
ShowMessageFace("",0,0,2,4)
ShowMessage("ハーピー姉は、観念したように横たわった。")
ShowMessage("そのまま足を広げ、股間を露わにする――")
ChangeSwitch(98,98,0)
ChangeSwitch(96,96,0)
ShowChoices(strings("無視する","誘惑に乗る"),1)
IfPlayerPicksChoice(0,"無視する")
 ShowMessageFace("",0,0,2,5)
 ShowMessage("しかしルカは誘惑を振り切った！")
 RunCommonEvent(1999)
 EndEventProcessing()
 0()
IfPlayerPicksChoice(1,"誘惑に乗る")
 0()
404()
ShowMessageFace("",0,0,2,6)
ShowMessage("ルカは誘われるまま、ペニスをハーピー姉の股間にあてがった！")
ShowMessageFace("hapy_bc_fc1",4,0,2,7)
ShowMessage("【ハーピー姉】")
ShowMessage("あははっ、引っ掛かっちゃった……♪")
ChangeVariable(26,26,3,0,3)
250(bytes(0x04,0x08,0x6f,0x3a,0x0c,0x52,0x50,0x47,0x3a,0x3a,0x53,0x45,0x08,0x3a,0x0a,0x40,0x6e,0x61,0x6d,0x65,0x49,0x22,0x11,0x6d,0x6f,0x6e,0x5f,0x65,0x72,0x6f,0x5f,0x70,0x79,0x75,0x31,0x06,0x3a,0x06,0x45,0x54,0x3a,0x0b,0x40,0x70,0x69,0x74,0x63,0x68,0x69,0x69,0x3a,0x0c,0x40,0x76,0x6f,0x6c,0x75,0x6d,0x65,0x69,0x69))
PictureDisplay(5,"ev_hapy_bc_ct11",0,0,0,0,100,100,255,0)
311(0,1,1,1,26,true)
ShowMessageFace("",0,0,2,8)
ShowMessage("姉ハーピーはあっという間に体位を逆転させ、ルカにのしかかった！")
ShowMessage("そのまま膣内にペニスを咥え込み、犯してしまう！\\D")
ShowMessage("ルカは\\V[26]のダメージを受けた！")
ChangeVariable(27,27,0,3,3,1,2)
If(1,27,0,0,0)
 JumpToLabel("射精1")
 0()
EndIf()
ShowMessageFace("",0,0,2,9)
ShowMessage("【ルカ】")
ShowMessage("そ、そんな……！")
ShowMessageFace("hapy_bc_fc1",5,0,2,10)
ShowMessage("【ハーピー妹】")
ShowMessage("お姉ちゃんにだまされちゃうなんて、ちょっと間抜けだね……")
ShowMessageFace("hapy_bc_fc1",4,0,2,11)
ShowMessage("【ハーピー姉】")
ShowMessage("うふふっ、仕方ないよね……")
ShowMessage("でも、ちゃんと気持ちよくしてあげるからね。")
250(bytes(0x04,0x08,0x6f,0x3a,0x0c,0x52,0x50,0x47,0x3a,0x3a,0x53,0x45,0x08,0x3a,0x0a,0x40,0x6e,0x61,0x6d,0x65,0x49,0x22,0x11,0x6d,0x6f,0x6e,0x5f,0x65,0x72,0x6f,0x5f,0x70,0x79,0x75,0x31,0x06,0x3a,0x06,0x45,0x54,0x3a,0x0b,0x40,0x70,0x69,0x74,0x63,0x68,0x69,0x69,0x3a,0x0c,0x40,0x76,0x6f,0x6c,0x75,0x6d,0x65,0x69,0x69))
PictureDisplay(5,"ev_hapy_bc_ct12",0,0,0,0,100,100,255,0)
311(0,1,1,1,26,true)
ShowMessageFace("",0,0,2,12)
ShowMessage("姉ハーピーは腰を上下させ、ピストン運動で責めたてた！")
ShowMessage("膣内の柔突起がペニスをくすぐり、甘い刺激を与える！\\D")
ShowMessage("ルカは\\V[26]のダメージを受けた！")
ChangeVariable(27,27,0,3,3,1,2)
If(1,27,0,0,0)
 JumpToLabel("射精2")
 0()
EndIf()
ShowMessageFace("hapy_bc_fc1",4,0,2,13)
ShowMessage("【ハーピー姉】")
ShowMessage("どう？　気持ちいい？")
ShowMessage("中に出しちゃっていいからね……♪")
250(bytes(0x04,0x08,0x6f,0x3a,0x0c,0x52,0x50,0x47,0x3a,0x3a,0x53,0x45,0x08,0x3a,0x0a,0x40,0x6e,0x61,0x6d,0x65,0x49,0x22,0x11,0x6d,0x6f,0x6e,0x5f,0x65,0x72,0x6f,0x5f,0x70,0x79,0x75,0x31,0x06,0x3a,0x06,0x45,0x54,0x3a,0x0b,0x40,0x70,0x69,0x74,0x63,0x68,0x69,0x69,0x3a,0x0c,0x40,0x76,0x6f,0x6c,0x75,0x6d,0x65,0x69,0x69))
311(0,1,1,1,26,true)
ShowMessageFace("",0,0,2,14)
ShowMessage("姉ハーピーは腰を弾ませ、激しいピストンを繰り出してくる！")
ShowMessage("柔らかな膣内でペニスが扱き抜かれ、快楽が与えられた！\\D")
ShowMessage("ルカは\\V[26]のダメージを受けた！")
ChangeVariable(27,27,0,3,3,1,2)
If(1,27,0,0,0)
 JumpToLabel("射精2")
 0()
EndIf()
ShowMessageFace("hapy_bc_fc1",4,0,2,15)
ShowMessage("【ハーピー姉】")
ShowMessage("ほら、もうイっちゃうよ。")
ShowMessage("ぴぃちゃん、ちゃんと見ててあげてね……♪")
ShowMessageFace("hapy_bc_fc1",5,0,2,16)
ShowMessage("【ハーピー妹】")
ShowMessage("じーっ……")
250(bytes(0x04,0x08,0x6f,0x3a,0x0c,0x52,0x50,0x47,0x3a,0x3a,0x53,0x45,0x08,0x3a,0x0a,0x40,0x6e,0x61,0x6d,0x65,0x49,0x22,0x11,0x6d,0x6f,0x6e,0x5f,0x65,0x72,0x6f,0x5f,0x70,0x79,0x75,0x31,0x06,0x3a,0x06,0x45,0x54,0x3a,0x0b,0x40,0x70,0x69,0x74,0x63,0x68,0x69,0x69,0x3a,0x0c,0x40,0x76,0x6f,0x6c,0x75,0x6d,0x65,0x69,0x69))
311(0,1,1,1,26,true)
ShowMessageFace("",0,0,2,17)
ShowMessage("姉ハーピーは腰を艶めかしくくねらせた！")
ShowMessage("柔突起の備わった膣内でペニスが嫐り抜かれ、甘い快楽が与えられる！\\D")
ShowMessage("ルカは\\V[26]のダメージを受けた！")
ChangeVariable(27,27,0,3,3,1,2)
If(1,27,0,0,0)
 JumpToLabel("射精2")
 0()
EndIf()
DefineLabel("射精1")
ShowMessageFace("",0,0,2,18)
ShowMessage("【ルカ】")
ShowMessage("あっ……出ちゃうよぉ……！")
RunCommonEvent(104)
PictureDisplay(5,"ev_hapy_bc_ct13",0,0,0,0,100,100,255,0)
RunCommonEvent(105)
ShowMessageFace("",0,0,2,19)
ShowMessage("突然に犯され、あえなく暴発してしまった。")
ShowMessage("熱い膣内に、どぷどぷと精液を注ぎ込んでしまう――")
ShowMessageFace("hapy_bc_fc1",4,0,2,20)
ShowMessage("【ハーピー姉】")
ShowMessage("あれれ？　もうオモラシしちゃったのかな……？")
ShowMessageFace("hapy_bc_fc1",6,0,2,21)
ShowMessage("【ハーピー妹】")
ShowMessage("あははっ、はやーい♪")
RunCommonEvent(2000)
EndEventProcessing()
DefineLabel("射精2")
ShowMessageFace("",0,0,2,22)
ShowMessage("【ルカ】")
ShowMessage("だめぇ……イっちゃうよぉ……")
RunCommonEvent(104)
PictureDisplay(5,"ev_hapy_bc_ct13",0,0,0,0,100,100,255,0)
RunCommonEvent(105)
ShowMessageFace("",0,0,2,23)
ShowMessage("姉ハーピーの腰さばきに屈し、あえなくイってしまった。")
ShowMessage("熱い膣内に、ドクドクと精液が注がれていく――")
ShowMessageFace("hapy_bc_fc1",4,0,2,24)
ShowMessage("【ハーピー姉】")
ShowMessage("うふふっ、オモラシしちゃった……")
ShowMessageFace("hapy_bc_fc1",6,0,2,25)
ShowMessage("【ハーピー妹】")
ShowMessage("いっぱい出してるよ、気持ちよさそう……")
RunCommonEvent(2000)
EndEventProcessing()
0()
