﻿// EVENT 2305
Name "誘惑：カーバンクル娘"

355("$game_troop.lose_event_id = 3305")
ChangeVariable(26,26,0,3,3,1,4)
ChangeVariable(26,26,4,0,10)
ShowMessageFace("carbuncle_fc1",2,0,2,1)
ShowMessage("【カーバンクル娘】")
ShowMessage("ここまで苦戦するなんて……")
ShowMessage("何か手を打たねばなりませんね。")
ShowMessageFace("carbuncle_fc1",0,0,2,2)
ShowMessage("【カーバンクル娘】")
ShowMessage("それでは……取引はいかがでしょう。")
ShowMessage("見逃してもらえれば、この搾精尻尾を好きに使わせてあげますよ。")
ShowMessageFace("",0,0,2,3)
ShowMessage("カーバンクル娘の尻尾が、口を開けた！")
ShowMessage("内部でピンク色の粘膜がうねり、ぐちゅぐちゅと蠢く！")
ShowMessageFace("carbuncle_fc1",0,0,2,4)
ShowMessage("【カーバンクル娘】")
ShowMessage("この中に、おちんちんを挿入したいでしょう？")
ShowMessage("ここに挿れたら、一分ももたずに射精してしまいますよ……")
ChangeSwitch(98,98,0)
ChangeSwitch(96,96,0)
ShowChoices(strings("無視する","誘惑に乗る"),1)
IfPlayerPicksChoice(0,"無視する")
 ShowMessageFace("",0,0,2,5)
 ShowMessage("しかしルカは誘惑を振り切った！")
 RunCommonEvent(1999)
 EndEventProcessing()
 0()
IfPlayerPicksChoice(1,"誘惑に乗る")
 0()
404()
ShowMessageFace("carbuncle_fc1",0,0,2,6)
ShowMessage("【カーバンクル娘】")
ShowMessage("それでは、尻尾の搾精腔に挿入して下さい。")
ShowMessage("私が手伝ってあげますからね……")
ChangeVariable(26,26,3,0,4)
250(bytes(0x04,0x08,0x6f,0x3a,0x0c,0x52,0x50,0x47,0x3a,0x3a,0x53,0x45,0x08,0x3a,0x0a,0x40,0x6e,0x61,0x6d,0x65,0x49,0x22,0x11,0x6d,0x6f,0x6e,0x5f,0x65,0x72,0x6f,0x5f,0x70,0x79,0x75,0x33,0x06,0x3a,0x06,0x45,0x54,0x3a,0x0b,0x40,0x70,0x69,0x74,0x63,0x68,0x69,0x69,0x3a,0x0c,0x40,0x76,0x6f,0x6c,0x75,0x6d,0x65,0x69,0x69))
355("battler_graphic_hide")
PictureDisplay(5,"ev_carbuncle_h2",0,0,0,0,100,100,255,0)
311(0,1,1,1,26,true)
ShowMessageFace("",0,0,2,7)
ShowMessage("カーバンクル娘の尻尾が、ルカのペニスを咥え込んできた！")
ShowMessage("肉棒がぐちゅぐちゅとうねる柔肉に包み込まれる！\\D")
ShowMessage("ルカは\\V[26]のダメージを受けた！")
ChangeVariable(27,27,0,3,3,1,2)
If(1,27,0,0,0)
 JumpToLabel("射精1")
 0()
EndIf()
ShowMessageFace("carbuncle_fc1",0,0,2,8)
ShowMessage("【カーバンクル娘】")
ShowMessage("我慢はしなくても良いのですよ……")
ShowMessage("どうせ耐えられないでしょうけど。")
250(bytes(0x04,0x08,0x6f,0x3a,0x0c,0x52,0x50,0x47,0x3a,0x3a,0x53,0x45,0x08,0x3a,0x0a,0x40,0x6e,0x61,0x6d,0x65,0x49,0x22,0x12,0x6d,0x6f,0x6e,0x5f,0x65,0x72,0x6f,0x5f,0x6e,0x61,0x6d,0x65,0x32,0x06,0x3a,0x06,0x45,0x54,0x3a,0x0b,0x40,0x70,0x69,0x74,0x63,0x68,0x69,0x69,0x3a,0x0c,0x40,0x76,0x6f,0x6c,0x75,0x6d,0x65,0x69,0x69))
311(0,1,1,1,26,true)
ShowMessageFace("",0,0,2,9)
ShowMessage("尻尾内の肉壁が、じゅぶじゅぶとうねった！")
ShowMessage("ペニスを艶めかしく揉みしだき、甘い快楽を与える！\\D")
ShowMessage("ルカは\\V[26]のダメージを受けた！")
ChangeVariable(27,27,0,3,3,1,2)
If(1,27,0,0,0)
 JumpToLabel("射精2")
 0()
EndIf()
ShowMessageFace("carbuncle_fc1",0,0,2,10)
ShowMessage("【カーバンクル娘】")
ShowMessage("もう射精しそうなのでしょう？")
ShowMessage("心置きなく、尻尾の中に放出して下さいね……")
250(bytes(0x04,0x08,0x6f,0x3a,0x0c,0x52,0x50,0x47,0x3a,0x3a,0x53,0x45,0x08,0x3a,0x0a,0x40,0x6e,0x61,0x6d,0x65,0x49,0x22,0x12,0x6d,0x6f,0x6e,0x5f,0x65,0x72,0x6f,0x5f,0x6e,0x61,0x6d,0x65,0x32,0x06,0x3a,0x06,0x45,0x54,0x3a,0x0b,0x40,0x70,0x69,0x74,0x63,0x68,0x69,0x69,0x3a,0x0c,0x40,0x76,0x6f,0x6c,0x75,0x6d,0x65,0x69,0x69))
311(0,1,1,1,26,true)
ShowMessageFace("",0,0,2,11)
ShowMessage("尻尾内の肉壁がうねり、ペニスを巻き込んで収縮する！")
ShowMessage("肉棒を揉みしだくような刺激で、絶頂に追い込んできた！\\D")
ShowMessage("ルカは\\V[26]のダメージを受けた！")
ChangeVariable(27,27,0,3,3,1,2)
If(1,27,0,0,0)
 JumpToLabel("射精2")
 0()
EndIf()
DefineLabel("射精1")
ShowMessageFace("",0,0,2,12)
ShowMessage("【ルカ】")
ShowMessage("だめ、出ちゃうよぉ……あぁぁぁ……")
RunCommonEvent(104)
PictureDisplay(5,"ev_carbuncle_h3",0,0,0,0,100,100,255,0)
RunCommonEvent(105)
ShowMessageFace("",0,0,2,13)
ShowMessage("挿入した瞬間、あっけなく暴発してしまう。")
ShowMessage("搾精腔の中に、ドクドクと精液を注ぎ込んでしまった――")
ShowMessageFace("carbuncle_fc1",0,0,2,14)
ShowMessage("【カーバンクル娘】")
ShowMessage("挿れた直後に射精ですか……")
ShowMessage("敏感なおちんちんなのですね。")
RunCommonEvent(2000)
EndEventProcessing()
DefineLabel("射精2")
ShowMessageFace("",0,0,2,15)
ShowMessage("【ルカ】")
ShowMessage("だめ、出ちゃうよぉ……あぁぁぁ……")
RunCommonEvent(104)
PictureDisplay(5,"ev_carbuncle_h3",0,0,0,0,100,100,255,0)
RunCommonEvent(105)
ShowMessageFace("",0,0,2,16)
ShowMessage("柔らかな肉壁のうねりに耐えられず、あえなく射精してしまう。")
ShowMessage("搾精腔の中に、ドクドクと精液を注ぎ込んでしまった――")
ShowMessageFace("carbuncle_fc1",0,0,2,17)
ShowMessage("【カーバンクル娘】")
ShowMessage("射精しましたね……")
ShowMessage("まったく我慢できなかったでしょう？")
RunCommonEvent(2000)
EndEventProcessing()
0()
