﻿// EVENT 4601
Name "ワームビレッジャ"

If(0,25,1)
 221()
 PictureClear(5)
 PictureClear(6)
 ShowMessageFace("",0,0,2,1)
 ShowMessage("・・・・・・・・")
 242(2)
 Wait(120)
 241(bytes(0x04,0x08,0x6f,0x3a,0x0d,0x52,0x50,0x47,0x3a,0x3a,0x42,0x47,0x4d,0x08,0x3a,0x0a,0x40,0x6e,0x61,0x6d,0x65,0x49,0x22,0x0c,0x63,0x61,0x73,0x74,0x6c,0x65,0x36,0x06,0x3a,0x06,0x45,0x54,0x3a,0x0c,0x40,0x76,0x6f,0x6c,0x75,0x6d,0x65,0x69,0x69,0x3a,0x0b,0x40,0x70,0x69,0x74,0x63,0x68,0x69,0x69))
 EndEventProcessing()
 0()
EndIf()
PictureDisplay(5,"80_wormv_st02",0,0,0,0,100,100,255,0)
ShowMessageFace("wormv_fc1",1,0,2,2)
ShowMessage("【ユリア】")
ShowMessage("私に吸われてみたいんですか……？")
ShowMessageFace("",0,0,2,3)
ShowMessage("【ルカ】")
ShowMessage("う、うん……お願い……")
ShowMessageFace("wormv_fc1",1,0,2,4)
ShowMessage("【ユリア】")
ShowMessage("それじゃあ、私の部屋にどうぞ。")
ShowMessage("快楽の虜にしてあげますからね……♪")
ShowMessageFace("",0,0,2,5)
ShowMessage("こうして僕は、ユリアの部屋に誘われた――")
221()
PictureDisplay(1,"bg195",0,0,0,0,100,100,255,0)
PictureDisplay(5,"80_wormv_st02",0,0,0,0,100,100,255,0)
222()
241(bytes(0x04,0x08,0x6f,0x3a,0x0d,0x52,0x50,0x47,0x3a,0x3a,0x42,0x47,0x4d,0x08,0x3a,0x0a,0x40,0x6e,0x61,0x6d,0x65,0x49,0x22,0x09,0x65,0x72,0x6f,0x31,0x06,0x3a,0x06,0x45,0x54,0x3a,0x0c,0x40,0x76,0x6f,0x6c,0x75,0x6d,0x65,0x69,0x69,0x3a,0x0b,0x40,0x70,0x69,0x74,0x63,0x68,0x69,0x69))
ShowMessageFace("wormv_fc1",1,0,2,6)
ShowMessage("【ユリア】")
ShowMessage("それじゃあ、吸っちゃいますからね。")
ShowMessage("キミの美味しい精液、じゅるじゅる搾り取っちゃいますよ♪")
ShowMessageFace("",0,0,2,7)
ShowMessage("【ルカ】")
ShowMessage("あぅぅぅぅ……")
250(bytes(0x04,0x08,0x6f,0x3a,0x0c,0x52,0x50,0x47,0x3a,0x3a,0x53,0x45,0x08,0x3a,0x0a,0x40,0x6e,0x61,0x6d,0x65,0x49,0x22,0x16,0x6d,0x6f,0x6e,0x5f,0x65,0x72,0x6f,0x5f,0x6d,0x61,0x6b,0x69,0x74,0x75,0x6b,0x69,0x33,0x06,0x3a,0x06,0x45,0x54,0x3a,0x0b,0x40,0x70,0x69,0x74,0x63,0x68,0x69,0x69,0x3a,0x0c,0x40,0x76,0x6f,0x6c,0x75,0x6d,0x65,0x69,0x69))
PictureDisplay(5,"ev_wormv_h1",0,0,0,0,100,100,255,0)
ShowMessageFace("",0,0,2,8)
ShowMessage("脱力する僕を、触手がぐるぐると巻き上げてくる。")
ShowMessage("たちまち僕の体は、異様な触手に絡め取られてしまった。")
ShowMessageFace("wormv_fc1",1,0,2,9)
ShowMessage("【ユリア】")
ShowMessage("ほぉら……触手のお口、気持ち良さそうでしょう……？")
250(bytes(0x04,0x08,0x6f,0x3a,0x0c,0x52,0x50,0x47,0x3a,0x3a,0x53,0x45,0x08,0x3a,0x0a,0x40,0x6e,0x61,0x6d,0x65,0x49,0x22,0x11,0x6d,0x6f,0x6e,0x5f,0x65,0x72,0x6f,0x5f,0x70,0x79,0x75,0x32,0x06,0x3a,0x06,0x45,0x54,0x3a,0x0b,0x40,0x70,0x69,0x74,0x63,0x68,0x69,0x69,0x3a,0x0c,0x40,0x76,0x6f,0x6c,0x75,0x6d,0x65,0x69,0x69))
ShowMessageFace("",0,0,2,10)
ShowMessage("ぐちゅり……と口を開ける、ユリアの触手。")
ShowMessage("その中で無数のヒダが蠢き、まるで誘っているかのようだった。")
ShowMessageFace("",0,0,2,11)
ShowMessage("こんなところに、今から自分のモノを咥え込まれてしまうのだ――")
ShowMessage("そう考えただけで、おぞましさと期待で震えてしまう。")
ShowMessageFace("",0,0,2,12)
ShowMessage("【ルカ】")
ShowMessage("あ、あぁぁぁ……")
ShowMessageFace("wormv_fc1",1,0,2,13)
ShowMessage("【ユリア】")
ShowMessage("ふふっ……覚悟はできましたか？")
ShowMessage("それじゃあ、いただきま～す♪")
245(bytes(0x04,0x08,0x6f,0x3a,0x0d,0x52,0x50,0x47,0x3a,0x3a,0x42,0x47,0x53,0x08,0x3a,0x0a,0x40,0x6e,0x61,0x6d,0x65,0x49,0x22,0x17,0x6d,0x6f,0x6e,0x5f,0x68,0x73,0x65,0x61,0x6e,0x31,0x35,0x5f,0x6b,0x79,0x75,0x69,0x6e,0x32,0x06,0x3a,0x06,0x45,0x54,0x3a,0x0c,0x40,0x76,0x6f,0x6c,0x75,0x6d,0x65,0x69,0x55,0x3a,0x0b,0x40,0x70,0x69,0x74,0x63,0x68,0x69,0x69))
PictureDisplay(5,"ev_wormv_h6",0,0,0,0,100,100,255,0)
ShowMessageFace("",0,0,2,14)
ShowMessage("ユリアの触手は、僕のモノをぱっくりと咥え込んできた！")
ShowMessage("たちまち根本まで、ぬめった触手口で包み込まれてしまう――")
ShowMessageFace("",0,0,2,15)
ShowMessage("【ルカ】")
ShowMessage("あ、あぁぁぁぁぁぁ……！！")
ShowMessageFace("",0,0,2,16)
ShowMessage("その中の感触はあまりにも心地よく、僕は身をわななかせた。")
ShowMessageFace("",0,0,2,17)
ShowMessage("内部はヌラヌラしていて、意外なほどに温かい。")
ShowMessage("挿入口がきゅっとすぼまり、ヒダまみれの内壁が密着してくる。")
ShowMessageFace("",0,0,2,18)
ShowMessage("なによりも心地よかったのは、その吸引だった。")
ShowMessage("奥の方から吸い付いてくるかのような刺激が、肉棒全体に与えられるのだ。")
ShowMessageFace("",0,0,2,19)
ShowMessage("ぶちゅぶちゅと淫らな音が響き、ペニスがねっとりと吸引された――")
ShowMessageFace("",0,0,2,20)
ShowMessage("【ルカ】")
ShowMessage("あ、あぁぁぁ……吸われてるよぉ……")
ShowMessageFace("wormv_fc1",1,0,2,21)
ShowMessage("【ユリア】")
ShowMessage("うふふっ……そうですよ……")
ShowMessage("キミのおちんちん、私の触手に吸われてるんですよ……")
ShowMessageFace("wormv_fc1",1,0,2,22)
ShowMessage("【ユリア】")
ShowMessage("このまま、精液が吸い出されちゃうんですよ……")
ShowMessage("じゅるじゅる、ぶちゅぶちゅ……って……♪")
ShowMessageFace("",0,0,2,23)
ShowMessage("【ルカ】")
ShowMessage("あぅぅぅ……すごいよぉ……")
ShowMessageFace("",0,0,2,24)
ShowMessage("触手による吸引刺激は、甘美な快楽をもたらした。")
ShowMessage("嫌悪感はたちまち吹き飛び、ペニスを吸われる悦びに夢中になる。")
ShowMessageFace("",0,0,2,25)
ShowMessage("吸われるがまま、触手の口に精液を放ってしまいたい――")
ShowMessage("そんな誘惑が、射精感と同時に沸き上がってきたのだ。")
ShowMessageFace("wormv_fc1",1,0,2,26)
ShowMessage("【ユリア】")
ShowMessage("ふふっ、分かってますよ……出しちゃいたいんですよね？")
ShowMessage("この触手の中に、精液たっぷり吸い取られたいんですよね？")
ShowMessageFace("wormv_fc1",1,0,2,27)
ShowMessage("【ユリア】")
ShowMessage("いいんですよ、そのまま思いっきり出しちゃっても……")
ShowMessage("キミの子種、じゅるじゅる啜ってあげますから……♪")
ShowMessageFace("",0,0,2,28)
ShowMessage("【ルカ】")
ShowMessage("あ、ああぁぁぁぁ……")
ShowMessageFace("",0,0,2,29)
ShowMessage("ユリアの囁きと共に、触手の吸引もねちっこくなっていく。")
ShowMessage("ぶちゅぶちゅと音を立て、ペニス全体に吸い付いてくるのだ。")
ShowMessageFace("",0,0,2,30)
ShowMessage("それと同時に、中にびっしり備わったヒダも蠢いている。")
ShowMessage("うにゅうにゅ、にゅるにゅると亀頭が舐め回されるような刺激。")
ShowMessageFace("wormv_fc1",1,0,2,31)
ShowMessage("【ユリア】")
ShowMessage("あははっ……先走り汁、漏れちゃってますよ。")
ShowMessage("もうすぐ、精液も漏れちゃいますね……♪")
ShowMessageFace("wormv_fc1",1,0,2,32)
ShowMessage("【ユリア】")
ShowMessage("吸われながらイくのは、すごく気持ち良いんですよ……")
ShowMessage("腰が抜けそうな快感、存分に味わって下さいね……")
ShowMessageFace("",0,0,2,33)
ShowMessage("【ルカ】")
ShowMessage("あぅぅぅぅ……")
ShowMessageFace("",0,0,2,34)
ShowMessage("自分のモノを、異様な触手が包み込んでいる――")
ShowMessage("その様子を目の当たりにし、深い屈辱感と敗北感が湧き上がった。")
ShowMessageFace("",0,0,2,35)
ShowMessage("このまま射精させられるという背徳感は、背筋を震わせてしまうほど。")
ShowMessageFace("",0,0,2,36)
ShowMessage("しかし、それでも肉体は快楽に抗えなかった。")
ShowMessage("このまま、精液を吸い出されたいという欲求も大きくなっていく――")
ShowMessageFace("",0,0,2,37)
ShowMessage("【ルカ】")
ShowMessage("だめぇ……出ちゃうよぉ……")
ShowMessageFace("wormv_fc1",1,0,2,38)
ShowMessage("【ユリア】")
ShowMessage("我慢しないで、出していいんですよ……")
ShowMessage("ほらほら……こうしちゃうと、我慢できませんよね？")
ShowMessageFace("",0,0,2,39)
ShowMessage("ヒダの蠢きと吸引は、ねちっこくなっていく一方。")
ShowMessage("じゅるじゅる、ぶちゅぶちゅと音を立て、ペニスを悦ばせている。")
ShowMessageFace("",0,0,2,40)
ShowMessage("粘り着くような吸引を与えられ、とうとう限界が訪れようとしていた。")
ShowMessage("甘い刺激に屈し、とうとう射精感が抑えられなくなったのだ――")
ShowMessageFace("",0,0,2,41)
ShowMessage("【ルカ】")
ShowMessage("あ……！　出ちゃう！　出ちゃうよぉ……！！")
RunCommonEvent(104)
PictureDisplay(5,"ev_wormv_h7",0,0,0,0,100,100,255,0)
RunCommonEvent(105)
ShowMessageFace("",0,0,2,42)
ShowMessage("とうとう、吸い付いてくる触手の中で絶頂してしまった。")
ShowMessage("じゅるじゅる吸引されながら、ドクドクと精液を注ぎ込んでしまう。")
ShowMessageFace("",0,0,2,43)
ShowMessage("【ルカ】")
ShowMessage("ふぁぁぁぁ……きもちいい……")
ShowMessageFace("",0,0,2,44)
ShowMessage("ペニスが甘くとろけてしまいそうな放出感。")
ShowMessage("まるで、魂まで吸われているかのようだ――")
ShowMessageFace("",0,0,2,45)
ShowMessage("射精が終わるまで、僕はその快感を満喫してしまった。")
ShowMessage("もう、この快楽からは決して抗えないだろう――")
ShowMessageFace("wormv_fc1",1,0,2,46)
ShowMessage("【ユリア】")
ShowMessage("ふふっ……美味しい精液、吸い出しちゃった♪")
ShowMessageFace("wormv_fc1",1,0,2,47)
ShowMessage("【ユリア】")
ShowMessage("でも、まだまだ搾り出しますよ……")
ShowMessage("私の喉の渇きが癒えるまで……")
ShowMessageFace("",0,0,2,48)
ShowMessage("【ルカ】")
ShowMessage("あ……あひぃっ！！")
245(bytes(0x04,0x08,0x6f,0x3a,0x0d,0x52,0x50,0x47,0x3a,0x3a,0x42,0x47,0x53,0x08,0x3a,0x0a,0x40,0x6e,0x61,0x6d,0x65,0x49,0x22,0x17,0x6d,0x6f,0x6e,0x5f,0x68,0x73,0x65,0x61,0x6e,0x31,0x36,0x5f,0x6b,0x79,0x75,0x69,0x6e,0x33,0x06,0x3a,0x06,0x45,0x54,0x3a,0x0c,0x40,0x76,0x6f,0x6c,0x75,0x6d,0x65,0x69,0x55,0x3a,0x0b,0x40,0x70,0x69,0x74,0x63,0x68,0x69,0x69))
ShowMessageFace("",0,0,2,49)
ShowMessage("不意に、肉棒を包んだ触手が上下し始める。")
ShowMessageFace("",0,0,2,50)
ShowMessage("今までは吸い付いてくるだけだったのが、")
ShowMessage("じゅぶじゅぶと扱くような刺激を与えてきたのだ。")
ShowMessageFace("",0,0,2,51)
ShowMessage("ヒダをじゅるじゅると擦り付けながら、根本まで咥え込む。")
ShowMessage("かと思えば、触手口で締め付けながらカリのあたりまで引き抜かれる。")
ShowMessageFace("",0,0,2,52)
ShowMessage("その往復刺激が繰り返され、じゅっぽじゅっぽと水気の多い音が響いた。")
ShowMessageFace("",0,0,2,53)
ShowMessage("【ルカ】")
ShowMessage("あぅぅ……これ、すごい……！")
ShowMessage("ふぁぁぁぁぁぁ……きもちいいよぉ……")
ShowMessageFace("",0,0,2,54)
ShowMessage("まるで、腰が抜けてしまいそうな程の快楽。")
ShowMessage("僕の抵抗心はいっさい失われ、その刺激に身を委ねきってしまう。")
ShowMessageFace("",0,0,2,55)
ShowMessage("精液を搾り出すための機能を備えた、まさに魔性の触手。")
ShowMessage("それが与える快楽は、どんな男をも夢中にさせるほどだった――")
ShowMessageFace("",0,0,2,56)
ShowMessage("【ルカ】")
ShowMessage("あぅぅ……すごい……きもちいい……")
ShowMessageFace("wormv_fc1",1,0,2,57)
ShowMessage("【ユリア】")
ShowMessage("あらあら、とっても気持ちよさそう……")
ShowMessage("もう、すっかり堕ちてしまったようですね……")
ShowMessageFace("wormv_fc1",1,0,2,58)
ShowMessage("【ユリア】")
ShowMessage("じゃあ、このまま搾り出してあげますから……")
ShowMessage("たっぷりドクドク漏らして下さいね……♪")
ShowMessageFace("",0,0,2,59)
ShowMessage("【ルカ】")
ShowMessage("はぅぅぅ……あ、あぁぁぁぁ……！！")
ShowMessageFace("",0,0,2,60)
ShowMessage("触手の上下運動が、だんだんと激しくなっていく。")
ShowMessage("ぐっちゅぐっちゅと音を立て、ねちっこく吸い付いてくる。")
ShowMessageFace("",0,0,2,61)
ShowMessage("ペニス全体を扱かれながら、亀頭にしゃぶりつかれているような感覚。")
ShowMessage("男性器をリズミカルに刺激し、強制的に射精へと導く触手刺激――")
ShowMessageFace("",0,0,2,62)
ShowMessage("【ルカ】")
ShowMessage("あぁぁぁぁ……また、出ちゃうよぉ……！！")
ShowMessageFace("",0,0,2,63)
ShowMessage("その刺激に肉棒は歓喜し、あえなく屈してしまった――")
RunCommonEvent(104)
PictureDisplay(5,"ev_wormv_h8",0,0,0,0,100,100,255,0)
RunCommonEvent(105)
ShowMessageFace("",0,0,2,64)
ShowMessage("ペニスに吸い付かれるまま、ドクドクと精液が迸る。")
ShowMessage("そのまま、白濁は触手口に一滴残らず吸い出されてしまった。")
ShowMessageFace("",0,0,2,65)
ShowMessage("【ルカ】")
ShowMessage("ふぁぁぁぁ……")
ShowMessageFace("",0,0,2,66)
ShowMessage("あまりにも心地良い放出感に、僕は体を弛緩させてしまう――")
ShowMessage("が、ユリアは脱力する僕を休ませてはくれなかった。")
ShowMessageFace("wormv_fc1",1,0,2,67)
ShowMessage("【ユリア】")
ShowMessage("ふふっ、美味しい……でも、まだ足りないの……")
ShowMessage("もっともっと、キミの精液を飲ませて……")
ShowMessageFace("",0,0,2,68)
ShowMessage("【ルカ】")
ShowMessage("あぅぅぅぅぅぅぅぅぅぅ……！！")
ShowMessageFace("",0,0,2,69)
ShowMessage("触手の動きは緩まるどころか、ますます激しくなってくる。")
ShowMessage("射精直後のペニスを容赦なく扱きたて、吸い付いてきたのだ。")
ShowMessageFace("",0,0,2,70)
ShowMessage("時には奥深くまで咥え込まれ、包み込むような刺激を与えてくる。")
ShowMessageFace("",0,0,2,71)
ShowMessage("引き抜くときはカリのあたりまで触手口が後退し、")
ShowMessage("カリに引っ掛かるような刺激が与えられた。")
ShowMessageFace("",0,0,2,72)
ShowMessage("その動きはますますねちっこく、そして激しくなっていく――")
ShowMessageFace("",0,0,2,73)
ShowMessage("【ルカ】")
ShowMessage("はぅぅぅぅぅ……！　や、やめて……")
ShowMessage("もう、これ以上は……")
ShowMessageFace("",0,0,2,74)
ShowMessage("あまりに激しい搾精に、僕は恐怖さえ抱いていた。")
ShowMessage("こんな快楽を与え続けられたら、おかしくなってしまう――")
ShowMessageFace("wormv_fc1",1,0,2,75)
ShowMessage("【ユリア】")
ShowMessage("ダメよ……私が満足するまで、吸うの……")
ShowMessage("でも、キミを搾り殺したりはしないから安心して……")
ShowMessageFace("wormv_fc1",1,0,2,76)
ShowMessage("【ユリア】")
ShowMessage("私、とっても上手だから……")
ShowMessageFace("wormv_fc1",1,0,2,77)
ShowMessage("【ユリア】")
ShowMessage("キミが死なないように加減しながら、")
ShowMessage("長く長くと吸い取ってあげる……")
ShowMessageFace("",0,0,2,78)
ShowMessage("【ルカ】")
ShowMessage("そ、そんな……ああ、またイっちゃう……")
RunCommonEvent(104)
RunCommonEvent(105)
ShowMessageFace("",0,0,2,79)
ShowMessage("触手の中で、びゅるびゅると迸る精液。")
ShowMessage("それでも、容赦ない搾精は終わりの気配を見せない。")
ShowMessageFace("",0,0,2,80)
ShowMessage("【ルカ】")
ShowMessage("もうやめてぇ……死んじゃうよぉ……")
ShowMessageFace("wormv_fc1",1,0,2,81)
ShowMessage("【ユリア】")
ShowMessage("このくらいでは、まだ死にませんよ……")
ShowMessage("限界ギリギリまでは、大丈夫ですから……")
ShowMessageFace("",0,0,2,82)
ShowMessage("【ルカ】")
ShowMessage("はぅぅぅぅぅぅぅ……！！")
ShowMessageFace("",0,0,2,83)
ShowMessage("じゅぶじゅぶとペニスを吸引され、僕は身をわななかせた。")
ShowMessageFace("",0,0,2,84)
ShowMessage("触手が肉棒を奥まで咥え込み、")
ShowMessage("ぶちゅぶちゅと貪るような刺激を与えてきたのだ――")
ShowMessageFace("",0,0,2,85)
ShowMessage("【ルカ】")
ShowMessage("あ、あ――っ！！　それ、だめぇ……")
RunCommonEvent(104)
PictureDisplay(5,"ev_wormv_h9",0,0,0,0,100,100,255,0)
RunCommonEvent(105)
ShowMessageFace("",0,0,2,86)
ShowMessage("激しい搾精により、精が吸い取られていく。")
ShowMessage("それでもユリアはくすくす笑いながら、まるで容赦してくれない。")
ShowMessageFace("",0,0,2,87)
ShowMessage("僕はただ、ユリアの触手に捕らえられたエサに過ぎなかった。")
ShowMessageFace("",0,0,2,88)
ShowMessage("【ルカ】")
ShowMessage("あ、あぁぁぁぁぁ……")
ShowMessageFace("wormv_fc1",1,0,2,89)
ShowMessage("【ユリア】")
ShowMessage("ほぉら、まだまだ出ますよね……")
ShowMessageFace("wormv_fc1",1,0,2,90)
ShowMessage("【ユリア】")
ShowMessage("これくらいじゃ死なないから、")
ShowMessage("もっともっと出して下さいね……")
RunCommonEvent(104)
RunCommonEvent(105)
ShowMessageFace("",0,0,2,91)
ShowMessage("【ルカ】")
ShowMessage("あぅぅぅぅ……")
ShowMessageFace("",0,0,2,92)
ShowMessage("いくら死なないといっても、")
ShowMessage("ここまで執拗に吸われると意識が揺らいでくる。")
ShowMessageFace("",0,0,2,93)
ShowMessage("ペニスからちゅうちゅう精を吸われながら、")
ShowMessage("僕は意識を失ってしまった――")
221()
PictureClear(5)
246(2)
ShowMessageFace("",0,0,2,94)
ShowMessage("目覚めると、自分の部屋に戻っていた。")
ShowMessage("失神した僕は、自室まで運ばれたのだろう。")
ShowMessageFace("",0,0,2,95)
ShowMessage("触手吸精の快楽は、この体に刻み込まれてしまった。")
ShowMessage("もう、ワームの快楽から逃れられないのかもしれない――")
ShowMessageFace("",0,0,2,96)
ShowMessage("・・・・・・・・")
242(2)
Wait(120)
241(bytes(0x04,0x08,0x6f,0x3a,0x0d,0x52,0x50,0x47,0x3a,0x3a,0x42,0x47,0x4d,0x08,0x3a,0x0a,0x40,0x6e,0x61,0x6d,0x65,0x49,0x22,0x0c,0x63,0x61,0x73,0x74,0x6c,0x65,0x36,0x06,0x3a,0x06,0x45,0x54,0x3a,0x0c,0x40,0x76,0x6f,0x6c,0x75,0x6d,0x65,0x69,0x69,0x3a,0x0b,0x40,0x70,0x69,0x74,0x63,0x68,0x69,0x69))
0()
