﻿// EVENT 1211
Name "会話：アルラ・マッシュ"

If(1,20,0,1,0)
 JumpToLabel("情報")
 0()
EndIf()
If(1,20,0,2,0)
 JumpToLabel("質問")
 0()
EndIf()
If(1,20,0,3,0)
 JumpToLabel("要求")
 0()
EndIf()
If(1,20,0,4,0)
 JumpToLabel("贈与")
 0()
EndIf()
DefineLabel("情報")
ChangeVariable(13,13,0,2,1,100)
If(1,13,0,10,2)
 ShowMessageFace("a_mash_fc1",0,0,2,1)
 ShowMessage("【アルラ・マッシュ】")
 ShowMessage("アルラ・パラソルと、お散歩したい……")
 ShowMessage("でも私、歩くの遅い……")
 EndEventProcessing()
 0()
EndIf()
If(1,13,0,20,2)
 ShowMessageFace("a_mash_fc1",0,0,2,2)
 ShowMessage("【アルラ・マッシュ】")
 ShowMessage("きのこ、おいしいよ！")
 EndEventProcessing()
 0()
EndIf()
If(1,13,0,30,2)
 ShowMessageFace("a_mash_fc1",0,0,2,3)
 ShowMessage("【アルラ・マッシュ】")
 ShowMessage("平和な世界で、ひっそりと生えていたい……")
 EndEventProcessing()
 0()
EndIf()
If(1,13,0,40,2)
 ShowMessageFace("a_mash_fc1",0,0,2,4)
 ShowMessage("【アルラ・マッシュ】")
 ShowMessage("平和が大好き。")
 ShowMessage("戦いはキライ……")
 EndEventProcessing()
 0()
EndIf()
If(1,13,0,50,2)
 ShowMessageFace("a_mash_fc1",0,0,2,5)
 ShowMessage("【アルラ・マッシュ】")
 ShowMessage("菌糸、もわもわ……")
 EndEventProcessing()
 0()
EndIf()
If(1,13,0,60,2)
 ShowMessageFace("a_mash_fc1",0,0,2,6)
 ShowMessage("【アルラ・マッシュ】")
 ShowMessage("苗床にしちゃうよ！")
 EndEventProcessing()
 0()
EndIf()
If(1,13,0,70,2)
 ShowMessageFace("a_mash_fc1",0,0,2,7)
 ShowMessage("【アルラ・マッシュ】")
 ShowMessage("エリンギ～！　エリンギ～！")
 EndEventProcessing()
 0()
EndIf()
If(1,13,0,80,2)
 ShowMessageFace("a_mash_fc1",0,0,2,8)
 ShowMessage("【アルラ・マッシュ】")
 ShowMessage("おいしいきのこ！")
 EndEventProcessing()
 0()
EndIf()
If(1,13,0,90,2)
 ShowMessageFace("a_mash_fc1",0,0,2,9)
 ShowMessage("【アルラ・マッシュ】")
 ShowMessage("ウケケケケケケ！")
 EndEventProcessing()
 0()
EndIf()
If(1,13,0,100,2)
 ShowMessageFace("a_mash_fc1",0,0,2,10)
 ShowMessage("【アルラ・マッシュ】")
 ShowMessage("平和な世界……")
 ShowMessage("それは、きのこだけの世界。")
 EndEventProcessing()
 0()
EndIf()
DefineLabel("質問")
ChangeVariable(13,13,0,2,1,50)
If(1,13,0,10,2)
 ShowMessageFace("a_mash_fc1",0,0,2,11)
 ShowMessage("【アルラ・マッシュ】")
 ShowMessage("きのこ、食べる？")
 ShowMessage("あたしの体、食べちゃう……？")
 ShowChoices(strings("食べたりしない","食べたい","僕の方が美味しい"),0)
 IfPlayerPicksChoice(0,"食べたりしない")
  ShowMessageFace("a_mash_fc1",0,0,2,12)
  ShowMessage("【アルラ・マッシュ】")
  ShowMessage("食べないの……？")
  ShowMessage("きのこ、嫌い？")
  355("change_friend(-5)")
  0()
 IfPlayerPicksChoice(1,"食べたい")
  ShowMessageFace("a_mash_fc1",0,0,2,13)
  ShowMessage("【アルラ・マッシュ】")
  ShowMessage("おいしいよ！")
  355("change_friend(10)")
  0()
 IfPlayerPicksChoice(2,"僕の方が美味しい")
  ShowMessageFace("a_mash_fc1",0,0,2,14)
  ShowMessage("【アルラ・マッシュ】")
  ShowMessage("きのこよりおいしい！？")
  ShowMessage("食べたい！")
  355("change_friend(10)")
  0()
 404()
 EndEventProcessing()
 0()
EndIf()
If(1,13,0,20,2)
 ShowMessageFace("a_mash_fc1",0,0,2,15)
 ShowMessage("【アルラ・マッシュ】")
 ShowMessage("きのこ、バンザーイ！")
 ShowChoices(strings("イェーッ！","にんげん、バンザーイ！","……………………"),0)
 IfPlayerPicksChoice(0,"イェーッ！")
  ShowMessageFace("a_mash_fc1",0,0,2,16)
  ShowMessage("【アルラ・マッシュ】")
  ShowMessage("きのこ、バンザーイ！")
  355("change_friend(10)")
  0()
 IfPlayerPicksChoice(1,"にんげん、バンザーイ！")
  ShowMessageFace("a_mash_fc1",0,0,2,17)
  ShowMessage("【アルラ・マッシュ】")
  ShowMessage("イェーッ！")
  355("change_friend(10)")
  0()
 IfPlayerPicksChoice(2,"……………………")
  ShowMessageFace("a_mash_fc1",0,0,2,18)
  ShowMessage("【アルラ・マッシュ】")
  ShowMessage("……………………")
  355("change_friend(-5)")
  0()
 404()
 EndEventProcessing()
 0()
EndIf()
If(1,13,0,30,2)
 ShowMessageFace("a_mash_fc1",0,0,2,19)
 ShowMessage("【アルラ・マッシュ】")
 ShowMessage("きのことたけのこ、どっちが好き？")
 ShowChoices(strings("きのこ","たけのこ","どっちも"),0)
 IfPlayerPicksChoice(0,"きのこ")
  ShowMessageFace("a_mash_fc1",0,0,2,20)
  ShowMessage("【アルラ・マッシュ】")
  ShowMessage("きのこ、おいしいよ！")
  355("change_friend(10)")
  0()
 IfPlayerPicksChoice(1,"たけのこ")
  ShowMessageFace("a_mash_fc1",0,0,2,21)
  ShowMessage("【アルラ・マッシュ】")
  ShowMessage("クマに食われてしまえ……")
  355("change_friend(-5)")
  0()
 IfPlayerPicksChoice(2,"どっちも")
  ShowMessageFace("a_mash_fc1",0,0,2,22)
  ShowMessage("【アルラ・マッシュ】")
  ShowMessage("混ざり合う事はない……")
  355("change_friend(-5)")
  0()
 404()
 EndEventProcessing()
 0()
EndIf()
If(1,13,0,40,2)
 ShowMessageFace("a_mash_fc1",0,0,2,23)
 ShowMessage("【アルラ・マッシュ】")
 ShowMessage("きのこの名前しりとり、する？")
 ShowChoices(strings("する","しない","別の遊びをしよう"),0)
 IfPlayerPicksChoice(0,"する")
  ShowMessageFace("a_mash_fc1",0,0,2,24)
  ShowMessage("【アルラ・マッシュ】")
  ShowMessage("なめこ！")
  355("change_friend(10)")
  0()
 IfPlayerPicksChoice(1,"しない")
  ShowMessageFace("a_mash_fc1",0,0,2,25)
  ShowMessage("【アルラ・マッシュ】")
  ShowMessage("ベニテングタケ……")
  355("change_friend(-5)")
  0()
 IfPlayerPicksChoice(2,"別の遊びをしよう")
  ShowMessageFace("a_mash_fc1",0,0,2,26)
  ShowMessage("【アルラ・マッシュ】")
  ShowMessage("ヤダー！")
  355("change_friend(-5)")
  0()
 404()
 EndEventProcessing()
 0()
EndIf()
If(1,13,0,50,2)
 ShowMessageFace("a_mash_fc1",0,0,2,27)
 ShowMessage("【アルラ・マッシュ】")
 ShowMessage("きのこ狩りって、なに？")
 ShowMessage("きのこ、狩っちゃうの……？")
 ShowChoices(strings("きのこを採って食べる","一匹残らず狩り尽くす","理不尽と戦え"),0)
 IfPlayerPicksChoice(0,"きのこを採って食べる")
  ShowMessageFace("a_mash_fc1",0,0,2,28)
  ShowMessage("【アルラ・マッシュ】")
  ShowMessage("ならいいや……")
  ShowMessage("きのこ、おいしいよ！")
  355("change_friend(10)")
  0()
 IfPlayerPicksChoice(1,"一匹残らず狩り尽くす")
  ShowMessageFace("a_mash_fc1",0,0,2,29)
  ShowMessage("【アルラ・マッシュ】")
  ShowMessage("やめてー！")
  ShowMessage("もう、きのこ食べられなくなるよ……？")
  355("change_friend(-5)")
  0()
 IfPlayerPicksChoice(2,"理不尽と戦え")
  ShowMessageFace("a_mash_fc1",0,0,2,30)
  ShowMessage("【アルラ・マッシュ】")
  ShowMessage("私、戦う！")
  ShowMessage("きのこ狩り狩りをやる！")
  0()
 404()
 EndEventProcessing()
 0()
EndIf()
DefineLabel("要求")
ChangeVariable(13,13,0,2,1,30)
If(1,13,0,10,2)
 If(8,67)
  ShowMessageFace("a_mash_fc1",0,0,2,31)
  ShowMessage("【アルラ・マッシュ】")
  ShowMessage("土が欲しいな！　土の力が欲しいな！")
  ChangeVariable(24,24,0,3,0,67,0)
  ShowMessageFace("",0,0,2,32)
  ShowMessage("「土石」をあげますか？（所持数：\\V[24]）")
  ShowChoices(strings("はい","いいえ"),2)
  IfPlayerPicksChoice(0,"はい")
   ShowMessageFace("a_mash_fc1",0,0,2,33)
   ShowMessage("【アルラ・マッシュ】")
   ShowMessage("ウケケケケ……！！")
   ChangeInventory_Item(67,1,0,1)
   355("change_friend(20)")
   EndEventProcessing()
   0()
  IfPlayerPicksChoice(1,"いいえ")
   ShowMessageFace("a_mash_fc1",0,0,2,34)
   ShowMessage("【アルラ・マッシュ】")
   ShowMessage("……………………")
   EndEventProcessing()
   0()
  404()
  0()
 Else()
  ChangeVariable(13,13,0,0,20)
  0()
 EndIf()
 0()
EndIf()
If(1,13,0,20,2)
 If(8,13)
  ShowMessageFace("a_mash_fc1",0,0,2,35)
  ShowMessage("【アルラ・マッシュ】")
  ShowMessage("毒でクラクラ、毒きのこ……")
  ChangeVariable(24,24,0,3,0,13,0)
  ShowMessageFace("",0,0,2,36)
  ShowMessage("「毒消し草」をあげますか？（所持数：\\V[24]）")
  ShowChoices(strings("はい","いいえ"),2)
  IfPlayerPicksChoice(0,"はい")
   ShowMessageFace("a_mash_fc1",0,0,2,37)
   ShowMessage("【アルラ・マッシュ】")
   ShowMessage("ウケケケケ……！！")
   ChangeInventory_Item(13,1,0,1)
   355("change_friend(30)")
   EndEventProcessing()
   0()
  IfPlayerPicksChoice(1,"いいえ")
   ShowMessageFace("a_mash_fc1",0,0,2,38)
   ShowMessage("【アルラ・マッシュ】")
   ShowMessage("……………………")
   EndEventProcessing()
   0()
  404()
  0()
 Else()
  ChangeVariable(13,13,0,0,30)
  0()
 EndIf()
 0()
EndIf()
If(1,13,0,30,2)
 ShowMessageFace("a_mash_fc1",0,0,2,39)
 ShowMessage("【アルラ・マッシュ】")
 ShowMessage("お金ほしいな！　お金！")
 If(7,648,0)
  ChangeVariable(24,24,0,3,7,2,0)
  ShowMessageFace("",0,0,2,40)
  ShowMessage("648Gをあげますか？（所持金：\\V[24]）")
  ShowChoices(strings("はい","いいえ"),2)
  IfPlayerPicksChoice(0,"はい")
   ShowMessageFace("a_mash_fc1",0,0,2,41)
   ShowMessage("【アルラ・マッシュ】")
   ShowMessage("ウケケケケ……！！")
   125(1,0,648)
   355("change_friend(25)")
   EndEventProcessing()
   0()
  IfPlayerPicksChoice(1,"いいえ")
   ShowMessageFace("a_mash_fc1",0,0,2,42)
   ShowMessage("【アルラ・マッシュ】")
   ShowMessage("……………………")
   EndEventProcessing()
   0()
  404()
  0()
 Else()
  ShowMessageFace("a_mash_fc1",0,0,2,43)
  ShowMessage("【アルラ・マッシュ】")
  ShowMessage("ない！？　ないね……")
  EndEventProcessing()
  0()
 EndIf()
 0()
EndIf()
DefineLabel("贈与")
ChangeVariable(13,13,0,2,1,30)
If(1,25,0,1,0)
 ChangeVariable(13,13,0,0,30)
 ChangeVariable(25,25,0,0,0)
 0()
EndIf()
If(1,25,0,2,0)
 ChangeVariable(13,13,0,2,1,20)
 ChangeVariable(25,25,0,0,0)
 0()
EndIf()
If(1,13,0,10,2)
 ShowMessageFace("a_mash_fc1",0,0,2,44)
 ShowMessage("【アルラ・マッシュ】")
 ShowMessage("きのこ、おいしいよ！")
 250(bytes(0x04,0x08,0x6f,0x3a,0x0c,0x52,0x50,0x47,0x3a,0x3a,0x53,0x45,0x08,0x3a,0x0a,0x40,0x6e,0x61,0x6d,0x65,0x49,0x22,0x0a,0x49,0x74,0x65,0x6d,0x31,0x06,0x3a,0x06,0x45,0x54,0x3a,0x0b,0x40,0x70,0x69,0x74,0x63,0x68,0x69,0x69,0x3a,0x0c,0x40,0x76,0x6f,0x6c,0x75,0x6d,0x65,0x69,0x55))
 ChangeInventory_Item(318,0,0,1)
 ShowMessageFace("",0,0,2,45)
 ShowMessage("アルラ・マッシュから「しいたけ」をもらった！")
 EndEventProcessing()
 0()
EndIf()
If(1,13,0,20,2)
 ShowMessageFace("a_mash_fc1",0,0,2,46)
 ShowMessage("【アルラ・マッシュ】")
 ShowMessage("きのこ、おいしいよ！")
 250(bytes(0x04,0x08,0x6f,0x3a,0x0c,0x52,0x50,0x47,0x3a,0x3a,0x53,0x45,0x08,0x3a,0x0a,0x40,0x6e,0x61,0x6d,0x65,0x49,0x22,0x0a,0x49,0x74,0x65,0x6d,0x31,0x06,0x3a,0x06,0x45,0x54,0x3a,0x0b,0x40,0x70,0x69,0x74,0x63,0x68,0x69,0x69,0x3a,0x0c,0x40,0x76,0x6f,0x6c,0x75,0x6d,0x65,0x69,0x55))
 ChangeInventory_Item(443,0,0,1)
 ShowMessageFace("",0,0,2,47)
 ShowMessage("アルラ・マッシュから「毒キノコ」をもらった！")
 EndEventProcessing()
 0()
EndIf()
If(1,13,0,30,2)
 ShowMessageFace("a_mash_fc1",0,0,2,48)
 ShowMessage("【アルラ・マッシュ】")
 ShowMessage("お金、いらないや……")
 250(bytes(0x04,0x08,0x6f,0x3a,0x0c,0x52,0x50,0x47,0x3a,0x3a,0x53,0x45,0x08,0x3a,0x0a,0x40,0x6e,0x61,0x6d,0x65,0x49,0x22,0x0a,0x49,0x74,0x65,0x6d,0x31,0x06,0x3a,0x06,0x45,0x54,0x3a,0x0b,0x40,0x70,0x69,0x74,0x63,0x68,0x69,0x69,0x3a,0x0c,0x40,0x76,0x6f,0x6c,0x75,0x6d,0x65,0x69,0x55))
 125(0,0,1080)
 ShowMessageFace("",0,0,2,49)
 ShowMessage("アルラ・マッシュから1080Gをもらった！")
 EndEventProcessing()
 0()
EndIf()
0()
