﻿// EVENT 2168
Name "誘惑：カエル娘"

355("$game_troop.lose_event_id = 3168")
ChangeVariable(26,26,0,3,3,1,4)
ChangeVariable(26,26,4,0,10)
ShowMessageFace("kaeru_fc1",2,0,2,1)
ShowMessage("【カエル娘】")
ShowMessage("このままじゃ、負けちゃうじゃない……")
ShowMessageFace("kaeru_fc1",0,0,2,2)
ShowMessage("【カエル娘】")
ShowMessage("ねぇ、あたしと交尾しない？")
ShowMessage("おまんこの中までにゅるにゅるだから、あっという間に射精できるよ♪")
ChangeSwitch(98,98,0)
ChangeSwitch(96,96,0)
ShowChoices(strings("無視する","誘惑に乗る"),1)
IfPlayerPicksChoice(0,"無視する")
 ShowMessageFace("",0,0,2,3)
 ShowMessage("しかしルカは誘惑を振り切った！")
 RunCommonEvent(1999)
 EndEventProcessing()
 0()
IfPlayerPicksChoice(1,"誘惑に乗る")
 0()
404()
ShowMessageFace("kaeru_fc1",1,0,2,4)
ShowMessage("【カエル娘】")
ShowMessage("それじゃあ、挿れちゃうよ～♪")
ChangeVariable(26,26,3,0,4)
250(bytes(0x04,0x08,0x6f,0x3a,0x0c,0x52,0x50,0x47,0x3a,0x3a,0x53,0x45,0x08,0x3a,0x0a,0x40,0x6e,0x61,0x6d,0x65,0x49,0x22,0x11,0x6d,0x6f,0x6e,0x5f,0x65,0x72,0x6f,0x5f,0x70,0x79,0x75,0x31,0x06,0x3a,0x06,0x45,0x54,0x3a,0x0b,0x40,0x70,0x69,0x74,0x63,0x68,0x69,0x69,0x3a,0x0c,0x40,0x76,0x6f,0x6c,0x75,0x6d,0x65,0x69,0x69))
311(0,1,1,1,26,true)
ShowMessageFace("",0,0,2,5)
ShowMessage("カエル娘はルカに飛びつき、強引に犯してきた！")
ShowMessage("ぬめった膣内に、ペニスがにゅるにゅると沈み込む！\\D")
ShowMessage("ルカは\\V[26]のダメージを受けた！")
ChangeVariable(27,27,0,3,3,1,2)
If(1,27,0,0,0)
 JumpToLabel("射精1")
 0()
EndIf()
ShowMessageFace("kaeru_fc1",1,0,2,6)
ShowMessage("【カエル娘】")
ShowMessage("にゅるにゅるおまんこ、具合はどう？")
ShowMessage("奥までネバネバで、ガマン出来ないよね～？")
250(bytes(0x04,0x08,0x6f,0x3a,0x0c,0x52,0x50,0x47,0x3a,0x3a,0x53,0x45,0x08,0x3a,0x0a,0x40,0x6e,0x61,0x6d,0x65,0x49,0x22,0x11,0x6d,0x6f,0x6e,0x5f,0x65,0x72,0x6f,0x5f,0x70,0x79,0x75,0x32,0x06,0x3a,0x06,0x45,0x54,0x3a,0x0b,0x40,0x70,0x69,0x74,0x63,0x68,0x69,0x69,0x3a,0x0c,0x40,0x76,0x6f,0x6c,0x75,0x6d,0x65,0x69,0x69))
311(0,1,1,1,26,true)
ShowMessageFace("",0,0,2,7)
ShowMessage("カエル娘は腰を上下に動かしてきた！")
ShowMessage("にゅるにゅるの膣内で、ペニスがぐちゅぐちゅ刺激される！\\D")
ShowMessage("ルカは\\V[26]のダメージを受けた！")
ChangeVariable(27,27,0,3,3,1,2)
If(1,27,0,0,0)
 JumpToLabel("射精2")
 0()
EndIf()
ShowMessageFace("kaeru_fc1",1,0,2,8)
ShowMessage("【カエル娘】")
ShowMessage("ほぉら、イっちゃえ！")
ShowMessage("あたしの中に、たっぷり種付けしちゃえ～♪")
250(bytes(0x04,0x08,0x6f,0x3a,0x0c,0x52,0x50,0x47,0x3a,0x3a,0x53,0x45,0x08,0x3a,0x0a,0x40,0x6e,0x61,0x6d,0x65,0x49,0x22,0x11,0x6d,0x6f,0x6e,0x5f,0x65,0x72,0x6f,0x5f,0x70,0x79,0x75,0x32,0x06,0x3a,0x06,0x45,0x54,0x3a,0x0b,0x40,0x70,0x69,0x74,0x63,0x68,0x69,0x69,0x3a,0x0c,0x40,0x76,0x6f,0x6c,0x75,0x6d,0x65,0x69,0x69))
311(0,1,1,1,26,true)
ShowMessageFace("",0,0,2,9)
ShowMessage("カエル娘は腰を振り、激しく責めたててくる！")
ShowMessage("膣内がぎゅうぎゅうと締まり、ぬめった膣壁がペニスに密着した！\\D")
ShowMessage("ルカは\\V[26]のダメージを受けた！")
ChangeVariable(27,27,0,3,3,1,2)
If(1,27,0,0,0)
 JumpToLabel("射精2")
 0()
EndIf()
DefineLabel("射精1")
ShowMessageFace("",0,0,2,10)
ShowMessage("【ルカ】")
ShowMessage("だめ、出ちゃうよぉ……あぁぁぁ……")
RunCommonEvent(104)
RunCommonEvent(105)
ShowMessageFace("",0,0,2,11)
ShowMessage("カエル娘の膣に挿入した瞬間、あっという間にイってしまった。")
ShowMessage("ぬめった肉穴に、ドクドクと精液が注ぎ込まれていく――")
ShowMessageFace("kaeru_fc1",1,0,2,12)
ShowMessage("【カエル娘】")
ShowMessage("あれぇ、瞬殺しちゃった？")
ShowMessage("あたしのおまんこ、具合が良すぎたぁ……？")
RunCommonEvent(2000)
EndEventProcessing()
DefineLabel("射精2")
ShowMessageFace("",0,0,2,13)
ShowMessage("【ルカ】")
ShowMessage("だめ、出ちゃうよぉ……あぁぁぁ……")
RunCommonEvent(104)
RunCommonEvent(105)
ShowMessageFace("",0,0,2,14)
ShowMessage("カエル娘の膣内で、あえなくイってしまった。")
ShowMessage("ぬめった肉穴に、ドクドクと精液が注ぎ込まれていく――")
ShowMessageFace("kaeru_fc1",1,0,2,15)
ShowMessage("【カエル娘】")
ShowMessage("あははっ、早かったね。")
ShowMessage("あたしのおまんこ、具合が良すぎたぁ……？")
RunCommonEvent(2000)
EndEventProcessing()
0()
