﻿// EVENT 4271
Name "ダークエルフ触手1"

If(0,25,1)
 221()
 PictureClear(5)
 PictureClear(6)
 ShowMessageFace("",0,0,2,1)
 ShowMessage("・・・・・・・・")
 242(2)
 Wait(120)
 241(bytes(0x04,0x08,0x6f,0x3a,0x0d,0x52,0x50,0x47,0x3a,0x3a,0x42,0x47,0x4d,0x08,0x3a,0x0a,0x40,0x6e,0x61,0x6d,0x65,0x49,0x22,0x0c,0x63,0x61,0x73,0x74,0x6c,0x65,0x36,0x06,0x3a,0x06,0x45,0x54,0x3a,0x0c,0x40,0x76,0x6f,0x6c,0x75,0x6d,0x65,0x69,0x69,0x3a,0x0b,0x40,0x70,0x69,0x74,0x63,0x68,0x69,0x69))
 EndEventProcessing()
 0()
EndIf()
PictureDisplay(5,"80_delh_b_st02",0,0,0,0,100,100,255,0)
ShowMessageFace("delh_b_fc1",1,0,2,2)
ShowMessage("【マリオン】")
ShowMessage("この触手で快楽を貪りたいの……？")
ShowMessageFace("",0,0,2,3)
ShowMessage("【ルカ】")
ShowMessage("う、うん……お願い……")
ShowMessageFace("delh_b_fc1",1,0,2,4)
ShowMessage("【マリオン】")
ShowMessage("ふふっ、いいわよ……")
ShowMessage("存分に気持ちよくしてあげるわ……")
ShowMessageFace("",0,0,2,5)
ShowMessage("こうして、マリオンの部屋に誘われた――")
221()
PictureDisplay(1,"bg195",0,0,0,0,100,100,255,0)
PictureDisplay(5,"ev_delh_b_h1",0,0,0,0,100,100,255,0)
222()
241(bytes(0x04,0x08,0x6f,0x3a,0x0d,0x52,0x50,0x47,0x3a,0x3a,0x42,0x47,0x4d,0x08,0x3a,0x0a,0x40,0x6e,0x61,0x6d,0x65,0x49,0x22,0x09,0x65,0x72,0x6f,0x31,0x06,0x3a,0x06,0x45,0x54,0x3a,0x0c,0x40,0x76,0x6f,0x6c,0x75,0x6d,0x65,0x69,0x69,0x3a,0x0b,0x40,0x70,0x69,0x74,0x63,0x68,0x69,0x69))
250(bytes(0x04,0x08,0x6f,0x3a,0x0c,0x52,0x50,0x47,0x3a,0x3a,0x53,0x45,0x08,0x3a,0x0a,0x40,0x6e,0x61,0x6d,0x65,0x49,0x22,0x16,0x6d,0x6f,0x6e,0x5f,0x65,0x72,0x6f,0x5f,0x6d,0x61,0x6b,0x69,0x74,0x75,0x6b,0x69,0x32,0x06,0x3a,0x06,0x45,0x54,0x3a,0x0b,0x40,0x70,0x69,0x74,0x63,0x68,0x69,0x69,0x3a,0x0c,0x40,0x76,0x6f,0x6c,0x75,0x6d,0x65,0x69,0x69))
PictureDisplay(5,"ev_delh_b_h1",0,0,0,0,100,100,255,0)
ShowMessageFace("",0,0,2,6)
ShowMessage("【ルカ】")
ShowMessage("うぐぐっ……")
ShowMessageFace("",0,0,2,7)
ShowMessage("部屋に入るなり、マリオンの触手に捕らえられた。")
ShowMessage("衣服も全てはぎ取られ、無防備な状態にされてしまう。")
ShowMessageFace("delh_b_fc1",1,0,2,8)
ShowMessage("【マリオン】")
ShowMessage("では、これから本格的に精を吸わせてもらうわ。")
ShowMessage("喜びなさい、涸れ果てるまで搾り取ってあげるから……")
ShowMessageFace("",0,0,2,9)
ShowMessage("【ルカ】")
ShowMessage("涸れ果てるまでって、そんな……")
ShowMessageFace("delh_b_fc1",1,0,2,10)
ShowMessage("【マリオン】")
ShowMessage("ええ、あなたは死んでしまうわね……")
ShowMessage("それほどの快楽が望みだったのでしょう？")
ShowMessageFace("",0,0,2,11)
ShowMessage("【ルカ】")
ShowMessage("そ、そんな……あぁぁっ！")
ShowMessageFace("",0,0,2,12)
ShowMessage("触手は全身を包み込み、じゅるじゅると貪るように這い回る。")
ShowMessage("にゅるにゅるの粘膜で全身を愛撫され、その独特の感触に身悶えた。")
PictureDisplay(5,"ev_delh_b_h2",0,0,0,0,100,100,255,0)
ShowMessageFace("delh_b_fc1",1,0,2,13)
ShowMessage("【マリオン】")
ShowMessage("ほら……この触手で、あなたのペニスを覆ってあげる。")
ShowMessageFace("delh_b_fc1",1,0,2,14)
ShowMessage("【マリオン】")
ShowMessage("表面がざわざわ蠢いて、ヌメヌメで、")
ShowMessage("吸い付くような感触を与えて……")
ShowMessageFace("delh_b_fc1",1,0,2,15)
ShowMessage("【マリオン】")
ShowMessage("何度も何度も射精させて、漏れ出た精液を")
ShowMessage("全部吸収してしまうのよ。")
ShowMessageFace("delh_b_fc1",1,0,2,16)
ShowMessage("【マリオン】")
ShowMessage("とっても気持ちよさそうでしょ、ふふっ……")
ShowMessage("仲間を吸い殺してしまうなんて、胸が躍るわ……")
ShowMessageFace("",0,0,2,17)
ShowMessage("【ルカ】")
ShowMessage("あ、あぁぁぁ……")
ShowMessage("や、やめてぇ……")
ShowMessageFace("",0,0,2,18)
ShowMessage("触手の内側に、びっしりと並んだ不気味な柔突起。")
ShowMessage("そのひとつひとつがざわざわ蠢き、異様な感触を想起させる。")
ShowMessageFace("",0,0,2,19)
ShowMessage("僕は嫌悪感に震えながら、少しの期待を抱いてしまった。")
ShowMessage("あれで肉棒を包み込まれたら、どれだけ気持ち良いのだろうか――")
ShowMessageFace("",0,0,2,20)
ShowMessage("【ルカ】")
ShowMessage("や、やめてぇ……そんなの……")
ShowMessageFace("delh_b_fc1",1,0,2,21)
ShowMessage("【マリオン】")
ShowMessage("じゃあ、吸ってあげる……")
245(bytes(0x04,0x08,0x6f,0x3a,0x0d,0x52,0x50,0x47,0x3a,0x3a,0x42,0x47,0x53,0x08,0x3a,0x0a,0x40,0x6e,0x61,0x6d,0x65,0x49,0x22,0x1a,0x6d,0x6f,0x6e,0x5f,0x68,0x73,0x65,0x61,0x6e,0x32,0x31,0x5f,0x74,0x65,0x6e,0x74,0x61,0x63,0x6c,0x65,0x32,0x06,0x3a,0x06,0x45,0x54,0x3a,0x0c,0x40,0x76,0x6f,0x6c,0x75,0x6d,0x65,0x69,0x55,0x3a,0x0b,0x40,0x70,0x69,0x74,0x63,0x68,0x69,0x69))
PictureDisplay(5,"ev_delh_b_h3",0,0,0,0,100,100,255,0)
ShowMessageFace("",0,0,2,22)
ShowMessage("その異様な触手は、僕の下腹部を覆い包んできた。")
ShowMessage("にゅるにゅるした内壁に、肉棒がくるみ込まれてしまう。")
ShowMessageFace("",0,0,2,23)
ShowMessage("【ルカ】")
ShowMessage("ひぁぁぁぁぁ……！")
ShowMessageFace("",0,0,2,24)
ShowMessage("内側には柔突起がびっしり備わり、一つ一つがざわざわと波打っていた。")
ShowMessage("その突起が亀頭やカリににゅるにゅると擦れ、体の力が抜けていく。")
ShowMessageFace("delh_b_fc1",1,0,2,25)
ShowMessage("【マリオン】")
ShowMessage("ふふっ、気持ちいいでしょう……")
ShowMessage("そうやって男性器に快楽を与え、精を吸い出すのよ……")
ShowMessageFace("",0,0,2,26)
ShowMessage("【ルカ】")
ShowMessage("あ、あぁぁぁぁぁ……！！")
ShowMessageFace("",0,0,2,27)
ShowMessage("さらに、ヒダがにゅるにゅると肉棒を擦り始めた。")
ShowMessageFace("",0,0,2,28)
ShowMessage("何重にも備わったヒダの一枚一枚が波打ち、ペニスを撫で回す。")
ShowMessage("まるで、何枚もの舌で執拗に舐められているかのようだ――")
ShowMessageFace("",0,0,2,29)
ShowMessage("【ルカ】")
ShowMessage("あぅぅ……だめぇ……こんなのぉ……")
ShowMessageFace("",0,0,2,30)
ShowMessage("独特の感触により、射精感が湧き上がってきた。")
ShowMessage("腰がじんわりと痺れ、白い疼きが広がっていく――")
ShowMessageFace("delh_b_fc1",1,0,2,31)
ShowMessage("【マリオン】")
ShowMessage("ふふっ、漏らしてしまいそうでしょう……？")
ShowMessage("そのための触手なのだから、遠慮することはないわ……")
ShowMessageFace("delh_b_fc1",1,0,2,32)
ShowMessage("【マリオン】")
ShowMessage("快楽に身を委ね、たっぷりと精を撒き散らしなさい……")
ShowMessageFace("",0,0,2,33)
ShowMessage("【ルカ】")
ShowMessage("はぅぅ……あ、あぁぁ……！")
ShowMessageFace("",0,0,2,34)
ShowMessage("これ以上は、もう我慢できそうにない。")
ShowMessage("肉棒全体が柔突起で刺激され、ヒダで嫐られ、イってしまいそうだ――")
ShowMessageFace("delh_b_fc1",1,0,2,35)
ShowMessage("【マリオン】")
ShowMessage("ほぉら、果ててしまいなさい……")
ShowMessageFace("",0,0,2,36)
ShowMessage("【ルカ】")
ShowMessage("あ、あぁぁぁぁぁ――！！")
ShowMessageFace("",0,0,2,37)
ShowMessage("ひときわねちっこくヒダが蠢き、その刺激がとどめとなってしまった――")
RunCommonEvent(104)
PictureDisplay(5,"ev_delh_b_h4",0,0,0,0,100,100,255,0)
RunCommonEvent(105)
ShowMessageFace("",0,0,2,38)
ShowMessage("ドクドクと、触手に包まれたまま射精してしまう。")
ShowMessage("驚くほどたくさんの精液が放たれ、触手の内側に吸われていった。")
ShowMessageFace("",0,0,2,39)
ShowMessage("【ルカ】")
ShowMessage("はぅぅ……あ、もう……やめてぇ……")
ShowMessageFace("delh_b_fc1",1,0,2,40)
ShowMessage("【マリオン】")
ShowMessage("ふふっ、まだまだよ……")
245(bytes(0x04,0x08,0x6f,0x3a,0x0d,0x52,0x50,0x47,0x3a,0x3a,0x42,0x47,0x53,0x08,0x3a,0x0a,0x40,0x6e,0x61,0x6d,0x65,0x49,0x22,0x1a,0x6d,0x6f,0x6e,0x5f,0x68,0x73,0x65,0x61,0x6e,0x32,0x32,0x5f,0x74,0x65,0x6e,0x74,0x61,0x63,0x6c,0x65,0x33,0x06,0x3a,0x06,0x45,0x54,0x3a,0x0c,0x40,0x76,0x6f,0x6c,0x75,0x6d,0x65,0x69,0x55,0x3a,0x0b,0x40,0x70,0x69,0x74,0x63,0x68,0x69,0x69))
ShowMessageFace("",0,0,2,41)
ShowMessage("射精が終わってもなお、ペニスに刺激が与えられる。")
ShowMessage("休む間もないまま、僕は快感に悶えさせられた。")
ShowMessageFace("",0,0,2,42)
ShowMessage("内側のヒダが蠢き、べちゃべちゃとペニス全体がくまなく舐め回される。")
ShowMessage("そして、うにゅうにゅ蠢く柔突起の刺激も続けられたままだ。")
ShowMessageFace("delh_b_fc1",1,0,2,43)
ShowMessage("【マリオン】")
ShowMessage("吸い尽くしてあげると言ったでしょう……？")
ShowMessage("あなたが涸れ果てるまで、吸精をやめないわ……")
ShowMessageFace("delh_b_fc1",1,0,2,44)
ShowMessage("【マリオン】")
ShowMessage("あなたの精子は、この触手に一滴残らず")
ShowMessage("搾り取られてしまうの。")
ShowMessageFace("delh_b_fc1",1,0,2,45)
ShowMessage("【マリオン】")
ShowMessage("嬉しいでしょう、ふふっ……")
ShowMessageFace("",0,0,2,46)
ShowMessage("【ルカ】")
ShowMessage("そ、そんな……いやだ……！")
ShowMessageFace("",0,0,2,47)
ShowMessage("僕は下腹に力を入れ、射精をこらえる。")
ShowMessage("しかし触手はじゅるじゅる蠢き、甘い刺激を僕のモノへと与え続けた。")
ShowMessageFace("",0,0,2,48)
ShowMessage("みるみる射精感が沸き上がり、こらえきれなくなってくる。")
ShowMessage("さっき射精したばかりなのに、もう限界に追いやられていたのだ。")
ShowMessageFace("delh_b_fc1",1,0,2,49)
ShowMessage("【マリオン】")
ShowMessage("耐えることなんてできないわ……")
ShowMessage("私に捕まれば、吸い尽くされるしかないの……")
ShowMessageFace("",0,0,2,50)
ShowMessage("【ルカ】")
ShowMessage("い、いやだぁ……")
ShowMessageFace("",0,0,2,51)
ShowMessage("必死でもがいても、全身を包む触手から逃れることはできない。")
ShowMessage("そうしている内に限界まで追い詰められ、我慢できなくなった――")
ShowMessageFace("",0,0,2,52)
ShowMessage("【ルカ】")
ShowMessage("ふぁぁ……あ、あぁぁぁぁぁ……！！")
RunCommonEvent(104)
RunCommonEvent(105)
ShowMessageFace("",0,0,2,53)
ShowMessage("再び射精させられ、触手に精液を吸い取られてしまう。")
ShowMessage("あまりの心地よさに、僕は脱力してしまった。")
ShowMessageFace("",0,0,2,54)
ShowMessage("触手なんかに搾り取られるのが、こんなに気持ちいいなんて――")
ShowMessageFace("",0,0,2,55)
ShowMessage("【ルカ】")
ShowMessage("ふぁぁぁ……力が抜けちゃう……")
ShowMessageFace("delh_b_fc1",1,0,2,56)
ShowMessage("【マリオン】")
ShowMessage("くすっ……そのまま、恍惚に浸っていなさい。")
ShowMessage("そうすれば、極上の快楽を味わうことができるわ……")
ShowMessageFace("",0,0,2,57)
ShowMessage("触手は僕のモノを包み込んだまま、じゅるじゅると貪り続ける。")
ShowMessage("容赦なく、ねちっこく、ねっとりと――")
ShowMessageFace("",0,0,2,58)
ShowMessage("その甘い刺激に、たちまち僕は限界を迎えていた。")
ShowMessageFace("",0,0,2,59)
ShowMessage("【ルカ】")
ShowMessage("あぁっ、また出ちゃうぅぅ……")
RunCommonEvent(104)
PictureDisplay(5,"ev_delh_b_h5",0,0,0,0,100,100,255,0)
RunCommonEvent(105)
ShowMessageFace("",0,0,2,60)
ShowMessage("またも大量の精液が迸り、触手に吸い取られていく。")
ShowMessage("しかも、一回一回の射精の間隔が明らかに短くなってきていた。")
ShowMessageFace("",0,0,2,61)
ShowMessage("ペニスばかりか、全身にも触手が群がってくる。")
ShowMessage("じゅるじゅるの柔突起で体の隅々まで弄び、いたぶり尽くされる――")
ShowMessageFace("",0,0,2,62)
ShowMessage("【ルカ】")
ShowMessage("あひっ……！　や、やめてぇ……")
ShowMessage("気持ちいいよぉ……あぅぅぅぅぅ……！")
ShowMessageFace("delh_b_fc1",1,0,2,63)
ShowMessage("【マリオン】")
ShowMessage("そうやって、精を根こそぎ吸い取られてしまうのよ。")
ShowMessage("ほぉら、もっともっと出しなさい……")
ShowMessageFace("",0,0,2,64)
ShowMessage("【ルカ】")
ShowMessage("ひあっ……！！　あぁぁぁぁぁぁ……！！")
ShowMessageFace("",0,0,2,65)
ShowMessage("ペニスを包む触手の内側が蠢き、男のモノに甘い刺激を与え――")
RunCommonEvent(104)
RunCommonEvent(105)
ShowMessageFace("",0,0,2,66)
ShowMessage("そして、強制的に射精させられてしまう。")
ShowMessageFace("",0,0,2,67)
ShowMessage("【ルカ】")
ShowMessage("あぅぅぅぅ……い、いやだ……もう……")
ShowMessageFace("",0,0,2,68)
ShowMessage("何度も射精を強制され、僕はすっかり虫の息だった。")
ShowMessage("それでもなお、触手は肉棒に強制的な快楽刺激を与えてくる。")
ShowMessageFace("",0,0,2,69)
ShowMessage("このままでは、本当に涸れ果てるまで搾り取られてしまう――")
ShowMessageFace("",0,0,2,70)
ShowMessage("【ルカ】")
ShowMessage("た、たすけて……もう、やめて……")
ShowMessageFace("delh_b_fc1",1,0,2,71)
ShowMessage("【マリオン】")
ShowMessage("だめよ……")
ShowMessage("吸い尽くすまでは、やめないわ……")
ShowMessageFace("delh_b_fc1",1,0,2,72)
ShowMessage("【マリオン】")
ShowMessage("カラカラに干からびるまで、搾ってあげる……")
ShowMessageFace("",0,0,2,73)
ShowMessage("【ルカ】")
ShowMessage("もう、無理……あぁぁぁぁぁ……！")
RunCommonEvent(104)
RunCommonEvent(105)
ShowMessageFace("",0,0,2,74)
ShowMessage("度重なる連続射精に、とうとう意識が薄れてきた。")
ShowMessage("それでもなお、触手での快楽刺激は容赦なく続く。")
ShowMessageFace("delh_b_fc1",1,0,2,75)
ShowMessage("【マリオン】")
ShowMessage("ほぉら、まだ出るでしょう……？")
ShowMessage("全部出しなさい……ほらほらほら……")
ShowMessageFace("",0,0,2,76)
ShowMessage("【ルカ】")
ShowMessage("あ、あ、あぁぁ……")
RunCommonEvent(104)
RunCommonEvent(105)
ShowMessageFace("",0,0,2,77)
ShowMessage("まるで、肉棒から生命そのものが搾り取られていくかのようだ。")
ShowMessage("何度も何度も射精するにしたがって、意識が遠くなっていく。")
ShowMessageFace("",0,0,2,78)
ShowMessage("そして――")
221()
PictureClear(5)
246(2)
ShowMessageFace("delh_b_fc1",1,0,2,79)
ShowMessage("【マリオン】")
ShowMessage("ふふっ、吸い尽くしてしまったわ……")
ShowMessageFace("",0,0,2,80)
ShowMessage("最後の一搾りを吸引されてしまったのと同時に、僕の意識は闇に落ちる。")
ShowMessage("強制連続絶頂の挙げ句に、生命が全て搾り尽くされてしまったのだ――")
ShowMessageFace("delh_b_fc1",1,0,2,81)
ShowMessage("【マリオン】")
ShowMessage("搾り殺すのが勿体ないくらい、美味しい精だったわよ。")
ShowMessage("ふふふっ、ごちそうさま……")
ShowMessageFace("",0,0,2,82)
ShowMessage("・・・・・・・・")
242(2)
Wait(120)
ChangeVariable(1002,1002,0,0,0)
216(1)
355("forced_transfer(154,18,52)")
355("release_temp_actors")
355("$game_map.screen.clear")
0()
