﻿// EVENT 2306
Name "誘惑：ジャイガンテック娘"

355("$game_troop.lose_event_id = 3306")
ChangeVariable(26,26,0,3,3,1,4)
ChangeVariable(26,26,4,0,10)
ShowMessageFace("gigantic_fc1",0,0,2,1)
ShowMessage("【ジャイガンテック娘】")
ShowMessage("お前、ちっちゃいのに強いなー！")
ShowMessage("ハグしてやるぞー！")
355("battler_graphic_hide")
PictureDisplay(5,"ev_gigantic_ha1",0,0,0,0,100,100,255,0)
ShowMessageFace("",0,0,2,2)
ShowMessage("ジャイガンテック娘は、巨大な乳房でルカの体を挟み込んできた！")
ShowMessageFace("gigantic_fc1",1,0,2,3)
ShowMessage("【ジャイガンテック娘】")
ShowMessage("このまま、むにゅむにゅしてやるからな。")
ShowMessage("暴れるなよー！")
ChangeSwitch(98,98,0)
ChangeSwitch(96,96,0)
ShowChoices(strings("もがく","なすがまま"),1)
IfPlayerPicksChoice(0,null)
 ShowMessageFace("",0,0,2,4)
 ShowMessage("ルカは激しくもがき、ジャイガンテック娘の拘束から逃れた！")
 RunCommonEvent(1999)
 EndEventProcessing()
 0()
IfPlayerPicksChoice(1,null)
 0()
404()
ShowMessageFace("gigantic_fc1",1,0,2,5)
ShowMessage("【ジャイガンテック娘】")
ShowMessage("じゃあ、いくぞー！")
ChangeVariable(26,26,3,0,4)
250(bytes(0x04,0x08,0x6f,0x3a,0x0c,0x52,0x50,0x47,0x3a,0x3a,0x53,0x45,0x08,0x3a,0x0a,0x40,0x6e,0x61,0x6d,0x65,0x49,0x22,0x12,0x6d,0x6f,0x6e,0x5f,0x65,0x72,0x6f,0x5f,0x6b,0x6f,0x6b,0x69,0x31,0x06,0x3a,0x06,0x45,0x54,0x3a,0x0b,0x40,0x70,0x69,0x74,0x63,0x68,0x69,0x69,0x3a,0x0c,0x40,0x76,0x6f,0x6c,0x75,0x6d,0x65,0x69,0x69))
PictureDisplay(5,"ev_gigantic_ha2",0,0,0,0,100,100,255,0)
311(0,1,1,1,26,true)
ShowMessageFace("",0,0,2,6)
ShowMessage("ジャイガンテック娘は、乳房をむにゅむにゅと動かした！")
ShowMessage("ルカの全身が、柔らかな乳肉に揉みしだかれる！\\D")
ShowMessage("ルカは\\V[26]のダメージを受けた！")
ChangeVariable(27,27,0,3,3,1,2)
If(1,27,0,0,0)
 JumpToLabel("射精1")
 0()
EndIf()
ShowMessageFace("gigantic_fc1",1,0,2,7)
ShowMessage("【ジャイガンテック娘】")
ShowMessage("あははっ、ちんちん大きくなってるぞー！")
250(bytes(0x04,0x08,0x6f,0x3a,0x0c,0x52,0x50,0x47,0x3a,0x3a,0x53,0x45,0x08,0x3a,0x0a,0x40,0x6e,0x61,0x6d,0x65,0x49,0x22,0x12,0x6d,0x6f,0x6e,0x5f,0x65,0x72,0x6f,0x5f,0x6b,0x6f,0x6b,0x69,0x31,0x06,0x3a,0x06,0x45,0x54,0x3a,0x0b,0x40,0x70,0x69,0x74,0x63,0x68,0x69,0x69,0x3a,0x0c,0x40,0x76,0x6f,0x6c,0x75,0x6d,0x65,0x69,0x69))
311(0,1,1,1,26,true)
ShowMessageFace("",0,0,2,8)
ShowMessage("ジャイガンテック娘は、乳房をじっくり動かし続ける！")
ShowMessage("柔らかな乳肉がペニスを圧迫し、むにむに揉み潰してきた！\\D")
ShowMessage("ルカは\\V[26]のダメージを受けた！")
ChangeVariable(27,27,0,3,3,1,2)
If(1,27,0,0,0)
 JumpToLabel("射精1")
 0()
EndIf()
ShowMessageFace("gigantic_fc1",1,0,2,9)
ShowMessage("【ジャイガンテック娘】")
ShowMessage("イっちゃえ～！　イっちゃえ～！")
250(bytes(0x04,0x08,0x6f,0x3a,0x0c,0x52,0x50,0x47,0x3a,0x3a,0x53,0x45,0x08,0x3a,0x0a,0x40,0x6e,0x61,0x6d,0x65,0x49,0x22,0x12,0x6d,0x6f,0x6e,0x5f,0x65,0x72,0x6f,0x5f,0x6b,0x6f,0x6b,0x69,0x31,0x06,0x3a,0x06,0x45,0x54,0x3a,0x0b,0x40,0x70,0x69,0x74,0x63,0x68,0x69,0x69,0x3a,0x0c,0x40,0x76,0x6f,0x6c,0x75,0x6d,0x65,0x69,0x69))
311(0,1,1,1,26,true)
ShowMessageFace("",0,0,2,10)
ShowMessage("ジャイガンテック娘は、ルカの体を巨大な乳房で揉み潰す！")
ShowMessage("柔肉が圧迫刺激し、ペニスにきつい快楽を与えた！\\D")
ShowMessage("ルカは\\V[26]のダメージを受けた！")
ChangeVariable(27,27,0,3,3,1,2)
If(1,27,0,0,0)
 JumpToLabel("射精1")
 0()
EndIf()
DefineLabel("射精1")
ShowMessageFace("",0,0,2,11)
ShowMessage("【ルカ】")
ShowMessage("だめ、出ちゃうよぉ……あぁぁぁ……")
RunCommonEvent(104)
PictureDisplay(5,"ev_gigantic_ha3",0,0,0,0,100,100,255,0)
RunCommonEvent(105)
ShowMessageFace("",0,0,2,12)
ShowMessage("ジャイガンテックの乳房に挟まれ、弄ばれながらイってしまった。")
ShowMessage("巨大な胸の谷間に、ドクドクと精液を撒き散らしてしまう――")
ShowMessageFace("gigantic_fc1",1,0,2,13)
ShowMessage("【ジャイガンテック娘】")
ShowMessage("ははっ、イったな～！")
ShowMessage("白いのが、ドクドク出てるぞ～！")
RunCommonEvent(2000)
EndEventProcessing()
0()
