﻿// EVENT 1366
Name "会話：ヘリエル"

If(1,20,0,1,0)
 JumpToLabel("情報")
 0()
EndIf()
If(1,20,0,2,0)
 JumpToLabel("質問")
 0()
EndIf()
If(1,20,0,3,0)
 JumpToLabel("要求")
 0()
EndIf()
If(1,20,0,4,0)
 JumpToLabel("贈与")
 0()
EndIf()
DefineLabel("情報")
ChangeVariable(13,13,0,2,1,100)
If(1,13,0,10,2)
 ShowMessageFace("heriel_fc1",0,0,2,1)
 ShowMessage("【ヘリエル】")
 ShowMessage("第一種断界接触……")
 ShowMessage("排除するよ……")
 EndEventProcessing()
 0()
EndIf()
If(1,13,0,20,2)
 ShowMessageFace("heriel_fc1",0,0,2,2)
 ShowMessage("【ヘリエル】")
 ShowMessage("あたしの髪、どこまでも伸びるよ……")
 EndEventProcessing()
 0()
EndIf()
If(1,13,0,30,2)
 ShowMessageFace("heriel_fc1",0,0,2,3)
 ShowMessage("【ヘリエル】")
 ShowMessage("ここでずっと……生きていくの……")
 EndEventProcessing()
 0()
EndIf()
If(1,13,0,40,2)
 ShowMessageFace("heriel_fc1",0,0,2,4)
 ShowMessage("【ヘリエル】")
 ShowMessage("お兄ちゃんの精気……")
 ShowMessage("髪で、じゅるじゅる吸ってあげる……")
 EndEventProcessing()
 0()
EndIf()
If(1,13,0,50,2)
 ShowMessageFace("heriel_fc1",2,0,2,5)
 ShowMessage("【ヘリエル】")
 ShowMessage("侵入者は、排除しなくちゃいけないの……")
 EndEventProcessing()
 0()
EndIf()
If(1,13,0,60,2)
 ShowMessageFace("heriel_fc1",2,0,2,6)
 ShowMessage("【ヘリエル】")
 ShowMessage("あたし、天使だったよね……")
 ShowMessage("今はもう、違うの……")
 EndEventProcessing()
 0()
EndIf()
If(1,13,0,70,2)
 ShowMessageFace("heriel_fc1",2,0,2,7)
 ShowMessage("【ヘリエル】")
 ShowMessage("天使のみんなと、遊びたいよぉ……")
 EndEventProcessing()
 0()
EndIf()
If(1,13,0,80,2)
 ShowMessageFace("heriel_fc1",2,0,2,8)
 ShowMessage("【ヘリエル】")
 ShowMessage("第一種断界接触……")
 ShowMessage("この世界にも、始まっちゃったね……")
 EndEventProcessing()
 0()
EndIf()
If(1,13,0,90,2)
 ShowMessageFace("heriel_fc1",2,0,2,9)
 ShowMessage("【ヘリエル】")
 ShowMessage("ここはもう、時空の断片……")
 ShowMessage("だから、消えてね……")
 EndEventProcessing()
 0()
EndIf()
If(1,13,0,100,2)
 ShowMessageFace("heriel_fc1",0,0,2,10)
 ShowMessage("【ヘリエル】")
 ShowMessage("排除するよ……")
 ShowMessage("排除……排除……")
 EndEventProcessing()
 0()
EndIf()
DefineLabel("質問")
ChangeVariable(13,13,0,2,1,50)
If(1,13,0,10,2)
 ShowMessageFace("heriel_fc1",2,0,2,11)
 ShowMessage("【ヘリエル】")
 ShowMessage("あたしって……何？")
 ShowChoices(strings("天使","アポトーシス","髪"),0)
 IfPlayerPicksChoice(0,"天使")
  ShowMessageFace("heriel_fc1",2,0,2,12)
  ShowMessage("【ヘリエル】")
  ShowMessage("あたしって、天使なのかな……")
  ShowMessage("もう、たぶん天使じゃないよね……")
  0()
 IfPlayerPicksChoice(1,"アポトーシス")
  ShowMessageFace("heriel_fc1",2,0,2,13)
  ShowMessage("【ヘリエル】")
  ShowMessage("イヤだよ……そんなの、イヤだよ……")
  355("change_friend(-5)")
  0()
 IfPlayerPicksChoice(2,"髪")
  ShowMessageFace("heriel_fc1",0,0,2,14)
  ShowMessage("【ヘリエル】")
  ShowMessage("髪があたしで、あたしが髪……")
  ShowMessage("そうだね……")
  355("change_friend(10)")
  0()
 404()
 EndEventProcessing()
 0()
EndIf()
If(1,13,0,20,2)
 ShowMessageFace("heriel_fc1",2,0,2,15)
 ShowMessage("【ヘリエル】")
 ShowMessage("あたし、なんでこんな体になっちゃったのかなぁ……？")
 ShowChoices(strings("混沌の侵蝕のせい","病気のようなもの","悪い子だったから"),0)
 IfPlayerPicksChoice(0,"混沌の侵蝕のせい")
  ShowMessageFace("heriel_fc1",2,0,2,16)
  ShowMessage("【ヘリエル】")
  ShowMessage("そうなんだ……")
  ShowMessage("教えてくれて、ありがとうね……")
  355("change_friend(10)")
  0()
 IfPlayerPicksChoice(1,"病気のようなもの")
  ShowMessageFace("heriel_fc1",2,0,2,17)
  ShowMessage("【ヘリエル】")
  ShowMessage("治らないの……？")
  ShowMessage("ねぇ、もう治らないの……？")
  0()
 IfPlayerPicksChoice(2,"悪い子だったから")
  ShowMessageFace("heriel_fc1",2,0,2,18)
  ShowMessage("【ヘリエル】")
  ShowMessage("じゃあ、もっと悪い事するよ……")
  ShowMessage("みんな、滅びちゃえ……")
  355("change_friend(-5)")
  0()
 404()
 EndEventProcessing()
 0()
EndIf()
If(1,13,0,30,2)
 ShowMessageFace("heriel_fc1",0,0,2,19)
 ShowMessage("【ヘリエル】")
 ShowMessage("イリアス様は、どこで何をしてるの……？")
 ShowChoices(strings("旅をしている","遊んでいる","苦しんでいる"),0)
 IfPlayerPicksChoice(0,"旅をしている")
  ShowMessageFace("heriel_fc1",0,0,2,20)
  ShowMessage("【ヘリエル】")
  ShowMessage("旅……楽しいのかな……？")
  355("change_friend(10)")
  0()
 IfPlayerPicksChoice(1,"遊んでいる")
  ShowMessageFace("heriel_fc1",0,0,2,21)
  ShowMessage("【ヘリエル】")
  ShowMessage("あたしも、遊びたいな……")
  355("change_friend(10)")
  0()
 IfPlayerPicksChoice(2,"苦しんでいる")
  ShowMessageFace("heriel_fc1",2,0,2,22)
  ShowMessage("【ヘリエル】")
  ShowMessage("かわいそう……")
  355("change_friend(-5)")
  0()
 404()
 EndEventProcessing()
 0()
EndIf()
If(1,13,0,40,2)
 ShowMessageFace("heriel_fc1",0,0,2,23)
 ShowMessage("【ヘリエル】")
 ShowMessage("この世界は……どうなるか知ってる？")
 ShowChoices(strings("幸せになる","滅ぶ","僕のものになる"),0)
 IfPlayerPicksChoice(0,"幸せになる")
  ShowMessageFace("heriel_fc1",2,0,2,24)
  ShowMessage("【ヘリエル】")
  ShowMessage("そうだったら、いいんだけどね……")
  0()
 IfPlayerPicksChoice(1,"滅ぶ")
  ShowMessageFace("heriel_fc1",0,0,2,25)
  ShowMessage("【ヘリエル】")
  ShowMessage("そうだよ……")
  ShowMessage("混沌の侵蝕が、世界中に広がるの……")
  355("change_friend(10)")
  0()
 IfPlayerPicksChoice(2,"僕のものになる")
  ShowMessageFace("heriel_fc1",2,0,2,26)
  ShowMessage("【ヘリエル】")
  ShowMessage("ならないよ……")
  ShowMessage("世界と一緒に、消えちゃうよ……")
  0()
 404()
 EndEventProcessing()
 0()
EndIf()
If(1,13,0,50,2)
 ShowMessageFace("heriel_fc1",0,0,2,27)
 ShowMessage("【ヘリエル】")
 ShowMessage("お兄ちゃん達、どうしてここに来たの……？")
 ShowChoices(strings("謎を知るため","魔物を退治しに","ジョギングに"),0)
 IfPlayerPicksChoice(0,"謎を知るため")
  ShowMessageFace("heriel_fc1",0,0,2,28)
  ShowMessage("【ヘリエル】")
  ShowMessage("もうすぐ、ここも消えるよ……")
  ShowMessage("お兄ちゃん達も一緒にね……")
  0()
 IfPlayerPicksChoice(1,"魔物を退治しに")
  ShowMessageFace("heriel_fc1",0,0,2,29)
  ShowMessage("【ヘリエル】")
  ShowMessage("魔物退治は、良いこと……")
  ShowMessage("私も天使だったから、分かるよ……")
  355("change_friend(10)")
  0()
 IfPlayerPicksChoice(2,"ジョギングに")
  ShowMessageFace("heriel_fc1",0,0,2,30)
  ShowMessage("【ヘリエル】")
  ShowMessage("ここに来たら、死んじゃうよ……")
  0()
 404()
 EndEventProcessing()
 0()
EndIf()
DefineLabel("要求")
ChangeVariable(13,13,0,2,1,30)
If(1,13,0,10,2)
 If(8,446)
  ShowMessageFace("heriel_fc1",0,0,2,31)
  ShowMessage("【ヘリエル】")
  ShowMessage("どんぐり、ちょうだい……")
  ChangeVariable(24,24,0,3,0,301,0)
  ShowMessageFace("",0,0,2,32)
  ShowMessage("「どんぐり」をあげますか？（所持数：\\V[24]）")
  ShowChoices(strings("はい","いいえ"),2)
  IfPlayerPicksChoice(0,"はい")
   ShowMessageFace("heriel_fc1",1,0,2,33)
   ShowMessage("【ヘリエル】")
   ShowMessage("ありがとう……")
   ChangeInventory_Item(446,1,0,1)
   355("change_friend(20)")
   EndEventProcessing()
   0()
  IfPlayerPicksChoice(1,"いいえ")
   ShowMessageFace("heriel_fc1",2,0,2,34)
   ShowMessage("【ヘリエル】")
   ShowMessage("……くれないの？")
   EndEventProcessing()
   0()
  404()
  0()
 Else()
  ChangeVariable(13,13,0,0,20)
  0()
 EndIf()
 0()
EndIf()
If(1,13,0,20,2)
 If(8,342)
  ShowMessageFace("heriel_fc1",0,0,2,35)
  ShowMessage("【ヘリエル】")
  ShowMessage("ミルク、ちょうだい……")
  ChangeVariable(24,24,0,3,0,342,0)
  ShowMessageFace("",0,0,2,36)
  ShowMessage("「ミルク」をあげますか？（所持数：\\V[24]）")
  ShowChoices(strings("はい","いいえ"),2)
  IfPlayerPicksChoice(0,"はい")
   ShowMessageFace("heriel_fc1",1,0,2,37)
   ShowMessage("【ヘリエル】")
   ShowMessage("ありがとう……")
   ChangeInventory_Item(342,1,0,1)
   355("change_friend(30)")
   EndEventProcessing()
   0()
  IfPlayerPicksChoice(1,"いいえ")
   ShowMessageFace("heriel_fc1",2,0,2,38)
   ShowMessage("【ヘリエル】")
   ShowMessage("……くれないの？")
   EndEventProcessing()
   0()
  404()
  0()
 Else()
  ChangeVariable(13,13,0,0,30)
  0()
 EndIf()
 0()
EndIf()
If(1,13,0,30,2)
 ShowMessageFace("heriel_fc1",0,0,2,39)
 ShowMessage("【ヘリエル】")
 ShowMessage("お金、ちょうだい……")
 If(7,3900,0)
  ChangeVariable(24,24,0,3,7,2,0)
  ShowMessageFace("",0,0,2,40)
  ShowMessage("3900Gをあげますか？（所持金：\\V[24]）")
  ShowChoices(strings("はい","いいえ"),2)
  IfPlayerPicksChoice(0,"はい")
   ShowMessageFace("heriel_fc1",1,0,2,41)
   ShowMessage("【ヘリエル】")
   ShowMessage("ありがとう……")
   125(1,0,3900)
   355("change_friend(25)")
   EndEventProcessing()
   0()
  IfPlayerPicksChoice(1,"いいえ")
   ShowMessageFace("heriel_fc1",2,0,2,42)
   ShowMessage("【ヘリエル】")
   ShowMessage("……くれないの？")
   EndEventProcessing()
   0()
  404()
  0()
 Else()
  ShowMessageFace("heriel_fc1",2,0,2,43)
  ShowMessage("【ヘリエル】")
  ShowMessage("……持ってないみたいだね。")
  EndEventProcessing()
  0()
 EndIf()
 0()
EndIf()
DefineLabel("贈与")
ChangeVariable(13,13,0,2,1,30)
If(1,25,0,1,0)
 ChangeVariable(13,13,0,0,30)
 ChangeVariable(25,25,0,0,0)
 0()
EndIf()
If(1,25,0,2,0)
 ChangeVariable(13,13,0,2,1,20)
 ChangeVariable(25,25,0,0,0)
 0()
EndIf()
If(1,13,0,10,2)
 ShowMessageFace("heriel_fc1",0,0,2,44)
 ShowMessage("【ヘリエル】")
 ShowMessage("あたしの羽根、あげる……")
 250(bytes(0x04,0x08,0x6f,0x3a,0x0c,0x52,0x50,0x47,0x3a,0x3a,0x53,0x45,0x08,0x3a,0x0a,0x40,0x6e,0x61,0x6d,0x65,0x49,0x22,0x0a,0x49,0x74,0x65,0x6d,0x31,0x06,0x3a,0x06,0x45,0x54,0x3a,0x0b,0x40,0x70,0x69,0x74,0x63,0x68,0x69,0x69,0x3a,0x0c,0x40,0x76,0x6f,0x6c,0x75,0x6d,0x65,0x69,0x55))
 ChangeInventory_Item(241,0,0,1)
 ShowMessageFace("",0,0,2,45)
 ShowMessage("ヘリエルから「天使の羽根」をもらった！")
 EndEventProcessing()
 0()
EndIf()
If(1,13,0,20,2)
 ShowMessageFace("heriel_fc1",0,0,2,46)
 ShowMessage("【ヘリエル】")
 ShowMessage("魔法の薬、あげる……")
 250(bytes(0x04,0x08,0x6f,0x3a,0x0c,0x52,0x50,0x47,0x3a,0x3a,0x53,0x45,0x08,0x3a,0x0a,0x40,0x6e,0x61,0x6d,0x65,0x49,0x22,0x0a,0x49,0x74,0x65,0x6d,0x31,0x06,0x3a,0x06,0x45,0x54,0x3a,0x0b,0x40,0x70,0x69,0x74,0x63,0x68,0x69,0x69,0x3a,0x0c,0x40,0x76,0x6f,0x6c,0x75,0x6d,0x65,0x69,0x55))
 ChangeInventory_Item(4,0,0,1)
 ShowMessageFace("",0,0,2,47)
 ShowMessage("ヘリエルから「霊薬」をもらった！")
 EndEventProcessing()
 0()
EndIf()
If(1,13,0,30,2)
 ShowMessageFace("heriel_fc1",0,0,2,48)
 ShowMessage("【ヘリエル】")
 ShowMessage("お金、あげる……")
 250(bytes(0x04,0x08,0x6f,0x3a,0x0c,0x52,0x50,0x47,0x3a,0x3a,0x53,0x45,0x08,0x3a,0x0a,0x40,0x6e,0x61,0x6d,0x65,0x49,0x22,0x0a,0x49,0x74,0x65,0x6d,0x31,0x06,0x3a,0x06,0x45,0x54,0x3a,0x0b,0x40,0x70,0x69,0x74,0x63,0x68,0x69,0x69,0x3a,0x0c,0x40,0x76,0x6f,0x6c,0x75,0x6d,0x65,0x69,0x55))
 125(0,0,6500)
 ShowMessageFace("",0,0,2,49)
 ShowMessage("ヘリエルから6500Gをもらった！")
 EndEventProcessing()
 0()
EndIf()
0()
