﻿// EVENT 2029
Name "誘惑：ハイスラッグ娘"

If(0,25,1)
 EndEventProcessing()
 0()
EndIf()
355("$game_troop.lose_event_id = 3029")
ChangeVariable(26,26,0,3,3,1,4)
ChangeVariable(26,26,4,0,10)
ShowMessageFace("highslag_fc1",0,0,2,1)
ShowMessage("【ハイスラッグ娘】")
ShowMessage("分が悪いみたいね……仕方ないわ。")
ShowMessage("ねぇ、私と交尾してみない？")
ShowMessageFace("",0,0,2,2)
ShowMessage("ハイスラッグ娘は、下半身のナメクジ部分に備わった肉孔を")
ShowMessage("見せ付けた！")
ShowMessageFace("highslag_fc1",0,0,2,3)
ShowMessage("【ハイスラッグ娘】")
ShowMessage("このヌルヌルの生殖孔……とっても気持ちいいわよ。")
ShowMessage("ここであなたの子種をたっぷり受け入れてあげるわ……")
ChangeSwitch(98,98,0)
ChangeSwitch(96,96,0)
ShowChoices(strings("無視する","誘惑に乗る"),1)
IfPlayerPicksChoice(0,"無視する")
 ShowMessageFace("",0,0,2,4)
 ShowMessage("しかしルカは誘惑を振り切った！")
 RunCommonEvent(1999)
 EndEventProcessing()
 0()
IfPlayerPicksChoice(1,"誘惑に乗る")
 0()
404()
ShowMessageFace("highslag_fc1",0,0,2,5)
ShowMessage("【ハイスラッグ娘】")
ShowMessage("さあ、いらっしゃい……")
ShowMessage("ヌメヌメに溺れ、極上の快楽に溺れるのよ……")
355("battler_graphic_hide")
PictureDisplay(5,"ev_highslag_hc01",0,0,0,0,100,100,255,0)
ShowMessageFace("",0,0,2,6)
ShowMessage("ルカは誘われるまま、ハイスラッグ娘の下半身に身を委ねた！")
PictureDisplay(5,"ev_highslag_hc02",0,0,0,0,100,100,255,0)
ShowMessageFace("highslag_fc1",0,0,2,7)
ShowMessage("【ハイスラッグ娘】")
ShowMessage("ふふっ、いい子ね……")
ShowMessage("それじゃあ、この生殖孔の心地を味わいなさい……")
ChangeVariable(26,26,3,0,3)
250(bytes(0x04,0x08,0x6f,0x3a,0x0c,0x52,0x50,0x47,0x3a,0x3a,0x53,0x45,0x08,0x3a,0x0a,0x40,0x6e,0x61,0x6d,0x65,0x49,0x22,0x11,0x6d,0x6f,0x6e,0x5f,0x65,0x72,0x6f,0x5f,0x70,0x79,0x75,0x32,0x06,0x3a,0x06,0x45,0x54,0x3a,0x0b,0x40,0x70,0x69,0x74,0x63,0x68,0x69,0x69,0x3a,0x0c,0x40,0x76,0x6f,0x6c,0x75,0x6d,0x65,0x69,0x69))
PictureDisplay(5,"ev_highslag_hc03",0,0,0,0,100,100,255,0)
311(0,1,1,1,26,true)
ShowMessageFace("",0,0,2,8)
ShowMessage("ルカのペニスが、ぬめった生殖孔に沈み込んだ！")
ShowMessage("にゅるにゅるの感触が肉棒を包み込む！\\D")
ShowMessage("ルカは\\V[26]のダメージを受けた！")
ChangeVariable(27,27,0,3,3,1,2)
If(1,27,0,0,0)
 JumpToLabel("射精1")
 0()
EndIf()
ShowMessageFace("",0,0,2,9)
ShowMessage("【ルカ】")
ShowMessage("あ……あぁぁっ……！")
ShowMessageFace("highslag_fc1",0,0,2,10)
ShowMessage("【ハイスラッグ娘】")
ShowMessage("うふふっ、すごいでしょう……")
ShowMessage("この孔が味わえて良かったわね……")
250(bytes(0x04,0x08,0x6f,0x3a,0x0c,0x52,0x50,0x47,0x3a,0x3a,0x53,0x45,0x08,0x3a,0x0a,0x40,0x6e,0x61,0x6d,0x65,0x49,0x22,0x12,0x6d,0x6f,0x6e,0x5f,0x65,0x72,0x6f,0x5f,0x6e,0x61,0x6d,0x65,0x31,0x06,0x3a,0x06,0x45,0x54,0x3a,0x0b,0x40,0x70,0x69,0x74,0x63,0x68,0x69,0x69,0x3a,0x0c,0x40,0x76,0x6f,0x6c,0x75,0x6d,0x65,0x69,0x69))
311(0,1,1,1,26,true)
ShowMessageFace("",0,0,2,11)
ShowMessage("生殖孔の中は粘液にまみれ、ヌルヌルの感触を与えた！")
ShowMessage("糸引く粘液が肉棒に絡み、ねっとりまとわりついてくる！\\D")
ShowMessage("ルカは\\V[26]のダメージを受けた！")
ChangeVariable(27,27,0,3,3,1,2)
If(1,27,0,0,0)
 JumpToLabel("射精2")
 0()
EndIf()
ShowMessageFace("highslag_fc1",0,0,2,12)
ShowMessage("【ハイスラッグ娘】")
ShowMessage("中を動かしてあげるわ……")
ShowMessage("ほぉら、もう我慢できないわよねぇ……")
250(bytes(0x04,0x08,0x6f,0x3a,0x0c,0x52,0x50,0x47,0x3a,0x3a,0x53,0x45,0x08,0x3a,0x0a,0x40,0x6e,0x61,0x6d,0x65,0x49,0x22,0x12,0x6d,0x6f,0x6e,0x5f,0x65,0x72,0x6f,0x5f,0x6e,0x61,0x6d,0x65,0x31,0x06,0x3a,0x06,0x45,0x54,0x3a,0x0b,0x40,0x70,0x69,0x74,0x63,0x68,0x69,0x69,0x3a,0x0c,0x40,0x76,0x6f,0x6c,0x75,0x6d,0x65,0x69,0x69))
311(0,1,1,1,26,true)
ShowMessageFace("",0,0,2,13)
ShowMessage("肉壁がぐちゅぐちゅとうねり、ペニスに甘い刺激をもらたす！\\D")
ShowMessage("ルカは\\V[26]のダメージを受けた！")
ChangeVariable(27,27,0,3,3,1,2)
If(1,27,0,0,0)
 JumpToLabel("射精2")
 0()
EndIf()
ShowMessageFace("highslag_fc1",0,0,2,14)
ShowMessage("【ハイスラッグ娘】")
ShowMessage("もう漏らしそうなんでしょう？")
ShowMessage("ほら、諦めてイっちゃいなさい……")
250(bytes(0x04,0x08,0x6f,0x3a,0x0c,0x52,0x50,0x47,0x3a,0x3a,0x53,0x45,0x08,0x3a,0x0a,0x40,0x6e,0x61,0x6d,0x65,0x49,0x22,0x12,0x6d,0x6f,0x6e,0x5f,0x65,0x72,0x6f,0x5f,0x6e,0x61,0x6d,0x65,0x31,0x06,0x3a,0x06,0x45,0x54,0x3a,0x0b,0x40,0x70,0x69,0x74,0x63,0x68,0x69,0x69,0x3a,0x0c,0x40,0x76,0x6f,0x6c,0x75,0x6d,0x65,0x69,0x69))
311(0,1,1,1,26,true)
ShowMessageFace("",0,0,2,15)
ShowMessage("肉壁が妖しく蠕動し、極上の快楽を与えてきた！")
ShowMessage("ペニスが肉孔で嫐り抜かれ、放出感を促す――\\D")
ShowMessage("ルカは\\V[26]のダメージを受けた！")
ChangeVariable(27,27,0,3,3,1,2)
If(1,27,0,0,0)
 JumpToLabel("射精2")
 0()
EndIf()
DefineLabel("射精1")
ShowMessageFace("",0,0,2,16)
ShowMessage("【ルカ】")
ShowMessage("だめ、出ちゃうよぉ……あぁぁぁ……")
RunCommonEvent(104)
PictureDisplay(5,"ev_highslag_hc04",0,0,0,0,100,100,255,0)
RunCommonEvent(105)
ShowMessageFace("",0,0,2,17)
ShowMessage("ぬめった肉孔に挿入した瞬間、あえなく暴発してしまった。")
ShowMessage("粘液のヌメヌメ感は、まさに極上の感触だったのだ――")
ShowMessageFace("highslag_fc1",0,0,2,18)
ShowMessage("【ハイスラッグ娘】")
ShowMessage("あははっ、みっともないわねぇ……")
ShowMessage("5秒ももたなかったの？")
RunCommonEvent(2000)
EndEventProcessing()
DefineLabel("射精2")
ShowMessageFace("",0,0,2,19)
ShowMessage("【ルカ】")
ShowMessage("ふぁぁぁ……気持ちいいよぉ……")
RunCommonEvent(104)
PictureDisplay(5,"ev_highslag_hc04",0,0,0,0,100,100,255,0)
RunCommonEvent(105)
ShowMessageFace("",0,0,2,20)
ShowMessage("ぬめった肉孔の感触を味わいながら、イってしまった。")
ShowMessage("魔物の生殖器に、精液がドクドクと注がれていく――")
ShowMessageFace("highslag_fc1",0,0,2,21)
ShowMessage("【ハイスラッグ娘】")
ShowMessage("うふふっ、いっぱい出したわねぇ。")
ShowMessage("私との交尾、良かったでしょう……")
RunCommonEvent(2000)
EndEventProcessing()
0()
