﻿// EVENT 2280
Name "誘惑：マダムアンブレラ"

355("$game_troop.lose_event_id = 3280")
ChangeVariable(26,26,0,3,3,1,4)
ChangeVariable(26,26,4,0,10)
ShowMessageFace("madamumbrella_fc1",2,0,2,1)
ShowMessage("【マダムアンブレラ】")
ShowMessage("ここまで私を追い込むなんて……")
ShowMessage("あなたにも相応の屈辱を与えなければ、気が済みませんわ。")
250(bytes(0x04,0x08,0x6f,0x3a,0x0c,0x52,0x50,0x47,0x3a,0x3a,0x53,0x45,0x08,0x3a,0x0a,0x40,0x6e,0x61,0x6d,0x65,0x49,0x22,0x16,0x6d,0x6f,0x6e,0x5f,0x65,0x72,0x6f,0x5f,0x6d,0x61,0x6b,0x69,0x74,0x75,0x6b,0x69,0x33,0x06,0x3a,0x06,0x45,0x54,0x3a,0x0b,0x40,0x70,0x69,0x74,0x63,0x68,0x69,0x69,0x3a,0x0c,0x40,0x76,0x6f,0x6c,0x75,0x6d,0x65,0x69,0x69))
355("battler_graphic_hide")
PictureDisplay(5,"ev_madamumbrella_h01",0,0,0,0,100,100,255,0)
ShowMessageFace("",0,0,2,2)
ShowMessage("マダムアンブレラの触手がルカの体を巻き上げ、傘の下にまで引き込まれてしまう！")
ShowMessage("ルカの体は、マダムアンブレラに拘束されてしまった！")
ShowMessageFace("madamumbrella_fc1",0,0,2,3)
ShowMessage("【マダムアンブレラ】")
ShowMessage("さあ、意趣返しを致しましょう。")
ShowMessage("あなたの性器、徹底的に嫐り尽くして差し上げますわ……")
ChangeSwitch(98,98,0)
ChangeSwitch(96,96,0)
ShowChoices(strings("もがく","なすがまま"),1)
IfPlayerPicksChoice(0,null)
 ShowMessageFace("",0,0,2,4)
 ShowMessage("ルカは激しくもがき、マダムアンブレラの拘束から逃れた！")
 RunCommonEvent(1999)
 EndEventProcessing()
 0()
IfPlayerPicksChoice(1,null)
 0()
404()
ShowMessageFace("madamumbrella_fc1",0,0,2,5)
ShowMessage("【マダムアンブレラ】")
ShowMessage("ほぉら、たっぷりと可愛がって差し上げますね。")
ChangeVariable(26,26,3,0,2)
250(bytes(0x04,0x08,0x6f,0x3a,0x0c,0x52,0x50,0x47,0x3a,0x3a,0x53,0x45,0x08,0x3a,0x0a,0x40,0x6e,0x61,0x6d,0x65,0x49,0x22,0x16,0x6d,0x6f,0x6e,0x5f,0x65,0x72,0x6f,0x5f,0x6d,0x61,0x6b,0x69,0x74,0x75,0x6b,0x69,0x33,0x06,0x3a,0x06,0x45,0x54,0x3a,0x0b,0x40,0x70,0x69,0x74,0x63,0x68,0x69,0x69,0x3a,0x0c,0x40,0x76,0x6f,0x6c,0x75,0x6d,0x65,0x69,0x69))
311(0,1,1,1,26,true)
ShowMessageFace("",0,0,2,6)
ShowMessage("触手が体中を撫で回し、ペニスにもねちっこく這い回る！\\D")
ShowMessage("ルカは\\V[26]のダメージを受けた！")
ChangeVariable(27,27,0,3,3,1,2)
If(1,27,0,0,0)
 JumpToLabel("射精1")
 0()
EndIf()
ShowMessageFace("madamumbrella_fc1",0,0,2,7)
ShowMessage("【マダムアンブレラ】")
ShowMessage("こうやって、殿方の汁を搾って差し上げますわ……")
250(bytes(0x04,0x08,0x6f,0x3a,0x0c,0x52,0x50,0x47,0x3a,0x3a,0x53,0x45,0x08,0x3a,0x0a,0x40,0x6e,0x61,0x6d,0x65,0x49,0x22,0x16,0x6d,0x6f,0x6e,0x5f,0x65,0x72,0x6f,0x5f,0x6d,0x61,0x6b,0x69,0x74,0x75,0x6b,0x69,0x33,0x06,0x3a,0x06,0x45,0x54,0x3a,0x0b,0x40,0x70,0x69,0x74,0x63,0x68,0x69,0x69,0x3a,0x0c,0x40,0x76,0x6f,0x6c,0x75,0x6d,0x65,0x69,0x69))
311(0,1,1,1,26,true)
ShowMessageFace("",0,0,2,8)
ShowMessage("触手がペニスに何重にも巻き付き、ぐちゅぐちゅと刺激される！\\D")
ShowMessage("ルカは\\V[26]のダメージを受けた！")
ChangeVariable(27,27,0,3,3,1,2)
If(1,27,0,0,0)
 JumpToLabel("射精1")
 0()
EndIf()
ShowMessageFace("madamumbrella_fc1",0,0,2,9)
ShowMessage("【マダムアンブレラ】")
ShowMessage("ペニスを吸盤責めにされるのは、屈辱的でしょう……？")
250(bytes(0x04,0x08,0x6f,0x3a,0x0c,0x52,0x50,0x47,0x3a,0x3a,0x53,0x45,0x08,0x3a,0x0a,0x40,0x6e,0x61,0x6d,0x65,0x49,0x22,0x16,0x6d,0x6f,0x6e,0x5f,0x65,0x72,0x6f,0x5f,0x6d,0x61,0x6b,0x69,0x74,0x75,0x6b,0x69,0x33,0x06,0x3a,0x06,0x45,0x54,0x3a,0x0b,0x40,0x70,0x69,0x74,0x63,0x68,0x69,0x69,0x3a,0x0c,0x40,0x76,0x6f,0x6c,0x75,0x6d,0x65,0x69,0x69))
311(0,1,1,1,26,true)
ShowMessageFace("",0,0,2,10)
ShowMessage("ペニスに無数の吸盤が吸い付き、吸引責めにさらされた！\\D")
ShowMessage("ルカは\\V[26]のダメージを受けた！")
ChangeVariable(27,27,0,3,3,1,2)
If(1,27,0,0,0)
 JumpToLabel("射精1")
 0()
EndIf()
ShowMessageFace("madamumbrella_fc1",0,0,2,11)
ShowMessage("【マダムアンブレラ】")
ShowMessage("そんな声を上げて、はしたないですわよ……")
250(bytes(0x04,0x08,0x6f,0x3a,0x0c,0x52,0x50,0x47,0x3a,0x3a,0x53,0x45,0x08,0x3a,0x0a,0x40,0x6e,0x61,0x6d,0x65,0x49,0x22,0x16,0x6d,0x6f,0x6e,0x5f,0x65,0x72,0x6f,0x5f,0x6d,0x61,0x6b,0x69,0x74,0x75,0x6b,0x69,0x33,0x06,0x3a,0x06,0x45,0x54,0x3a,0x0b,0x40,0x70,0x69,0x74,0x63,0x68,0x69,0x69,0x3a,0x0c,0x40,0x76,0x6f,0x6c,0x75,0x6d,0x65,0x69,0x69))
311(0,1,1,1,26,true)
ShowMessageFace("",0,0,2,12)
ShowMessage("触手が全身を締め付け、ペニスにも巻き付いて締め上げる！\\D")
ShowMessage("ルカは\\V[26]のダメージを受けた！")
ChangeVariable(27,27,0,3,3,1,2)
If(1,27,0,0,0)
 JumpToLabel("射精1")
 0()
EndIf()
ShowMessageFace("madamumbrella_fc1",0,0,2,13)
ShowMessage("【マダムアンブレラ】")
ShowMessage("心地よいでしょう、このまま果ててしまいなさい。")
ChangeVariable(26,26,3,0,2)
250(bytes(0x04,0x08,0x6f,0x3a,0x0c,0x52,0x50,0x47,0x3a,0x3a,0x53,0x45,0x08,0x3a,0x0a,0x40,0x6e,0x61,0x6d,0x65,0x49,0x22,0x16,0x6d,0x6f,0x6e,0x5f,0x65,0x72,0x6f,0x5f,0x6d,0x61,0x6b,0x69,0x74,0x75,0x6b,0x69,0x33,0x06,0x3a,0x06,0x45,0x54,0x3a,0x0b,0x40,0x70,0x69,0x74,0x63,0x68,0x69,0x69,0x3a,0x0c,0x40,0x76,0x6f,0x6c,0x75,0x6d,0x65,0x69,0x69))
311(0,1,1,1,26,true)
ShowMessageFace("",0,0,2,14)
ShowMessage("触手が全身をぬらぬら這い回り、ペニスにも絡みついてきた！\\D")
ShowMessage("ルカは\\V[26]のダメージを受けた！")
ChangeVariable(27,27,0,3,3,1,2)
If(1,27,0,0,0)
 JumpToLabel("射精1")
 0()
EndIf()
DefineLabel("射精1")
ShowMessageFace("",0,0,2,15)
ShowMessage("【ルカ】")
ShowMessage("だめ、出ちゃうよぉ……あぁぁぁ……")
RunCommonEvent(104)
PictureDisplay(5,"ev_madamumbrella_h02",0,0,0,0,100,100,255,0)
RunCommonEvent(105)
ShowMessageFace("",0,0,2,16)
ShowMessage("全身を触手で責めたてられ、快感を味わいながら昇天してしまった。")
ShowMessage("ペニスに巻き付いていた触手が、どっぷりと精液で汚れてしまう――")
ShowMessageFace("madamumbrella_fc1",0,0,2,17)
ShowMessage("【マダムアンブレラ】")
ShowMessage("漏らしてしまいましたね、濃厚なオスのエキス……")
ShowMessage("ふふっ……こんなに出して情けないこと。")
RunCommonEvent(2000)
EndEventProcessing()
0()
