﻿// EVENT 0049
Name "スキル：遊ぶ91～100"

ChangeVariable(11,11,0,2,1,5)
If(1,100,0,91,0)
 If(1,11,0,1,0)
  ShowMessageFace("candle_fc1",1,0,2,1)
  ShowMessage("【キャンドラ】")
  ShowMessage("色素を混ぜて、ねりねり……ねじねじ……")
  ShowMessageFace("",0,0,2,2)
  ShowMessage("キャンドラは手製のキャンドルを作っている……")
  EndEventProcessing()
  0()
 EndIf()
 If(1,11,0,2,0)
  ShowMessageFace("candle_fc1",1,0,2,3)
  ShowMessage("【キャンドラ】")
  ShowMessage("こそこそ、うふふっ……")
  355("interrupt_skill(3295)")
  EndEventProcessing()
  0()
 EndIf()
 If(1,11,0,3,0)
  ShowMessageFace("candle_fc1",2,0,2,4)
  ShowMessage("【キャンドラ】")
  ShowMessage("あつつ……なんだか火力が増してるような……")
  313(0,91,0,60)
  ShowMessageFace("",0,0,2,5)
  ShowMessage("キャンドラの体が、少し熱くなったようだ……")
  EndEventProcessing()
  0()
 EndIf()
 If(1,11,0,4,0)
  ShowMessageFace("candle_fc1",1,0,2,6)
  ShowMessage("【キャンドラ】")
  ShowMessage("短命アイドルとしてデビューしたりなんか……")
  ShowMessageFace("",0,0,2,7)
  ShowMessage("キャンドラはサインの練習をしている……")
  EndEventProcessing()
  0()
 EndIf()
 If(1,11,0,5,0)
  ShowMessageFace("candle_fc1",0,0,2,8)
  ShowMessage("【キャンドラ】")
  ShowMessage("火気厳禁と言っているのが分からないの……？")
  ShowMessageFace("",0,0,2,9)
  ShowMessage("キャンドラは説教を始めた！")
  ShowMessage("しかし誰も聞いていない……")
  EndEventProcessing()
  0()
 EndIf()
 0()
EndIf()
If(1,100,0,92,0)
 If(1,11,0,1,0)
  ShowMessageFace("eater_fc1",0,0,2,10)
  ShowMessage("【イーター】")
  ShowMessage("これ、おいしい……？")
  ShowMessageFace("",0,0,2,11)
  ShowMessage("イーターは自分のツタをちぎって食べている……")
  EndEventProcessing()
  0()
 EndIf()
 If(1,11,0,2,0)
  ShowMessageFace("eater_fc1",0,0,2,12)
  ShowMessage("【イーター】")
  ShowMessage("おいしい！　おいしい！")
  ShowMessageFace("",0,0,2,13)
  ShowMessage("イーターは食料を盗み食いしている……")
  EndEventProcessing()
  0()
 EndIf()
 If(1,11,0,3,0)
  ShowMessageFace("eater_fc1",1,0,2,14)
  ShowMessage("【イーター】")
  ShowMessage("おやすみ……")
  313(0,92,0,11)
  ShowMessageFace("",0,0,2,15)
  ShowMessage("イーターは居眠りしてしまった……")
  EndEventProcessing()
  0()
 EndIf()
 If(1,11,0,4,0)
  ShowMessageFace("eater_fc1",3,0,2,16)
  ShowMessage("【イーター】")
  ShowMessage("にこっ♪")
  ShowMessageFace("",0,0,2,17)
  ShowMessage("イーターはにっこり微笑んだ！")
  ShowMessage("しかし何も起きなかった……")
  EndEventProcessing()
  0()
 EndIf()
 If(1,11,0,5,0)
  ShowMessageFace("eater_fc1",3,0,2,18)
  ShowMessage("【イーター】")
  ShowMessage("なんか、体からタネが出てきた……植えてみるね。")
  355("interrupt_skill(3299)")
  EndEventProcessing()
  0()
 EndIf()
 0()
EndIf()
If(1,100,0,93,0)
 If(1,11,0,1,0)
  ShowMessageFace("liot_fc1",0,0,2,19)
  ShowMessage("【ライオット】")
  ShowMessage("この壁、ちょうどいいな……ばりばり……")
  ShowMessageFace("",0,0,2,20)
  ShowMessage("ライオットは爪研ぎをしている……")
  EndEventProcessing()
  0()
 EndIf()
 If(1,11,0,2,0)
  ShowMessageFace("liot_fc1",2,0,2,21)
  ShowMessage("【ライオット】")
  ShowMessage("行くぞ、はぁっ……あぁぁっ！？")
  355("interrupt_skill(3293)")
  EndEventProcessing()
  0()
 EndIf()
 If(1,11,0,3,0)
  ShowMessageFace("liot_fc1",3,0,2,22)
  ShowMessage("【ライオット】")
  ShowMessage("色目遣いとは、こういうものか……？")
  ShowMessageFace("",0,0,2,23)
  ShowMessage("ライオットは流し目を送った……")
  ShowMessage("しかし、睨んでいるようにしか見えない！")
  EndEventProcessing()
  0()
 EndIf()
 If(1,11,0,4,0)
  ShowMessageFace("liot_fc1",0,0,2,24)
  ShowMessage("【ライオット】")
  ShowMessage("おぉぉぉっ……！")
  355("interrupt_skill(2698)")
  EndEventProcessing()
  0()
 EndIf()
 If(1,11,0,5,0)
  ShowMessageFace("liot_fc1",1,0,2,25)
  ShowMessage("【ライオット】")
  ShowMessage("この爪の餌食になりたい者から、かかってくるがいい……")
  ShowMessageFace("",0,0,2,26)
  ShowMessage("ライオットは決め台詞の練習をしている……")
  EndEventProcessing()
  0()
 EndIf()
 0()
EndIf()
If(1,100,0,94,0)
 If(1,11,0,1,0)
  ShowMessageFace("luksl_fc1",0,0,2,27)
  ShowMessage("【ルクスル】")
  ShowMessage("このオプションはいいわねぇ……")
  ShowMessage("だれか、私の椅子に座りなさいよ。")
  ShowMessageFace("",0,0,2,28)
  ShowMessage("ルクスルは肩揉み機能を搭載した！")
  ShowMessage("しかし誰も座ろうとしない……")
  EndEventProcessing()
  0()
 EndIf()
 If(1,11,0,2,0)
  ShowMessageFace("luksl_fc1",2,0,2,29)
  ShowMessage("【ルクスル】")
  ShowMessage("ギャァァァ！　なんか漏電してない！？")
  355("interrupt_skill(3307)")
  EndEventProcessing()
  0()
 EndIf()
 If(1,11,0,3,0)
  ShowMessageFace("luksl_fc1",2,0,2,30)
  ShowMessage("【ルクスル】")
  ShowMessage("だいたい、メカだか人だか中途半端よね……")
  ShowMessageFace("",0,0,2,31)
  ShowMessage("ルクスルは一人で愚痴を言っている……")
  EndEventProcessing()
  0()
 EndIf()
 If(1,11,0,4,0)
  ShowMessageFace("luksl_fc1",0,0,2,32)
  ShowMessage("【ルクスル】")
  ShowMessage("目からビームを出す機能を搭載したわ。")
  ShowMessage("いくわよ……えいっ！")
  355("interrupt_skill(3306)")
  EndEventProcessing()
  0()
 EndIf()
 If(1,11,0,5,0)
  ShowMessageFace("luksl_fc1",0,0,2,33)
  ShowMessage("【ルクスル】")
  ShowMessage("ナニカオカシクナイ？")
  ShowMessage("ネェ、ダレカイタズラシタ……？")
  ShowMessageFace("",0,0,2,34)
  ShowMessage("ルクスルの様子がおかしい……")
  EndEventProcessing()
  0()
 EndIf()
 0()
EndIf()
If(1,100,0,95,0)
 If(1,11,0,1,0)
  ShowMessageFace("delh_a_fc1",0,0,2,35)
  ShowMessage("【ロナ】")
  ShowMessage("えいっ！　はっ！　やっ！")
  ShowMessageFace("",0,0,2,36)
  ShowMessage("ロナは剣を素振りしている……")
  EndEventProcessing()
  0()
 EndIf()
 If(1,11,0,2,0)
  ShowMessageFace("delh_a_fc1",0,0,2,37)
  ShowMessage("【ロナ】")
  ShowMessage("えいっ！　はっ！　やっ！")
  355("interrupt_skill(3291)")
  EndEventProcessing()
  0()
 EndIf()
 If(1,11,0,3,0)
  ShowMessageFace("delh_a_fc1",0,0,2,38)
  ShowMessage("【ロナ】")
  ShowMessage("欲求不満が溜まるわよね……")
  ShowMessageFace("",0,0,2,39)
  ShowMessage("ロナはいやらしい事を考えている……")
  ShowMessage("ロナは敏感になってしまった！")
  EndEventProcessing()
  0()
 EndIf()
 If(1,11,0,4,0)
  ShowMessageFace("delh_a_fc1",0,0,2,40)
  ShowMessage("【ロナ】")
  ShowMessage("華麗な舞を見なさい！")
  ShowMessageFace("",0,0,2,41)
  ShowMessage("ロナはゆかいなダンスを踊った！")
  ShowMessage("しかし何も起きなかった……")
  EndEventProcessing()
  0()
 EndIf()
 If(1,11,0,5,0)
  ShowMessageFace("delh_a_fc1",0,0,2,42)
  ShowMessage("【ロナ】")
  ShowMessage("かくれんぼしましょう、あなたが鬼ね！")
  313(0,95,0,220)
  ShowMessageFace("",0,0,2,43)
  ShowMessage("ロナはどこかに隠れてしまった！")
  ShowMessage("誰も探そうとしない……")
  EndEventProcessing()
  0()
 EndIf()
 0()
EndIf()
If(1,100,0,96,0)
 If(1,11,0,1,0)
  ShowMessageFace("delh_b_fc1",0,0,2,44)
  ShowMessage("【マリオン】")
  ShowMessage("この子達の世話も結構大変なのよね……")
  ShowMessageFace("",0,0,2,45)
  ShowMessage("マリオンは触手に水をやっている……")
  EndEventProcessing()
  0()
 EndIf()
 If(1,11,0,2,0)
  ShowMessageFace("delh_b_fc1",2,0,2,46)
  ShowMessage("【マリオン】")
  ShowMessage("私じゃないわ、触手が勝手に……")
  ShowMessageFace("",0,0,2,47)
  ShowMessage("マリオンは食料を盗み食いしている……")
  EndEventProcessing()
  0()
 EndIf()
 If(1,11,0,3,0)
  ShowMessageFace("delh_b_fc1",0,0,2,48)
  ShowMessage("【マリオン】")
  ShowMessage("つまらないから、やめなさい……")
  ShowMessageFace("",0,0,2,49)
  ShowMessage("マリオンは仲裁に入った！")
  ShowMessage("しかし誰も聞いていない……")
  EndEventProcessing()
  0()
 EndIf()
 If(1,11,0,4,0)
  ShowMessageFace("delh_b_fc1",2,0,2,50)
  ShowMessage("【マリオン】")
  ShowMessage("普通のエルフなんて、死ねばいいのよ……")
  ShowMessageFace("",0,0,2,51)
  ShowMessage("マリオンはエルフの髪をワラ人形に詰めた！")
  ShowMessage("そのまま、五寸釘で木に打ち付けている……")
  EndEventProcessing()
  0()
 EndIf()
 If(1,11,0,5,0)
  ShowMessageFace("delh_b_fc1",0,0,2,52)
  ShowMessage("【マリオン】")
  ShowMessage("ダークスマイル♪")
  ShowMessageFace("",0,0,2,53)
  ShowMessage("マリオンはにっこり微笑んだ！")
  ShowMessage("しかし何も起きなかった……")
  EndEventProcessing()
  0()
 EndIf()
 0()
EndIf()
If(1,100,0,97,0)
 If(1,11,0,1,0)
  ShowMessageFace("fairy_fc1",0,0,2,54)
  ShowMessage("【フェル】")
  ShowMessage("わーい、お花だー♪")
  ShowMessageFace("",0,0,2,55)
  ShowMessage("フェルは花を摘んでいる……")
  EndEventProcessing()
  0()
 EndIf()
 If(1,11,0,2,0)
  ShowMessageFace("fairy_fc1",0,0,2,56)
  ShowMessage("【フェル】")
  ShowMessage("ぽえ～……")
  ShowMessageFace("",0,0,2,57)
  ShowMessage("フェルはぼーっとしている……")
  EndEventProcessing()
  0()
 EndIf()
 If(1,11,0,3,0)
  ShowMessageFace("fairy_fc1",0,0,2,58)
  ShowMessage("【フェル】")
  ShowMessage("かくれんぼ、するよ～♪")
  313(0,97,0,220)
  ShowMessageFace("",0,0,2,59)
  ShowMessage("フェルはどこかに隠れてしまった！")
  ShowMessage("誰も探そうとしない……")
  EndEventProcessing()
  0()
 EndIf()
 If(1,11,0,4,0)
  ShowMessageFace("fairy_fc1",0,0,2,60)
  ShowMessage("【フェル】")
  ShowMessage("お花のタネ、植えてみるね♪")
  355("interrupt_skill(3299)")
  EndEventProcessing()
  0()
 EndIf()
 If(1,11,0,5,0)
  ShowMessageFace("fairy_fc1",0,0,2,61)
  ShowMessage("【フェル】")
  ShowMessage("わーい、わーい♪")
  ShowMessageFace("",0,0,2,62)
  ShowMessage("フェルは陽気に歌って踊っている……")
  EndEventProcessing()
  0()
 EndIf()
 0()
EndIf()
If(1,100,0,98,0)
 If(1,11,0,1,0)
  ShowMessageFace("minikani_fc1",0,0,2,63)
  ShowMessage("【エイミ】")
  ShowMessage("きえー！　カニ拳法だー！")
  ShowMessageFace("",0,0,2,64)
  ShowMessage("エイミはハサミで板を叩き割った！")
  EndEventProcessing()
  0()
 EndIf()
 If(1,11,0,2,0)
  ShowMessageFace("minikani_fc1",0,0,2,65)
  ShowMessage("【エイミ】")
  ShowMessage("かにあるき、かにあるき……")
  ShowMessageFace("",0,0,2,66)
  ShowMessage("エイミはカニ歩きをしている……")
  EndEventProcessing()
  0()
 EndIf()
 If(1,11,0,3,0)
  ShowMessageFace("minikani_fc1",0,0,2,67)
  ShowMessage("【エイミ】")
  ShowMessage("がんばれー！　みんな、がんばれー！")
  ShowMessageFace("",0,0,2,68)
  ShowMessage("エイミはみんなを応援した！")
  ShowMessage("しかし誰も聞いていない……")
  EndEventProcessing()
  0()
 EndIf()
 If(1,11,0,4,0)
  ShowMessageFace("minikani_fc1",0,0,2,69)
  ShowMessage("【エイミ】")
  ShowMessage("……………………")
  313(0,98,0,306)
  ShowMessageFace("",0,0,2,70)
  ShowMessage("エイミは殻に引っ込んでしまった……")
  ShowMessage("エイミの防御力が上がった！")
  EndEventProcessing()
  0()
 EndIf()
 If(1,11,0,5,0)
  ShowMessageFace("minikani_fc1",0,0,2,71)
  ShowMessage("【エイミ】")
  ShowMessage("ぶくぶく、あわあわ……")
  ShowMessageFace("",0,0,2,72)
  ShowMessage("エイミは大量の泡を吐き出した！")
  ShowMessage("しかし、何も起こらなかった……")
  EndEventProcessing()
  0()
 EndIf()
 0()
EndIf()
If(1,100,0,99,0)
 If(1,11,0,1,0)
  ShowMessageFace("namazu_fc1",0,0,2,73)
  ShowMessage("【ギギ】")
  ShowMessage("たまには日光浴をしないと肌に悪いのじゃ。")
  ShowMessage("やりすぎもまた、肌に悪いがのぅ……")
  ShowMessageFace("",0,0,2,74)
  ShowMessage("ギギは地面に寝そべって日光浴している……")
  EndEventProcessing()
  0()
 EndIf()
 If(1,11,0,2,0)
  ShowMessageFace("namazu_fc1",2,0,2,75)
  ShowMessage("【ギギ】")
  ShowMessage("どうしたことじゃ！")
  ShowMessage("放電器官が荒ぶっておる！")
  355("interrupt_skill(3307)")
  EndEventProcessing()
  0()
 EndIf()
 If(1,11,0,3,0)
  ShowMessageFace("namazu_fc1",2,0,2,76)
  ShowMessage("【ギギ】")
  ShowMessage("はっ……くしゅん！")
  355("interrupt_skill(3043)")
  EndEventProcessing()
  0()
 EndIf()
 If(1,11,0,4,0)
  ShowMessageFace("namazu_fc1",1,0,2,77)
  ShowMessage("【ギギ】")
  ShowMessage("お主達、ちゃんと親孝行はしておるか？")
  ShowMessage("よいか、親というものは……")
  ShowMessageFace("",0,0,2,78)
  ShowMessage("ギギは説教を始めた！")
  ShowMessage("しかし誰も聞いていない……")
  EndEventProcessing()
  0()
 EndIf()
 If(1,11,0,5,0)
  ShowMessageFace("namazu_fc1",1,0,2,79)
  ShowMessage("【ギギ】")
  ShowMessage("なんだかうとうとしてきたのう……")
  ShowMessage("……少し寝るぞ。")
  313(0,99,0,11)
  ShowMessageFace("",0,0,2,80)
  ShowMessage("ギギは居眠りしてしまった……")
  EndEventProcessing()
  0()
 EndIf()
 0()
EndIf()
If(1,100,0,100,0)
 If(1,11,0,1,0)
  ShowMessageFace("rahure_fc1",0,0,2,81)
  ShowMessage("【フレシア】")
  ShowMessage("今日の匂いチェック……")
  ShowMessageFace("",0,0,2,82)
  ShowMessage("フレシアは自分の花口の匂いを嗅いでいる……")
  EndEventProcessing()
  0()
 EndIf()
 If(1,11,0,2,0)
  ShowMessageFace("rahure_fc1",2,0,2,83)
  ShowMessage("【フレシア】")
  ShowMessage("はくしょん！　あっ、花粉が……！！")
  355("interrupt_skill(2924)")
  EndEventProcessing()
  0()
 EndIf()
 If(1,11,0,3,0)
  ShowMessageFace("rahure_fc1",1,0,2,84)
  ShowMessage("【フレシア】")
  ShowMessage("やっぱり、踊らなきゃ損よね……！")
  ShowMessageFace("",0,0,2,85)
  ShowMessage("フレシアは陽気に歌って踊っている……")
  EndEventProcessing()
  0()
 EndIf()
 If(1,11,0,4,0)
  ShowMessageFace("rahure_fc1",0,0,2,86)
  ShowMessage("【フレシア】")
  ShowMessage("ウツボカズラ娘は滅ぶべき……")
  ShowMessageFace("",0,0,2,87)
  ShowMessage("フレシアはウツボカズラ娘のヘタをワラ人形に詰めた！")
  ShowMessage("そのまま、五寸釘で木に打ち付けている……")
  EndEventProcessing()
  0()
 EndIf()
 If(1,11,0,5,0)
  ShowMessageFace("rahure_fc1",2,0,2,88)
  ShowMessage("【フレシア】")
  ShowMessage("あっ、麻痺の花粉吸い込んじゃった……")
  313(0,100,0,12)
  ShowMessageFace("",0,0,2,89)
  ShowMessage("フレシアは金縛りにあった！")
  EndEventProcessing()
  0()
 EndIf()
 0()
EndIf()
0()
