﻿// EVENT 0062
Name "スキル：遊ぶ221～230"

ChangeVariable(11,11,0,2,1,5)
If(1,100,0,221,0)
 If(1,11,0,1,0)
  ShowMessageFace("yukionna_fc1",0,0,2,1)
  ShowMessage("【お雪】")
  ShowMessage("もっと寒くならないかしら……")
  ShowMessageFace("",0,0,2,2)
  ShowMessage("お雪は雪だるまを作っている……")
  EndEventProcessing()
  0()
 EndIf()
 If(1,11,0,2,0)
  ShowMessageFace("yukionna_fc1",0,0,2,3)
  ShowMessage("【お雪】")
  ShowMessage("雪合戦よ、えいっ……")
  ShowMessageFace("",0,0,2,4)
  ShowMessage("お雪は雪玉を敵に投げつけた！")
  ShowMessage("しかしダメージは与えられない……")
  EndEventProcessing()
  0()
 EndIf()
 If(1,11,0,3,0)
  ShowMessageFace("yukionna_fc1",0,0,2,5)
  ShowMessage("【お雪】")
  ShowMessage("雪の舞いよ……")
  ShowMessageFace("",0,0,2,6)
  ShowMessage("お雪はひらひらと舞い踊った！")
  ShowMessage("しかし何も起きなかった……")
  EndEventProcessing()
  0()
 EndIf()
 If(1,11,0,4,0)
  ShowMessageFace("yukionna_fc1",0,0,2,7)
  ShowMessage("【お雪】")
  ShowMessage("作ってみたの……あげるわ。")
  ShowMessageFace("",0,0,2,8)
  ShowMessage("お雪からの差し入れだ！")
  250(bytes(0x04,0x08,0x6f,0x3a,0x0c,0x52,0x50,0x47,0x3a,0x3a,0x53,0x45,0x08,0x3a,0x0a,0x40,0x6e,0x61,0x6d,0x65,0x49,0x22,0x0a,0x49,0x74,0x65,0x6d,0x31,0x06,0x3a,0x06,0x45,0x54,0x3a,0x0b,0x40,0x70,0x69,0x74,0x63,0x68,0x69,0x69,0x3a,0x0c,0x40,0x76,0x6f,0x6c,0x75,0x6d,0x65,0x69,0x55))
  ChangeInventory_Item(424,0,0,1)
  ShowMessageFace("",0,0,2,9)
  ShowMessage("「アイスクリーム」を手に入れた！")
  EndEventProcessing()
  0()
 EndIf()
 If(1,11,0,5,0)
  ShowMessageFace("yukionna_fc1",0,0,2,10)
  ShowMessage("【お雪】")
  ShowMessage("ふぅ……")
  ShowMessageFace("",0,0,2,11)
  ShowMessage("お雪はため息を吐いた……")
  355("interrupt_skill(3075)")
  EndEventProcessing()
  0()
 EndIf()
 0()
EndIf()
If(1,100,0,222,0)
 If(1,11,0,1,0)
  ShowMessageFace("nekomata_fc1",0,0,2,12)
  ShowMessage("【たま】")
  ShowMessage("にゃっ！　にゃっ！")
  ShowMessageFace("",0,0,2,13)
  ShowMessage("たまは敵にじゃれついている！")
  ShowMessage("しかし戦闘中なので無視された……")
  EndEventProcessing()
  0()
 EndIf()
 If(1,11,0,2,0)
  ShowMessageFace("nekomata_fc1",2,0,2,14)
  ShowMessage("【たま】")
  ShowMessage("にゃ～♪")
  ShowMessageFace("",0,0,2,15)
  ShowMessage("たまはにっこり微笑んだ！")
  EndEventProcessing()
  0()
 EndIf()
 If(1,11,0,3,0)
  ShowMessageFace("nekomata_fc1",2,0,2,16)
  ShowMessage("【たま】")
  ShowMessage("にゃ～♪　にゃ～♪")
  313(0,222,0,159)
  ShowMessageFace("",0,0,2,17)
  ShowMessage("たまは幸福を招いている！")
  ShowMessage("戦闘後の獲得アイテムが得られやすくなった！")
  EndEventProcessing()
  0()
 EndIf()
 If(1,11,0,4,0)
  ShowMessageFace("nekomata_fc1",0,0,2,18)
  ShowMessage("【たま】")
  ShowMessage("……………………")
  ShowMessageFace("",0,0,2,19)
  ShowMessage("たまは何かを咥えてきた！")
  ShowMessage("差し入れだろうか……？")
  250(bytes(0x04,0x08,0x6f,0x3a,0x0c,0x52,0x50,0x47,0x3a,0x3a,0x53,0x45,0x08,0x3a,0x0a,0x40,0x6e,0x61,0x6d,0x65,0x49,0x22,0x0a,0x49,0x74,0x65,0x6d,0x31,0x06,0x3a,0x06,0x45,0x54,0x3a,0x0b,0x40,0x70,0x69,0x74,0x63,0x68,0x69,0x69,0x3a,0x0c,0x40,0x76,0x6f,0x6c,0x75,0x6d,0x65,0x69,0x55))
  ChangeInventory_Item(440,0,0,1)
  ShowMessageFace("",0,0,2,20)
  ShowMessage("「イモリの蒸し焼き」を手に入れた！")
  EndEventProcessing()
  0()
 EndIf()
 If(1,11,0,5,0)
  ShowMessageFace("nekomata_fc1",1,0,2,21)
  ShowMessage("【たま】")
  ShowMessage("フー！")
  ShowMessageFace("",0,0,2,22)
  ShowMessage("たまは突然怒り出した！")
  355("interrupt_skill(2680)")
  EndEventProcessing()
  0()
 EndIf()
 0()
EndIf()
If(1,100,0,223,0)
 If(1,11,0,1,0)
  ShowMessageFace("akaname_fc2",1,0,2,23)
  ShowMessage("【かなめ】")
  ShowMessage("べろべろべろ～♪")
  ShowMessageFace("",0,0,2,24)
  ShowMessage("かなめ達は敵をベロベロと舐め回している……")
  EndEventProcessing()
  0()
 EndIf()
 If(1,11,0,2,0)
  ShowMessageFace("akaname_fc2",3,0,2,25)
  ShowMessage("【かなめ】")
  ShowMessage("し、舌が絡まって……！")
  ShowMessageFace("",0,0,2,26)
  ShowMessage("かなめ達の舌が絡まり、身動きが取れなくなってしまった！")
  EndEventProcessing()
  0()
 EndIf()
 If(1,11,0,3,0)
  ShowMessageFace("akaname_fc2",1,0,2,27)
  ShowMessage("【かなめ】")
  ShowMessage("べろべろべろ～♪")
  313(0,223,0,23)
  ShowMessageFace("",0,0,2,28)
  ShowMessage("かなめ達は互いに体を舐め回している！")
  ShowMessage("かなめはヌルヌルになってしまった……")
  EndEventProcessing()
  0()
 EndIf()
 If(1,11,0,4,0)
  ShowMessageFace("akaname_fc2",1,0,2,29)
  ShowMessage("【かなめ】")
  ShowMessage("これ、舐めますか？")
  ShowMessageFace("",0,0,2,30)
  ShowMessage("かなめからの差し入れだ！")
  250(bytes(0x04,0x08,0x6f,0x3a,0x0c,0x52,0x50,0x47,0x3a,0x3a,0x53,0x45,0x08,0x3a,0x0a,0x40,0x6e,0x61,0x6d,0x65,0x49,0x22,0x0a,0x49,0x74,0x65,0x6d,0x31,0x06,0x3a,0x06,0x45,0x54,0x3a,0x0b,0x40,0x70,0x69,0x74,0x63,0x68,0x69,0x69,0x3a,0x0c,0x40,0x76,0x6f,0x6c,0x75,0x6d,0x65,0x69,0x55))
  ChangeInventory_Item(435,0,0,1)
  ShowMessageFace("",0,0,2,31)
  ShowMessage("「アメ玉」を手に入れた！")
  EndEventProcessing()
  0()
 EndIf()
 If(1,11,0,5,0)
  ShowMessageFace("akaname_fc2",1,0,2,32)
  ShowMessage("【かなめ】")
  ShowMessage("くのいちさんから、火遁の術を習いました！")
  355("interrupt_skill(3306)")
  EndEventProcessing()
  0()
 EndIf()
 0()
EndIf()
If(1,100,0,224,0)
 If(1,11,0,1,0)
  ShowMessageFace("kappa_fc1",0,0,2,33)
  ShowMessage("【カワコ】")
  ShowMessage("ねぇ、相撲しようよ～♪")
  ShowMessageFace("",0,0,2,34)
  ShowMessage("カワコは敵を相撲に誘った！")
  ShowMessage("しかし完全に無視された……")
  EndEventProcessing()
  0()
 EndIf()
 If(1,11,0,2,0)
  ShowMessageFace("kappa_fc1",0,0,2,35)
  ShowMessage("【カワコ】")
  ShowMessage("完全防御モード！")
  ShowMessageFace("",0,0,2,36)
  ShowMessage("カワコは甲羅に閉じこもった！")
  ShowMessage("しかし何も起きなかった……")
  EndEventProcessing()
  0()
 EndIf()
 If(1,11,0,3,0)
  ShowMessageFace("kappa_fc1",0,0,2,37)
  ShowMessage("【カワコ】")
  ShowMessage("必殺！　カワコキーック！！")
  ShowMessageFace("",0,0,2,38)
  ShowMessage("カワコは必殺技を繰り出した！")
  ShowMessage("しかし敵にかすりもしない……")
  EndEventProcessing()
  0()
 EndIf()
 If(1,11,0,4,0)
  ShowMessageFace("kappa_fc1",0,0,2,39)
  ShowMessage("【カワコ】")
  ShowMessage("あたしのキュウリ、分けてあげる！")
  ShowMessageFace("",0,0,2,40)
  ShowMessage("カワコからの差し入れだ！")
  250(bytes(0x04,0x08,0x6f,0x3a,0x0c,0x52,0x50,0x47,0x3a,0x3a,0x53,0x45,0x08,0x3a,0x0a,0x40,0x6e,0x61,0x6d,0x65,0x49,0x22,0x0a,0x49,0x74,0x65,0x6d,0x31,0x06,0x3a,0x06,0x45,0x54,0x3a,0x0b,0x40,0x70,0x69,0x74,0x63,0x68,0x69,0x69,0x3a,0x0c,0x40,0x76,0x6f,0x6c,0x75,0x6d,0x65,0x69,0x55))
  ChangeInventory_Item(306,0,0,1)
  ShowMessageFace("",0,0,2,41)
  ShowMessage("「キュウリ」を手に入れた！")
  EndEventProcessing()
  0()
 EndIf()
 If(1,11,0,5,0)
  ShowMessageFace("kappa_fc1",2,0,2,42)
  ShowMessage("【カワコ】")
  ShowMessage("ひゃっ！")
  355("interrupt_skill(3293)")
  EndEventProcessing()
  0()
 EndIf()
 0()
EndIf()
If(1,100,0,225,0)
 If(1,11,0,1,0)
  ShowMessageFace("hutakuti_fc1",5,0,2,43)
  ShowMessage("【さくら】")
  ShowMessage("むしゃむしゃ……")
  ShowMessageFace("",0,0,2,44)
  ShowMessage("さくらは食料を盗み食いしている……")
  EndEventProcessing()
  0()
 EndIf()
 If(1,11,0,2,0)
  ShowMessageFace("hutakuti_fc1",1,0,2,45)
  ShowMessage("【さくら】")
  ShowMessage("おなかがへりました……♪")
  ShowMessageFace("",0,0,2,46)
  ShowMessage("さくらはにっこりほほえんだ！")
  EndEventProcessing()
  0()
 EndIf()
 If(1,11,0,3,0)
  ShowMessageFace("hutakuti_fc1",1,0,2,47)
  ShowMessage("【さくら】")
  ShowMessage("皆さん、がんばってくださ～い♪")
  355("interrupt_skill(3300)")
  EndEventProcessing()
  0()
 EndIf()
 If(1,11,0,4,0)
  ShowMessageFace("hutakuti_fc1",5,0,2,48)
  ShowMessage("【さくら】")
  ShowMessage("あの、これ……")
  ShowMessage("食べちゃった後ですけど……")
  ShowMessageFace("",0,0,2,49)
  ShowMessage("さくらからの差し入れだ！")
  250(bytes(0x04,0x08,0x6f,0x3a,0x0c,0x52,0x50,0x47,0x3a,0x3a,0x53,0x45,0x08,0x3a,0x0a,0x40,0x6e,0x61,0x6d,0x65,0x49,0x22,0x0a,0x49,0x74,0x65,0x6d,0x31,0x06,0x3a,0x06,0x45,0x54,0x3a,0x0b,0x40,0x70,0x69,0x74,0x63,0x68,0x69,0x69,0x3a,0x0c,0x40,0x76,0x6f,0x6c,0x75,0x6d,0x65,0x69,0x55))
  ChangeInventory_Item(442,0,0,1)
  ShowMessageFace("",0,0,2,50)
  ShowMessage("「魚の骨」を手に入れた！")
  EndEventProcessing()
  0()
 EndIf()
 If(1,11,0,5,0)
  ShowMessageFace("hutakuti_fc1",6,0,2,51)
  ShowMessage("【さくら】")
  ShowMessage("わわわ、後ろの口が勝手に～！！")
  355("interrupt_skill(2576)")
  EndEventProcessing()
  0()
 EndIf()
 0()
EndIf()
If(1,100,0,226,0)
 If(1,11,0,1,0)
  ShowMessageFace("sirohebisama_fc1",0,0,2,52)
  ShowMessage("【白蛇様】")
  ShowMessage("ほぉれ、白蛇様の舞いじゃ……♪")
  ShowMessageFace("",0,0,2,53)
  ShowMessage("白蛇様は白蛇様の舞いを踊った！")
  ShowMessage("しかし、何も起こらなかった！")
  EndEventProcessing()
  0()
 EndIf()
 If(1,11,0,2,0)
  ShowMessageFace("sirohebisama_fc1",0,0,2,54)
  ShowMessage("【白蛇様】")
  ShowMessage("あの愚妹め、偉そうにしおって……")
  ShowMessageFace("",0,0,2,55)
  ShowMessage("白蛇様は妹の髪をワラ人形に詰めた！")
  ShowMessage("そのまま、五寸釘で木に打ち付けている……")
  EndEventProcessing()
  0()
 EndIf()
 If(1,11,0,3,0)
  ShowMessageFace("sirohebisama_fc1",0,0,2,56)
  ShowMessage("【白蛇様】")
  ShowMessage("ふんぬっ！")
  355("interrupt_skill(3317)")
  EndEventProcessing()
  0()
 EndIf()
 If(1,11,0,4,0)
  ShowMessageFace("sirohebisama_fc1",0,0,2,57)
  ShowMessage("【白蛇様】")
  ShowMessage("ほれ、儂からの施しじゃ。")
  ShowMessageFace("",0,0,2,58)
  ShowMessage("白蛇様からの差し入れだ！")
  250(bytes(0x04,0x08,0x6f,0x3a,0x0c,0x52,0x50,0x47,0x3a,0x3a,0x53,0x45,0x08,0x3a,0x0a,0x40,0x6e,0x61,0x6d,0x65,0x49,0x22,0x0a,0x49,0x74,0x65,0x6d,0x31,0x06,0x3a,0x06,0x45,0x54,0x3a,0x0b,0x40,0x70,0x69,0x74,0x63,0x68,0x69,0x69,0x3a,0x0c,0x40,0x76,0x6f,0x6c,0x75,0x6d,0x65,0x69,0x55))
  ChangeInventory_Item(384,0,0,1)
  ShowMessageFace("",0,0,2,59)
  ShowMessage("「さしみ」を手に入れた！")
  EndEventProcessing()
  0()
 EndIf()
 If(1,11,0,5,0)
  ShowMessageFace("sirohebisama_fc1",0,0,2,60)
  ShowMessage("【白蛇様】")
  ShowMessage("シャー！！")
  355("interrupt_skill(3312)")
  EndEventProcessing()
  0()
 EndIf()
 0()
EndIf()
If(1,100,0,227,0)
 If(1,11,0,1,0)
  ShowMessageFace("mikolamia_fc1",3,0,2,61)
  ShowMessage("【魅月】")
  ShowMessage("神に祈りましょう……")
  355("interrupt_skill(3302)")
  EndEventProcessing()
  0()
 EndIf()
 If(1,11,0,2,0)
  ShowMessageFace("mikolamia_fc1",3,0,2,62)
  ShowMessage("【魅月】")
  ShowMessage("うふふっ……")
  ShowMessageFace("",0,0,2,63)
  ShowMessage("魅月は淫らに笑っている……")
  EndEventProcessing()
  0()
 EndIf()
 If(1,11,0,3,0)
  ShowMessageFace("mikolamia_fc1",3,0,2,64)
  ShowMessage("【魅月】")
  ShowMessage("蛇の舞いをどうぞ……")
  ShowMessageFace("",0,0,2,65)
  ShowMessage("魅月は華麗に舞い踊った！")
  ShowMessage("しかし何も起きなかった……")
  EndEventProcessing()
  0()
 EndIf()
 If(1,11,0,4,0)
  ShowMessageFace("mikolamia_fc1",3,0,2,66)
  ShowMessage("【魅月】")
  ShowMessage("これをどうぞ……")
  ShowMessageFace("",0,0,2,67)
  ShowMessage("魅月からの差し入れだ！")
  250(bytes(0x04,0x08,0x6f,0x3a,0x0c,0x52,0x50,0x47,0x3a,0x3a,0x53,0x45,0x08,0x3a,0x0a,0x40,0x6e,0x61,0x6d,0x65,0x49,0x22,0x0a,0x49,0x74,0x65,0x6d,0x31,0x06,0x3a,0x06,0x45,0x54,0x3a,0x0b,0x40,0x70,0x69,0x74,0x63,0x68,0x69,0x69,0x3a,0x0c,0x40,0x76,0x6f,0x6c,0x75,0x6d,0x65,0x69,0x55))
  ChangeInventory_Item(400,0,0,1)
  ShowMessageFace("",0,0,2,68)
  ShowMessage("「おそば」を手に入れた！")
  EndEventProcessing()
  0()
 EndIf()
 If(1,11,0,5,0)
  ShowMessageFace("mikolamia_fc1",3,0,2,69)
  ShowMessage("【魅月】")
  ShowMessage("うふふっ……")
  355("interrupt_skill(3296)")
  EndEventProcessing()
  0()
 EndIf()
 0()
EndIf()
If(1,100,0,228,0)
 If(1,11,0,1,0)
  ShowMessageFace("mikoarachne_fc1",1,0,2,70)
  ShowMessage("【まや】")
  ShowMessage("神様に祈るからね……♪")
  355("interrupt_skill(3302)")
  EndEventProcessing()
  0()
 EndIf()
 If(1,11,0,2,0)
  ShowMessageFace("mikoarachne_fc1",2,0,2,71)
  ShowMessage("【まや】")
  ShowMessage("もう、ケンカはやめてよ～！")
  ShowMessageFace("",0,0,2,72)
  ShowMessage("まやは仲裁に入った！")
  ShowMessage("しかし誰も聞いていない……")
  EndEventProcessing()
  0()
 EndIf()
 If(1,11,0,3,0)
  ShowMessageFace("mikoarachne_fc1",1,0,2,73)
  ShowMessage("【まや】")
  ShowMessage("みんな、がんばれ～♪")
  355("interrupt_skill(3300)")
  EndEventProcessing()
  0()
 EndIf()
 If(1,11,0,4,0)
  ShowMessageFace("mikoarachne_fc1",1,0,2,74)
  ShowMessage("【まや】")
  ShowMessage("これ、あげる♪")
  ShowMessageFace("",0,0,2,75)
  ShowMessage("まやからの差し入れだ！")
  250(bytes(0x04,0x08,0x6f,0x3a,0x0c,0x52,0x50,0x47,0x3a,0x3a,0x53,0x45,0x08,0x3a,0x0a,0x40,0x6e,0x61,0x6d,0x65,0x49,0x22,0x0a,0x49,0x74,0x65,0x6d,0x31,0x06,0x3a,0x06,0x45,0x54,0x3a,0x0b,0x40,0x70,0x69,0x74,0x63,0x68,0x69,0x69,0x3a,0x0c,0x40,0x76,0x6f,0x6c,0x75,0x6d,0x65,0x69,0x55))
  ChangeInventory_Item(334,0,0,1)
  ShowMessageFace("",0,0,2,76)
  ShowMessage("「かつおぶし」を手に入れた！")
  EndEventProcessing()
  0()
 EndIf()
 If(1,11,0,5,0)
  ShowMessageFace("mikoarachne_fc1",2,0,2,77)
  ShowMessage("【まや】")
  ShowMessage("ひゃぁっ！？")
  355("interrupt_skill(3310)")
  EndEventProcessing()
  0()
 EndIf()
 0()
EndIf()
If(1,100,0,229,0)
 If(1,11,0,1,0)
  ShowMessageFace("kezyorou_fc1",0,0,2,78)
  ShowMessage("【ツバキ】")
  ShowMessage("髪のケア、大変でねぇ……")
  ShowMessageFace("",0,0,2,79)
  ShowMessage("ツバキは長い髪を整えている……")
  EndEventProcessing()
  0()
 EndIf()
 If(1,11,0,2,0)
  ShowMessageFace("kezyorou_fc1",0,0,2,80)
  ShowMessage("【ツバキ】")
  ShowMessage("さあ、楽しく踊るよ……")
  ShowMessageFace("",0,0,2,81)
  ShowMessage("ツバキは陽気に歌って踊っている……")
  EndEventProcessing()
  0()
 EndIf()
 If(1,11,0,3,0)
  ShowMessageFace("kezyorou_fc1",2,0,2,82)
  ShowMessage("【ツバキ】")
  ShowMessage("まったく、この髪じゃ前が見えないよ……")
  ShowMessageFace("",0,0,2,83)
  ShowMessage("ツバキは一人で愚痴を言っている……")
  EndEventProcessing()
  0()
 EndIf()
 If(1,11,0,4,0)
  ShowMessageFace("kezyorou_fc1",0,0,2,84)
  ShowMessage("【ツバキ】")
  ShowMessage("ほら、おいしく食べな。")
  ShowMessageFace("",0,0,2,85)
  ShowMessage("ツバキからの差し入れだ！")
  250(bytes(0x04,0x08,0x6f,0x3a,0x0c,0x52,0x50,0x47,0x3a,0x3a,0x53,0x45,0x08,0x3a,0x0a,0x40,0x6e,0x61,0x6d,0x65,0x49,0x22,0x0a,0x49,0x74,0x65,0x6d,0x31,0x06,0x3a,0x06,0x45,0x54,0x3a,0x0b,0x40,0x70,0x69,0x74,0x63,0x68,0x69,0x69,0x3a,0x0c,0x40,0x76,0x6f,0x6c,0x75,0x6d,0x65,0x69,0x55))
  ChangeInventory_Item(395,0,0,1)
  ShowMessageFace("",0,0,2,86)
  ShowMessage("「お好み焼き」を手に入れた！")
  EndEventProcessing()
  0()
 EndIf()
 If(1,11,0,5,0)
  ShowMessageFace("kezyorou_fc1",0,0,2,87)
  ShowMessage("【ツバキ】")
  ShowMessage("ふふふっ……")
  355("interrupt_skill(3296)")
  EndEventProcessing()
  0()
 EndIf()
 0()
EndIf()
If(1,100,0,230,0)
 If(1,11,0,1,0)
  ShowMessageFace("yamatanooroti_fc3",3,0,2,88)
  ShowMessage("【ヤマタノオロチ】")
  ShowMessage("まったく、時には一人の時間が欲しいものよ……")
  ShowMessageFace("",0,0,2,89)
  ShowMessage("ヤマタノオロチは愚痴っている……")
  EndEventProcessing()
  0()
 EndIf()
 If(1,11,0,2,0)
  ShowMessageFace("yamatanooroti_fc3",3,0,2,90)
  ShowMessage("【ヤマタノオロチ】")
  ShowMessage("ええい、お前はいつも態度が大きいのだ！")
  ShowMessageFace("yamatanooroti_fc3",1,0,2,91)
  ShowMessage("【ヤマタノオロチ】")
  ShowMessage("何を言う、貴様こそ……！")
  ShowMessageFace("",0,0,2,92)
  ShowMessage("ヤマタノオロチは首同士で喧嘩している……")
  EndEventProcessing()
  0()
 EndIf()
 If(1,11,0,3,0)
  ShowMessageFace("yamatanooroti_fc1",3,0,2,93)
  ShowMessage("【ヤマタノオロチ】")
  ShowMessage("それでは、暴れてくれよう！")
  355("interrupt_skill(3294)")
  EndEventProcessing()
  0()
 EndIf()
 If(1,11,0,4,0)
  ShowMessageFace("yamatanooroti_fc1",3,0,2,94)
  ShowMessage("【ヤマタノオロチ】")
  ShowMessage("ほれ、これをくれてやろう。")
  ShowMessage("酒盛りはしても、妾の首は刎ねるなよ……")
  ShowMessageFace("",0,0,2,95)
  ShowMessage("ヤマタノオロチからの差し入れだ！")
  250(bytes(0x04,0x08,0x6f,0x3a,0x0c,0x52,0x50,0x47,0x3a,0x3a,0x53,0x45,0x08,0x3a,0x0a,0x40,0x6e,0x61,0x6d,0x65,0x49,0x22,0x0a,0x49,0x74,0x65,0x6d,0x31,0x06,0x3a,0x06,0x45,0x54,0x3a,0x0b,0x40,0x70,0x69,0x74,0x63,0x68,0x69,0x69,0x3a,0x0c,0x40,0x76,0x6f,0x6c,0x75,0x6d,0x65,0x69,0x55))
  ChangeInventory_Item(431,0,0,1)
  ShowMessageFace("",0,0,2,96)
  ShowMessage("「ヤマタイ酒」を手に入れた！")
  EndEventProcessing()
  0()
 EndIf()
 If(1,11,0,5,0)
  ShowMessageFace("yamatanooroti_fc3",3,0,2,97)
  ShowMessage("【ヤマタノオロチ】")
  ShowMessage("ぬぉぉっ、この妾が……！？")
  355("interrupt_skill(3317)")
  EndEventProcessing()
  0()
 EndIf()
 0()
EndIf()
0()
