﻿// EVENT 2014
Name "誘惑：狼娘"

If(0,25,1)
 EndEventProcessing()
 0()
EndIf()
355("$game_troop.lose_event_id = 3014")
ChangeVariable(26,26,0,3,3,1,4)
ChangeVariable(26,26,4,0,10)
ShowMessageFace("okami_fc1",0,0,2,1)
ShowMessage("【狼娘】")
ShowMessage("うが！　勝ち目がないぞ！")
ShowMessage("……分かった、種付けしてもいいぞ！")
ShowMessageFace("okami_fc1",0,0,2,2)
ShowMessage("【狼娘】")
ShowMessage("遠慮するな、あたしに種付けしろ！")
ShowMessage("あたしも、強い男の子種で孕みたいしな！")
ShowMessageFace("",0,0,2,3)
ShowMessage("狼娘は観念し、その体をルカに委ねた……")
ChangeSwitch(98,98,0)
ChangeSwitch(96,96,0)
ShowChoices(strings("無視する","挿れてみる"),1)
IfPlayerPicksChoice(0,"無視する")
 ShowMessageFace("",0,0,2,4)
 ShowMessage("しかしルカは誘惑を振り切った！")
 RunCommonEvent(1999)
 EndEventProcessing()
 0()
IfPlayerPicksChoice(1,"挿れてみる")
 0()
404()
ChangeVariable(26,26,3,0,3)
250(bytes(0x04,0x08,0x6f,0x3a,0x0c,0x52,0x50,0x47,0x3a,0x3a,0x53,0x45,0x08,0x3a,0x0a,0x40,0x6e,0x61,0x6d,0x65,0x49,0x22,0x11,0x6d,0x6f,0x6e,0x5f,0x65,0x72,0x6f,0x5f,0x70,0x79,0x75,0x31,0x06,0x3a,0x06,0x45,0x54,0x3a,0x0b,0x40,0x70,0x69,0x74,0x63,0x68,0x69,0x69,0x3a,0x0c,0x40,0x76,0x6f,0x6c,0x75,0x6d,0x65,0x69,0x69))
311(0,1,1,1,26,true)
ShowMessageFace("",0,0,2,5)
ShowMessage("ルカは狼娘の膣口に亀頭をあてがい、腰を進めた！")
ShowMessage("締まりの良い肉穴に、ペニスがぎゅっと包み込まれる！\\D")
ShowMessage("ルカは\\V[26]のダメージを受けた！")
ChangeVariable(27,27,0,3,3,1,2)
If(1,27,0,0,0)
 JumpToLabel("射精1")
 0()
EndIf()
ShowMessageFace("",0,0,2,6)
ShowMessage("【ルカ】")
ShowMessage("あ……！　あぅぅっ……！")
ShowMessage("すごく締まるよぉ……！")
ShowMessageFace("okami_fc1",0,0,2,7)
ShowMessage("【狼娘】")
ShowMessage("あたしの体、鍛えられてるからな！")
ShowMessage("オマンコも筋肉で締め付けられるぞ！")
250(bytes(0x04,0x08,0x6f,0x3a,0x0c,0x52,0x50,0x47,0x3a,0x3a,0x53,0x45,0x08,0x3a,0x0a,0x40,0x6e,0x61,0x6d,0x65,0x49,0x22,0x13,0x6d,0x6f,0x6e,0x5f,0x65,0x72,0x6f,0x5f,0x63,0x68,0x75,0x70,0x61,0x35,0x06,0x3a,0x06,0x45,0x54,0x3a,0x0b,0x40,0x70,0x69,0x74,0x63,0x68,0x69,0x69,0x3a,0x0c,0x40,0x76,0x6f,0x6c,0x75,0x6d,0x65,0x69,0x69))
311(0,1,1,1,26,true)
ShowMessageFace("",0,0,2,8)
ShowMessage("柔らかな膣肉が、握り締めるようにペニスを圧迫する！")
ShowMessage("熱い膣内で肉棒が締め付けられた！\\D")
ShowMessage("ルカは\\V[26]のダメージを受けた！")
ChangeVariable(27,27,0,3,3,1,2)
If(1,27,0,0,0)
 JumpToLabel("射精2")
 0()
EndIf()
ShowMessageFace("",0,0,2,9)
ShowMessage("【ルカ】")
ShowMessage("ひぁぁぁぁ……！")
ShowMessageFace("okami_fc1",0,0,2,10)
ShowMessage("【狼娘】")
ShowMessage("このまま締め付けて、イかせてやるからな！")
ShowMessage("濃厚な子種、たっぷり中出ししろ！")
ShowChoices(strings("もがく","なすがまま"),2)
IfPlayerPicksChoice(0,"もがく")
 ShowMessageFace("",0,0,2,11)
 ShowMessage("ルカは激しくもがいた！")
 ShowMessage("しかし、狼娘にねじ伏せられてしまう！")
 ShowMessageFace("okami_fc1",0,0,2,12)
 ShowMessage("【狼娘】")
 ShowMessage("暴れたって無駄だぞ！")
 ShowMessage("ほら、中を締めてやるからな！")
 0()
IfPlayerPicksChoice(1,"なすがまま")
 ShowMessageFace("",0,0,2,13)
 ShowMessage("ルカはなすがままになっている……")
 ShowMessageFace("okami_fc1",0,0,2,14)
 ShowMessage("【狼娘】")
 ShowMessage("もう抵抗しないのか？")
 ShowMessage("それじゃ、中を締めてやるからな！")
 0()
404()
250(bytes(0x04,0x08,0x6f,0x3a,0x0c,0x52,0x50,0x47,0x3a,0x3a,0x53,0x45,0x08,0x3a,0x0a,0x40,0x6e,0x61,0x6d,0x65,0x49,0x22,0x13,0x6d,0x6f,0x6e,0x5f,0x65,0x72,0x6f,0x5f,0x63,0x68,0x75,0x70,0x61,0x35,0x06,0x3a,0x06,0x45,0x54,0x3a,0x0b,0x40,0x70,0x69,0x74,0x63,0x68,0x69,0x69,0x3a,0x0c,0x40,0x76,0x6f,0x6c,0x75,0x6d,0x65,0x69,0x69))
311(0,1,1,1,26,true)
ShowMessageFace("",0,0,2,15)
ShowMessage("膣内がぎゅっと狭まり、柔らかな膣肉がペニスを締め上げる！\\D")
ShowMessage("ルカは\\V[26]のダメージを受けた！")
ChangeVariable(27,27,0,3,3,1,2)
If(1,27,0,0,0)
 JumpToLabel("射精2")
 0()
EndIf()
ShowMessageFace("",0,0,2,16)
ShowMessage("【ルカ】")
ShowMessage("これ以上はダメ……もう出ちゃうよぉ……")
ShowMessageFace("okami_fc1",0,0,2,17)
ShowMessage("【狼娘】")
ShowMessage("あたしのオマンコに、白いのドクドク出せ！")
ShowMessage("オマエの子種、全部子宮で受け止めてやるからな！")
ShowChoices(strings("もがく","なすがまま"),2)
IfPlayerPicksChoice(0,"もがく")
 ShowMessageFace("",0,0,2,18)
 ShowMessage("ルカは激しくもがいた！")
 ShowMessage("しかし、狼娘にねじ伏せられてしまう！")
 ShowMessageFace("okami_fc1",0,0,2,19)
 ShowMessage("【狼娘】")
 ShowMessage("無駄だって言ってるだろ！")
 ShowMessage("ほら、イっちゃえよ！")
 0()
IfPlayerPicksChoice(1,"なすがまま")
 ShowMessageFace("",0,0,2,20)
 ShowMessage("ルカはなすがままになっている……")
 ShowMessageFace("okami_fc1",0,0,2,21)
 ShowMessage("【狼娘】")
 ShowMessage("観念したみたいだな！")
 ShowMessage("ほら、イっちゃえよ！")
 0()
404()
250(bytes(0x04,0x08,0x6f,0x3a,0x0c,0x52,0x50,0x47,0x3a,0x3a,0x53,0x45,0x08,0x3a,0x0a,0x40,0x6e,0x61,0x6d,0x65,0x49,0x22,0x13,0x6d,0x6f,0x6e,0x5f,0x65,0x72,0x6f,0x5f,0x63,0x68,0x75,0x70,0x61,0x35,0x06,0x3a,0x06,0x45,0x54,0x3a,0x0b,0x40,0x70,0x69,0x74,0x63,0x68,0x69,0x69,0x3a,0x0c,0x40,0x76,0x6f,0x6c,0x75,0x6d,0x65,0x69,0x69))
311(0,1,1,1,26,true)
ShowMessageFace("",0,0,2,22)
ShowMessage("膣内がぎゅぅっと締まり、ペニスを甘く締め上げる！")
ShowMessage("肉棒全体がきつい締め付けにさらされ、射精に導かれた！\\D")
ShowMessage("ルカは\\V[26]のダメージを受けた！")
ChangeVariable(27,27,0,3,3,1,2)
If(1,27,0,0,0)
 JumpToLabel("射精2")
 0()
EndIf()
DefineLabel("射精1")
ShowMessageFace("",0,0,2,23)
ShowMessage("【ルカ】")
ShowMessage("あっ……！　だめ、出ちゃう……！")
RunCommonEvent(104)
RunCommonEvent(105)
ShowMessageFace("",0,0,2,24)
ShowMessage("挿入した瞬間、即座にイってしまった……")
ShowMessageFace("okami_fc1",0,0,2,25)
ShowMessage("【狼娘】")
ShowMessage("挿れてすぐにイったのか？")
ShowMessage("こっちの方は、強くなかったみたいだな……！")
RunCommonEvent(2000)
EndEventProcessing()
DefineLabel("射精2")
ShowMessageFace("",0,0,2,26)
ShowMessage("【ルカ】")
ShowMessage("で、出ちゃう……！")
ShowMessage("ふぁぁぁぁぁ……！")
RunCommonEvent(104)
RunCommonEvent(105)
ShowMessageFace("",0,0,2,27)
ShowMessage("締まりの良い膣内感触を味わいながら、中で果ててしまった……")
ShowMessageFace("okami_fc1",0,0,2,28)
ShowMessage("【狼娘】")
ShowMessage("あはは、簡単にイっちまった！")
ShowMessage("こっちの方は、強くなかったみたいだな……！")
RunCommonEvent(2000)
EndEventProcessing()
0()
