﻿// EVENT 2010
Name "誘惑：プチラミア"

If(0,25,1)
 EndEventProcessing()
 0()
EndIf()
355("$game_troop.lose_event_id = 3010")
ChangeVariable(26,26,0,3,3,1,4)
ChangeVariable(26,26,4,0,10)
ShowMessageFace("pramia_fc1",2,0,2,1)
ShowMessage("【プチラミア】")
ShowMessage("このままじゃ負けちゃう！")
ShowMessage("こうなったら、あたしの色香で……！")
ShowMessageFace("pramia_fc1",1,0,2,2)
ShowMessage("【プチラミア】")
ShowMessage("ねぇん……お姉さんに巻き付いてほしくなぁい？")
ChangeSwitch(98,98,0)
ChangeSwitch(96,96,0)
ShowChoices(strings("無視する","誘惑に乗る"),1)
IfPlayerPicksChoice(0,"無視する")
 ShowMessageFace("",0,0,2,3)
 ShowMessage("しかしルカは誘惑を振り切った！")
 RunCommonEvent(1999)
 EndEventProcessing()
 0()
IfPlayerPicksChoice(1,"誘惑に乗る")
 0()
404()
ShowMessageFace("pramia_fc1",0,0,2,4)
ShowMessage("【プチラミア】")
ShowMessage("うそ……？　引っ掛かった……！？")
250(bytes(0x04,0x08,0x6f,0x3a,0x0c,0x52,0x50,0x47,0x3a,0x3a,0x53,0x45,0x08,0x3a,0x0a,0x40,0x6e,0x61,0x6d,0x65,0x49,0x22,0x16,0x6d,0x6f,0x6e,0x5f,0x65,0x72,0x6f,0x5f,0x6d,0x61,0x6b,0x69,0x74,0x75,0x6b,0x69,0x32,0x06,0x3a,0x06,0x45,0x54,0x3a,0x0b,0x40,0x70,0x69,0x74,0x63,0x68,0x69,0x69,0x3a,0x0c,0x40,0x76,0x6f,0x6c,0x75,0x6d,0x65,0x69,0x69))
355("battler_graphic_hide")
PictureDisplay(5,"ev_pramia_h1",0,0,0,0,100,100,255,0)
ShowMessageFace("",0,0,2,5)
ShowMessage("プチラミアは、短い尻尾を巻き付けてきた！")
ShowMessage("ルカの体に、小さな尻尾が絡み付く！")
ShowMessage("ルカの体は、プチラミアに巻き付かれてしまった！")
ShowMessageFace("",0,0,2,6)
ShowMessage("【ルカ】")
ShowMessage("うぐぐっ……")
ShowMessageFace("",0,0,2,7)
ShowMessage("しかし、プチラミアの巻き付きはそんなにきつくない。")
ShowMessage("少しもがけば、簡単に抜けられそうだ……")
ShowMessageFace("pramia_fc1",1,0,2,8)
ShowMessage("【プチラミア】")
ShowMessage("あたしの魔膣で、あんたのチンチン締め上げてあげる。")
ShowMessage("白くて粘っこいの、たっぷり搾り取っちゃうからね……")
ShowMessageFace("",0,0,2,9)
ShowMessage("プチラミアはルカのズボンを下ろし、肉棒を露わにする！")
ShowMessage("膣口が、ペニスを呑み込むかのように近付いてきた――")
ShowMessageFace("pramia_fc1",1,0,2,10)
ShowMessage("【プチラミア】")
ShowMessage("じゃあ、犯してあげるね。")
ShowMessage("ほらほら……挿れちゃうよ……？")
ShowChoices(strings("もがく","なすがまま"),1)
IfPlayerPicksChoice(0,"もがく")
 ShowMessageFace("",0,0,2,11)
 ShowMessage("ルカは激しくもがき、プチラミアの巻き付きから逃れた！")
 RunCommonEvent(1999)
 EndEventProcessing()
 0()
IfPlayerPicksChoice(1,"なすがまま")
 ShowMessageFace("",0,0,2,12)
 ShowMessage("ルカはなすがままになっている……")
 0()
404()
ShowMessageFace("pramia_fc1",1,0,2,13)
ShowMessage("【プチラミア】")
ShowMessage("じゃあ、食べちゃうよ……")
ShowMessage("あんたのチンチン、あたしの魔膣で……")
ChangeVariable(26,26,3,0,2)
250(bytes(0x04,0x08,0x6f,0x3a,0x0c,0x52,0x50,0x47,0x3a,0x3a,0x53,0x45,0x08,0x3a,0x0a,0x40,0x6e,0x61,0x6d,0x65,0x49,0x22,0x11,0x6d,0x6f,0x6e,0x5f,0x65,0x72,0x6f,0x5f,0x70,0x79,0x75,0x34,0x06,0x3a,0x06,0x45,0x54,0x3a,0x0b,0x40,0x70,0x69,0x74,0x63,0x68,0x69,0x69,0x3a,0x0c,0x40,0x76,0x6f,0x6c,0x75,0x6d,0x65,0x69,0x69))
PictureDisplay(5,"ev_pramia_h2",0,0,0,0,100,100,255,0)
311(0,1,1,1,26,true)
ShowMessageFace("",0,0,2,14)
ShowMessage("ルカのペニスは、プチラミアの膣内に沈み込んだ！")
ShowMessage("きつい締め付けが、ルカのペニスを襲う！\\D")
ShowMessage("ルカは\\V[26]のダメージを受けた！")
ShowMessageFace("",0,0,2,15)
ShowMessage("ルカは、プチラミアに犯されてしまった！")
ChangeVariable(27,27,0,3,3,1,2)
If(1,27,0,0,0)
 JumpToLabel("射精1")
 0()
EndIf()
ShowMessageFace("pramia_fc1",1,0,2,16)
ShowMessage("【プチラミア】")
ShowMessage("あはは……あたしの中、すごいでしょ。")
ShowMessage("締め付けがきつくて、チンチン溶けちゃいそう？")
ShowMessageFace("",0,0,2,17)
ShowMessage("プチラミアの中は非常に狭く、その分激しい締め付けとなって")
ShowMessage("僕のモノを責め嫐ってくる。")
ShowMessageFace("pramia_fc1",1,0,2,18)
ShowMessage("【プチラミア】")
ShowMessage("ほ～ら、声上げてもいいんだよ。")
ShowMessage("魔膣でチンチン締め上げられて、たまらないんでしょ？")
ShowMessageFace("",0,0,2,19)
ShowMessage("【ルカ】")
ShowMessage("ぅぅぅ……")
ShowMessageFace("pramia_fc1",1,0,2,20)
ShowMessage("【プチラミア】")
ShowMessage("やせ我慢しちゃって……")
ShowMessage("あたし、男をよがり狂わせるのが上手なんだから。")
ShowMessageFace("pramia_fc1",1,0,2,21)
ShowMessage("【プチラミア】")
ShowMessage("ほら……こうやって締め上げて……")
ShowMessage("中でギュッと搾るみたいに……ほらほらほら……")
250(bytes(0x04,0x08,0x6f,0x3a,0x0c,0x52,0x50,0x47,0x3a,0x3a,0x53,0x45,0x08,0x3a,0x0a,0x40,0x6e,0x61,0x6d,0x65,0x49,0x22,0x13,0x6d,0x6f,0x6e,0x5f,0x65,0x72,0x6f,0x5f,0x63,0x68,0x75,0x70,0x61,0x35,0x06,0x3a,0x06,0x45,0x54,0x3a,0x0b,0x40,0x70,0x69,0x74,0x63,0x68,0x69,0x69,0x3a,0x0c,0x40,0x76,0x6f,0x6c,0x75,0x6d,0x65,0x69,0x69))
311(0,1,1,1,26,true)
ShowMessageFace("",0,0,2,22)
ShowMessage("プチラミアの膣壁が、じわじわと四方からペニスを圧迫してきた！\\D")
ShowMessage("ルカは\\V[26]のダメージを受けた！")
ChangeVariable(27,27,0,3,3,1,2)
If(1,27,0,0,0)
 JumpToLabel("射精2")
 0()
EndIf()
ShowMessageFace("",0,0,2,23)
ShowMessage("【ルカ】")
ShowMessage("あぅぅぅ……！")
ShowMessageFace("pramia_fc1",1,0,2,24)
ShowMessage("【プチラミア】")
ShowMessage("あはは、声出しちゃったね……ガマンできなかった？")
ShowMessage("このまま、男のミルクもぶち撒けちゃえ！")
250(bytes(0x04,0x08,0x6f,0x3a,0x0c,0x52,0x50,0x47,0x3a,0x3a,0x53,0x45,0x08,0x3a,0x0a,0x40,0x6e,0x61,0x6d,0x65,0x49,0x22,0x13,0x6d,0x6f,0x6e,0x5f,0x65,0x72,0x6f,0x5f,0x63,0x68,0x75,0x70,0x61,0x35,0x06,0x3a,0x06,0x45,0x54,0x3a,0x0b,0x40,0x70,0x69,0x74,0x63,0x68,0x69,0x69,0x3a,0x0c,0x40,0x76,0x6f,0x6c,0x75,0x6d,0x65,0x69,0x69))
311(0,1,1,1,26,true)
ShowMessageFace("",0,0,2,25)
ShowMessage("プチラミアは、膣内をぎゅうぎゅうと締め付けた！\\D")
ShowMessage("ルカは\\V[26]のダメージを受けた！")
ChangeVariable(27,27,0,3,3,1,2)
If(1,27,0,0,0)
 JumpToLabel("射精2")
 0()
EndIf()
ShowMessageFace("",0,0,2,26)
ShowMessage("【ルカ】")
ShowMessage("あひ……ひぁぁぁ……！！")
ShowMessageFace("pramia_fc1",1,0,2,27)
ShowMessage("【プチラミア】")
ShowMessage("あはは、まだまだ締めちゃうよ～！")
ShowMessage("もっともっとよがり狂っちゃえ～♪")
250(bytes(0x04,0x08,0x6f,0x3a,0x0c,0x52,0x50,0x47,0x3a,0x3a,0x53,0x45,0x08,0x3a,0x0a,0x40,0x6e,0x61,0x6d,0x65,0x49,0x22,0x13,0x6d,0x6f,0x6e,0x5f,0x65,0x72,0x6f,0x5f,0x63,0x68,0x75,0x70,0x61,0x35,0x06,0x3a,0x06,0x45,0x54,0x3a,0x0b,0x40,0x70,0x69,0x74,0x63,0x68,0x69,0x69,0x3a,0x0c,0x40,0x76,0x6f,0x6c,0x75,0x6d,0x65,0x69,0x69))
311(0,1,1,1,26,true)
ShowMessageFace("",0,0,2,28)
ShowMessage("プチラミアの膣内が、ルカのペニスを締め上げる！\\D")
ShowMessage("ルカは\\V[26]のダメージを受けた！")
ChangeVariable(27,27,0,3,3,1,2)
If(1,27,0,0,0)
 JumpToLabel("射精2")
 0()
EndIf()
ShowMessageFace("pramia_fc1",1,0,2,29)
ShowMessage("【プチラミア】")
ShowMessage("えへへ……そろそろイかせてほしい？")
ShowMessage("じゃあ、あたしの必殺ワザで締め付けてあげるね。")
ShowMessageFace("pramia_fc1",1,0,2,30)
ShowMessage("【プチラミア】")
ShowMessage("ガマンしようとしても無駄だよ。")
ShowMessage("この技使っちゃったら、精液撒き散らすしかないんだから……")
250(bytes(0x04,0x08,0x6f,0x3a,0x0c,0x52,0x50,0x47,0x3a,0x3a,0x53,0x45,0x08,0x3a,0x0a,0x40,0x6e,0x61,0x6d,0x65,0x49,0x22,0x13,0x6d,0x6f,0x6e,0x5f,0x65,0x72,0x6f,0x5f,0x63,0x68,0x75,0x70,0x61,0x35,0x06,0x3a,0x06,0x45,0x54,0x3a,0x0b,0x40,0x70,0x69,0x74,0x63,0x68,0x69,0x69,0x3a,0x0c,0x40,0x76,0x6f,0x6c,0x75,0x6d,0x65,0x69,0x69))
311(0,1,1,1,26,true)
ShowMessageFace("",0,0,2,31)
ShowMessage("プチラミアの膣内が、ぐにゅぐにゅと収縮する！")
ShowMessage("ルカのペニスは、先端から根元までねちっこく締め上げられた！\\D")
ShowMessage("ルカは\\V[26]のダメージを受けた！")
ChangeVariable(27,27,0,3,3,1,2)
If(1,27,0,0,0)
 JumpToLabel("射精2")
 0()
EndIf()
DefineLabel("射精1")
ShowMessageFace("",0,0,2,32)
ShowMessage("【ルカ】")
ShowMessage("あっ……！　漏れちゃうよぉ……！")
ShowMessageFace("pramia_fc1",0,0,2,33)
ShowMessage("【プチラミア】")
ShowMessage("えっ……！？　ちょっと、まだ……！")
RunCommonEvent(104)
PictureDisplay(5,"ev_pramia_h3",0,0,0,0,100,100,255,0)
RunCommonEvent(105)
ShowMessageFace("",0,0,2,34)
ShowMessage("プチラミアの膣に挿入した瞬間、締め付けの激しさに")
ShowMessage("搾り出されるように果ててしまった。")
ShowMessageFace("pramia_fc1",1,0,2,35)
ShowMessage("【プチラミア】")
ShowMessage("あはは……！")
ShowMessage("挿れた瞬間にイっちゃうなんて、はっずかし～い♪")
ShowMessageFace("pramia_fc1",1,0,2,36)
ShowMessage("【プチラミア】")
ShowMessage("あんた、それでも勇者なのぉ？")
RunCommonEvent(2000)
EndEventProcessing()
DefineLabel("射精2")
ShowMessageFace("",0,0,2,37)
ShowMessage("【ルカ】")
ShowMessage("ふぁぁ……中が締まるよぉ……")
RunCommonEvent(104)
PictureDisplay(5,"ev_pramia_h3",0,0,0,0,100,100,255,0)
RunCommonEvent(105)
ShowMessageFace("",0,0,2,38)
ShowMessage("激しく収縮する膣内に、大量の精液がドクドクと注ぎ込まれていく――")
ShowMessageFace("pramia_fc1",1,0,2,39)
ShowMessage("【プチラミア】")
ShowMessage("あはは。あたしの必殺ワザで、イチコロだったね。")
ShowMessage("とっても気持ちよかったでしょ……？")
RunCommonEvent(2000)
EndEventProcessing()
0()
