﻿// EVENT 4022
Name "イリアス2"

PictureDisplay(5,"80_iriasu_st38",0,0,0,0,100,100,255,0)
ShowMessageFace("iriasu_fc4",7,0,2,1)
ShowMessage("【イリアス】")
ShowMessage("あなたの性的能力は、非常に貧弱です。")
ShowMessage("この私が、鍛えてあげましょう。")
ShowMessageFace("",0,0,2,2)
ShowMessage("【ルカ】")
ShowMessage("鍛えるって、何を……")
PictureDisplay(5,"80_iriasu_st32",0,0,0,0,100,100,255,0)
ShowMessageFace("iriasu_fc4",1,0,2,3)
ShowMessage("【イリアス】")
ShowMessage("あなたの早漏を、解消してあげようというのです。")
ShowMessage("さあ、私の部屋に来なさい……")
ShowMessageFace("",0,0,2,4)
ShowMessage("こうして僕は、イリアス様の部屋へと招き入れられた――")
221()
PictureDisplay(1,"bg195",0,0,0,0,100,100,255,0)
PictureDisplay(5,"ev_iriasu_hd1",0,0,0,0,100,100,255,0)
222()
241(bytes(0x04,0x08,0x6f,0x3a,0x0d,0x52,0x50,0x47,0x3a,0x3a,0x42,0x47,0x4d,0x08,0x3a,0x0a,0x40,0x6e,0x61,0x6d,0x65,0x49,0x22,0x09,0x65,0x72,0x6f,0x31,0x06,0x3a,0x06,0x45,0x54,0x3a,0x0c,0x40,0x76,0x6f,0x6c,0x75,0x6d,0x65,0x69,0x69,0x3a,0x0b,0x40,0x70,0x69,0x74,0x63,0x68,0x69,0x69))
245(bytes(0x04,0x08,0x6f,0x3a,0x0d,0x52,0x50,0x47,0x3a,0x3a,0x42,0x47,0x53,0x08,0x3a,0x0a,0x40,0x6e,0x61,0x6d,0x65,0x49,0x22,0x1e,0x6d,0x6f,0x6e,0x5f,0x68,0x73,0x65,0x61,0x6e,0x30,0x31,0x5f,0x69,0x6e,0x6e,0x65,0x72,0x77,0x6f,0x72,0x6b,0x73,0x5f,0x61,0x31,0x06,0x3a,0x06,0x45,0x54,0x3a,0x0c,0x40,0x76,0x6f,0x6c,0x75,0x6d,0x65,0x69,0x55,0x3a,0x0b,0x40,0x70,0x69,0x74,0x63,0x68,0x69,0x69))
PictureDisplay(5,"ev_iriasu_hd1",0,0,0,0,100,100,255,0)
ShowMessageFace("",0,0,2,5)
ShowMessage("【ルカ】")
ShowMessage("あ……あぁぁぁぁっ！！")
ShowMessageFace("",0,0,2,6)
ShowMessage("部屋に入るなり、僕はイリアス様に犯されてしまった。")
ShowMessage("その蜜壺の中に、肉棒が咥え込まれてしまう。")
ShowMessageFace("",0,0,2,7)
ShowMessage("清らかな体の、最も神聖な部分――")
ShowMessage("そんな所に、僕の汚れたモノが包み込まれてしまったのだ。")
ShowMessageFace("",0,0,2,8)
ShowMessage("【ルカ】")
ShowMessage("あ、あぅぅ……！")
ShowMessageFace("",0,0,2,9)
ShowMessage("膣内はとろけるように温かく、そして柔らかい。")
ShowMessage("柔肉が艶めかしく蠢き、まるで肉棒を揉みしだいているかのようだ。")
ShowMessageFace("",0,0,2,10)
ShowMessage("さらに体が小さいせいで、非常に穴が狭い。")
ShowMessage("ペニスに膣肉がぎゅと密着し、きつく締め付けてくる――")
ShowMessageFace("iriasu_fc4",0,0,2,11)
ShowMessage("【イリアス】")
ShowMessage("どうです、ルカ……？")
ShowMessage("この体の、清らかな蜜壺は……")
ShowMessageFace("",0,0,2,12)
ShowMessage("【ルカ】")
ShowMessage("あぅぅぅ……きもちいいです……")
ShowMessageFace("",0,0,2,13)
ShowMessage("喘ぎ声混じりに、そう告げるのが精一杯だった。")
ShowMessageFace("",0,0,2,14)
ShowMessage("肉壁が波打ちながら、じゅるり、じゅるりとペニスに絡み付き――")
ShowMessage("そして、きゅうきゅうと収縮しつつ締め付けてくるのだ。")
ShowMessageFace("",0,0,2,15)
ShowMessage("肉棒の先端から根本まで温かい感触に包み込まれ、甘く溶かされるかのよう。")
ShowMessage("奥の方には細かなヒダが密集しており、亀頭に柔らかく絡んでくる――")
ShowMessageFace("",0,0,2,16)
ShowMessage("【ルカ】")
ShowMessage("す、すごいです……中がきつくて……はぅぅ……")
ShowMessageFace("iriasu_fc4",0,0,2,17)
ShowMessage("【イリアス】")
ShowMessage("さあ、ルカ……腰を動かしなさい。")
ShowMessage("あなたの貧弱なモノを、私の蜜壺で鍛えてあげましょう。")
ShowMessageFace("",0,0,2,18)
ShowMessage("【ルカ】")
ShowMessage("は、はい……わ、分かりました……")
ShowMessageFace("",0,0,2,19)
ShowMessage("イリアス様に言われるがまま、僕は腰を動かそうとしたが――")
ShowMessage("少し動いただけで、肉壁が抵抗するかのように締め付けてくる。")
ShowMessageFace("",0,0,2,20)
ShowMessage("【ルカ】")
ShowMessage("はぅぅっ……！")
ShowMessageFace("",0,0,2,21)
ShowMessage("きゅうきゅうと収縮刺激を受け、思わず射精しそうになってしまう。")
ShowMessage("情けない事に、たちまち僕は腰を動かせなくなった。")
ShowMessageFace("iriasu_fc4",0,0,2,22)
ShowMessage("【イリアス】")
ShowMessage("どうしたのです、ルカ……？")
ShowMessage("もう、腰を動かすのは終わりなのですか？")
ShowMessageFace("",0,0,2,23)
ShowMessage("【ルカ】")
ShowMessage("だ、だめです……")
ShowMessage("動いたら、漏れちゃう……")
ShowMessageFace("",0,0,2,24)
ShowMessage("ただ挿れているだけでも、きゅんきゅんと締め付けてくる狭い蜜壺。")
ShowMessage("腰を動かせば、肉棒全体が柔肉で摩擦されてしまうのだ。")
ShowMessageFace("",0,0,2,25)
ShowMessage("そうなれば僕は、たちまち果ててしまうだろう。")
ShowMessage("あっという間に白濁を撒き散らし、イリアス様に怒られてしまう――")
ShowMessageFace("iriasu_fc4",0,0,2,26)
ShowMessage("【イリアス】")
ShowMessage("あなたが動けないのならば、私が腰を動かしましょう。")
ShowMessage("肉棒に刺激を与え、鍛えると言ったでしょう……？")
ShowMessageFace("",0,0,2,27)
ShowMessage("【ルカ】")
ShowMessage("あ、あぁぁぁぁ……！")
245(bytes(0x04,0x08,0x6f,0x3a,0x0d,0x52,0x50,0x47,0x3a,0x3a,0x42,0x47,0x53,0x08,0x3a,0x0a,0x40,0x6e,0x61,0x6d,0x65,0x49,0x22,0x1e,0x6d,0x6f,0x6e,0x5f,0x68,0x73,0x65,0x61,0x6e,0x30,0x34,0x5f,0x69,0x6e,0x6e,0x65,0x72,0x77,0x6f,0x72,0x6b,0x73,0x5f,0x61,0x34,0x06,0x3a,0x06,0x45,0x54,0x3a,0x0c,0x40,0x76,0x6f,0x6c,0x75,0x6d,0x65,0x69,0x55,0x3a,0x0b,0x40,0x70,0x69,0x74,0x63,0x68,0x69,0x69))
ShowMessageFace("",0,0,2,28)
ShowMessage("イリアス様は、僕の上で上下に腰を振り始めた。")
ShowMessageFace("",0,0,2,29)
ShowMessage("蜜壺の中でペニスがじゅぶじゅぶと擦れ、亀頭にヒダがまとわりつく。")
ShowMessage("狭い膣肉にカリが擦れ、上下の腰振りの動きで扱き抜かれる――")
ShowMessageFace("",0,0,2,30)
ShowMessage("【ルカ】")
ShowMessage("あぅぅぅぅ……気持ちいい……")
ShowMessage("こんなの、すぐ漏らしちゃう……")
ShowMessageFace("iriasu_fc4",0,0,2,31)
ShowMessage("【イリアス】")
ShowMessage("これしきで漏らすなど、恥ずかしいですよ……")
ShowMessage("腰に力を入れ、耐えるのです。")
ShowMessageFace("",0,0,2,32)
ShowMessage("イリアス様は僕を見下ろしながら、さらに激しく腰を振りたてた。")
ShowMessage("蜜壺の中でペニスが扱かれ、甘く優しく締め付けられる――")
ShowMessageFace("",0,0,2,33)
ShowMessage("【ルカ】")
ShowMessage("あ……！　あぅぅぅぅぅ……！！")
ShowMessageFace("",0,0,2,34)
ShowMessage("このままでは、たちまちイかされてしまう。")
ShowMessage("腰を動かされてすぐ、射精してしまうなんて――")
ShowMessageFace("",0,0,2,35)
ShowMessage("僕は必死で射精をこらえ、じっと耐えようとした。")
ShowMessageFace("iriasu_fc4",0,0,2,36)
ShowMessage("【イリアス】")
ShowMessage("イってはなりませんよ、ルカ……")
ShowMessage("私の神聖な蜜壺を、汚い体液で汚す気ですか？")
ShowMessageFace("",0,0,2,37)
ShowMessage("そう言いつつイリアス様は、いっそう激しく腰を動かしてくる。")
ShowMessage("蜜壺の中でペニスを締め付けられ、にゅぐにゅぐと揉みしだかれ――")
ShowMessageFace("",0,0,2,38)
ShowMessage("僕の我慢はあっけなく崩れ、じんわりと射精感が湧き上がってきた。")
ShowMessage("こんなに気持ちいいのに、発射がこらえられるはずがない――")
ShowMessageFace("",0,0,2,39)
ShowMessage("【ルカ】")
ShowMessage("あぅぅぅ……すみません……")
ShowMessage("もう、漏れちゃいます……")
ShowMessageFace("iriasu_fc4",0,0,2,40)
ShowMessage("【イリアス】")
ShowMessage("駄目ですよ、ルカ……")
ShowMessage("射精は許しません、耐えなさい……")
ShowMessageFace("",0,0,2,41)
ShowMessage("イリアス様は僕を見下ろしながら、激しく腰を振り続ける。")
ShowMessage("膣内ではペニスが扱き抜かれ、そして絶頂の瞬間が近付いてきた。")
ShowMessageFace("",0,0,2,42)
ShowMessage("ぞわぞわした感覚が背筋を駆け抜け、ペニスがぐぐっと射精前の動きを見せる――")
ShowMessageFace("",0,0,2,43)
ShowMessage("【ルカ】")
ShowMessage("だ、だめぇ……！")
ShowMessage("イリアス様の中に、漏れちゃう……！")
ShowMessageFace("",0,0,2,44)
ShowMessage("必死で耐えようとしたにも関わらず、我慢できなかった。")
ShowMessage("全身に快楽が広がり、そして肉棒が脈動を始める――")
ShowMessageFace("",0,0,2,45)
ShowMessage("【ルカ】")
ShowMessage("あ、あぁぁぁぁぁ――！！")
RunCommonEvent(104)
PictureDisplay(5,"ev_iriasu_hd2",0,0,0,0,100,100,255,0)
RunCommonEvent(105)
ShowMessageFace("",0,0,2,46)
ShowMessage("イリアス様の膣内へと、ドクドクと精液が注がれていく。")
ShowMessage("神聖な場所を、僕の汚い体液が汚しているのだ――")
ShowMessageFace("",0,0,2,47)
ShowMessage("【ルカ】")
ShowMessage("あぅぅぅ……ごめんなさい……")
ShowMessage("イリアス様ぁ、ごめんなさい……")
ShowMessageFace("",0,0,2,48)
ShowMessage("膣内で射精しながら、僕は惨めに謝っていた。")
ShowMessage("ほとんど耐えられず、あっという間に果ててしまったのだ――")
ShowMessageFace("iriasu_fc4",2,0,2,49)
ShowMessage("【イリアス】")
ShowMessage("まったく、もうおもらしですか。")
ShowMessage("これほどしか耐えられないとは……情けないですね。")
ShowMessageFace("",0,0,2,50)
ShowMessage("きゅっ、きゅっ……と、イリアス様の肉壺は僕のモノを断続的に締め付けた。")
ShowMessage("まるで、尿道に残った精液まで搾り上げてしまうかのように――")
ShowMessageFace("",0,0,2,51)
ShowMessage("【ルカ】")
ShowMessage("あ……！　ふぁぁぁぁ……！")
ShowMessageFace("",0,0,2,52)
ShowMessage("その刺激により、肉棒は膣内で大きくなったまま。")
ShowMessage("萎える事も、抜くことも許されなかった。")
ShowMessageFace("iriasu_fc4",0,0,2,53)
ShowMessage("【イリアス】")
ShowMessage("今のは、まったく鍛えたうちに入りません。")
ShowMessage("惨めにも、腰を振り始めてすぐイってしまったのですから……")
ShowMessageFace("iriasu_fc4",0,0,2,54)
ShowMessage("【イリアス】")
ShowMessage("さあ、これから与える刺激に耐えてもらいますよ。")
ShowMessage("今度こそ、情けない姿は見せないように……")
ShowMessageFace("",0,0,2,55)
ShowMessage("イリアス様は、再び僕の上で腰を振り始めた。")
ShowMessage("その腰さばきにより、膣内でペニスがぐちゅぐちゅと弄ばれる。")
ShowMessageFace("",0,0,2,56)
ShowMessage("【ルカ】")
ShowMessage("あ、あぁぁぁぁぁ……！")
ShowMessageFace("iriasu_fc4",0,0,2,57)
ShowMessage("【イリアス】")
ShowMessage("まだまだ、この程度ではないですよ。")
ShowMessage("よりきつい快楽を与え、あなたのモノを鍛え上げます……")
ShowMessageFace("",0,0,2,58)
ShowMessage("イリアス様は腰を振るのを止め、膣内をぎゅぅっと締め付けてきた。")
ShowMessage("柔らかくぬめった肉壁がみっちりと狭まる感触に、僕は腰を震わせてしまう。")
ShowMessageFace("",0,0,2,59)
ShowMessage("【ルカ】")
ShowMessage("あ、あぁぁ……し、締まるよぉ……！")
ShowMessage("きもちいいよぉ……あぁぁぁぁ……！！")
ShowMessageFace("iriasu_fc4",0,0,2,60)
ShowMessage("【イリアス】")
ShowMessage("イってはなりません、耐えるのです。")
ShowMessage("これしきで果てたら、オシオキしますよ……")
ShowMessageFace("",0,0,2,61)
ShowMessage("【ルカ】")
ShowMessage("あぁぁぁぁぁ……だ、だめぇ……")
ShowMessageFace("",0,0,2,62)
ShowMessage("イリアス様の蜜壺の中でペニスが弄ばれ、みるみる追い詰められていく。")
ShowMessage("必死で我慢しようとしても、艶めかしい感触の前では無駄だった。")
ShowMessageFace("",0,0,2,63)
ShowMessage("ぬめった柔肉の蠢き、細かなヒダの絡みつき、弾力ある膣壁の締め付け――")
ShowMessage("そんな甘い刺激が肉棒を翻弄し、容赦なく僕を昇天させてしまう。")
ShowMessageFace("",0,0,2,64)
ShowMessage("【ルカ】")
ShowMessage("ふぁぁぁぁ……イリアス様、ごめんなさいぃ……")
ShowMessage("ま……また、漏れちゃいます……")
ShowMessageFace("",0,0,2,65)
ShowMessage("みるみる射精感が湧き上がり――")
ShowMessage("昇天するような心地を味わいながら、悦びに身を任せ――")
ShowMessageFace("",0,0,2,66)
ShowMessage("【ルカ】")
ShowMessage("あ、あぁぁぁぁぁぁ……")
RunCommonEvent(104)
PictureDisplay(5,"ev_iriasu_hd3",0,0,0,0,100,100,255,0)
RunCommonEvent(105)
ShowMessageFace("",0,0,2,67)
ShowMessage("あえなく、ペニスはドクドクと脈動を始めた。")
ShowMessage("イリアス様の膣内に、欲望の体液がどっぷりと注がれていく。")
ShowMessageFace("",0,0,2,68)
ShowMessage("ほとんど刺激に耐えられず、本能のままに放たれた白濁。")
ShowMessage("僕は屈辱を噛み締めながらも、腰がとろけそうな快楽を味わった――")
ShowMessageFace("",0,0,2,69)
ShowMessage("【ルカ】")
ShowMessage("あ、あぅぅぅぅぅ……")
ShowMessageFace("iriasu_fc4",0,0,2,70)
ShowMessage("【イリアス】")
ShowMessage("こんなに簡単に漏らすとは……")
ShowMessage("ルカ、あなたは本当に情けない早漏勇者ですね……")
ShowMessageFace("",0,0,2,71)
ShowMessage("【ルカ】")
ShowMessage("だって……イリアス様の中、気持ちよすぎて……")
ShowMessageFace("iriasu_fc4",0,0,2,72)
ShowMessage("【イリアス】")
ShowMessage("私のせいにするというのですか……？")
ShowMessage("恥知らずなペニスには、オシオキせねばなりませんね……")
ShowMessageFace("",0,0,2,73)
ShowMessage("そう言いながら、イリアス様は妖しく腰をくねらせてくる。")
ShowMessage("ペニスからねっとりと甘い刺激が伝わり、僕はみるみる恍惚に浸った。")
ShowMessageFace("",0,0,2,74)
ShowMessage("【ルカ】")
ShowMessage("ふぁぁぁぁ……き、きもちいいよぉ……")
ShowMessageFace("iriasu_fc4",0,0,2,75)
ShowMessage("【イリアス】")
ShowMessage("まったく……")
ShowMessage("これくらいでとろけてしまうとは、調教しがいのない勇者ですね。")
ShowMessageFace("iriasu_fc4",0,0,2,76)
ShowMessage("【イリアス】")
ShowMessage("オシオキを続けましょう。")
ShowMessage("さあ、これに耐えられますか……？")
ShowMessageFace("",0,0,2,77)
ShowMessage("次の瞬間、膣内がきゅっと締まった。")
ShowMessage("膣肉のうねりが、亀頭を甘くひねり上げる――")
ShowMessageFace("",0,0,2,78)
ShowMessage("【ルカ】")
ShowMessage("ふぁぁぁぁ……")
RunCommonEvent(104)
PictureDisplay(5,"ev_iriasu_hd4",0,0,0,0,100,100,255,0)
RunCommonEvent(105)
ShowMessageFace("iriasu_fc4",0,0,2,79)
ShowMessage("【イリアス】")
ShowMessage("やれやれ、ひとたまりもありませんでしたね。")
ShowMessage("あなたを鍛えるのは、骨が折れそうです。")
ShowMessageFace("",0,0,2,80)
ShowMessage("【ルカ】")
ShowMessage("ふぁぁぁぁぁ……")
ShowMessageFace("iriasu_fc4",0,0,2,81)
ShowMessage("【イリアス】")
ShowMessage("聞いているのですか、ルカ……？")
ShowMessageFace("",0,0,2,82)
ShowMessage("【ルカ】")
ShowMessage("あぅぅぅ……イリアス様ぁ……")
ShowMessage("あぁぁぁぁ……きもちいいよぉ……")
RunCommonEvent(104)
PictureDisplay(5,"ev_iriasu_hd5",0,0,0,0,100,100,255,0)
RunCommonEvent(105)
246(2)
ShowMessageFace("iriasu_fc4",0,0,2,83)
ShowMessage("【イリアス】")
ShowMessage("……やれやれ。")
ShowMessageFace("",0,0,2,84)
ShowMessage("呆れたのか、満足したのか――")
ShowMessage("すっかりとろけきった僕の上で、イリアス様は笑みを浮かべたのだった。")
221()
PictureClear(5)
PictureClear(6)
ShowMessageFace("",0,0,2,85)
ShowMessage("・・・・・・・・")
242(2)
Wait(120)
241(bytes(0x04,0x08,0x6f,0x3a,0x0d,0x52,0x50,0x47,0x3a,0x3a,0x42,0x47,0x4d,0x08,0x3a,0x0a,0x40,0x6e,0x61,0x6d,0x65,0x49,0x22,0x0c,0x63,0x61,0x73,0x74,0x6c,0x65,0x36,0x06,0x3a,0x06,0x45,0x54,0x3a,0x0c,0x40,0x76,0x6f,0x6c,0x75,0x6d,0x65,0x69,0x69,0x3a,0x0b,0x40,0x70,0x69,0x74,0x63,0x68,0x69,0x69))
0()
