﻿// EVENT 2022
Name "誘惑：ヌルコ"

If(0,25,1)
 EndEventProcessing()
 0()
EndIf()
355("$game_troop.lose_event_id = 3022")
ChangeVariable(26,26,0,3,3,1,4)
ChangeVariable(26,26,4,0,10)
ShowMessageFace("nuruko_fc1",2,0,2,1)
ShowMessage("【？？？】")
ShowMessage("……………………")
ShowMessageFace("",0,0,2,2)
ShowMessage("？？？は元気がなくなってきたようだ")
ShowMessage("口の開いた触手が、ルカの前に投げ出された……")
ShowMessageFace("",0,0,2,3)
ShowMessage("【ルカ】")
ShowMessage("……………………")
ShowMessageFace("",0,0,2,4)
ShowMessage("触手の口内は、ネバネバの粘液にまみれているようだ。")
ShowMessage("段状に並んだヒダヒダの中で、粘液が糸を引いている。")
ShowMessageFace("",0,0,2,5)
ShowMessage("この中に自分のモノを挿入すると、とても気持ちが良さそうだ……")
ChangeSwitch(98,98,0)
ChangeSwitch(96,96,0)
ShowChoices(strings("無視する","触手口に挿入してみる"),1)
IfPlayerPicksChoice(0,"無視する")
 ShowMessageFace("",0,0,2,6)
 ShowMessage("しかしルカは誘惑を振り切った！")
 RunCommonEvent(1999)
 EndEventProcessing()
 0()
IfPlayerPicksChoice(1,"触手口に挿入してみる")
 0()
404()
ShowMessageFace("nuruko_fc1",2,0,2,7)
ShowMessage("【？？？】")
ShowMessage("……………………")
ShowMessageFace("",0,0,2,8)
ShowMessage("【ルカ】")
ShowMessage("ちょっと試すくらいなら、いいよな……")
ChangeVariable(26,26,3,0,4)
250(bytes(0x04,0x08,0x6f,0x3a,0x0c,0x52,0x50,0x47,0x3a,0x3a,0x53,0x45,0x08,0x3a,0x0a,0x40,0x6e,0x61,0x6d,0x65,0x49,0x22,0x13,0x6d,0x6f,0x6e,0x5f,0x65,0x72,0x6f,0x5f,0x63,0x68,0x75,0x70,0x61,0x36,0x06,0x3a,0x06,0x45,0x54,0x3a,0x0b,0x40,0x70,0x69,0x74,0x63,0x68,0x69,0x69,0x3a,0x0c,0x40,0x76,0x6f,0x6c,0x75,0x6d,0x65,0x69,0x69))
355("battler_graphic_hide")
PictureDisplay(5,"ev_nuruko_ha2",0,0,0,0,100,100,255,0)
311(0,1,1,1,26,true)
ShowMessageFace("",0,0,2,9)
ShowMessage("ルカは触手口の中にペニスを挿入してしまった！")
ShowMessage("じゅるじゅると吸い付かれ、奥まで引き込まれていく！\\D")
ShowMessage("ルカは\\V[26]のダメージを受けた！")
ChangeVariable(27,27,0,3,3,1,2)
If(1,27,0,0,0)
 JumpToLabel("射精1")
 0()
EndIf()
ShowMessageFace("",0,0,2,10)
ShowMessage("【ルカ】")
ShowMessage("はぅぅぅ……なにこれぇ……")
ShowMessage("すごく気持ちいいよぉ……")
ShowMessageFace("nuruko_fc1",0,0,2,11)
ShowMessage("【？？？】")
ShowMessage("きゅきゅきゅー！")
250(bytes(0x04,0x08,0x6f,0x3a,0x0c,0x52,0x50,0x47,0x3a,0x3a,0x53,0x45,0x08,0x3a,0x0a,0x40,0x6e,0x61,0x6d,0x65,0x49,0x22,0x13,0x6d,0x6f,0x6e,0x5f,0x65,0x72,0x6f,0x5f,0x63,0x68,0x75,0x70,0x61,0x36,0x06,0x3a,0x06,0x45,0x54,0x3a,0x0b,0x40,0x70,0x69,0x74,0x63,0x68,0x69,0x69,0x3a,0x0c,0x40,0x76,0x6f,0x6c,0x75,0x6d,0x65,0x69,0x69))
311(0,1,1,1,26,true)
ShowMessageFace("",0,0,2,12)
ShowMessage("何重ものヒダがじゅるじゅる蠢き、ペニス全体にまとわりついた！")
ShowMessage("粘液が亀頭に絡み、無数の舌で舐め回されるような刺激が与えられる！\\D")
ShowMessage("ルカは\\V[26]のダメージを受けた！")
ChangeVariable(27,27,0,3,3,1,2)
If(1,27,0,0,0)
 JumpToLabel("射精1")
 0()
EndIf()
ShowMessageFace("",0,0,2,13)
ShowMessage("【ルカ】")
ShowMessage("だ、だめだよ……")
ShowMessage("もう出ちゃうよぉ……")
ShowMessageFace("nuruko_fc1",0,0,2,14)
ShowMessage("【？？？】")
ShowMessage("きゅ！　きゅきゅきゅー！")
250(bytes(0x04,0x08,0x6f,0x3a,0x0c,0x52,0x50,0x47,0x3a,0x3a,0x53,0x45,0x08,0x3a,0x0a,0x40,0x6e,0x61,0x6d,0x65,0x49,0x22,0x13,0x6d,0x6f,0x6e,0x5f,0x65,0x72,0x6f,0x5f,0x63,0x68,0x75,0x70,0x61,0x36,0x06,0x3a,0x06,0x45,0x54,0x3a,0x0b,0x40,0x70,0x69,0x74,0x63,0x68,0x69,0x69,0x3a,0x0c,0x40,0x76,0x6f,0x6c,0x75,0x6d,0x65,0x69,0x69))
311(0,1,1,1,26,true)
ShowMessageFace("",0,0,2,15)
ShowMessage("触手口がすぼまり、ちゅうちゅうと吸い付いてきた！")
ShowMessage("ヒダヒダが亀頭に密着し、全体を擦りながら吸い嫐られる！\\D")
ShowMessage("ルカは\\V[26]のダメージを受けた！")
ChangeVariable(27,27,0,3,3,1,2)
If(1,27,0,0,0)
 JumpToLabel("射精1")
 0()
EndIf()
DefineLabel("射精1")
ShowMessageFace("",0,0,2,16)
ShowMessage("【ルカ】")
ShowMessage("はぅぅ……あぁぁぁぁ……！")
RunCommonEvent(104)
PictureDisplay(5,"ev_nuruko_ha3",0,0,0,0,100,100,255,0)
RunCommonEvent(105)
ShowMessageFace("",0,0,2,17)
ShowMessage("？？？の触手で、あっけなく精を搾り出されてしまった。")
ShowMessage("少し試してみるだけだったのに、こんな事になるなんて――")
ShowMessageFace("nuruko_fc1",0,0,2,18)
ShowMessage("【？？？】")
ShowMessage("きゅきゅ、きゅー！")
RunCommonEvent(2000)
EndEventProcessing()
0()
