﻿// EVENT 2316
Name "誘惑：ナイトマーメイド"

355("$game_troop.lose_event_id = 3316")
ChangeVariable(26,26,0,3,3,1,4)
ChangeVariable(26,26,4,0,10)
ShowMessageFace("knight_mermaid_fc1",2,0,2,1)
ShowMessage("【ナイトマーメイド】")
ShowMessage("このままじゃ、負けてしまうわね。")
ShowMessage("私の体も、好きなようにされて……")
ShowMessageFace("knight_mermaid_fc1",2,0,2,2)
ShowMessage("【ナイトマーメイド】")
ShowMessage("それも仕方ないわ、敗者の常よ……")
ShowMessage("さあ、犯しなさい。")
ChangeSwitch(98,98,0)
ChangeSwitch(96,96,0)
ShowChoices(strings("無視する","誘惑に乗る"),1)
IfPlayerPicksChoice(0,"無視する")
 ShowMessageFace("",0,0,2,3)
 ShowMessage("しかしルカは誘惑を振り切った！")
 RunCommonEvent(1999)
 EndEventProcessing()
 0()
IfPlayerPicksChoice(1,"誘惑に乗る")
 0()
404()
ShowMessageFace("knight_mermaid_fc1",0,0,2,4)
ShowMessage("【ナイトマーメイド】")
ShowMessage("そうよ、犯しなさい……")
ShowMessage("好きなだけ、私の膣内に精液を注ぎ込むといいわ。")
ChangeVariable(26,26,3,0,4)
250(bytes(0x04,0x08,0x6f,0x3a,0x0c,0x52,0x50,0x47,0x3a,0x3a,0x53,0x45,0x08,0x3a,0x0a,0x40,0x6e,0x61,0x6d,0x65,0x49,0x22,0x11,0x6d,0x6f,0x6e,0x5f,0x65,0x72,0x6f,0x5f,0x70,0x79,0x75,0x33,0x06,0x3a,0x06,0x45,0x54,0x3a,0x0b,0x40,0x70,0x69,0x74,0x63,0x68,0x69,0x69,0x3a,0x0c,0x40,0x76,0x6f,0x6c,0x75,0x6d,0x65,0x69,0x69))
311(0,1,1,1,26,true)
ShowMessageFace("",0,0,2,5)
ShowMessage("ルカは膣口に亀頭を押し当て、腰を進めた！")
ShowMessage("熱くヌメヌメの膣内に、ペニスが沈み込んでいく！\\D")
ShowMessage("ルカは\\V[26]のダメージを受けた！")
ChangeVariable(27,27,0,3,3,1,2)
If(1,27,0,0,0)
 JumpToLabel("射精1")
 0()
EndIf()
ShowMessageFace("knight_mermaid_fc1",1,0,2,6)
ShowMessage("【ナイトマーメイド】")
ShowMessage("どうしたの？　必死な顔をして……")
ShowMessage("腰を動かして、私の中を味わわないの？")
250(bytes(0x04,0x08,0x6f,0x3a,0x0c,0x52,0x50,0x47,0x3a,0x3a,0x53,0x45,0x08,0x3a,0x0a,0x40,0x6e,0x61,0x6d,0x65,0x49,0x22,0x11,0x6d,0x6f,0x6e,0x5f,0x65,0x72,0x6f,0x5f,0x70,0x79,0x75,0x34,0x06,0x3a,0x06,0x45,0x54,0x3a,0x0b,0x40,0x70,0x69,0x74,0x63,0x68,0x69,0x69,0x3a,0x0c,0x40,0x76,0x6f,0x6c,0x75,0x6d,0x65,0x69,0x69))
311(0,1,1,1,26,true)
ShowMessageFace("",0,0,2,7)
ShowMessage("ナイトマーメイドの膣内が、にゅぐにゅぐとうねる！")
ShowMessage("柔肉が収縮し、侵入してきたペニスに快楽を与えてきた！\\D")
ShowMessage("ルカは\\V[26]のダメージを受けた！")
ChangeVariable(27,27,0,3,3,1,2)
If(1,27,0,0,0)
 JumpToLabel("射精2")
 0()
EndIf()
ShowMessageFace("knight_mermaid_fc1",1,0,2,8)
ShowMessage("【ナイトマーメイド】")
ShowMessage("もしかして……腰を動かせないの？")
ShowMessage("みっともないわね……")
250(bytes(0x04,0x08,0x6f,0x3a,0x0c,0x52,0x50,0x47,0x3a,0x3a,0x53,0x45,0x08,0x3a,0x0a,0x40,0x6e,0x61,0x6d,0x65,0x49,0x22,0x11,0x6d,0x6f,0x6e,0x5f,0x65,0x72,0x6f,0x5f,0x70,0x79,0x75,0x34,0x06,0x3a,0x06,0x45,0x54,0x3a,0x0b,0x40,0x70,0x69,0x74,0x63,0x68,0x69,0x69,0x3a,0x0c,0x40,0x76,0x6f,0x6c,0x75,0x6d,0x65,0x69,0x69))
311(0,1,1,1,26,true)
ShowMessageFace("",0,0,2,9)
ShowMessage("ナイトマーメイドの膣内が、ペニスをぎゅっと締め付ける！")
ShowMessage("柔肉の甘い収縮が、精液の放出を促した！\\D")
ShowMessage("ルカは\\V[26]のダメージを受けた！")
ChangeVariable(27,27,0,3,3,1,2)
If(1,27,0,0,0)
 JumpToLabel("射精2")
 0()
EndIf()
DefineLabel("射精1")
ShowMessageFace("",0,0,2,10)
ShowMessage("【ルカ】")
ShowMessage("だめ、出ちゃうよぉ……あぁぁぁ……")
RunCommonEvent(104)
RunCommonEvent(105)
ShowMessageFace("",0,0,2,11)
ShowMessage("ナイトマーメイドの膣内に挿入した瞬間、暴発してしまった。")
ShowMessage("まったく耐えられないくらい、人魚の名器は気持ち良かったのだ――")
ShowMessageFace("knight_mermaid_fc1",0,0,2,12)
ShowMessage("【ナイトマーメイド】")
ShowMessage("もしかして……もうイったの？")
ShowMessage("なんて惨めな男なの……")
RunCommonEvent(2000)
EndEventProcessing()
DefineLabel("射精2")
ShowMessageFace("",0,0,2,13)
ShowMessage("【ルカ】")
ShowMessage("だめ、出ちゃうよぉ……あぁぁぁ……")
RunCommonEvent(104)
RunCommonEvent(105)
ShowMessageFace("",0,0,2,14)
ShowMessage("ナイトマーメイドの膣内で、あえなく射精してしまった。")
ShowMessage("ほとんど耐えられないくらい、人魚の名器は気持ち良かったのだ――")
ShowMessageFace("knight_mermaid_fc1",0,0,2,15)
ShowMessage("【ナイトマーメイド】")
ShowMessage("犯そうとして、返り討ちなんて……")
ShowMessage("みっともない男ね……")
RunCommonEvent(2000)
EndEventProcessing()
0()
