﻿// EVENT 2232
Name "誘惑：エルベティエ"

355("$game_troop.lose_event_id = 3232")
ChangeVariable(26,26,0,3,3,1,4)
ChangeVariable(26,26,4,0,10)
ShowMessageFace("erbetie_fc1",0,0,2,1)
ShowMessage("【エルベティエ】")
ShowMessage("ずいぶん、手こずらせてくれるわね……")
ShowMessage("一気に終わらせてあげるわ……")
ShowMessageFace("",0,0,2,2)
ShowMessage("エルベティエの体が、妖しく蠢いた！")
ShowMessage("大技の前兆か――")
ShowMessageFace("erbetie_fc1",0,0,2,3)
ShowMessage("【エルベティエ】")
ShowMessage("押し寄せなさい、粘液の大渦……")
ChangeSwitch(98,98,0)
ChangeSwitch(96,96,0)
ShowChoices(strings("回避に集中する","攻撃する"),1)
IfPlayerPicksChoice(0,null)
 ShowMessageFace("",0,0,2,4)
 ShowMessage("エルベティエの粘液が、大海嘯となって押し寄せてくる！")
 ShowMessage("しかしルカは素早く反応し、回避した！")
 RunCommonEvent(1999)
 EndEventProcessing()
 0()
IfPlayerPicksChoice(1,null)
 0()
404()
ShowMessageFace("erbetie_fc1",0,0,2,5)
ShowMessage("【エルベティエ】")
ShowMessage("嫐り溶かしてあげるわ……")
ShowMessage("惨めに溶かされながら、私達の怒りと悲しみを知りなさい……")
ChangeVariable(26,26,3,0,12)
250(bytes(0x04,0x08,0x6f,0x3a,0x0c,0x52,0x50,0x47,0x3a,0x3a,0x53,0x45,0x08,0x3a,0x0a,0x40,0x6e,0x61,0x6d,0x65,0x49,0x22,0x12,0x6d,0x6f,0x6e,0x5f,0x65,0x72,0x6f,0x5f,0x6b,0x6f,0x6b,0x69,0x31,0x06,0x3a,0x06,0x45,0x54,0x3a,0x0b,0x40,0x70,0x69,0x74,0x63,0x68,0x69,0x69,0x3a,0x0c,0x40,0x76,0x6f,0x6c,0x75,0x6d,0x65,0x69,0x69))
311(0,1,1,1,26,true)
ShowMessageFace("",0,0,2,6)
ShowMessage("エルベティエの粘液が、大海嘯となって押し寄せてくる！")
ShowMessage("ルカの体は粘液の渦に巻き込まれ、締め付けられ、揉みしだかれた！\\D")
ShowMessage("ルカは\\V[26]のダメージを受けた！")
ChangeVariable(27,27,0,3,3,1,2)
If(1,27,0,0,0)
 JumpToLabel("射精1")
 0()
EndIf()
DefineLabel("射精1")
ShowMessageFace("",0,0,2,7)
ShowMessage("【ルカ】")
ShowMessage("だめ、出ちゃうよぉ……あぁぁぁ……")
RunCommonEvent(104)
RunCommonEvent(105)
ShowMessageFace("",0,0,2,8)
ShowMessage("エルベティエの粘液で全身を蹂躙され、僕はあっけなく果ててしまった。")
ShowMessage("絡みつくスライムの中に、精液がドクドクと迸ってしまう――")
ShowMessageFace("erbetie_fc1",0,0,2,9)
ShowMessage("【エルベティエ】")
ShowMessage("射精したのね……")
ShowMessage("こうもあっさり子種を搾られて、情けない……")
RunCommonEvent(2000)
EndEventProcessing()
0()
