﻿// EVENT 2230
Name "誘惑：パープルスライム"

355("$game_troop.lose_event_id = 3230")
ChangeVariable(26,26,0,3,3,1,4)
ChangeVariable(26,26,4,0,10)
ShowMessageFace("slime_purple_fc1",2,0,2,1)
ShowMessage("【パープルスライム】")
ShowMessage("追い詰められましたか……")
ShowMessage("ここは、私の粘液で籠絡させるより他にないですね。")
ShowMessageFace("slime_purple_fc1",0,0,2,2)
ShowMessage("【パープルスライム】")
ShowMessage("私の体に抱かれると、天国のように気持ちいいですよ。")
ShowMessage("ヌルヌルの粘液に包まれて、おちんちんににゅるにゅる絡み付いて……")
ChangeSwitch(98,98,0)
ChangeSwitch(96,96,0)
ShowChoices(strings("無視する","誘惑に乗る"),1)
IfPlayerPicksChoice(0,"無視する")
 ShowMessageFace("",0,0,2,3)
 ShowMessage("しかしルカは誘惑を振り切った！")
 RunCommonEvent(1999)
 EndEventProcessing()
 0()
IfPlayerPicksChoice(1,"誘惑に乗る")
 0()
404()
ShowMessageFace("slime_purple_fc1",0,0,2,4)
ShowMessage("【パープルスライム】")
ShowMessage("うふふっ、それでは抱いてあげましょう。")
ShowMessage("私の中で溺れなさい……")
ChangeVariable(26,26,3,0,4)
250(bytes(0x04,0x08,0x6f,0x3a,0x0c,0x52,0x50,0x47,0x3a,0x3a,0x53,0x45,0x08,0x3a,0x0a,0x40,0x6e,0x61,0x6d,0x65,0x49,0x22,0x16,0x6d,0x6f,0x6e,0x5f,0x65,0x72,0x6f,0x5f,0x6d,0x61,0x6b,0x69,0x74,0x75,0x6b,0x69,0x33,0x06,0x3a,0x06,0x45,0x54,0x3a,0x0b,0x40,0x70,0x69,0x74,0x63,0x68,0x69,0x69,0x3a,0x0c,0x40,0x76,0x6f,0x6c,0x75,0x6d,0x65,0x69,0x69))
355("battler_graphic_hide")
PictureDisplay(5,"ev_slimes_ha1",0,0,0,0,100,100,255,0)
311(0,1,1,1,26,true)
ShowMessageFace("",0,0,2,5)
ShowMessage("パープルスライムは、ルカの体を抱き寄せた！")
ShowMessage("ペニスに粘液の乳房がのしかかり、その内部に沈み込んでしまう！\\D")
ShowMessage("ルカは\\V[26]のダメージを受けた！")
ChangeVariable(27,27,0,3,3,1,2)
If(1,27,0,0,0)
 JumpToLabel("射精1")
 0()
EndIf()
ShowMessageFace("slime_purple_fc1",0,0,2,6)
ShowMessage("【パープルスライム】")
ShowMessage("ふふっ、気持ちいいでしょう……？")
ShowMessage("たっぷりと甘えてもいいのですよ。")
250(bytes(0x04,0x08,0x6f,0x3a,0x0c,0x52,0x50,0x47,0x3a,0x3a,0x53,0x45,0x08,0x3a,0x0a,0x40,0x6e,0x61,0x6d,0x65,0x49,0x22,0x16,0x6d,0x6f,0x6e,0x5f,0x65,0x72,0x6f,0x5f,0x6d,0x61,0x6b,0x69,0x74,0x75,0x6b,0x69,0x33,0x06,0x3a,0x06,0x45,0x54,0x3a,0x0b,0x40,0x70,0x69,0x74,0x63,0x68,0x69,0x69,0x3a,0x0c,0x40,0x76,0x6f,0x6c,0x75,0x6d,0x65,0x69,0x69))
311(0,1,1,1,26,true)
ShowMessageFace("",0,0,2,7)
ShowMessage("紫の粘液が、ルカの体ににゅるにゅると絡み付く！")
ShowMessage("ペニスが粘液の乳房の中で、みっしりと締め付けられた！\\D")
ShowMessage("ルカは\\V[26]のダメージを受けた！")
ChangeVariable(27,27,0,3,3,1,2)
If(1,27,0,0,0)
 JumpToLabel("射精1")
 0()
EndIf()
ShowMessageFace("slime_purple_fc1",0,0,2,8)
ShowMessage("【パープルスライム】")
ShowMessage("さあ、天国に浸りながら漏らしなさい。")
ShowMessage("私の中に、白いのをたっぷり撒き散らすのです……")
250(bytes(0x04,0x08,0x6f,0x3a,0x0c,0x52,0x50,0x47,0x3a,0x3a,0x53,0x45,0x08,0x3a,0x0a,0x40,0x6e,0x61,0x6d,0x65,0x49,0x22,0x16,0x6d,0x6f,0x6e,0x5f,0x65,0x72,0x6f,0x5f,0x6d,0x61,0x6b,0x69,0x74,0x75,0x6b,0x69,0x33,0x06,0x3a,0x06,0x45,0x54,0x3a,0x0b,0x40,0x70,0x69,0x74,0x63,0x68,0x69,0x69,0x3a,0x0c,0x40,0x76,0x6f,0x6c,0x75,0x6d,0x65,0x69,0x69))
311(0,1,1,1,26,true)
ShowMessageFace("",0,0,2,9)
ShowMessage("紫の粘液がうねり、ルカの全身をにゅるにゅる愛撫する！")
ShowMessage("乳房の中でペニスが弄ばれ、極上の快楽が与えられた！\\D")
ShowMessage("ルカは\\V[26]のダメージを受けた！")
ChangeVariable(27,27,0,3,3,1,2)
If(1,27,0,0,0)
 JumpToLabel("射精1")
 0()
EndIf()
DefineLabel("射精1")
ShowMessageFace("",0,0,2,10)
ShowMessage("【ルカ】")
ShowMessage("だめ、出ちゃうよぉ……あぁぁぁ……")
RunCommonEvent(104)
PictureDisplay(5,"ev_slimes_ha2",0,0,0,0,100,100,255,0)
RunCommonEvent(105)
ShowMessageFace("",0,0,2,11)
ShowMessage("紫の粘液の中に、ドクドクと精液が迸っていく。")
ShowMessage("パープルスライムに身を委ね、心身ともにとろけきっていた――")
ShowMessageFace("slime_purple_fc1",0,0,2,12)
ShowMessage("【パープルスライム】")
ShowMessage("ふふっ、たっぷり漏らしましたね。")
ShowMessage("頭の中まで天国でしょう……？")
RunCommonEvent(2000)
EndEventProcessing()
0()
