﻿// EVENT 2098
Name "誘惑：エヴァ"

If(0,25,1)
 EndEventProcessing()
 0()
EndIf()
355("$game_troop.lose_event_id = 3098")
ChangeVariable(26,26,0,3,3,1,4)
ChangeVariable(26,26,4,0,10)
ShowMessageFace("eva_fc1",3,0,2,1)
ShowMessage("【エヴァ】")
ShowMessage("ふふっ……あなた、淫魔のお尻は好きかしら？")
355("battler_graphic_hide")
PictureDisplay(5,"80_eva_st11",0,0,0,0,100,100,255,0)
ShowMessageFace("",0,0,2,2)
ShowMessage("エヴァは背中を向け、誘うようにお尻を突き出した！")
ChangeSwitch(98,98,0)
ChangeSwitch(96,96,0)
ShowChoices(strings("無視する","誘惑に乗る"),1)
IfPlayerPicksChoice(0,"無視する")
 ShowMessageFace("",0,0,2,3)
 ShowMessage("しかしルカは誘惑を振り切った！")
 ShowMessageFace("eva_fc1",2,0,2,4)
 ShowMessage("【エヴァ】")
 ShowMessage("誘いに乗らないなんて、失礼な男ね……")
 PictureClear(5)
 355("battler_graphic_show")
 ShowMessageFace("",0,0,2,5)
 ShowMessage("エヴァは正面に向き直り、元の状態に戻った！")
 RunCommonEvent(1999)
 EndEventProcessing()
 0()
IfPlayerPicksChoice(1,"誘惑に乗る")
 0()
404()
ShowMessageFace("eva_fc1",1,0,2,6)
ShowMessage("【エヴァ】")
ShowMessage("はい、残念……")
ShowMessage("私のお尻で潰してあげるわ。")
PictureDisplay(5,"ev_eva_hb1",0,0,0,0,100,100,255,0)
ShowMessageFace("",0,0,2,7)
ShowMessage("エヴァは一瞬でルカを組み敷き、その顔面をお尻で圧迫してきた！")
ShowMessage("ルカの体は、エヴァに拘束されてしまった！")
ShowMessageFace("",0,0,2,8)
ShowMessage("【ルカ】")
ShowMessage("あ、あぅぅぅ……！")
ShowMessageFace("eva_fc1",1,0,2,9)
ShowMessage("【エヴァ】")
ShowMessage("ふふっ……動けないでしょう？")
ShowMessage("このままあなたは、いいように弄ばれるのよ。")
ChangeVariable(26,26,3,0,2)
250(bytes(0x04,0x08,0x6f,0x3a,0x0c,0x52,0x50,0x47,0x3a,0x3a,0x53,0x45,0x08,0x3a,0x0a,0x40,0x6e,0x61,0x6d,0x65,0x49,0x22,0x12,0x6d,0x6f,0x6e,0x5f,0x65,0x72,0x6f,0x5f,0x6b,0x6f,0x6b,0x69,0x31,0x06,0x3a,0x06,0x45,0x54,0x3a,0x0b,0x40,0x70,0x69,0x74,0x63,0x68,0x69,0x69,0x3a,0x0c,0x40,0x76,0x6f,0x6c,0x75,0x6d,0x65,0x69,0x69))
311(0,1,1,1,26,true)
ShowMessageFace("",0,0,2,10)
ShowMessage("エヴァは掌を搾るように動かし、ペニスを揉みしだいてきた！\\D")
ShowMessage("ルカは\\V[26]のダメージを受けた！")
250(bytes(0x04,0x08,0x6f,0x3a,0x0c,0x52,0x50,0x47,0x3a,0x3a,0x53,0x45,0x08,0x3a,0x0a,0x40,0x6e,0x61,0x6d,0x65,0x49,0x22,0x12,0x6d,0x6f,0x6e,0x5f,0x65,0x72,0x6f,0x5f,0x6b,0x6f,0x6b,0x69,0x31,0x06,0x3a,0x06,0x45,0x54,0x3a,0x0b,0x40,0x70,0x69,0x74,0x63,0x68,0x69,0x69,0x3a,0x0c,0x40,0x76,0x6f,0x6c,0x75,0x6d,0x65,0x69,0x69))
311(0,1,1,1,26,true)
ShowMessageFace("",0,0,2,11)
ShowMessage("掌がカリの段差を上下し、傘の部分を巧みに責めたてる！\\D")
ShowMessage("ルカは\\V[26]のダメージを受けた！")
ChangeVariable(27,27,0,3,3,1,2)
If(1,27,0,0,0)
 JumpToLabel("射精1")
 0()
EndIf()
ShowMessageFace("",0,0,2,12)
ShowMessage("【ルカ】")
ShowMessage("すごい……きもちいいよぉ……")
ShowMessageFace("eva_fc1",1,0,2,13)
ShowMessage("【エヴァ】")
ShowMessage("ふふっ、これだけで満足する気？")
ShowMessage("テクニックを使って、もっと良くしてあげるわ……")
250(bytes(0x04,0x08,0x6f,0x3a,0x0c,0x52,0x50,0x47,0x3a,0x3a,0x53,0x45,0x08,0x3a,0x0a,0x40,0x6e,0x61,0x6d,0x65,0x49,0x22,0x12,0x6d,0x6f,0x6e,0x5f,0x65,0x72,0x6f,0x5f,0x6b,0x6f,0x6b,0x69,0x31,0x06,0x3a,0x06,0x45,0x54,0x3a,0x0b,0x40,0x70,0x69,0x74,0x63,0x68,0x69,0x69,0x3a,0x0c,0x40,0x76,0x6f,0x6c,0x75,0x6d,0x65,0x69,0x69))
311(0,1,1,1,26,true)
ShowMessageFace("",0,0,2,14)
ShowMessage("雑巾を絞るような手さばきで、亀頭とサオを別々にひねり上げる！\\D")
ShowMessage("ルカは\\V[26]のダメージを受けた！")
250(bytes(0x04,0x08,0x6f,0x3a,0x0c,0x52,0x50,0x47,0x3a,0x3a,0x53,0x45,0x08,0x3a,0x0a,0x40,0x6e,0x61,0x6d,0x65,0x49,0x22,0x12,0x6d,0x6f,0x6e,0x5f,0x65,0x72,0x6f,0x5f,0x6b,0x6f,0x6b,0x69,0x31,0x06,0x3a,0x06,0x45,0x54,0x3a,0x0b,0x40,0x70,0x69,0x74,0x63,0x68,0x69,0x69,0x3a,0x0c,0x40,0x76,0x6f,0x6c,0x75,0x6d,0x65,0x69,0x69))
311(0,1,1,1,26,true)
ShowMessageFace("",0,0,2,15)
ShowMessage("カリ首を巧みに刺激しながら、じんわりと圧迫刺激を与えた！\\D")
ShowMessage("ルカは\\V[26]のダメージを受けた！")
ChangeVariable(27,27,0,3,3,1,2)
If(1,27,0,0,0)
 JumpToLabel("射精1")
 0()
EndIf()
ShowMessageFace("",0,0,2,16)
ShowMessage("【ルカ】")
ShowMessage("だ、だめ……こんなの、出ちゃうよぉ……")
ShowMessageFace("eva_fc1",1,0,2,17)
ShowMessage("【エヴァ】")
ShowMessage("ちょっとテクを使ってあげると、すぐ降参なのね。")
ShowMessage("ほぉら、このまま手の中で果てなさい……")
250(bytes(0x04,0x08,0x6f,0x3a,0x0c,0x52,0x50,0x47,0x3a,0x3a,0x53,0x45,0x08,0x3a,0x0a,0x40,0x6e,0x61,0x6d,0x65,0x49,0x22,0x12,0x6d,0x6f,0x6e,0x5f,0x65,0x72,0x6f,0x5f,0x6b,0x6f,0x6b,0x69,0x31,0x06,0x3a,0x06,0x45,0x54,0x3a,0x0b,0x40,0x70,0x69,0x74,0x63,0x68,0x69,0x69,0x3a,0x0c,0x40,0x76,0x6f,0x6c,0x75,0x6d,0x65,0x69,0x69))
311(0,1,1,1,26,true)
ShowMessageFace("",0,0,2,18)
ShowMessage("両掌でペニスがくるみ込まれ、じっくりと揉みしだかれた！\\D")
ShowMessage("ルカは\\V[26]のダメージを受けた！")
250(bytes(0x04,0x08,0x6f,0x3a,0x0c,0x52,0x50,0x47,0x3a,0x3a,0x53,0x45,0x08,0x3a,0x0a,0x40,0x6e,0x61,0x6d,0x65,0x49,0x22,0x12,0x6d,0x6f,0x6e,0x5f,0x65,0x72,0x6f,0x5f,0x6b,0x6f,0x6b,0x69,0x31,0x06,0x3a,0x06,0x45,0x54,0x3a,0x0b,0x40,0x70,0x69,0x74,0x63,0x68,0x69,0x69,0x3a,0x0c,0x40,0x76,0x6f,0x6c,0x75,0x6d,0x65,0x69,0x69))
311(0,1,1,1,26,true)
ShowMessageFace("",0,0,2,19)
ShowMessage("柔らかな掌で、亀頭がぎゅうぎゅうと搾り上げられる！\\D")
ShowMessage("ルカは\\V[26]のダメージを受けた！")
ChangeVariable(27,27,0,3,3,1,2)
If(1,27,0,0,0)
 JumpToLabel("射精1")
 0()
EndIf()
DefineLabel("射精1")
ShowMessageFace("",0,0,2,20)
ShowMessage("【ルカ】")
ShowMessage("気持ちいいよぉ……あ、あぁぁぁ……")
RunCommonEvent(104)
PictureDisplay(5,"ev_eva_hb2",0,0,0,0,100,100,255,0)
RunCommonEvent(105)
ShowMessageFace("",0,0,2,21)
ShowMessage("屈辱的な顔面騎乗を受けながら、手コキで無様にイかされてしまった。")
ShowMessage("エヴァの掌を、精液でべっとりと汚してしまう――")
ShowMessageFace("eva_fc1",1,0,2,22)
ShowMessage("【エヴァ】")
ShowMessage("ふふっ、勇者の割にはあっけないわねぇ。")
ShowMessage("まあ……私の性技にかかれば、どんな男でもこの程度よ。")
RunCommonEvent(2000)
EndEventProcessing()
0()
