﻿// EVENT 2300
Name "誘惑：水龍娘"

355("$game_troop.lose_event_id = 3300")
ChangeVariable(26,26,0,3,3,1,4)
ChangeVariable(26,26,4,0,10)
ShowMessageFace("suiryu_fc1",2,0,2,1)
ShowMessage("【水龍娘】")
ShowMessage("どうしよう、負けちゃうのじゃ……")
ShowMessageFace("suiryu_fc1",1,0,2,2)
ShowMessage("【水龍娘】")
ShowMessage("そうだ、フェラチオをしてやろうかのう。")
ShowMessage("ちんちんをしゃぶってあげるから、戦いはやめんか？")
ChangeSwitch(98,98,0)
ChangeSwitch(96,96,0)
ShowChoices(strings("無視する","誘惑に乗る"),1)
IfPlayerPicksChoice(0,"無視する")
 ShowMessageFace("",0,0,2,3)
 ShowMessage("しかしルカは誘惑を振り切った！")
 RunCommonEvent(1999)
 EndEventProcessing()
 0()
IfPlayerPicksChoice(1,"誘惑に乗る")
 0()
404()
ShowMessageFace("suiryu_fc1",1,0,2,4)
ShowMessage("【水龍娘】")
ShowMessage("それじゃあ、ちんちんを舐めてやるのじゃ。")
ShowMessage("んっ、れろっ……")
ChangeVariable(26,26,3,0,3)
250(bytes(0x04,0x08,0x6f,0x3a,0x0c,0x52,0x50,0x47,0x3a,0x3a,0x53,0x45,0x08,0x3a,0x0a,0x40,0x6e,0x61,0x6d,0x65,0x49,0x22,0x11,0x6d,0x6f,0x6e,0x5f,0x65,0x72,0x6f,0x5f,0x70,0x79,0x75,0x33,0x06,0x3a,0x06,0x45,0x54,0x3a,0x0b,0x40,0x70,0x69,0x74,0x63,0x68,0x69,0x69,0x3a,0x0c,0x40,0x76,0x6f,0x6c,0x75,0x6d,0x65,0x69,0x69))
311(0,1,1,1,26,true)
ShowMessageFace("",0,0,2,5)
ShowMessage("水龍娘は、亀頭をれろっと舐め上げた！")
ShowMessage("ぬめった舌が、ゆっくりと亀頭に這う！\\D")
ShowMessage("ルカは\\V[26]のダメージを受けた！")
ChangeVariable(27,27,0,3,3,1,2)
If(1,27,0,0,0)
 JumpToLabel("射精1")
 0()
EndIf()
ShowMessageFace("suiryu_fc1",1,0,2,6)
ShowMessage("【水龍娘】")
ShowMessage("んっ、そんなに不味くないのじゃな。")
ShowMessage("割と美味しい気がするぞ……れろれろ。")
250(bytes(0x04,0x08,0x6f,0x3a,0x0c,0x52,0x50,0x47,0x3a,0x3a,0x53,0x45,0x08,0x3a,0x0a,0x40,0x6e,0x61,0x6d,0x65,0x49,0x22,0x11,0x6d,0x6f,0x6e,0x5f,0x65,0x72,0x6f,0x5f,0x70,0x79,0x75,0x33,0x06,0x3a,0x06,0x45,0x54,0x3a,0x0b,0x40,0x70,0x69,0x74,0x63,0x68,0x69,0x69,0x3a,0x0c,0x40,0x76,0x6f,0x6c,0x75,0x6d,0x65,0x69,0x69))
311(0,1,1,1,26,true)
ShowMessageFace("",0,0,2,7)
ShowMessage("水龍娘は、亀頭をれろれろと舐め回してくる！")
ShowMessage("尿道口をなぞるように舌先を這わせ、丹念に味わってきた！\\D")
ShowMessage("ルカは\\V[26]のダメージを受けた！")
ChangeVariable(27,27,0,3,3,1,2)
If(1,27,0,0,0)
 JumpToLabel("射精1")
 0()
EndIf()
ShowMessageFace("suiryu_fc1",1,0,2,8)
ShowMessage("【水龍娘】")
ShowMessage("それじゃあ、口でしゃぶってやるぞ。")
ShowMessage("んっ……じゅるるっ。")
250(bytes(0x04,0x08,0x6f,0x3a,0x0c,0x52,0x50,0x47,0x3a,0x3a,0x53,0x45,0x08,0x3a,0x0a,0x40,0x6e,0x61,0x6d,0x65,0x49,0x22,0x13,0x6d,0x6f,0x6e,0x5f,0x65,0x72,0x6f,0x5f,0x62,0x75,0x63,0x68,0x75,0x33,0x06,0x3a,0x06,0x45,0x54,0x3a,0x0b,0x40,0x70,0x69,0x74,0x63,0x68,0x69,0x69,0x3a,0x0c,0x40,0x76,0x6f,0x6c,0x75,0x6d,0x65,0x69,0x69))
311(0,1,1,1,26,true)
ShowMessageFace("",0,0,2,9)
ShowMessage("水龍娘は、口内にペニスを咥え込んできた！")
ShowMessage("肉棒がヌメヌメした温もりに包まれ、甘い快感が与えられる！\\D")
ShowMessage("ルカは\\V[26]のダメージを受けた！")
ChangeVariable(27,27,0,3,3,1,2)
If(1,27,0,0,0)
 JumpToLabel("射精1")
 0()
EndIf()
ShowMessageFace("suiryu_fc1",1,0,2,10)
ShowMessage("【水龍娘】")
ShowMessage("むぐむぐ……じゅるっ。")
250(bytes(0x04,0x08,0x6f,0x3a,0x0c,0x52,0x50,0x47,0x3a,0x3a,0x53,0x45,0x08,0x3a,0x0a,0x40,0x6e,0x61,0x6d,0x65,0x49,0x22,0x13,0x6d,0x6f,0x6e,0x5f,0x65,0x72,0x6f,0x5f,0x62,0x75,0x63,0x68,0x75,0x33,0x06,0x3a,0x06,0x45,0x54,0x3a,0x0b,0x40,0x70,0x69,0x74,0x63,0x68,0x69,0x69,0x3a,0x0c,0x40,0x76,0x6f,0x6c,0x75,0x6d,0x65,0x69,0x69))
311(0,1,1,1,26,true)
ShowMessageFace("",0,0,2,11)
ShowMessage("水龍娘は、ペニスをじっくりとしゃぶりたてた！")
ShowMessage("口内で優しく舐め回され、じゅるじゅる吸い付いてくる！\\D")
ShowMessage("ルカは\\V[26]のダメージを受けた！")
ChangeVariable(27,27,0,3,3,1,2)
If(1,27,0,0,0)
 JumpToLabel("射精1")
 0()
EndIf()
DefineLabel("射精1")
ShowMessageFace("",0,0,2,12)
ShowMessage("【ルカ】")
ShowMessage("だめ、出ちゃうよぉ……あぁぁぁ……")
RunCommonEvent(104)
RunCommonEvent(105)
ShowMessageFace("",0,0,2,13)
ShowMessage("水龍娘の穏やかなフェラで、あえなくイってしまった。")
ShowMessage("その顔や口に、びゅるびゅると精液を撒き散らしてしまう――")
ShowMessageFace("suiryu_fc1",1,0,2,14)
ShowMessage("【水龍娘】")
ShowMessage("んっ……儂の口でイったのじゃ。")
ShowMessage("ふふふっ、男をイかせるのは簡単じゃのう。")
RunCommonEvent(2000)
EndEventProcessing()
0()
