﻿// EVENT 2173
Name "誘惑：幽霊娘"

355("$game_troop.lose_event_id = 3173")
ChangeVariable(26,26,0,3,3,1,4)
ChangeVariable(26,26,4,0,10)
ShowMessageFace("ghost2_fc1",0,0,2,1)
ShowMessage("【幽霊娘】")
ShowMessage("このままじゃ、あの世に里帰りね。")
ShowMessage("こうなったら、体で見逃してもらおうかしら……")
355("battler_graphic_hide")
PictureDisplay(5,"ev_ghost2_ha1",0,0,0,0,100,100,255,0)
ShowMessageFace("",0,0,2,2)
ShowMessage("幽霊娘は、柔らかな乳房でペニスを挟み込んできた！")
PictureDisplay(5,"ev_ghost2_ha2",0,0,0,0,100,100,255,0)
ShowMessageFace("ghost2_fc1",0,0,2,3)
ShowMessage("【幽霊娘】")
ShowMessage("うふふっ……")
PictureDisplay(5,"ev_ghost2_ha3",0,0,0,0,100,100,255,0)
ShowMessageFace("",0,0,2,4)
ShowMessage("幽霊娘の舌が、じゅるりと伸びた！")
ShowMessageFace("ghost2_fc1",1,0,2,5)
ShowMessage("【幽霊娘】")
ShowMessage("このまま、亀頭をたっぷりと舐め回してあげるわ。")
ShowMessage("天国を味わいたかったら、大人しくしていなさい……")
ChangeSwitch(98,98,0)
ChangeSwitch(96,96,0)
ShowChoices(strings("無視する","誘惑に乗る"),1)
IfPlayerPicksChoice(0,"無視する")
 ShowMessageFace("",0,0,2,6)
 ShowMessage("しかしルカは誘惑を振り切った！")
 RunCommonEvent(1999)
 EndEventProcessing()
 0()
IfPlayerPicksChoice(1,"誘惑に乗る")
 0()
404()
ShowMessageFace("ghost2_fc1",1,0,2,7)
ShowMessage("【幽霊娘】")
ShowMessage("いい子ね、それじゃあ……れろっ。")
ChangeVariable(26,26,3,0,3)
250(bytes(0x04,0x08,0x6f,0x3a,0x0c,0x52,0x50,0x47,0x3a,0x3a,0x53,0x45,0x08,0x3a,0x0a,0x40,0x6e,0x61,0x6d,0x65,0x49,0x22,0x11,0x6d,0x6f,0x6e,0x5f,0x65,0x72,0x6f,0x5f,0x70,0x79,0x75,0x32,0x06,0x3a,0x06,0x45,0x54,0x3a,0x0b,0x40,0x70,0x69,0x74,0x63,0x68,0x69,0x69,0x3a,0x0c,0x40,0x76,0x6f,0x6c,0x75,0x6d,0x65,0x69,0x69))
PictureDisplay(5,"ev_ghost2_ha4",0,0,0,0,100,100,255,0)
311(0,1,1,1,26,true)
ShowMessageFace("",0,0,2,8)
ShowMessage("幽霊娘の舌が、れろりと亀頭を舐め上げた！\\D")
ShowMessage("ルカは\\V[26]のダメージを受けた！")
ChangeVariable(27,27,0,3,3,1,2)
If(1,27,0,0,0)
 JumpToLabel("射精1")
 0()
EndIf()
ShowMessageFace("ghost2_fc1",1,0,2,9)
ShowMessage("【幽霊娘】")
ShowMessage("こうやって、イくまで亀頭を舐め続けてあげる……")
250(bytes(0x04,0x08,0x6f,0x3a,0x0c,0x52,0x50,0x47,0x3a,0x3a,0x53,0x45,0x08,0x3a,0x0a,0x40,0x6e,0x61,0x6d,0x65,0x49,0x22,0x11,0x6d,0x6f,0x6e,0x5f,0x65,0x72,0x6f,0x5f,0x70,0x79,0x75,0x32,0x06,0x3a,0x06,0x45,0x54,0x3a,0x0b,0x40,0x70,0x69,0x74,0x63,0x68,0x69,0x69,0x3a,0x0c,0x40,0x76,0x6f,0x6c,0x75,0x6d,0x65,0x69,0x69))
311(0,1,1,1,26,true)
ShowMessageFace("",0,0,2,10)
ShowMessage("幽霊娘の舌が、ねろねろと亀頭に這う！")
ShowMessage("亀頭や裏筋がじゅるじゅると舐め回された！\\D")
ShowMessage("ルカは\\V[26]のダメージを受けた！")
ChangeVariable(27,27,0,3,3,1,2)
If(1,27,0,0,0)
 JumpToLabel("射精1")
 0()
EndIf()
ShowMessageFace("ghost2_fc1",1,0,2,11)
ShowMessage("【幽霊娘】")
ShowMessage("こんな風に舐められると、ぞわぞわするでしょう？")
ShowMessage("我慢できなくなったら、イってしまってもいいのよ……")
250(bytes(0x04,0x08,0x6f,0x3a,0x0c,0x52,0x50,0x47,0x3a,0x3a,0x53,0x45,0x08,0x3a,0x0a,0x40,0x6e,0x61,0x6d,0x65,0x49,0x22,0x11,0x6d,0x6f,0x6e,0x5f,0x65,0x72,0x6f,0x5f,0x70,0x79,0x75,0x32,0x06,0x3a,0x06,0x45,0x54,0x3a,0x0b,0x40,0x70,0x69,0x74,0x63,0x68,0x69,0x69,0x3a,0x0c,0x40,0x76,0x6f,0x6c,0x75,0x6d,0x65,0x69,0x69))
311(0,1,1,1,26,true)
ShowMessageFace("",0,0,2,12)
ShowMessage("舌先が、尿道口をぬめぬめと舐め尽くす！")
ShowMessage("くすぐったいような快感が与えられた！\\D")
ShowMessage("ルカは\\V[26]のダメージを受けた！")
ChangeVariable(27,27,0,3,3,1,2)
If(1,27,0,0,0)
 JumpToLabel("射精1")
 0()
EndIf()
ShowMessageFace("ghost2_fc1",1,0,2,13)
ShowMessage("【幽霊娘】")
ShowMessage("さあ、果てなさい。")
ShowMessage("亀頭を舐められながら、漏らしてしまうのよ……")
250(bytes(0x04,0x08,0x6f,0x3a,0x0c,0x52,0x50,0x47,0x3a,0x3a,0x53,0x45,0x08,0x3a,0x0a,0x40,0x6e,0x61,0x6d,0x65,0x49,0x22,0x11,0x6d,0x6f,0x6e,0x5f,0x65,0x72,0x6f,0x5f,0x70,0x79,0x75,0x32,0x06,0x3a,0x06,0x45,0x54,0x3a,0x0b,0x40,0x70,0x69,0x74,0x63,0x68,0x69,0x69,0x3a,0x0c,0x40,0x76,0x6f,0x6c,0x75,0x6d,0x65,0x69,0x69))
311(0,1,1,1,26,true)
ShowMessageFace("",0,0,2,14)
ShowMessage("幽霊娘の舌が、亀頭をねっとり舐め尽くした！")
ShowMessage("甘い感覚が先端に這い、天国へと導いていく！\\D")
ShowMessage("ルカは\\V[26]のダメージを受けた！")
ChangeVariable(27,27,0,3,3,1,2)
If(1,27,0,0,0)
 JumpToLabel("射精1")
 0()
EndIf()
DefineLabel("射精1")
ShowMessageFace("",0,0,2,15)
ShowMessage("【ルカ】")
ShowMessage("だめ、出ちゃうよぉ……あぁぁぁ……")
RunCommonEvent(104)
PictureDisplay(5,"ev_ghost2_ha5",0,0,0,0,100,100,255,0)
RunCommonEvent(105)
ShowMessageFace("",0,0,2,16)
ShowMessage("幽霊娘に亀頭を舐め回されながら、イってしまった。")
ShowMessage("僕は恍惚に浸りながら、ペニスにまとわりつく舌の感触を味わう――")
ShowMessageFace("ghost2_fc1",1,0,2,17)
ShowMessage("【幽霊娘】")
ShowMessage("ふふっ、うっとりしてしまって……")
ShowMessage("私の舌は、極上だったでしょう？")
RunCommonEvent(2000)
EndEventProcessing()
0()
