﻿// EVENT 1145
Name "会話：死神"

If(1,20,0,1,0)
 JumpToLabel("情報")
 0()
EndIf()
If(1,20,0,2,0)
 JumpToLabel("質問")
 0()
EndIf()
If(1,20,0,3,0)
 JumpToLabel("要求")
 0()
EndIf()
If(1,20,0,4,0)
 JumpToLabel("贈与")
 0()
EndIf()
DefineLabel("情報")
ChangeVariable(13,13,0,2,1,100)
If(1,13,0,10,2)
 ShowMessageFace("sinigami_fc1",0,0,2,1)
 ShowMessage("【死神】")
 ShowMessage("白兎め……")
 ShowMessage("真面目にやれ……")
 EndEventProcessing()
 0()
EndIf()
If(1,13,0,20,2)
 ShowMessageFace("sinigami_fc1",0,0,2,2)
 ShowMessage("【死神】")
 ShowMessage("こんな事をしている場合か……？")
 EndEventProcessing()
 0()
EndIf()
If(1,13,0,30,2)
 ShowMessageFace("sinigami_fc1",0,0,2,3)
 ShowMessage("【死神】")
 ShowMessage("冥府とて、最終的には……")
 EndEventProcessing()
 0()
EndIf()
If(1,13,0,40,2)
 ShowMessageFace("sinigami_fc1",0,0,2,4)
 ShowMessage("【死神】")
 ShowMessage("過ちを正せ……")
 EndEventProcessing()
 0()
EndIf()
If(1,13,0,50,2)
 ShowMessageFace("sinigami_fc1",0,0,2,5)
 ShowMessage("【死神】")
 ShowMessage("何を遊んでいる、白兎……")
 EndEventProcessing()
 0()
EndIf()
If(1,13,0,60,2)
 ShowMessageFace("sinigami_fc1",0,0,2,6)
 ShowMessage("【死神】")
 ShowMessage("歴史が乱れていく……")
 EndEventProcessing()
 0()
EndIf()
If(1,13,0,70,2)
 ShowMessageFace("sinigami_fc1",0,0,2,7)
 ShowMessage("【死神】")
 ShowMessage("私とて、存在よりは法則に近い……")
 ShowMessage("挑むなど無意味だ……")
 EndEventProcessing()
 0()
EndIf()
If(1,13,0,80,2)
 ShowMessageFace("sinigami_fc1",0,0,2,8)
 ShowMessage("【死神】")
 ShowMessage("死の力を味わえ……")
 EndEventProcessing()
 0()
EndIf()
If(1,13,0,90,2)
 ShowMessageFace("sinigami_fc1",0,0,2,9)
 ShowMessage("【死神】")
 ShowMessage("失せろ……")
 EndEventProcessing()
 0()
EndIf()
If(1,13,0,100,2)
 ShowMessageFace("sinigami_fc1",0,0,2,10)
 ShowMessage("【死神】")
 ShowMessage("己の役目を果たせ……")
 ShowMessage("ここで遊んでいる暇があるならな……")
 EndEventProcessing()
 0()
EndIf()
DefineLabel("質問")
ChangeVariable(13,13,0,2,1,50)
If(1,13,0,10,2)
 ShowMessageFace("sinigami_fc1",0,0,2,11)
 ShowMessage("【死神】")
 ShowMessage("お前は、何を望んでいる……？")
 ShowChoices(strings("世界平和","父との再会","世界征服"),0)
 IfPlayerPicksChoice(0,"世界平和")
  ShowMessageFace("sinigami_fc1",0,0,2,12)
  ShowMessage("【死神】")
  ShowMessage("ならば、ここで私と戦う意味などない……")
  0()
 IfPlayerPicksChoice(1,"父との再会")
  ShowMessageFace("sinigami_fc1",0,0,2,13)
  ShowMessage("【死神】")
  ShowMessage("お前の父は冥府にはいない……")
  ShowMessage("しかるべき役目を果たせ……")
  0()
 IfPlayerPicksChoice(2,"世界征服")
  ShowMessageFace("sinigami_fc1",0,0,2,14)
  ShowMessage("【死神】")
  ShowMessage("ならば、しかるべき相手に挑め……")
  ShowMessage("私と戦っても無意味だ……")
  355("change_friend(-5)")
  0()
 404()
 EndEventProcessing()
 0()
EndIf()
If(1,13,0,20,2)
 ShowMessageFace("sinigami_fc1",0,0,2,15)
 ShowMessage("【死神】")
 ShowMessage("いったいなぜ、私に挑む……？")
 ShowChoices(strings("なんとなく","力試しのため","全てを終わらせるため"),0)
 IfPlayerPicksChoice(0,"なんとなく")
  ShowMessageFace("sinigami_fc1",0,0,2,16)
  ShowMessage("【死神】")
  ShowMessage("曖昧な動機で、己の魂まで滅ぼす気か……？")
  355("change_friend(-5)")
  0()
 IfPlayerPicksChoice(1,"力試しのため")
  ShowMessageFace("sinigami_fc1",0,0,2,17)
  ShowMessage("【死神】")
  ShowMessage("試すにしても、相手は選べ……")
  0()
 IfPlayerPicksChoice(2,"全てを終わらせるため")
  ShowMessageFace("sinigami_fc1",0,0,2,18)
  ShowMessage("【死神】")
  ShowMessage("何も終わりはしない……")
  ShowMessage("そして、始まりもしない……")
  0()
 404()
 EndEventProcessing()
 0()
EndIf()
If(1,13,0,30,2)
 ShowMessageFace("sinigami_fc1",0,0,2,19)
 ShowMessage("【死神】")
 ShowMessage("私に何か聞きたいことでもあるのか……？")
 ShowChoices(strings("お前は何者だ？","死とは何だ？","オナニーは日に何度？"),0)
 IfPlayerPicksChoice(0,"お前は何者だ？")
  ShowMessageFace("sinigami_fc1",0,0,2,20)
  ShowMessage("【死神】")
  ShowMessage("輪廻の法則を遂行する者。")
  ShowMessage("それが死神だ……")
  0()
 IfPlayerPicksChoice(1,"死とは何だ？")
  ShowMessageFace("sinigami_fc1",0,0,2,21)
  ShowMessage("【死神】")
  ShowMessage("イリアスでさえ、死の神髄を知らない……")
  ShowMessage("まして人間になど分かるものか……")
  0()
 IfPlayerPicksChoice(2,"オナニーは日に何度？")
  ShowMessageFace("sinigami_fc1",2,0,2,22)
  ShowMessage("【死神】")
  ShowMessage("死ね。")
  355("change_friend(-5)")
  0()
 404()
 EndEventProcessing()
 0()
EndIf()
If(1,13,0,40,2)
 ShowMessageFace("sinigami_fc1",0,0,2,23)
 ShowMessage("【死神】")
 ShowMessage("白兎はどうしている……？")
 ShowChoices(strings("ウロチョロしている","導いてくれる","かわいい"),0)
 IfPlayerPicksChoice(0,"ウロチョロしている")
  ShowMessageFace("sinigami_fc1",0,0,2,24)
  ShowMessage("【死神】")
  ShowMessage("何を遊んでいる、まったく……")
  0()
 IfPlayerPicksChoice(1,"導いてくれる")
  ShowMessageFace("sinigami_fc1",1,0,2,25)
  ShowMessage("【死神】")
  ShowMessage("それなりに役目はこなしているか……")
  355("change_friend(10)")
  0()
 IfPlayerPicksChoice(2,"かわいい")
  ShowMessageFace("sinigami_fc1",0,0,2,26)
  ShowMessage("【死神】")
  ShowMessage("答えになっていない……")
  0()
 404()
 EndEventProcessing()
 0()
EndIf()
If(1,13,0,50,2)
 ShowMessageFace("sinigami_fc1",0,0,2,27)
 ShowMessage("【死神】")
 ShowMessage("お前は、自分の役目を何と見出した……？")
 ShowChoices(strings("世界を救うこと","歴史を正すこと","魔物に犯されること"),0)
 IfPlayerPicksChoice(0,"世界を救うこと")
  ShowMessageFace("sinigami_fc1",0,0,2,28)
  ShowMessage("【死神】")
  ShowMessage("そのためには、決断が必要だ……")
  0()
 IfPlayerPicksChoice(1,"歴史を正すこと")
  ShowMessageFace("sinigami_fc1",0,0,2,29)
  ShowMessage("【死神】")
  ShowMessage("ならば、行くがいい……")
  355("change_friend(10)")
  0()
 IfPlayerPicksChoice(2,"魔物に犯されること")
  ShowMessageFace("sinigami_fc1",0,0,2,30)
  ShowMessage("【死神】")
  ShowMessage("それもまた、多くのお前が辿った道だ……")
  0()
 404()
 EndEventProcessing()
 0()
EndIf()
DefineLabel("要求")
ChangeVariable(13,13,0,2,1,30)
If(1,13,0,10,2)
 If(8,448)
  ShowMessageFace("sinigami_fc1",0,0,2,31)
  ShowMessage("【死神】")
  ShowMessage("その虫はなんだ……？")
  ShowMessage("ここに生命を持ち込むな……")
  ChangeVariable(24,24,0,3,0,448,0)
  ShowMessageFace("",0,0,2,32)
  ShowMessage("「カブトムシ」をあげますか？（所持数：\\V[24]）")
  ShowChoices(strings("はい","いいえ"),2)
  IfPlayerPicksChoice(0,"はい")
   ShowMessageFace("sinigami_fc1",0,0,2,33)
   ShowMessage("【死神】")
   ShowMessage("なかなか素直なのだな……")
   ChangeInventory_Item(448,1,0,1)
   355("change_friend(20)")
   EndEventProcessing()
   0()
  IfPlayerPicksChoice(1,"いいえ")
   ShowMessageFace("sinigami_fc1",2,0,2,34)
   ShowMessage("【死神】")
   ShowMessage("そういうものか……")
   EndEventProcessing()
   0()
  404()
  0()
 Else()
  ChangeVariable(13,13,0,0,20)
  0()
 EndIf()
 0()
EndIf()
If(1,13,0,20,2)
 If(8,444)
  ShowMessageFace("sinigami_fc1",0,0,2,35)
  ShowMessage("【死神】")
  ShowMessage("それは、遺骨か……？")
  ShowMessage("冥府の主として、回収しておこう。")
  ChangeVariable(24,24,0,3,0,444,0)
  ShowMessageFace("",0,0,2,36)
  ShowMessage("「ドクロ」をあげますか？（所持数：\\V[24]）")
  ShowChoices(strings("はい","いいえ"),2)
  IfPlayerPicksChoice(0,"はい")
   ShowMessageFace("sinigami_fc1",0,0,2,37)
   ShowMessage("【死神】")
   ShowMessage("なかなか素直なのだな……")
   ChangeInventory_Item(444,1,0,1)
   355("change_friend(30)")
   EndEventProcessing()
   0()
  IfPlayerPicksChoice(1,"いいえ")
   ShowMessageFace("sinigami_fc1",2,0,2,38)
   ShowMessage("【死神】")
   ShowMessage("そういうものか……")
   EndEventProcessing()
   0()
  404()
  0()
 Else()
  ChangeVariable(13,13,0,0,30)
  0()
 EndIf()
 0()
EndIf()
If(1,13,0,30,2)
 ShowMessageFace("sinigami_fc1",0,0,2,39)
 ShowMessage("【死神】")
 ShowMessage("地獄の沙汰も金次第とは、よく言ったものだ……")
 ShowMessage("格言通り、金でも受け取っておこうか。")
 If(7,9000,0)
  ChangeVariable(24,24,0,3,7,2,0)
  ShowMessageFace("",0,0,2,40)
  ShowMessage("9000Gをあげますか？（所持金：\\V[24]）")
  ShowChoices(strings("はい","いいえ"),2)
  IfPlayerPicksChoice(0,"はい")
   ShowMessageFace("sinigami_fc1",0,0,2,41)
   ShowMessage("【死神】")
   ShowMessage("なかなか素直なのだな……")
   125(1,0,9000)
   355("change_friend(25)")
   EndEventProcessing()
   0()
  IfPlayerPicksChoice(1,"いいえ")
   ShowMessageFace("sinigami_fc1",2,0,2,42)
   ShowMessage("【死神】")
   ShowMessage("そういうものか……")
   EndEventProcessing()
   0()
  404()
  0()
 Else()
  ShowMessageFace("sinigami_fc1",0,0,2,43)
  ShowMessage("【死神】")
  ShowMessage("……と思ったが、持ち合わせは僅かか。")
  ShowMessage("それでは、ろくな沙汰は期待できまい……")
  EndEventProcessing()
  0()
 EndIf()
 0()
EndIf()
DefineLabel("贈与")
ChangeVariable(13,13,0,2,1,30)
If(1,25,0,1,0)
 ChangeVariable(13,13,0,0,30)
 ChangeVariable(25,25,0,0,0)
 0()
EndIf()
If(1,25,0,2,0)
 ChangeVariable(13,13,0,2,1,20)
 ChangeVariable(25,25,0,0,0)
 0()
EndIf()
If(1,13,0,10,2)
 ShowMessageFace("sinigami_fc1",0,0,2,44)
 ShowMessage("【死神】")
 ShowMessage("闇の力の一部に過ぎんが、持っていけ。")
 ShowMessage("役立つ事もあるだろう……")
 250(bytes(0x04,0x08,0x6f,0x3a,0x0c,0x52,0x50,0x47,0x3a,0x3a,0x53,0x45,0x08,0x3a,0x0a,0x40,0x6e,0x61,0x6d,0x65,0x49,0x22,0x0a,0x49,0x74,0x65,0x6d,0x31,0x06,0x3a,0x06,0x45,0x54,0x3a,0x0b,0x40,0x70,0x69,0x74,0x63,0x68,0x69,0x69,0x3a,0x0c,0x40,0x76,0x6f,0x6c,0x75,0x6d,0x65,0x69,0x55))
 ChangeInventory_Item(80,0,0,1)
 ShowMessageFace("",0,0,2,45)
 ShowMessage("死神から「黒闇石」をもらった！")
 EndEventProcessing()
 0()
EndIf()
If(1,13,0,20,2)
 ShowMessageFace("sinigami_fc1",0,0,2,46)
 ShowMessage("【死神】")
 ShowMessage("これが世に普及すれば、我が仕事も少なく済むが……")
 ShowMessage("貴重品ゆえ、そうもいかんか。")
 250(bytes(0x04,0x08,0x6f,0x3a,0x0c,0x52,0x50,0x47,0x3a,0x3a,0x53,0x45,0x08,0x3a,0x0a,0x40,0x6e,0x61,0x6d,0x65,0x49,0x22,0x0a,0x49,0x74,0x65,0x6d,0x31,0x06,0x3a,0x06,0x45,0x54,0x3a,0x0b,0x40,0x70,0x69,0x74,0x63,0x68,0x69,0x69,0x3a,0x0c,0x40,0x76,0x6f,0x6c,0x75,0x6d,0x65,0x69,0x55))
 ChangeInventory_Item(12,0,0,1)
 ShowMessageFace("",0,0,2,47)
 ShowMessage("死神から「世界樹の葉」をもらった！")
 EndEventProcessing()
 0()
EndIf()
If(1,13,0,30,2)
 ShowMessageFace("sinigami_fc1",0,0,2,48)
 ShowMessage("【死神】")
 ShowMessage("地獄の沙汰も金次第……か。")
 ShowMessage("私に渡されても、持て余すだけなのだがな。")
 250(bytes(0x04,0x08,0x6f,0x3a,0x0c,0x52,0x50,0x47,0x3a,0x3a,0x53,0x45,0x08,0x3a,0x0a,0x40,0x6e,0x61,0x6d,0x65,0x49,0x22,0x0a,0x49,0x74,0x65,0x6d,0x31,0x06,0x3a,0x06,0x45,0x54,0x3a,0x0b,0x40,0x70,0x69,0x74,0x63,0x68,0x69,0x69,0x3a,0x0c,0x40,0x76,0x6f,0x6c,0x75,0x6d,0x65,0x69,0x55))
 125(0,0,15000)
 ShowMessageFace("",0,0,2,49)
 ShowMessage("死神から15000Gをもらった！")
 EndEventProcessing()
 0()
EndIf()
0()
