﻿// EVENT 1353
Name "会話：天使兵"

If(1,20,0,1,0)
 JumpToLabel("情報")
 0()
EndIf()
If(1,20,0,2,0)
 JumpToLabel("質問")
 0()
EndIf()
If(1,20,0,3,0)
 JumpToLabel("要求")
 0()
EndIf()
If(1,20,0,4,0)
 JumpToLabel("贈与")
 0()
EndIf()
DefineLabel("情報")
ChangeVariable(13,13,0,2,1,100)
If(1,13,0,10,2)
 ShowMessageFace("angels_fc1",0,0,2,1)
 ShowMessage("【天使兵】")
 ShowMessage("いざ、イリアス様のために！")
 EndEventProcessing()
 0()
EndIf()
If(1,13,0,20,2)
 ShowMessageFace("angels_fc1",0,0,2,2)
 ShowMessage("【天使兵】")
 ShowMessage("我等が魂は、常にイリアス様の元に！")
 EndEventProcessing()
 0()
EndIf()
If(1,13,0,30,2)
 ShowMessageFace("angels_fc1",2,0,2,3)
 ShowMessage("【天使兵】")
 ShowMessage("いったい、なぜ……")
 ShowMessage("我々は、こんな……")
 EndEventProcessing()
 0()
EndIf()
If(1,13,0,40,2)
 ShowMessageFace("angels_fc1",0,0,2,4)
 ShowMessage("【天使兵】")
 ShowMessage("イリアス様……")
 ShowMessage("どうか、我々をお救い下さい……")
 EndEventProcessing()
 0()
EndIf()
If(1,13,0,50,2)
 ShowMessageFace("angels_fc1",0,0,2,5)
 ShowMessage("【天使兵】")
 ShowMessage("この地上、我々が浄化しなければ……")
 EndEventProcessing()
 0()
EndIf()
If(1,13,0,60,2)
 ShowMessageFace("angels_fc1",2,0,2,6)
 ShowMessage("【天使兵】")
 ShowMessage("ううっ、寒い……イリアス様、これも試練なのですか？")
 EndEventProcessing()
 0()
EndIf()
If(1,13,0,70,2)
 ShowMessageFace("angels_fc1",0,0,2,7)
 ShowMessage("【天使兵】")
 ShowMessage("ここは通さんぞ！")
 EndEventProcessing()
 0()
EndIf()
If(1,13,0,80,2)
 ShowMessageFace("angels_fc1",0,0,2,8)
 ShowMessage("【天使兵】")
 ShowMessage("不信心者め、神罰を受けるがいい！")
 EndEventProcessing()
 0()
EndIf()
If(1,13,0,90,2)
 ShowMessageFace("angels_fc1",0,0,2,9)
 ShowMessage("【天使兵】")
 ShowMessage("我々が裁いてやろう！")
 EndEventProcessing()
 0()
EndIf()
If(1,13,0,100,2)
 ShowMessageFace("angels_fc1",0,0,2,10)
 ShowMessage("【天使兵】")
 ShowMessage("我々は、諦めはしない……！")
 EndEventProcessing()
 0()
EndIf()
DefineLabel("質問")
ChangeVariable(13,13,0,2,1,50)
If(1,13,0,10,2)
 ShowMessageFace("angels_fc1",0,0,2,11)
 ShowMessage("【天使兵】")
 ShowMessage("魔姦の禁、ちゃんと守っているか……？")
 ShowChoices(strings("守っている","破ってしまった","毎日姦淫生活"),0)
 IfPlayerPicksChoice(0,"守っている")
  ShowMessageFace("angels_fc1",1,0,2,12)
  ShowMessage("【天使兵】")
  ShowMessage("それは、良い心がけだな……本当か？")
  ShowMessageFace("angels_fc1",1,0,2,13)
  ShowMessage("【天使兵】")
  ShowMessage("……本当に、本当か？")
  355("change_friend(10)")
  0()
 IfPlayerPicksChoice(1,"破ってしまった")
  ShowMessageFace("angels_fc1",2,0,2,14)
  ShowMessage("【天使兵】")
  ShowMessage("おのれ、罪人め……覚悟するがいい！")
  355("change_friend(-5)")
  0()
 IfPlayerPicksChoice(2,"毎日姦淫生活")
  ShowMessageFace("angels_fc1",2,0,2,15)
  ShowMessage("【天使兵】")
  ShowMessage("おのれ、なんという不届き者……ここで成敗してくれる！")
  355("change_friend(-10)")
  0()
 404()
 EndEventProcessing()
 0()
EndIf()
If(1,13,0,20,2)
 ShowMessageFace("angels_fc1",0,0,2,16)
 ShowMessage("【天使兵】")
 ShowMessage("我等は当然ながら、日に三度はイリアス様に祈っている。")
 ShowMessage("お前は、どのくらい祈っているのだ？")
 ShowChoices(strings("日に三度","日に一万回","全く祈っていない"),0)
 IfPlayerPicksChoice(0,"日に三度")
  ShowMessageFace("angels_fc1",1,0,2,17)
  ShowMessage("【天使兵】")
  ShowMessage("うむ、感心だな……")
  355("change_friend(5)")
  0()
 IfPlayerPicksChoice(1,"日に一万回")
  ShowMessageFace("angels_fc1",2,0,2,18)
  ShowMessage("【天使兵】")
  ShowMessage("なんと、一万回！？")
  ShowMessage("ま、負けた……")
  355("change_friend(10)")
  0()
 IfPlayerPicksChoice(2,"全く祈っていない")
  ShowMessageFace("angels_fc1",2,0,2,19)
  ShowMessage("【天使兵】")
  ShowMessage("おのれ、不信心者め！")
  355("change_friend(-5)")
  0()
 404()
 EndEventProcessing()
 0()
EndIf()
If(1,13,0,30,2)
 ShowMessageFace("angels_fc1",0,0,2,20)
 ShowMessage("【天使兵】")
 ShowMessage("不信心者は、天使の中にさえ存在する。")
 ShowMessage("そういう者を、我々はどうするか分かるか……？")
 ShowChoices(strings("反省会","粛正","輪姦"),0)
 IfPlayerPicksChoice(0,"反省会")
  ShowMessageFace("angels_fc1",1,0,2,21)
  ShowMessage("【天使兵】")
  ShowMessage("その通り、己の罪に向き合わせるのだ。")
  ShowMessage("そうすれば、信心を取り戻すだろう……")
  355("change_friend(10)")
  0()
 IfPlayerPicksChoice(1,"粛正")
  ShowMessageFace("angels_fc1",0,0,2,22)
  ShowMessage("【天使兵】")
  ShowMessage("同じ天使、そこまではしない……")
  ShowMessage("お前は、野蛮な事を考えるのだな。")
  355("change_friend(-5)")
  0()
 IfPlayerPicksChoice(2,"輪姦")
  ShowMessageFace("angels_fc1",2,0,2,23)
  ShowMessage("【天使兵】")
  ShowMessage("そ、そんな……")
  ShowMessage("いやらしい……")
  0()
 404()
 EndEventProcessing()
 0()
EndIf()
If(1,13,0,40,2)
 ShowMessageFace("angels_fc1",0,0,2,24)
 ShowMessage("【天使兵】")
 ShowMessage("お前は、誰を崇めているのだ……？")
 ShowChoices(strings("女神イリアス","邪神アリスフィーズ","僕","誰も崇めていない"),0)
 IfPlayerPicksChoice(0,"女神イリアス")
  ShowMessageFace("angels_fc1",1,0,2,25)
  ShowMessage("【天使兵】")
  ShowMessage("それは感心だ……")
  ShowMessage("その信仰を失わないようにな。")
  355("change_friend(10)")
  0()
 IfPlayerPicksChoice(1,"邪神アリスフィーズ")
  ShowMessageFace("angels_fc1",2,0,2,26)
  ShowMessage("【天使兵】")
  ShowMessage("なんと、邪神の手先め！　ここで討ち果たす！")
  355("change_friend(-5)")
  0()
 IfPlayerPicksChoice(2,"僕")
  ShowMessageFace("angels_fc1",2,0,2,27)
  ShowMessage("【天使兵】")
  ShowMessage("己を崇めるなど、なんという不届き者！")
  ShowMessage("ここで討ち果たしてくれる！")
  355("change_friend(-5)")
  0()
 IfPlayerPicksChoice(3,"誰も崇めていない")
  ShowMessageFace("angels_fc1",1,0,2,28)
  ShowMessage("【天使兵】")
  ShowMessage("ならば、女神イリアスを崇めるのだ！")
  ShowMessage("さあ、神の名を唱えよ！")
  0()
 404()
 EndEventProcessing()
 0()
EndIf()
If(1,13,0,50,2)
 ShowMessageFace("angels_fc1",0,0,2,29)
 ShowMessage("【天使兵】")
 ShowMessage("剣が折れ、全ての希望をも失ったとき……")
 ShowMessage("お前なら、どうする？")
 ShowChoices(strings("それでも戦い抜く","神の名を叫ぶ","諦めろ"),0)
 IfPlayerPicksChoice(0,"それでも戦い抜く")
  ShowMessageFace("angels_fc1",2,0,2,30)
  ShowMessage("【天使兵】")
  ShowMessage("そうなっても、戦い続けるしかないのか……")
  0()
 IfPlayerPicksChoice(1,"神の名を叫ぶ")
  ShowMessageFace("angels_fc1",1,0,2,31)
  ShowMessage("【天使兵】")
  ShowMessage("そうだ、その通りだな……")
  ShowMessage("神をひたすらに信じれば、あるいは……！")
  355("change_friend(10)")
  0()
 IfPlayerPicksChoice(2,"諦めろ")
  ShowMessageFace("angels_fc1",2,0,2,32)
  ShowMessage("【天使兵】")
  ShowMessage("諦める、ではなく、諦めろ？")
  ShowMessage("なぜに命令している！")
  355("change_friend(-5)")
  0()
 404()
 EndEventProcessing()
 0()
EndIf()
DefineLabel("要求")
ChangeVariable(13,13,0,2,1,30)
If(1,13,0,10,2)
 If(8,316)
  ShowMessageFace("angels_fc1",0,0,2,33)
  ShowMessage("【天使兵】")
  ShowMessage("タマネギを渡してもらおう……")
  ChangeVariable(24,24,0,3,0,316,0)
  ShowMessageFace("",0,0,2,34)
  ShowMessage("「タマネギ」をあげますか？（所持数：\\V[24]）")
  ShowChoices(strings("はい","いいえ"),2)
  IfPlayerPicksChoice(0,"はい")
   ShowMessageFace("angels_fc1",1,0,2,35)
   ShowMessage("【天使兵】")
   ShowMessage("うむ、確かに受け取ったぞ。")
   ChangeInventory_Item(316,1,0,1)
   355("change_friend(20)")
   EndEventProcessing()
   0()
  IfPlayerPicksChoice(1,"いいえ")
   ShowMessageFace("angels_fc1",2,0,2,36)
   ShowMessage("【天使兵】")
   ShowMessage("なんと罪深い……")
   EndEventProcessing()
   0()
  404()
  0()
 Else()
  ChangeVariable(13,13,0,0,20)
  0()
 EndIf()
 0()
EndIf()
If(1,13,0,20,2)
 If(8,423)
  ShowMessageFace("angels_fc1",0,0,2,37)
  ShowMessage("【天使兵】")
  ShowMessage("プリンを渡してもらおう……")
  ChangeVariable(24,24,0,3,0,423,0)
  ShowMessageFace("",0,0,2,38)
  ShowMessage("「プリン」をあげますか？（所持数：\\V[24]）")
  ShowChoices(strings("はい","いいえ"),2)
  IfPlayerPicksChoice(0,"はい")
   ShowMessageFace("angels_fc1",1,0,2,39)
   ShowMessage("【天使兵】")
   ShowMessage("うむ、確かに受け取ったぞ。")
   ChangeInventory_Item(423,1,0,1)
   355("change_friend(30)")
   EndEventProcessing()
   0()
  IfPlayerPicksChoice(1,"いいえ")
   ShowMessageFace("angels_fc1",2,0,2,40)
   ShowMessage("【天使兵】")
   ShowMessage("なんと罪深い……")
   EndEventProcessing()
   0()
  404()
  0()
 Else()
  ChangeVariable(13,13,0,0,30)
  0()
 EndIf()
 0()
EndIf()
If(1,13,0,30,2)
 ShowMessageFace("angels_fc1",0,0,2,41)
 ShowMessage("【天使兵】")
 ShowMessage("活動費を提供してもらおう……")
 If(7,963,0)
  ChangeVariable(24,24,0,3,7,2,0)
  ShowMessageFace("",0,0,2,42)
  ShowMessage("963Gをあげますか？（所持金：\\V[24]）")
  ShowChoices(strings("はい","いいえ"),2)
  IfPlayerPicksChoice(0,"はい")
   ShowMessageFace("angels_fc1",1,0,2,43)
   ShowMessage("【天使兵】")
   ShowMessage("うむ、確かに受け取ったぞ。")
   125(1,0,963)
   355("change_friend(25)")
   EndEventProcessing()
   0()
  IfPlayerPicksChoice(1,"いいえ")
   ShowMessageFace("angels_fc1",2,0,2,44)
   ShowMessage("【天使兵】")
   ShowMessage("なんと罪深い……")
   EndEventProcessing()
   0()
  404()
  0()
 Else()
  ShowMessageFace("angels_fc1",2,0,2,45)
  ShowMessage("【天使兵】")
  ShowMessage("……すでに金を使い果たしたのか？")
  EndEventProcessing()
  0()
 EndIf()
 0()
EndIf()
DefineLabel("贈与")
ChangeVariable(13,13,0,2,1,30)
If(1,25,0,1,0)
 ChangeVariable(13,13,0,0,30)
 ChangeVariable(25,25,0,0,0)
 0()
EndIf()
If(1,25,0,2,0)
 ChangeVariable(13,13,0,2,1,20)
 ChangeVariable(25,25,0,0,0)
 0()
EndIf()
If(1,13,0,10,2)
 ShowMessageFace("angels_fc1",0,0,2,46)
 ShowMessage("【天使兵】")
 ShowMessage("私の羽根をお守りにするがいい……")
 250(bytes(0x04,0x08,0x6f,0x3a,0x0c,0x52,0x50,0x47,0x3a,0x3a,0x53,0x45,0x08,0x3a,0x0a,0x40,0x6e,0x61,0x6d,0x65,0x49,0x22,0x0a,0x49,0x74,0x65,0x6d,0x31,0x06,0x3a,0x06,0x45,0x54,0x3a,0x0b,0x40,0x70,0x69,0x74,0x63,0x68,0x69,0x69,0x3a,0x0c,0x40,0x76,0x6f,0x6c,0x75,0x6d,0x65,0x69,0x55))
 ChangeInventory_Item(241,0,0,1)
 ShowMessageFace("",0,0,2,47)
 ShowMessage("天使兵から「天使の羽根」をもらった！")
 EndEventProcessing()
 0()
EndIf()
If(1,13,0,20,2)
 ShowMessageFace("angels_fc1",0,0,2,48)
 ShowMessage("【天使兵】")
 ShowMessage("霊薬を持って行くがいい……")
 250(bytes(0x04,0x08,0x6f,0x3a,0x0c,0x52,0x50,0x47,0x3a,0x3a,0x53,0x45,0x08,0x3a,0x0a,0x40,0x6e,0x61,0x6d,0x65,0x49,0x22,0x0a,0x49,0x74,0x65,0x6d,0x31,0x06,0x3a,0x06,0x45,0x54,0x3a,0x0b,0x40,0x70,0x69,0x74,0x63,0x68,0x69,0x69,0x3a,0x0c,0x40,0x76,0x6f,0x6c,0x75,0x6d,0x65,0x69,0x55))
 ChangeInventory_Item(4,0,0,1)
 ShowMessageFace("",0,0,2,49)
 ShowMessage("天使兵から「霊薬」をもらった！")
 EndEventProcessing()
 0()
EndIf()
If(1,13,0,30,2)
 ShowMessageFace("angels_fc1",0,0,2,50)
 ShowMessage("【天使兵】")
 ShowMessage("この金を役立てるがいい……")
 250(bytes(0x04,0x08,0x6f,0x3a,0x0c,0x52,0x50,0x47,0x3a,0x3a,0x53,0x45,0x08,0x3a,0x0a,0x40,0x6e,0x61,0x6d,0x65,0x49,0x22,0x0a,0x49,0x74,0x65,0x6d,0x31,0x06,0x3a,0x06,0x45,0x54,0x3a,0x0b,0x40,0x70,0x69,0x74,0x63,0x68,0x69,0x69,0x3a,0x0c,0x40,0x76,0x6f,0x6c,0x75,0x6d,0x65,0x69,0x55))
 125(0,0,1605)
 ShowMessageFace("",0,0,2,51)
 ShowMessage("天使兵から1605Gをもらった！")
 EndEventProcessing()
 0()
EndIf()
0()
