﻿// EVENT 2224
Name "誘惑：シオン"

355("$game_troop.lose_event_id = 3224")
ChangeVariable(26,26,0,3,3,1,4)
ChangeVariable(26,26,4,0,10)
ShowMessageFace("shion_fc1",0,0,2,1)
ShowMessage("【シオン】")
ShowMessage("お前、なかなか面白いな……")
ShowMessage("もっと面白い趣向で責めてやるぜ！")
355("battler_graphic_hide")
PictureDisplay(5,"ev_shion_hb01",0,0,0,0,100,100,255,0)
ShowMessageFace("",0,0,2,2)
ShowMessage("シオンは、強引にルカへとのしかかってきた！")
ShowMessage("そのまま機械の腕を掲げる！")
ShowMessageFace("shion_fc1",0,0,2,3)
ShowMessage("【シオン】")
ShowMessage("この腕からは、振動波を発生させる事が可能なんだ。")
ShowMessage("それをチンポに集中させてやったら……どうなるか分かるか？")
ShowMessageFace("",0,0,2,4)
ShowMessage("【ルカ】")
ShowMessage("そ、そんな……")
PictureDisplay(5,"ev_shion_hb02",0,0,0,0,100,100,255,0)
ShowMessageFace("",0,0,2,5)
ShowMessage("シオンは、ペニスに機械の腕を添えてきた！")
ShowMessageFace("shion_fc1",1,0,2,6)
ShowMessage("【シオン】")
ShowMessage("最高に気持ち良くて、あっという間に精液を吹き上げちまうぜ。")
ShowMessage("楽しみだろ、くくっ……")
ChangeSwitch(98,98,0)
ChangeSwitch(96,96,0)
ShowChoices(strings("もがく","なすがまま"),1)
IfPlayerPicksChoice(0,"もがく")
 ShowMessageFace("",0,0,2,7)
 ShowMessage("ルカは激しくもがき、シオンの拘束から逃れた！")
 RunCommonEvent(1999)
 EndEventProcessing()
 0()
IfPlayerPicksChoice(1,"なすがまま")
 0()
404()
ShowMessageFace("shion_fc1",1,0,2,8)
ShowMessage("【シオン】")
ShowMessage("それじゃあいくぜ……")
ShowMessage("一発で精液をブチ撒けなっ！！")
ChangeVariable(26,26,3,0,12)
250(bytes(0x04,0x08,0x6f,0x3a,0x0c,0x52,0x50,0x47,0x3a,0x3a,0x53,0x45,0x08,0x3a,0x0a,0x40,0x6e,0x61,0x6d,0x65,0x49,0x22,0x0c,0x4d,0x61,0x63,0x68,0x69,0x6e,0x65,0x06,0x3a,0x06,0x45,0x54,0x3a,0x0b,0x40,0x70,0x69,0x74,0x63,0x68,0x69,0x69,0x3a,0x0c,0x40,0x76,0x6f,0x6c,0x75,0x6d,0x65,0x69,0x69))
PictureDisplay(5,"ev_shion_hb03",0,0,0,0,100,100,255,0)
311(0,1,1,1,26,true)
ShowMessageFace("",0,0,2,9)
ShowMessage("シオンの腕が振動し、ペニスに強烈なバイブレーションが与えられる！")
ShowMessage("激しい快感がペニス全体を包んだ！\\D")
ShowMessage("ルカは\\V[26]のダメージを受けた！")
ChangeVariable(27,27,0,3,3,1,2)
If(1,27,0,0,0)
 JumpToLabel("射精1")
 0()
EndIf()
DefineLabel("射精1")
ShowMessageFace("",0,0,2,10)
ShowMessage("【ルカ】")
ShowMessage("あ……！　ひぁぁぁ――！！")
RunCommonEvent(104)
PictureDisplay(5,"ev_shion_hb04",0,0,0,0,100,100,255,0)
RunCommonEvent(105)
ShowMessageFace("",0,0,2,11)
ShowMessage("凄まじいバイブレーションにさらされ、たちまち精液が噴き出した。")
ShowMessage("強烈な快感に悶え狂いながら、周囲に白濁を撒き散らす――")
PictureDisplay(5,"ev_shion_hb05",0,0,0,0,100,100,255,0)
ShowMessageFace("shion_fc1",1,0,2,12)
ShowMessage("【シオン】")
ShowMessage("……な？　一発だっただろ？")
RunCommonEvent(2000)
EndEventProcessing()
0()
