﻿// EVENT 2204
Name "誘惑：カマキリ娘"

355("$game_troop.lose_event_id = 3204")
ChangeVariable(26,26,0,3,3,1,4)
ChangeVariable(26,26,4,0,10)
ShowMessageFace("kamakiri_fc1",0,0,2,1)
ShowMessage("【カマキリ娘】")
ShowMessage("ギギ……強い人間だ……")
ShowMessage("その遺伝子、欲しい……")
355("battler_graphic_hide")
PictureDisplay(5,"ev_kamakiri_ha1",0,0,0,0,100,100,255,0)
ShowMessageFace("",0,0,2,2)
ShowMessage("カマキリ娘は両腕の鎌でルカの上半身を抱え込んできた！")
ShowMessage("さらに腹部の産卵管が、僕のモノにかぶさるように伸びてくる！")
ShowMessageFace("kamakiri_fc1",1,0,2,3)
ShowMessage("【カマキリ娘】")
ShowMessage("ギギ……男、犯す……")
ChangeSwitch(98,98,0)
ChangeSwitch(96,96,0)
ShowChoices(strings("もがく","なすがまま"),1)
IfPlayerPicksChoice(0,"もがく")
 ShowMessageFace("",0,0,2,4)
 ShowMessage("ルカは激しくもがき、カマキリ娘の拘束から逃れた！")
 RunCommonEvent(1999)
 EndEventProcessing()
 0()
IfPlayerPicksChoice(1,"なすがまま")
 0()
404()
ShowMessageFace("kamakiri_fc1",1,0,2,5)
ShowMessage("【カマキリ娘】")
ShowMessage("交尾……するぞ……")
ChangeVariable(26,26,3,0,2)
250(bytes(0x04,0x08,0x6f,0x3a,0x0c,0x52,0x50,0x47,0x3a,0x3a,0x53,0x45,0x08,0x3a,0x0a,0x40,0x6e,0x61,0x6d,0x65,0x49,0x22,0x16,0x6d,0x6f,0x6e,0x5f,0x65,0x72,0x6f,0x5f,0x6d,0x61,0x6b,0x69,0x74,0x75,0x6b,0x69,0x32,0x06,0x3a,0x06,0x45,0x54,0x3a,0x0b,0x40,0x70,0x69,0x74,0x63,0x68,0x69,0x69,0x3a,0x0c,0x40,0x76,0x6f,0x6c,0x75,0x6d,0x65,0x69,0x69))
PictureDisplay(5,"ev_kamakiri_ha2",0,0,0,0,100,100,255,0)
311(0,1,1,1,26,true)
ShowMessageFace("",0,0,2,6)
ShowMessage("カマキリ娘の産卵管が、ルカのペニスを包み込んできた！")
ShowMessage("ルカはカマキリ娘に犯されてしまった！\\D")
ShowMessage("ルカは\\V[26]のダメージを受けた！")
ChangeVariable(27,27,0,3,3,1,2)
If(1,27,0,0,0)
 JumpToLabel("射精1")
 0()
EndIf()
ShowMessageFace("kamakiri_fc1",1,0,2,7)
ShowMessage("【カマキリ娘】")
ShowMessage("ギギ……交尾……交尾……")
250(bytes(0x04,0x08,0x6f,0x3a,0x0c,0x52,0x50,0x47,0x3a,0x3a,0x53,0x45,0x08,0x3a,0x0a,0x40,0x6e,0x61,0x6d,0x65,0x49,0x22,0x16,0x6d,0x6f,0x6e,0x5f,0x65,0x72,0x6f,0x5f,0x6d,0x61,0x6b,0x69,0x74,0x75,0x6b,0x69,0x32,0x06,0x3a,0x06,0x45,0x54,0x3a,0x0b,0x40,0x70,0x69,0x74,0x63,0x68,0x69,0x69,0x3a,0x0c,0x40,0x76,0x6f,0x6c,0x75,0x6d,0x65,0x69,0x69))
311(0,1,1,1,26,true)
ShowMessageFace("",0,0,2,8)
ShowMessage("カマキリ娘は産卵管を激しく上下させ、ペニスを責めたててくる！\\D")
ShowMessage("ルカは\\V[26]のダメージを受けた！")
ChangeVariable(27,27,0,3,3,1,2)
If(1,27,0,0,0)
 JumpToLabel("射精2")
 0()
EndIf()
ShowMessageFace("kamakiri_fc1",1,0,2,9)
ShowMessage("【カマキリ娘】")
ShowMessage("ギ……卵管で……射精、させる……")
250(bytes(0x04,0x08,0x6f,0x3a,0x0c,0x52,0x50,0x47,0x3a,0x3a,0x53,0x45,0x08,0x3a,0x0a,0x40,0x6e,0x61,0x6d,0x65,0x49,0x22,0x16,0x6d,0x6f,0x6e,0x5f,0x65,0x72,0x6f,0x5f,0x6d,0x61,0x6b,0x69,0x74,0x75,0x6b,0x69,0x32,0x06,0x3a,0x06,0x45,0x54,0x3a,0x0b,0x40,0x70,0x69,0x74,0x63,0x68,0x69,0x69,0x3a,0x0c,0x40,0x76,0x6f,0x6c,0x75,0x6d,0x65,0x69,0x69))
311(0,1,1,1,26,true)
ShowMessageFace("",0,0,2,10)
ShowMessage("内壁から滴った粘液が、ペニスににゅるにゅるとまとわりつく！\\D")
ShowMessage("ルカは\\V[26]のダメージを受けた！")
ChangeVariable(27,27,0,3,3,1,2)
If(1,27,0,0,0)
 JumpToLabel("射精2")
 0()
EndIf()
ShowMessageFace("kamakiri_fc1",1,0,2,11)
ShowMessage("【カマキリ娘】")
ShowMessage("早く、精液……出せ……")
250(bytes(0x04,0x08,0x6f,0x3a,0x0c,0x52,0x50,0x47,0x3a,0x3a,0x53,0x45,0x08,0x3a,0x0a,0x40,0x6e,0x61,0x6d,0x65,0x49,0x22,0x16,0x6d,0x6f,0x6e,0x5f,0x65,0x72,0x6f,0x5f,0x6d,0x61,0x6b,0x69,0x74,0x75,0x6b,0x69,0x32,0x06,0x3a,0x06,0x45,0x54,0x3a,0x0b,0x40,0x70,0x69,0x74,0x63,0x68,0x69,0x69,0x3a,0x0c,0x40,0x76,0x6f,0x6c,0x75,0x6d,0x65,0x69,0x69))
311(0,1,1,1,26,true)
ShowMessageFace("",0,0,2,12)
ShowMessage("蛇腹状の内壁がカリに擦れ、とろけそうな快楽を与えられた！\\D")
ShowMessage("ルカは\\V[26]のダメージを受けた！")
ChangeVariable(27,27,0,3,3,1,2)
If(1,27,0,0,0)
 JumpToLabel("射精2")
 0()
EndIf()
ShowMessageFace("kamakiri_fc1",1,0,2,13)
ShowMessage("【カマキリ娘】")
ShowMessage("子種、出せ……種付け、しろ……")
ChangeVariable(26,26,3,0,2)
250(bytes(0x04,0x08,0x6f,0x3a,0x0c,0x52,0x50,0x47,0x3a,0x3a,0x53,0x45,0x08,0x3a,0x0a,0x40,0x6e,0x61,0x6d,0x65,0x49,0x22,0x16,0x6d,0x6f,0x6e,0x5f,0x65,0x72,0x6f,0x5f,0x6d,0x61,0x6b,0x69,0x74,0x75,0x6b,0x69,0x32,0x06,0x3a,0x06,0x45,0x54,0x3a,0x0b,0x40,0x70,0x69,0x74,0x63,0x68,0x69,0x69,0x3a,0x0c,0x40,0x76,0x6f,0x6c,0x75,0x6d,0x65,0x69,0x69))
311(0,1,1,1,26,true)
ShowMessageFace("",0,0,2,14)
ShowMessage("産卵管内部がきゅうきゅうと締まり、精を搾ろうとしてくる！\\D")
ShowMessage("ルカは\\V[26]のダメージを受けた！")
ChangeVariable(27,27,0,3,3,1,2)
If(1,27,0,0,0)
 JumpToLabel("射精2")
 0()
EndIf()
DefineLabel("射精1")
ShowMessageFace("",0,0,2,15)
ShowMessage("【ルカ】")
ShowMessage("だめ、出ちゃうよぉ……あぁぁぁ……")
RunCommonEvent(104)
PictureDisplay(5,"ev_kamakiri_ha3",0,0,0,0,100,100,255,0)
RunCommonEvent(105)
ShowMessageFace("",0,0,2,16)
ShowMessage("産卵管に挿入させられた瞬間、その気持ち良さに暴発してしまった。")
ShowMessage("カマキリ娘の産卵管へと、精液がドクドク流れ込んでいく――")
ShowMessageFace("kamakiri_fc1",1,0,2,17)
ShowMessage("【カマキリ娘】")
ShowMessage("もう射精……種付け、終わった……")
RunCommonEvent(2000)
EndEventProcessing()
DefineLabel("射精2")
ShowMessageFace("",0,0,2,18)
ShowMessage("【ルカ】")
ShowMessage("だめ、出ちゃうよぉ……あぁぁぁ……")
RunCommonEvent(104)
PictureDisplay(5,"ev_kamakiri_ha3",0,0,0,0,100,100,255,0)
RunCommonEvent(105)
ShowMessageFace("",0,0,2,19)
ShowMessage("産卵管の中で、快楽のあまり果ててしまった。")
ShowMessage("カマキリ娘の産卵管へと、精液がドクドク流れ込んでいく――")
ShowMessageFace("kamakiri_fc1",1,0,2,20)
ShowMessage("【カマキリ娘】")
ShowMessage("子種、出た……これで、種付け……")
RunCommonEvent(2000)
EndEventProcessing()
0()
