﻿// EVENT 0341
Name "ベルゼバブ仲間"

ShowMessageFace("beelzebub_fc1",2,0,2,1)
ShowMessage("【ベルゼバブＡ】")
ShowMessage("現代こわい……現代こわい……")
ShowMessageFace("beelzebub_fc2",2,0,2,2)
ShowMessage("【ベルゼバブＢ】")
ShowMessage("こんな……本で読んだのと違うわ……")
ShowMessageFace("beelzebub_fc3",0,0,2,3)
ShowMessage("【ベルゼバブＣ】")
ShowMessage("このダンゴって、おいしいわね……")
If(0,6,0)
 ShowMessageFace("sonia_fc3",2,0,2,4)
 ShowMessage("【ソニア】")
 ShowMessage("何やってんの？")
 0()
Else()
 ShowMessageFace("ruka_fc1",0,0,2,5)
 ShowMessage("【ルカ】")
 ShowMessage("何してるの……？")
 0()
EndIf()
ShowMessageFace("beelzebub_fc1",2,0,2,6)
ShowMessage("【ベルゼバブＡ】")
ShowMessage("イリアスは死に、町に魔物が溢れ……")
ShowMessage("人間同士が殺し合い、魔王同士が相争う……世はまさに地獄ね。")
ShowMessageFace("beelzebub_fc2",2,0,2,7)
ShowMessage("【ベルゼバブＢ】")
ShowMessage("あの幽霊船に戻りたくなってきました。")
ShowMessage("もはや、数百年のジェネレーションギャップについていけません……")
ShowMessageFace("beelzebub_fc3",0,0,2,8)
ShowMessage("【ベルゼバブＣ】")
ShowMessage("待って、このダンゴ食べ終えてから……")
ShowMessageFace("ruka_fc1",0,0,2,9)
ShowMessage("【ルカ】")
ShowMessage("えっと、つまり……")
ShowMessage("もう、世の中の人には迷惑をかけないって言うの？")
ShowMessageFace("beelzebub_fc1",2,0,2,10)
ShowMessage("【ベルゼバブＡ】")
ShowMessage("私達なんかに、今さら何ができるの？")
ShowMessage("過去の亡霊もいいところだわ……")
ShowMessageFace("beelzebub_fc2",2,0,2,11)
ShowMessage("【ベルゼバブＢ】")
ShowMessage("すでに、世の中は地獄です。")
ShowMessage("現代とは、かくも恐ろしいところ……")
ShowMessageFace("beelzebub_fc3",0,0,2,12)
ShowMessage("【ベルゼバブＣ】")
ShowMessage("ダンゴは美味しいけど……")
If(0,4,0)
 ShowMessageFace("alice_fc5",0,0,2,13)
 ShowMessage("【アリス】")
 ShowMessage("ふむ……どうやら、すっかり覇気を失ってしまったようだな。")
 ShowMessage("確かにこの数十年の激変、引きこもりには重いだろう。")
 0()
EndIf()
If(0,5,0)
 ShowMessageFace("iriasu_fc4",0,0,2,14)
 ShowMessage("【イリアス】")
 ShowMessage("どうやら、すっかり覇気を失ってしまったようですね。")
 ShowMessage("この数十年の激変、確かに引きこもりには辛いでしょう。")
 0()
EndIf()
ShowMessageFace("serene_fc1",3,0,2,15)
ShowMessage("【セレーネ】")
ShowMessage("つまり、これで解決ね。")
ShowMessage("ようやく、私も旅立てるわ……")
ShowMessageFace("beelzebub_fc1",2,0,2,16)
ShowMessage("【ベルゼバブＡ】")
ShowMessage("……いいえ、解決していないわ。")
ShowMessage("哀れな時の迷い蠅を、この激動の時代に放り出して終わる気？")
ShowMessageFace("beelzebub_fc2",2,0,2,17)
ShowMessage("【ベルゼバブＢ】")
ShowMessage("責任は取ってもらいますよ……")
ShowMessage("私達に、衣食住を提供するのです。")
ShowMessageFace("beelzebub_fc3",0,0,2,18)
ShowMessage("【ベルゼバブＣ】")
ShowMessage("ダンゴ……")
ShowMessageFace("",0,0,2,19)
ShowMessage("有無を言わさず、ベルゼバブ達が押しかけてきた！")
ChangeVariable(1067,1067,0,0,7)
355("add_actor_ex(275)")
355("add_actor_ex(276)")
355("add_actor_ex(277)")
249(bytes(0x04,0x08,0x6f,0x3a,0x0c,0x52,0x50,0x47,0x3a,0x3a,0x4d,0x45,0x08,0x3a,0x0a,0x40,0x6e,0x61,0x6d,0x65,0x49,0x22,0x0c,0x66,0x61,0x6e,0x66,0x61,0x6c,0x65,0x06,0x3a,0x06,0x45,0x54,0x3a,0x0b,0x40,0x70,0x69,0x74,0x63,0x68,0x69,0x69,0x3a,0x0c,0x40,0x76,0x6f,0x6c,0x75,0x6d,0x65,0x69,0x69))
ShowMessageFace("",0,0,2,20)
ShowMessage("ベルゼバブ達が仲間に加わった！")
Wait(60)
ShowMessageFace("serene_fc1",3,0,2,21)
ShowMessage("【セレーネ】")
ShowMessage("なんだか、心配になってきたわね……")
ShowMessage("私もまだまだ、あちらには逝けないみたい。")
ShowMessageFace("serene_fc1",4,0,2,22)
ShowMessage("【セレーネ】")
ShowMessage("そういうわけで、これからも一緒にいさせてもらうわ。")
ShowMessage("これでも元は海賊女王、冒険の旅は大好きよ♪")
249(bytes(0x04,0x08,0x6f,0x3a,0x0c,0x52,0x50,0x47,0x3a,0x3a,0x4d,0x45,0x08,0x3a,0x0a,0x40,0x6e,0x61,0x6d,0x65,0x49,0x22,0x0c,0x66,0x61,0x6e,0x66,0x61,0x6c,0x65,0x06,0x3a,0x06,0x45,0x54,0x3a,0x0b,0x40,0x70,0x69,0x74,0x63,0x68,0x69,0x69,0x3a,0x0c,0x40,0x76,0x6f,0x6c,0x75,0x6d,0x65,0x69,0x69))
ShowMessageFace("",0,0,2,23)
ShowMessage("セレーネが正式に仲間に加わった！")
Wait(60)
If(1,1068,0,0,0)
 ChangeVariable(1068,1068,0,0,1)
 ShowMessageFace("serene_fc1",3,0,2,24)
 ShowMessage("【セレーネ】")
 ShowMessage("そう言えば、北の海底神殿には行ってみた？")
 ShowMessage("あそこには、シルバーオーブがあるそうよ。")
 If(0,2251,1)
  If(1,1016,0,3,1)
   If(0,4,0)
    ShowMessageFace("alice_fc5",0,0,2,25)
    ShowMessage("【アリス】")
    ShowMessage("シルバーオーブか。")
    ShowMessage("確かに貴重な品だが、今は他に優先すべき事が――")
    0()
   EndIf()
   If(0,5,0)
    ShowMessageFace("iriasu_fc4",2,0,2,26)
    ShowMessage("【イリアス】")
    ShowMessage("シルバーオーブですか。")
    ShowMessage("必要になるかもしれない品ですが、今は他に優先すべき事が――")
    0()
   EndIf()
   ShowMessageFace("kraken_fc2",0,0,2,27)
   ShowMessage("【クラーケン娘】")
   ShowMessage("あの……ひとつ、お願いがあるのですが。")
   If(0,4,0)
    ShowMessageFace("alice_fc5",6,0,2,28)
    ShowMessage("【アリス】")
    ShowMessage("スルメがしゃべった！？")
    0()
   EndIf()
   If(0,5,0)
    ShowMessageFace("iriasu_fc4",5,0,2,29)
    ShowMessage("【イリアス】")
    ShowMessage("スルメがしゃべった！？")
    0()
   EndIf()
   ShowMessageFace("kraken_fc2",0,0,2,30)
   ShowMessage("【クラーケン娘】")
   ShowMessage("やはり、すっかり忘れ去られていたのですね……")
   ShowMessageFace("kraken_fc2",0,0,2,31)
   ShowMessage("【クラーケン娘】")
   ShowMessage("私は南海の女王、クラーケン娘です。")
   ShowMessage("南の海底神殿でアスタロトに襲われ、干涸らびてしまった……")
   ShowMessageFace("ruka_fc1",0,0,2,32)
   ShowMessage("【ルカ】")
   ShowMessage("ああ、うん！　そんな事もあったね。")
   ShowMessageFace("kraken_fc2",0,0,2,33)
   ShowMessage("【クラーケン娘】")
   ShowMessage("今、話が出た北の海底神殿ですが……")
   ShowMessage("私を連れ、そこに向かってほしいのです。")
   ShowMessageFace("kraken_fc2",0,0,2,34)
   ShowMessage("【クラーケン娘】")
   ShowMessage("北の海底神殿を治める盟友、ポセイドネスならば……")
   ShowMessage("私を元の姿に戻せるかもしれません。")
   If(0,4,0)
    ShowMessageFace("alice_fc5",2,0,2,35)
    ShowMessage("【アリス】")
    ShowMessage("むむむ、仕方ないな……")
    ShowMessage("それでは、北の海底神殿を優先するか。")
    0()
   EndIf()
   If(0,5,0)
    ShowMessageFace("iriasu_fc4",2,0,2,36)
    ShowMessage("【イリアス】")
    ShowMessage("なぜスルメの言う事を聞かなければならないのです……")
    ShowMessage("……と言いたいところですが、仕方ありませんね。")
    ShowMessageFace("iriasu_fc4",2,0,2,37)
    ShowMessage("【イリアス】")
    ShowMessage("どうせ、シルバーオーブを手に入れる必要に迫られるのです。")
    ShowMessage("行き先の優先順位は、多少前後しても構わないでしょう。")
    0()
   EndIf()
   0()
  Else()
   If(0,4,0)
    ShowMessageFace("alice_fc5",0,0,2,38)
    ShowMessage("【アリス】")
    ShowMessage("シルバーオーブか。")
    ShowMessage("確かに、今後の旅で必要かもしれないな……")
    0()
   EndIf()
   If(0,5,0)
    ShowMessageFace("iriasu_fc4",2,0,2,39)
    ShowMessage("【イリアス】")
    ShowMessage("シルバーオーブ……")
    ShowMessage("今後の旅で必要になるかもしれませんね。")
    0()
   EndIf()
   0()
  EndIf()
  0()
 EndIf()
 ShowMessageFace("serene_fc1",3,0,2,40)
 ShowMessage("【セレーネ】")
 ShowMessage("北の海底神殿に行くには……")
 ShowMessage("ゴルド海岸の光っている波打ち際で、導きの玉を使う必要があるわ。")
 ShowMessageFace("ruka_fc1",0,0,2,41)
 ShowMessage("【ルカ】")
 ShowMessage("導きの玉なら、ナタリアポートで人魚から受け取ったね。")
 ShowMessageFace("serene_fc1",3,0,2,42)
 ShowMessage("【セレーネ】")
 ShowMessage("ゴルド海岸の場所は分かるかしら？")
 ShowMessage("ゴッダールの北東、東の大毒沼よりさらに東よ。")
 If(1,1016,0,3,1)
  If(0,2251,1)
   If(0,4,0)
    ShowMessageFace("alice_fc5",0,0,2,43)
    ShowMessage("【アリス】")
    ShowMessage("ふむ、次の行き先は決まったな。")
    ShowMessage("スルメを北の海底神殿に連れて行ってやるとしよう。")
    EndEventProcessing()
    0()
   EndIf()
   If(0,5,0)
    ShowMessageFace("iriasu_fc4",0,0,2,44)
    ShowMessage("【イリアス】")
    ShowMessage("それでは、北の海底神殿に行きましょう。")
    ShowMessage("オーブを取るついでに、スルメをポセイドネスに食わせるのです。")
    EndEventProcessing()
    0()
   EndIf()
   0()
  EndIf()
  0()
 EndIf()
 If(0,4,0)
  ShowMessageFace("alice_fc5",0,0,2,45)
  ShowMessage("【アリス】")
  ShowMessage("ふむ、次の行き先は決まったな。")
  ShowMessage("シルバーオーブをもらいに北の海底神殿に行くとしよう。")
  0()
 EndIf()
 If(0,5,0)
  ShowMessageFace("iriasu_fc4",0,0,2,46)
  ShowMessage("【イリアス】")
  ShowMessage("それでは、北の海底神殿に行きましょう。")
  ShowMessage("北海の女王ポセイドネスからオーブをかっぱらうのです。")
  0()
 EndIf()
 EndEventProcessing()
 0()
EndIf()
0()
