﻿// EVENT 2181
Name "誘惑：ミズタウロス"

355("$game_troop.lose_event_id = 3181")
ChangeVariable(26,26,0,3,3,1,4)
ChangeVariable(26,26,4,0,10)
ShowMessageFace("m_mino_fc1",0,0,2,1)
ShowMessage("【ミズタウロス】")
ShowMessage("あら、元気なのね……")
ShowMessage("それじゃあ、御褒美をあげようかしら？")
ShowMessageFace("",0,0,2,2)
ShowMessage("ミズタウロスは、ルカを押し倒してきた！")
ShowMessageFace("m_mino_fc1",0,0,2,3)
ShowMessage("【ミズタウロス】")
ShowMessage("そのまま、動いちゃダメよ……")
ShowMessage("あたしのおまんこで、たっぷりイかせてあげるから。")
ChangeSwitch(98,98,0)
ChangeSwitch(96,96,0)
ShowChoices(strings("もがく","なすがまま"),1)
IfPlayerPicksChoice(0,"もがく")
 ShowMessageFace("",0,0,2,4)
 ShowMessage("ルカは激しくもがき、ミズタウロスの拘束から逃れた！")
 RunCommonEvent(1999)
 EndEventProcessing()
 0()
IfPlayerPicksChoice(1,"なすがまま")
 0()
404()
ShowMessageFace("m_mino_fc1",1,0,2,5)
ShowMessage("【ミズタウロス】")
ShowMessage("あたしのエロまんこ、味わってみたいのね……")
ShowMessage("それじゃあ、挿れるわよ。")
ChangeVariable(26,26,3,0,4)
250(bytes(0x04,0x08,0x6f,0x3a,0x0c,0x52,0x50,0x47,0x3a,0x3a,0x53,0x45,0x08,0x3a,0x0a,0x40,0x6e,0x61,0x6d,0x65,0x49,0x22,0x11,0x6d,0x6f,0x6e,0x5f,0x65,0x72,0x6f,0x5f,0x70,0x79,0x75,0x31,0x06,0x3a,0x06,0x45,0x54,0x3a,0x0b,0x40,0x70,0x69,0x74,0x63,0x68,0x69,0x69,0x3a,0x0c,0x40,0x76,0x6f,0x6c,0x75,0x6d,0x65,0x69,0x69))
311(0,1,1,1,26,true)
ShowMessageFace("",0,0,2,6)
ShowMessage("ミズタウロスは腰を落とし、肉壺でペニスを咥え込んだ！")
ShowMessage("柔らかな膣壁が、にゅるりと包み込んでくる！\\D")
ShowMessage("ルカは\\V[26]のダメージを受けた！")
ChangeVariable(27,27,0,3,3,1,2)
If(1,27,0,0,0)
 JumpToLabel("射精1")
 0()
EndIf()
ShowMessageFace("m_mino_fc1",1,0,2,7)
ShowMessage("【ミズタウロス】")
ShowMessage("あたしのおまんこ、柔らかく吸い付いてくるでしょう。")
ShowMessage("中にたっぷり出しなさい……")
250(bytes(0x04,0x08,0x6f,0x3a,0x0c,0x52,0x50,0x47,0x3a,0x3a,0x53,0x45,0x08,0x3a,0x0a,0x40,0x6e,0x61,0x6d,0x65,0x49,0x22,0x13,0x6d,0x6f,0x6e,0x5f,0x65,0x72,0x6f,0x5f,0x63,0x68,0x75,0x70,0x61,0x33,0x06,0x3a,0x06,0x45,0x54,0x3a,0x0b,0x40,0x70,0x69,0x74,0x63,0x68,0x69,0x69,0x3a,0x0c,0x40,0x76,0x6f,0x6c,0x75,0x6d,0x65,0x69,0x69))
311(0,1,1,1,26,true)
ShowMessageFace("",0,0,2,8)
ShowMessage("ミズタウロスの柔肉が、ねっとりとペニスに絡みつく！")
ShowMessage("肉壁が吸い付くように収縮し、甘い刺激を与えてきた！\\D")
ShowMessage("ルカは\\V[26]のダメージを受けた！")
ChangeVariable(27,27,0,3,3,1,2)
If(1,27,0,0,0)
 JumpToLabel("射精2")
 0()
EndIf()
ShowMessageFace("m_mino_fc1",1,0,2,9)
ShowMessage("【ミズタウロス】")
ShowMessage("うふふっ……もう耐えきれない？")
ShowMessage("ほぉら、中にオモラシしなさい……")
250(bytes(0x04,0x08,0x6f,0x3a,0x0c,0x52,0x50,0x47,0x3a,0x3a,0x53,0x45,0x08,0x3a,0x0a,0x40,0x6e,0x61,0x6d,0x65,0x49,0x22,0x13,0x6d,0x6f,0x6e,0x5f,0x65,0x72,0x6f,0x5f,0x63,0x68,0x75,0x70,0x61,0x33,0x06,0x3a,0x06,0x45,0x54,0x3a,0x0b,0x40,0x70,0x69,0x74,0x63,0x68,0x69,0x69,0x3a,0x0c,0x40,0x76,0x6f,0x6c,0x75,0x6d,0x65,0x69,0x69))
311(0,1,1,1,26,true)
ShowMessageFace("",0,0,2,10)
ShowMessage("ミズタウロスの肉壺が、じゅるじゅるとペニスに吸い付いた！")
ShowMessage("甘いうねりを伴いながら、男性器を射精に導く！\\D")
ShowMessage("ルカは\\V[26]のダメージを受けた！")
ChangeVariable(27,27,0,3,3,1,2)
If(1,27,0,0,0)
 JumpToLabel("射精2")
 0()
EndIf()
DefineLabel("射精1")
ShowMessageFace("",0,0,2,11)
ShowMessage("【ルカ】")
ShowMessage("だめ、出ちゃうよぉ……あぁぁぁ……")
RunCommonEvent(104)
RunCommonEvent(105)
ShowMessageFace("",0,0,2,12)
ShowMessage("ミズタウロスに犯された瞬間、たちまちイってしまった。")
ShowMessage("柔らかく吸い付く肉壺に、ドクドクと精を注ぎ込んでしまう――")
ShowMessageFace("m_mino_fc1",1,0,2,13)
ShowMessage("【ミズタウロス】")
ShowMessage("あら……もうイっちゃったのぉ？")
ShowMessage("あたしのまんこに、精液いっぱい……うふふっ。")
RunCommonEvent(2000)
EndEventProcessing()
DefineLabel("射精2")
ShowMessageFace("",0,0,2,14)
ShowMessage("【ルカ】")
ShowMessage("だめ、出ちゃうよぉ……あぁぁぁ……")
RunCommonEvent(104)
RunCommonEvent(105)
ShowMessageFace("",0,0,2,15)
ShowMessage("ミズタウロスに犯され、あえなくイってしまった。")
ShowMessage("柔らかく吸い付く肉壺に、ドクドクと精を注ぎ込んでしまう――")
ShowMessageFace("m_mino_fc1",1,0,2,16)
ShowMessage("【ミズタウロス】")
ShowMessage("あら……イっちゃったわね。")
ShowMessage("あたしのまんこに、精液いっぱい……うふふっ。")
RunCommonEvent(2000)
EndEventProcessing()
0()
