﻿// EVENT 0021
Name "スキル：食材納入"

ChangeVariable(11,11,0,2,1,73)
250(bytes(0x04,0x08,0x6f,0x3a,0x0c,0x52,0x50,0x47,0x3a,0x3a,0x53,0x45,0x08,0x3a,0x0a,0x40,0x6e,0x61,0x6d,0x65,0x49,0x22,0x0a,0x49,0x74,0x65,0x6d,0x31,0x06,0x3a,0x06,0x45,0x54,0x3a,0x0b,0x40,0x70,0x69,0x74,0x63,0x68,0x69,0x69,0x3a,0x0c,0x40,0x76,0x6f,0x6c,0x75,0x6d,0x65,0x69,0x55))
If(1,11,0,3,2)
 ChangeInventory_Item(340,0,0,2)
 ChangeInventory_Item(341,0,0,2)
 ChangeInventory_Item(343,0,0,2)
 ShowMessageFace("",0,0,2,1)
 ShowMessage("たまごを2個、チーズを2個、パンを2個手に入れた！")
 EndEventProcessing()
 0()
EndIf()
If(1,11,0,6,2)
 ChangeInventory_Item(335,0,0,2)
 ChangeInventory_Item(360,0,0,2)
 ShowMessageFace("",0,0,2,2)
 ShowMessage("のりを2個、ライスを2個手に入れた！")
 EndEventProcessing()
 0()
EndIf()
If(1,11,0,9,2)
 ChangeInventory_Item(310,0,0,2)
 ChangeInventory_Item(316,0,0,2)
 ChangeInventory_Item(319,0,0,2)
 ShowMessageFace("",0,0,2,3)
 ShowMessage("にんじんを2個、じゃがいもを2個、タマネギを2個手に入れた！")
 EndEventProcessing()
 0()
EndIf()
If(1,11,0,12,2)
 ChangeInventory_Item(307,0,0,2)
 ChangeInventory_Item(309,0,0,2)
 ChangeInventory_Item(313,0,0,2)
 ShowMessageFace("",0,0,2,4)
 ShowMessage("キャベツを2個、レタスを2個、トマトを2個手に入れた！")
 EndEventProcessing()
 0()
EndIf()
If(1,11,0,15,2)
 ChangeInventory_Item(308,0,0,2)
 ChangeInventory_Item(312,0,0,2)
 ChangeInventory_Item(318,0,0,2)
 ShowMessageFace("",0,0,2,5)
 ShowMessage("はくさいを2個、大根を2個、しいたけを2個手に入れた！")
 EndEventProcessing()
 0()
EndIf()
If(1,11,0,18,2)
 ChangeInventory_Item(322,0,0,2)
 ChangeInventory_Item(329,0,0,2)
 ChangeInventory_Item(330,0,0,2)
 ShowMessageFace("",0,0,2,6)
 ShowMessage("さかなを2個、肉を2個、鳥足を2個手に入れた！")
 EndEventProcessing()
 0()
EndIf()
If(1,11,0,21,2)
 ChangeInventory_Item(324,0,0,2)
 ChangeInventory_Item(325,0,0,2)
 ChangeInventory_Item(327,0,0,2)
 ShowMessageFace("",0,0,2,7)
 ShowMessage("タコを2個、イカを2個、エビを2個手に入れた！")
 EndEventProcessing()
 0()
EndIf()
If(1,11,0,24,2)
 ChangeInventory_Item(315,0,0,2)
 ChangeInventory_Item(331,0,0,2)
 ChangeInventory_Item(332,0,0,2)
 ShowMessageFace("",0,0,2,8)
 ShowMessage("ネギを2個、ソーセージを2個、豆腐を2個手に入れた！")
 EndEventProcessing()
 0()
EndIf()
If(1,11,0,27,2)
 ChangeInventory_Item(301,0,0,2)
 ChangeInventory_Item(302,0,0,2)
 ChangeInventory_Item(304,0,0,2)
 ShowMessageFace("",0,0,2,9)
 ShowMessage("りんごを2個、みかんを2個、さくらんぼを2個手に入れた！")
 EndEventProcessing()
 0()
EndIf()
If(1,11,0,30,2)
 ChangeInventory_Item(338,0,0,2)
 ChangeInventory_Item(339,0,0,2)
 ChangeInventory_Item(342,0,0,2)
 ShowMessageFace("",0,0,2,10)
 ShowMessage("小麦粉を2個、カレー粉を2個、ミルクを2個手に入れた！")
 EndEventProcessing()
 0()
EndIf()
If(1,11,0,33,2)
 ChangeInventory_Item(321,0,0,2)
 ChangeInventory_Item(334,0,0,2)
 ChangeInventory_Item(336,0,0,2)
 ShowMessageFace("",0,0,2,11)
 ShowMessage("とうがらしを2個、かつおぶしを2個、あんこを2個手に入れた！")
 EndEventProcessing()
 0()
EndIf()
If(1,11,0,36,2)
 ChangeInventory_Item(303,0,0,2)
 ChangeInventory_Item(305,0,0,2)
 ShowMessageFace("",0,0,2,12)
 ShowMessage("ぶどうを2個、バナナを2個手に入れた！")
 EndEventProcessing()
 0()
EndIf()
If(1,11,0,39,2)
 ChangeInventory_Item(432,0,0,2)
 ChangeInventory_Item(433,0,0,2)
 ShowMessageFace("",0,0,2,13)
 ShowMessage("ほしにくを2個、スルメを2個手に入れた！")
 EndEventProcessing()
 0()
EndIf()
If(1,11,0,41,2)
 ChangeInventory_Item(414,0,0,2)
 ChangeInventory_Item(423,0,0,2)
 ChangeInventory_Item(424,0,0,2)
 ShowMessageFace("",0,0,2,14)
 ShowMessage("チョコレートを2個、プリンを2個、")
 ShowMessage("アイスクリームを2個手に入れた！")
 EndEventProcessing()
 0()
EndIf()
If(1,11,0,43,2)
 ChangeInventory_Item(323,0,0,2)
 ChangeInventory_Item(326,0,0,2)
 ChangeInventory_Item(328,0,0,2)
 ShowMessageFace("",0,0,2,15)
 ShowMessage("鯛を2個、カニを2個、うなぎを2個手に入れた！")
 EndEventProcessing()
 0()
EndIf()
If(1,11,0,45,2)
 ChangeInventory_Item(333,0,0,5)
 ShowMessageFace("",0,0,2,16)
 ShowMessage("あぶらあげを5個手に入れた！")
 EndEventProcessing()
 0()
EndIf()
If(1,11,0,47,2)
 ChangeInventory_Item(346,0,0,1)
 ChangeInventory_Item(347,0,0,1)
 ChangeInventory_Item(349,0,0,1)
 ShowMessageFace("",0,0,2,17)
 ShowMessage("あんぱん、カレーパン、やきそばパンを手に入れた！")
 EndEventProcessing()
 0()
EndIf()
If(1,11,0,49,2)
 ChangeInventory_Item(353,0,0,1)
 ChangeInventory_Item(354,0,0,1)
 ShowMessageFace("",0,0,2,18)
 ShowMessage("コロッケパン、焼き肉パンを手に入れた！")
 EndEventProcessing()
 0()
EndIf()
If(1,11,0,51,2)
 ChangeInventory_Item(355,0,0,1)
 ChangeInventory_Item(356,0,0,1)
 ShowMessageFace("",0,0,2,19)
 ShowMessage("エッグベーグルサンド、サーモンベーグルサンドを")
 ShowMessage("手に入れた！")
 EndEventProcessing()
 0()
EndIf()
If(1,11,0,53,2)
 ChangeInventory_Item(358,0,0,1)
 ChangeInventory_Item(402,0,0,1)
 ShowMessageFace("",0,0,2,20)
 ShowMessage("ハンバーガー、ホットドッグを手に入れた！")
 EndEventProcessing()
 0()
EndIf()
If(1,11,0,55,2)
 ChangeInventory_Item(365,0,0,1)
 ChangeInventory_Item(366,0,0,1)
 ShowMessageFace("",0,0,2,21)
 ShowMessage("チャーハン、カニタマを手に入れた！")
 EndEventProcessing()
 0()
EndIf()
If(1,11,0,57,2)
 ChangeInventory_Item(375,0,0,1)
 ChangeInventory_Item(383,0,0,1)
 ChangeInventory_Item(389,0,0,1)
 ShowMessageFace("",0,0,2,22)
 ShowMessage("目玉焼き、焼き魚、味噌汁を手に入れた！")
 EndEventProcessing()
 0()
EndIf()
If(1,11,0,59,2)
 ChangeInventory_Item(405,0,0,1)
 ChangeInventory_Item(406,0,0,1)
 ChangeInventory_Item(407,0,0,1)
 ShowMessageFace("",0,0,2,23)
 ShowMessage("肉まん、あんまん、ピザまんを手に入れた！")
 EndEventProcessing()
 0()
EndIf()
If(1,11,0,61,2)
 ChangeInventory_Item(408,0,0,1)
 ChangeInventory_Item(410,0,0,1)
 ChangeInventory_Item(411,0,0,1)
 ShowMessageFace("",0,0,2,24)
 ShowMessage("おだんご、三色だんご、かしわもちを手に入れた！")
 EndEventProcessing()
 0()
EndIf()
If(1,11,0,63,2)
 ChangeInventory_Item(400,0,0,1)
 ChangeInventory_Item(401,0,0,1)
 ShowMessageFace("",0,0,2,25)
 ShowMessage("おそば、きつねうどんを手に入れた！")
 EndEventProcessing()
 0()
EndIf()
If(1,11,0,65,2)
 ChangeInventory_Item(395,0,0,1)
 ChangeInventory_Item(403,0,0,1)
 ChangeInventory_Item(404,0,0,1)
 ShowMessageFace("",0,0,2,26)
 ShowMessage("お好み焼き、たこ焼き、たい焼きを手に入れた！")
 EndEventProcessing()
 0()
EndIf()
If(1,11,0,66,0)
 ChangeInventory_Item(369,0,0,1)
 ShowMessageFace("",0,0,2,27)
 ShowMessage("特上寿司を手に入れた！")
 EndEventProcessing()
 0()
EndIf()
If(1,11,0,67,0)
 ChangeInventory_Item(377,0,0,1)
 ShowMessageFace("",0,0,2,28)
 ShowMessage("ステーキを手に入れた！")
 EndEventProcessing()
 0()
EndIf()
If(1,11,0,68,0)
 ChangeInventory_Item(378,0,0,1)
 ShowMessageFace("",0,0,2,29)
 ShowMessage("すきやきを手に入れた！")
 EndEventProcessing()
 0()
EndIf()
If(1,11,0,69,0)
 ChangeInventory_Item(414,0,0,1)
 ChangeInventory_Item(415,0,0,1)
 ChangeInventory_Item(416,0,0,1)
 ShowMessageFace("",0,0,2,30)
 ShowMessage("チョコレート、ホワイトハートチョコ、")
 ShowMessage("くまさんチョコを手に入れた！")
 EndEventProcessing()
 0()
EndIf()
If(1,11,0,70,0)
 ChangeInventory_Item(417,0,0,1)
 ChangeInventory_Item(418,0,0,1)
 ChangeInventory_Item(419,0,0,1)
 ShowMessageFace("",0,0,2,31)
 ShowMessage("ケーキ、チョコケーキ、ロールケーキを手に入れた！")
 EndEventProcessing()
 0()
EndIf()
If(1,11,0,71,0)
 ChangeInventory_Item(420,0,0,1)
 ShowMessageFace("",0,0,2,32)
 ShowMessage("ウェディングケーキを手に入れた！")
 EndEventProcessing()
 0()
EndIf()
If(1,11,0,72,0)
 ChangeInventory_Item(429,0,0,1)
 ChangeInventory_Item(430,0,0,1)
 ChangeInventory_Item(431,0,0,1)
 ShowMessageFace("",0,0,2,33)
 ShowMessage("ノアワイン、ゴルドカクテル、ヤマタイ酒を手に入れた！")
 EndEventProcessing()
 0()
EndIf()
If(1,11,0,73,0)
 ChangeInventory_Item(437,0,0,1)
 ChangeInventory_Item(438,0,0,1)
 ChangeInventory_Item(439,0,0,1)
 ShowMessageFace("",0,0,2,34)
 ShowMessage("焼きヒトデ、焼きイソギンチャク、")
 ShowMessage("焼きウミウシを手に入れた！")
 EndEventProcessing()
 0()
EndIf()
0()
