﻿// EVENT 2266
Name "誘惑：エルダースキュラ"

355("$game_troop.lose_event_id = 3266")
ChangeVariable(26,26,0,3,3,1,4)
ChangeVariable(26,26,4,0,10)
PictureDisplay(5,"ev_e_scyulla_ct02",0,0,0,0,100,100,255,0)
ShowMessageFace("e_scylla_fc1",0,0,2,1)
ShowMessage("【エルダースキュラ】")
ShowMessage("形勢不利ね……")
ShowMessage("この体を使って、命乞いをしようかしら。")
PictureDisplay(5,"ev_e_scyulla_ct03",0,0,0,0,100,100,255,0)
ShowMessageFace("e_scylla_fc1",0,0,2,2)
ShowMessage("【エルダースキュラ】")
ShowMessage("この口で、しゃぶってあげる。")
ShowMessage("天国にいけるわよ、ふふっ……")
ChangeSwitch(98,98,0)
ChangeSwitch(96,96,0)
ShowChoices(strings("無視する","誘惑に乗る"),1)
IfPlayerPicksChoice(0,"無視する")
 ShowMessageFace("",0,0,2,3)
 ShowMessage("しかしルカは誘惑を振り切った！")
 RunCommonEvent(1999)
 EndEventProcessing()
 0()
IfPlayerPicksChoice(1,"誘惑に乗る")
 0()
404()
ShowMessageFace("e_scylla_fc1",0,0,2,4)
ShowMessage("【エルダースキュラ】")
ShowMessage("それじゃあ、しゃぶってあげるわ……")
ShowMessage("んっ、じゅるるるっ……")
ChangeVariable(26,26,3,0,2)
250(bytes(0x04,0x08,0x6f,0x3a,0x0c,0x52,0x50,0x47,0x3a,0x3a,0x53,0x45,0x08,0x3a,0x0a,0x40,0x6e,0x61,0x6d,0x65,0x49,0x22,0x16,0x6d,0x6f,0x6e,0x5f,0x65,0x72,0x6f,0x5f,0x73,0x79,0x6f,0x6b,0x75,0x73,0x79,0x75,0x31,0x06,0x3a,0x06,0x45,0x54,0x3a,0x0b,0x40,0x70,0x69,0x74,0x63,0x68,0x69,0x69,0x3a,0x0c,0x40,0x76,0x6f,0x6c,0x75,0x6d,0x65,0x69,0x69))
PictureDisplay(5,"ev_e_scyulla_ct11",0,0,0,0,100,100,255,0)
311(0,1,1,1,26,true)
ShowMessageFace("",0,0,2,5)
ShowMessage("エルダースキュラの口から伸びた触手が、ペニスに絡みつく！")
ShowMessage("じゅるじゅると這い回る感触が、甘い快楽をもたらした！\\D")
ShowMessage("ルカは\\V[26]のダメージを受けた！")
ChangeVariable(27,27,0,3,3,1,2)
250(bytes(0x04,0x08,0x6f,0x3a,0x0c,0x52,0x50,0x47,0x3a,0x3a,0x53,0x45,0x08,0x3a,0x0a,0x40,0x6e,0x61,0x6d,0x65,0x49,0x22,0x16,0x6d,0x6f,0x6e,0x5f,0x65,0x72,0x6f,0x5f,0x73,0x79,0x6f,0x6b,0x75,0x73,0x79,0x75,0x31,0x06,0x3a,0x06,0x45,0x54,0x3a,0x0b,0x40,0x70,0x69,0x74,0x63,0x68,0x69,0x69,0x3a,0x0c,0x40,0x76,0x6f,0x6c,0x75,0x6d,0x65,0x69,0x69))
311(0,1,1,1,26,true)
ShowMessageFace("",0,0,2,6)
ShowMessage("触手がペニスに這い回り、粘液でヌメヌメにしてきた！\\D")
ShowMessage("ルカは\\V[26]のダメージを受けた！")
ChangeVariable(27,27,0,3,3,1,2)
250(bytes(0x04,0x08,0x6f,0x3a,0x0c,0x52,0x50,0x47,0x3a,0x3a,0x53,0x45,0x08,0x3a,0x0a,0x40,0x6e,0x61,0x6d,0x65,0x49,0x22,0x16,0x6d,0x6f,0x6e,0x5f,0x65,0x72,0x6f,0x5f,0x73,0x79,0x6f,0x6b,0x75,0x73,0x79,0x75,0x31,0x06,0x3a,0x06,0x45,0x54,0x3a,0x0b,0x40,0x70,0x69,0x74,0x63,0x68,0x69,0x69,0x3a,0x0c,0x40,0x76,0x6f,0x6c,0x75,0x6d,0x65,0x69,0x69))
311(0,1,1,1,26,true)
ShowMessageFace("",0,0,2,7)
ShowMessage("触手が肉棒を巻き取り、じゅるじゅると締め付ける！\\D")
ShowMessage("ルカは\\V[26]のダメージを受けた！")
ChangeVariable(27,27,0,3,3,1,2)
If(1,27,0,0,0)
 JumpToLabel("射精1")
 0()
EndIf()
ShowMessageFace("e_scylla_fc1",0,0,2,8)
ShowMessage("【エルダースキュラ】")
ShowMessage("私の触手フェラは、すごいでしょう……")
ShowMessage("このままさっさとイってしまいなさい。")
250(bytes(0x04,0x08,0x6f,0x3a,0x0c,0x52,0x50,0x47,0x3a,0x3a,0x53,0x45,0x08,0x3a,0x0a,0x40,0x6e,0x61,0x6d,0x65,0x49,0x22,0x16,0x6d,0x6f,0x6e,0x5f,0x65,0x72,0x6f,0x5f,0x73,0x79,0x6f,0x6b,0x75,0x73,0x79,0x75,0x31,0x06,0x3a,0x06,0x45,0x54,0x3a,0x0b,0x40,0x70,0x69,0x74,0x63,0x68,0x69,0x69,0x3a,0x0c,0x40,0x76,0x6f,0x6c,0x75,0x6d,0x65,0x69,0x69))
311(0,1,1,1,26,true)
ShowMessageFace("",0,0,2,9)
ShowMessage("触手が亀頭を丹念に責め上げ、裏筋や尿道口を刺激した！\\D")
ShowMessage("ルカは\\V[26]のダメージを受けた！")
ChangeVariable(27,27,0,3,3,1,2)
250(bytes(0x04,0x08,0x6f,0x3a,0x0c,0x52,0x50,0x47,0x3a,0x3a,0x53,0x45,0x08,0x3a,0x0a,0x40,0x6e,0x61,0x6d,0x65,0x49,0x22,0x16,0x6d,0x6f,0x6e,0x5f,0x65,0x72,0x6f,0x5f,0x73,0x79,0x6f,0x6b,0x75,0x73,0x79,0x75,0x31,0x06,0x3a,0x06,0x45,0x54,0x3a,0x0b,0x40,0x70,0x69,0x74,0x63,0x68,0x69,0x69,0x3a,0x0c,0x40,0x76,0x6f,0x6c,0x75,0x6d,0x65,0x69,0x69))
311(0,1,1,1,26,true)
ShowMessageFace("",0,0,2,10)
ShowMessage("触手はカリ首に這い回り、とろけそうな感触を与える！\\D")
ShowMessage("ルカは\\V[26]のダメージを受けた！")
ChangeVariable(27,27,0,3,3,1,2)
250(bytes(0x04,0x08,0x6f,0x3a,0x0c,0x52,0x50,0x47,0x3a,0x3a,0x53,0x45,0x08,0x3a,0x0a,0x40,0x6e,0x61,0x6d,0x65,0x49,0x22,0x16,0x6d,0x6f,0x6e,0x5f,0x65,0x72,0x6f,0x5f,0x73,0x79,0x6f,0x6b,0x75,0x73,0x79,0x75,0x31,0x06,0x3a,0x06,0x45,0x54,0x3a,0x0b,0x40,0x70,0x69,0x74,0x63,0x68,0x69,0x69,0x3a,0x0c,0x40,0x76,0x6f,0x6c,0x75,0x6d,0x65,0x69,0x69))
311(0,1,1,1,26,true)
ShowMessageFace("",0,0,2,11)
ShowMessage("触手がぎゅうぎゅうとペニスを締め付け、弄んできた！\\D")
ShowMessage("ルカは\\V[26]のダメージを受けた！")
ChangeVariable(27,27,0,3,3,1,2)
If(1,27,0,0,0)
 JumpToLabel("射精1")
 0()
EndIf()
DefineLabel("射精1")
ShowMessageFace("",0,0,2,12)
ShowMessage("【ルカ】")
ShowMessage("だめ、出ちゃうよぉ……あぁぁぁ……")
RunCommonEvent(104)
PictureDisplay(5,"ev_e_scyulla_ct12",0,0,0,0,100,100,255,0)
RunCommonEvent(105)
ShowMessageFace("",0,0,2,13)
ShowMessage("触手にまみれるような異形のフェラで、あえなくイってしまった。")
ShowMessage("ペニスからびゅるびゅると精液が飛び散り、撒き散らされる――")
ShowMessageFace("e_scylla_fc1",0,0,2,14)
ShowMessage("【エルダースキュラ】")
ShowMessage("私のフェラは、病み付きになってしまいそうでしょう？")
ShowMessage("もっともっと、楽しませてあげるわ……")
RunCommonEvent(2000)
EndEventProcessing()
0()
