﻿// EVENT 2250
Name "誘惑：ブラックゴーレム"

355("$game_troop.lose_event_id = 3250")
ChangeVariable(26,26,0,3,3,1,4)
ChangeVariable(26,26,4,0,10)
ShowMessageFace("bgolem_fc1",2,0,2,1)
ShowMessage("【ブラックゴーレム】")
ShowMessage("大ピンチだよ～！")
ShowMessage("ねぇねぇ、動力補給させて～！")
PictureDisplay(6,"ev_bgolem_ct01",0,0,0,0,100,100,255,0)
ShowMessageFace("",0,0,2,2)
ShowMessage("ブラックゴーレムの腹部が、にゅるにゅるとうねった！")
ShowMessageFace("bgolem_fc1",1,0,2,3)
ShowMessage("【ブラックゴーレム】")
ShowMessage("あたしは、生物を体に取り込んで精気を吸い取るの。")
ShowMessage("ねぇ、気持ちよさそうでしょ……？")
PictureDisplay(6,"ev_bgolem_ct02",0,0,0,0,100,100,255,0)
ShowMessageFace("",0,0,2,4)
ShowMessage("ブラックゴーレムの腹部が、ぱっくりと開き――")
PictureDisplay(6,"ev_bgolem_ct03",0,0,0,0,100,100,255,0)
ShowMessageFace("",0,0,2,5)
ShowMessage("ルカの前に、開口部を見せ付けた！")
ShowMessageFace("bgolem_fc1",1,0,2,6)
ShowMessage("【ブラックゴーレム】")
ShowMessage("キミの体を、この口で丸呑みにしてあげる。")
ShowMessage("中でじゅるじゅる精を吸われると、とっても気持ちいいよ～♪")
ShowMessageFace("",0,0,2,7)
ShowMessage("ルカの体を、触手が絡め取ってきた！")
ShowMessage("ブラックゴーレムの搾精口が、目の前に迫る！")
ChangeSwitch(98,98,0)
ChangeSwitch(96,96,0)
ShowChoices(strings("もがく","なすがまま"),1)
IfPlayerPicksChoice(0,null)
 ShowMessageFace("",0,0,2,8)
 ShowMessage("ルカは激しくもがき、ブラックゴーレムの拘束から逃れた！")
 RunCommonEvent(1999)
 EndEventProcessing()
 0()
IfPlayerPicksChoice(1,null)
 0()
404()
ShowMessageFace("bgolem_fc1",1,0,2,9)
ShowMessage("【ブラックゴーレム】")
ShowMessage("あははっ、逃げないんだ～♪")
ShowMessage("それじゃあ、食べちゃうよ～♪")
ChangeVariable(26,26,3,0,4)
250(bytes(0x04,0x08,0x6f,0x3a,0x0c,0x52,0x50,0x47,0x3a,0x3a,0x53,0x45,0x08,0x3a,0x0a,0x40,0x6e,0x61,0x6d,0x65,0x49,0x22,0x16,0x6d,0x6f,0x6e,0x5f,0x65,0x72,0x6f,0x5f,0x6d,0x61,0x6b,0x69,0x74,0x75,0x6b,0x69,0x33,0x06,0x3a,0x06,0x45,0x54,0x3a,0x0b,0x40,0x70,0x69,0x74,0x63,0x68,0x69,0x69,0x3a,0x0c,0x40,0x76,0x6f,0x6c,0x75,0x6d,0x65,0x69,0x69))
PictureDisplay(6,"ev_bgolem_ct04",0,0,0,0,100,100,255,0)
311(0,1,1,1,26,true)
ShowMessageFace("",0,0,2,10)
ShowMessage("ルカの体に、搾精口が迫ってきた！")
ShowMessage("その体が、黒いぬかるみに沈み込んでいく！\\D")
ShowMessage("ルカは\\V[26]のダメージを受けた！")
ChangeVariable(27,27,0,3,3,1,2)
250(bytes(0x04,0x08,0x6f,0x3a,0x0c,0x52,0x50,0x47,0x3a,0x3a,0x53,0x45,0x08,0x3a,0x0a,0x40,0x6e,0x61,0x6d,0x65,0x49,0x22,0x16,0x6d,0x6f,0x6e,0x5f,0x65,0x72,0x6f,0x5f,0x6d,0x61,0x6b,0x69,0x74,0x75,0x6b,0x69,0x33,0x06,0x3a,0x06,0x45,0x54,0x3a,0x0b,0x40,0x70,0x69,0x74,0x63,0x68,0x69,0x69,0x3a,0x0c,0x40,0x76,0x6f,0x6c,0x75,0x6d,0x65,0x69,0x69))
PictureDisplay(6,"ev_bgolem_ct05",0,0,0,0,100,100,255,0)
311(0,1,1,1,26,true)
ShowMessageFace("",0,0,2,11)
ShowMessage("ルカの体は、黒いうねりに飲み込まれていく！")
ShowMessage("全身を搾精肉が包み込み、じゅるじゅると搾り取ってきた！\\D")
ShowMessage("ルカは\\V[26]のダメージを受けた！")
ChangeVariable(27,27,0,3,3,1,2)
250(bytes(0x04,0x08,0x6f,0x3a,0x0c,0x52,0x50,0x47,0x3a,0x3a,0x53,0x45,0x08,0x3a,0x0a,0x40,0x6e,0x61,0x6d,0x65,0x49,0x22,0x16,0x6d,0x6f,0x6e,0x5f,0x65,0x72,0x6f,0x5f,0x6d,0x61,0x6b,0x69,0x74,0x75,0x6b,0x69,0x33,0x06,0x3a,0x06,0x45,0x54,0x3a,0x0b,0x40,0x70,0x69,0x74,0x63,0x68,0x69,0x69,0x3a,0x0c,0x40,0x76,0x6f,0x6c,0x75,0x6d,0x65,0x69,0x69))
PictureDisplay(6,"ev_bgolem_ct06",0,0,0,0,100,100,255,0)
311(0,1,1,1,26,true)
ShowMessageFace("",0,0,2,12)
ShowMessage("ルカの体は、完全に飲み込まれてしまう！")
ShowMessage("黒い粘肉に包まれ、じゅるじゅると精液が搾取された！\\D")
ShowMessage("ルカは\\V[26]のダメージを受けた！")
ChangeVariable(27,27,0,3,3,1,2)
If(1,27,0,0,0)
 JumpToLabel("射精1")
 0()
EndIf()
DefineLabel("射精1")
ShowMessageFace("",0,0,2,13)
ShowMessage("【ルカ】")
ShowMessage("だめ、出ちゃうよぉ……あぁぁぁ……")
RunCommonEvent(104)
RunCommonEvent(105)
ShowMessageFace("",0,0,2,14)
ShowMessage("ブラックゴーレムに精を搾取されながら、絶頂していた。")
ShowMessage("撒き散らされた精液まで、動力として吸い取られていく――")
ShowMessageFace("bgolem_fc1",1,0,2,15)
ShowMessage("【ブラックゴーレム】")
ShowMessage("あはっ、ザーメンまで御馳走してくれるんだ……")
ShowMessage("これなら、もっと気持ち良くしてあげても損じゃないよね♪")
RunCommonEvent(2000)
EndEventProcessing()
0()
