﻿// EVENT 2121
Name "誘惑：小鬼"

If(0,25,1)
 EndEventProcessing()
 0()
EndIf()
355("$game_troop.lose_event_id = 3121")
ChangeVariable(26,26,0,3,3,1,4)
ChangeVariable(26,26,4,0,10)
ShowMessageFace("kooni_fc1",2,0,2,1)
ShowMessage("【小鬼】")
ShowMessage("やばい、負けちゃうよぉ……")
ShowMessageFace("kooni_fc1",0,0,2,2)
ShowMessage("【小鬼】")
ShowMessage("こうなったら、色仕掛けなんだから～♪")
355("battler_graphic_hide")
PictureDisplay(5,"ev_kooni_h01",0,0,0,0,100,100,255,0)
ShowMessageFace("",0,0,2,3)
ShowMessage("小鬼はルカにしがみつき、服を引きはがした！")
ShowMessageFace("kooni_fc1",0,0,2,4)
ShowMessage("【小鬼】")
ShowMessage("ねぇねぇ、あたしとエッチしようよ……♪")
ChangeSwitch(98,98,0)
ChangeSwitch(96,96,0)
ShowChoices(strings("もがく","なすがまま"),1)
IfPlayerPicksChoice(0,"もがく")
 ShowMessageFace("",0,0,2,5)
 ShowMessage("しかしルカは誘惑を振り切った！")
 RunCommonEvent(1999)
 EndEventProcessing()
 0()
IfPlayerPicksChoice(1,"なすがまま")
 0()
404()
ShowMessageFace("kooni_fc1",0,0,2,6)
ShowMessage("【小鬼】")
ShowMessage("それじゃあ、挿れちゃうよ～♪")
ShowMessage("……と思わせて、むぎゅっ！")
ChangeVariable(26,26,3,0,3)
250(bytes(0x04,0x08,0x6f,0x3a,0x0c,0x52,0x50,0x47,0x3a,0x3a,0x53,0x45,0x08,0x3a,0x0a,0x40,0x6e,0x61,0x6d,0x65,0x49,0x22,0x12,0x6d,0x6f,0x6e,0x5f,0x65,0x72,0x6f,0x5f,0x6b,0x6f,0x6b,0x69,0x31,0x06,0x3a,0x06,0x45,0x54,0x3a,0x0b,0x40,0x70,0x69,0x74,0x63,0x68,0x69,0x69,0x3a,0x0c,0x40,0x76,0x6f,0x6c,0x75,0x6d,0x65,0x69,0x69))
PictureDisplay(5,"ev_kooni_h05",0,0,0,0,100,100,255,0)
311(0,1,1,1,26,true)
ShowMessageFace("",0,0,2,7)
ShowMessage("小鬼は、股間にルカのペニスをぎゅっと挟み込んだ！")
ShowMessage("柔らかな太股に包まれ、みっちりと締め付けられる！\\D")
ShowMessage("ルカは\\V[26]のダメージを受けた！")
ChangeVariable(27,27,0,3,3,1,2)
If(1,27,0,0,0)
 JumpToLabel("射精1")
 0()
EndIf()
ShowMessageFace("kooni_fc1",0,0,2,8)
ShowMessage("【小鬼】")
ShowMessage("あははっ、残念でした～♪")
ShowMessage("まだ挿れさせてあげないよっ♪")
250(bytes(0x04,0x08,0x6f,0x3a,0x0c,0x52,0x50,0x47,0x3a,0x3a,0x53,0x45,0x08,0x3a,0x0a,0x40,0x6e,0x61,0x6d,0x65,0x49,0x22,0x12,0x6d,0x6f,0x6e,0x5f,0x65,0x72,0x6f,0x5f,0x6b,0x6f,0x6b,0x69,0x31,0x06,0x3a,0x06,0x45,0x54,0x3a,0x0b,0x40,0x70,0x69,0x74,0x63,0x68,0x69,0x69,0x3a,0x0c,0x40,0x76,0x6f,0x6c,0x75,0x6d,0x65,0x69,0x69))
311(0,1,1,1,26,true)
ShowMessageFace("",0,0,2,9)
ShowMessage("小鬼は股間に力を込め、太股でペニスを締め上げる！")
ShowMessage("柔らかな圧迫感で、じんわりと快楽が与えられた！\\D")
ShowMessage("ルカは\\V[26]のダメージを受けた！")
ChangeVariable(27,27,0,3,3,1,2)
If(1,27,0,0,0)
 JumpToLabel("射精1")
 0()
EndIf()
ShowMessageFace("kooni_fc1",0,0,2,10)
ShowMessage("【小鬼】")
ShowMessage("あれぇ、とっても気持ちよさそうだよぉ……？")
ShowMessage("挿入する前に、素股で満足しちゃうのぉ？")
250(bytes(0x04,0x08,0x6f,0x3a,0x0c,0x52,0x50,0x47,0x3a,0x3a,0x53,0x45,0x08,0x3a,0x0a,0x40,0x6e,0x61,0x6d,0x65,0x49,0x22,0x12,0x6d,0x6f,0x6e,0x5f,0x65,0x72,0x6f,0x5f,0x6b,0x6f,0x6b,0x69,0x31,0x06,0x3a,0x06,0x45,0x54,0x3a,0x0b,0x40,0x70,0x69,0x74,0x63,0x68,0x69,0x69,0x3a,0x0c,0x40,0x76,0x6f,0x6c,0x75,0x6d,0x65,0x69,0x69))
311(0,1,1,1,26,true)
ShowMessageFace("",0,0,2,11)
ShowMessage("小鬼はペニスを太股でぎゅうぎゅう締め付けた！")
ShowMessage("温かな内股で甘い圧迫感が与えられる！\\D")
ShowMessage("ルカは\\V[26]のダメージを受けた！")
ChangeVariable(27,27,0,3,3,1,2)
If(1,27,0,0,0)
 JumpToLabel("射精1")
 0()
EndIf()
ShowMessageFace("kooni_fc1",0,0,2,12)
ShowMessage("【小鬼】")
ShowMessage("じゃあ、素股でイっちゃおうか……")
ShowMessage("ほ～ら……ぎゅぅっ♪")
250(bytes(0x04,0x08,0x6f,0x3a,0x0c,0x52,0x50,0x47,0x3a,0x3a,0x53,0x45,0x08,0x3a,0x0a,0x40,0x6e,0x61,0x6d,0x65,0x49,0x22,0x12,0x6d,0x6f,0x6e,0x5f,0x65,0x72,0x6f,0x5f,0x6b,0x6f,0x6b,0x69,0x31,0x06,0x3a,0x06,0x45,0x54,0x3a,0x0b,0x40,0x70,0x69,0x74,0x63,0x68,0x69,0x69,0x3a,0x0c,0x40,0x76,0x6f,0x6c,0x75,0x6d,0x65,0x69,0x69))
311(0,1,1,1,26,true)
ShowMessageFace("",0,0,2,13)
ShowMessage("小鬼は太股でペニスをぎゅっと圧迫した！")
ShowMessage("甘く締め上げられ、絶頂に誘われる！\\D")
ShowMessage("ルカは\\V[26]のダメージを受けた！")
ChangeVariable(27,27,0,3,3,1,2)
If(1,27,0,0,0)
 JumpToLabel("射精1")
 0()
EndIf()
DefineLabel("射精1")
ShowMessageFace("",0,0,2,14)
ShowMessage("【ルカ】")
ShowMessage("だめ、出ちゃうよぉ……あぁぁぁ……")
RunCommonEvent(104)
PictureDisplay(5,"ev_kooni_h06",0,0,0,0,100,100,255,0)
RunCommonEvent(105)
ShowMessageFace("",0,0,2,15)
ShowMessage("弾力ある太股でペニスを締められ、あえなくイってしまった。")
ShowMessage("小鬼にの太股を、精液でべっとりと汚してしまう――")
ShowMessageFace("kooni_fc1",1,0,2,16)
ShowMessage("【小鬼】")
ShowMessage("あははっ、素股でイかせちゃった♪")
ShowMessage("キミなんか、おまんこ使わなくても楽勝だよね～♪")
RunCommonEvent(2000)
EndEventProcessing()
0()
