﻿// EVENT 7243
Name "さつき：敗北"

RunCommonEvent(7000)
PictureDisplay(5,"80_mob_miko1_st01",0,0,0,0,100,100,255,0)
PictureClear(6)
ShowMessageFace("mob_miko1_fc1",2,0,2,1)
ShowMessage("【さつき】")
ShowMessage("うふふっ、私の勝ちですね。")
ShowMessage("それじゃあ、お金を払ってもらいますよ……")
125(1,0,700)
ShowMessageFace("",0,0,2,2)
ShowMessage("ルカは 700G 支払った！")
ShowMessageFace("mob_miko1_fc1",6,0,2,3)
ShowMessage("【さつき】")
ShowMessage("それじゃあ、またバトルファックしに来て下さいね。")
ShowMessage("いくらでも相手をして差し上げますから……")
If(0,2331,1)
 PictureClear(5)
 281(1)
 TeleportPlayer(0,53,47,22,2,0)
 216(0)
 0()
EndIf()
EndEventProcessing()
0()
