﻿// EVENT 3373
Name "キメラビースト"

PictureDisplay(5,"80_c_beast_st02",0,0,0,0,100,100,0,0)
PictureMove(5,null,0,0,0,0,100,100,255,0,30,true)
241(bytes(0x04,0x08,0x6f,0x3a,0x0d,0x52,0x50,0x47,0x3a,0x3a,0x42,0x47,0x4d,0x08,0x3a,0x0a,0x40,0x6e,0x61,0x6d,0x65,0x49,0x22,0x09,0x65,0x72,0x6f,0x31,0x06,0x3a,0x06,0x45,0x54,0x3a,0x0c,0x40,0x76,0x6f,0x6c,0x75,0x6d,0x65,0x69,0x69,0x3a,0x0b,0x40,0x70,0x69,0x74,0x63,0x68,0x69,0x69))
ShowMessageFace("",0,0,2,1)
ShowMessage("【ルカ】")
ShowMessage("あぅぅぅ……")
ShowMessageFace("c_beast_fc1",0,0,2,2)
ShowMessage("【キメラビースト】")
ShowMessage("男性陵辱プログラム開始……")
ShowMessage("フェイズ１、尻尾での拘束……")
250(bytes(0x04,0x08,0x6f,0x3a,0x0c,0x52,0x50,0x47,0x3a,0x3a,0x53,0x45,0x08,0x3a,0x0a,0x40,0x6e,0x61,0x6d,0x65,0x49,0x22,0x16,0x6d,0x6f,0x6e,0x5f,0x65,0x72,0x6f,0x5f,0x6d,0x61,0x6b,0x69,0x74,0x75,0x6b,0x69,0x32,0x06,0x3a,0x06,0x45,0x54,0x3a,0x0b,0x40,0x70,0x69,0x74,0x63,0x68,0x69,0x69,0x3a,0x0c,0x40,0x76,0x6f,0x6c,0x75,0x6d,0x65,0x69,0x69))
ShowMessageFace("",0,0,2,3)
ShowMessage("脱力する僕の体を、キメラビーストの尻尾が巻き上げてくる。")
ShowMessage("そのまま動きを封じられ、強引に股を開かされてしまった。")
PictureDisplay(5,"ev_c_beast_h1",0,0,0,0,100,100,255,0)
ShowMessageFace("c_beast_fc1",0,0,2,4)
ShowMessage("【キメラビースト】")
ShowMessage("男性器、勃起を確認……")
ShowMessageFace("",0,0,2,5)
ShowMessage("そしてキメラビーストは、僕の股間を覗き込んできた。")
ShowMessage("やはり、その目には何の感情も宿ってはいない。")
ShowMessageFace("",0,0,2,6)
ShowMessage("ただ、与えられた命令を淡々と実行するだけのようだ――")
ShowMessageFace("c_beast_fc1",0,0,2,7)
ShowMessage("【キメラビースト】")
ShowMessage("陵辱開始……フェイズ２、舌による性器蹂躙……")
245(bytes(0x04,0x08,0x6f,0x3a,0x0d,0x52,0x50,0x47,0x3a,0x3a,0x42,0x47,0x53,0x08,0x3a,0x0a,0x40,0x6e,0x61,0x6d,0x65,0x49,0x22,0x10,0x6d,0x6f,0x6e,0x5f,0x68,0x76,0x6f,0x69,0x63,0x65,0x31,0x06,0x3a,0x06,0x45,0x54,0x3a,0x0c,0x40,0x76,0x6f,0x6c,0x75,0x6d,0x65,0x69,0x55,0x3a,0x0b,0x40,0x70,0x69,0x74,0x63,0x68,0x69,0x69))
PictureDisplay(5,"ev_c_beast_h2",0,0,0,0,100,100,255,0)
ShowMessageFace("",0,0,2,8)
ShowMessage("キメラビーストの口からいくつもの舌が伸び、ペニスを絡め取ってきた。")
ShowMessage("たちまち僕のモノは、無数の舌で隙間なく巻き取られてしまう――")
ShowMessageFace("",0,0,2,9)
ShowMessage("【ルカ】")
ShowMessage("あぅぅぅぅ……！")
ShowMessageFace("",0,0,2,10)
ShowMessage("それぞれ独立して蠢く舌が、うねうねとペニスにまとわりついてくる。")
ShowMessage("しゅるしゅるとサオを巻き上げたと思ったら、べちゃべちゃと亀頭を舐め回され――")
ShowMessageFace("",0,0,2,11)
ShowMessage("多彩でねちっこい快楽刺激を、肉棒へと与えてくるのだ。")
ShowMessage("まるでペニスを舐め溶かすような舌遣いに、僕は身悶えしてしまった。")
ShowMessageFace("c_beast_fc1",0,0,2,12)
ShowMessage("【キメラビースト】")
ShowMessage("唾液の分泌を促進、舌刺激の潤滑化……")
ShowMessageFace("",0,0,2,13)
ShowMessage("【ルカ】")
ShowMessage("ひぁぁぁぁぁ……！")
ShowMessageFace("",0,0,2,14)
ShowMessage("舌の表面からべっとりと唾液が滴り、ぬめった感触が増していく。")
ShowMessage("根本から先端まで、キメラビーストの唾液でドロドロにまみれてしまった。")
ShowMessageFace("",0,0,2,15)
ShowMessage("舌粘膜のザラザラ感が、より滑らかに亀頭やサオへと粘り着いてくる。")
ShowMessage("それは、腰が砕けそうなほどの快楽だった――")
ShowMessageFace("c_beast_fc1",0,0,2,16)
ShowMessage("【キメラビースト】")
ShowMessage("射精の兆候を確認……舌刺激、最終フェイズ……")
ShowMessageFace("",0,0,2,17)
ShowMessage("【ルカ】")
ShowMessage("ああぁぁぁぁ――！")
ShowMessageFace("",0,0,2,18)
ShowMessage("無数の舌に、同時に舐め回される快楽。")
ShowMessage("じゅるじゅる蠢く舌の渦に、肉棒が呑み込まれてしまったかのようだ。")
ShowMessageFace("",0,0,2,19)
ShowMessage("そして、舌がペニスに絡み、巻き取られ、締め付けられる――")
ShowMessage("舌粘膜が密着し、サオやカリがぎゅうぎゅうと圧迫される――")
ShowMessageFace("",0,0,2,20)
ShowMessage("キメラビーストの行う舌での責めに、たちまち僕は我慢出来なくなった。")
ShowMessage("射精感が一気に湧き上がり、肉棒からこみ上げてきたのだ――")
ShowMessageFace("",0,0,2,21)
ShowMessage("【ルカ】")
ShowMessage("あぁぁぁ……！　出ちゃうよぉ……！")
ShowMessageFace("",0,0,2,22)
ShowMessage("僕は無様にも腰を突き上げ、そのまま欲望を放出した――")
RunCommonEvent(104)
PictureDisplay(5,"ev_c_beast_h3",0,0,0,0,100,100,255,0)
RunCommonEvent(105)
ShowMessageFace("",0,0,2,23)
ShowMessage("蠢く舌に絡まれたまま、あえなく射精してしまう。")
ShowMessage("ドクドクと精を吐き出している最中のペニスを、舌は容赦なく責めたててきた。")
ShowMessageFace("",0,0,2,24)
ShowMessage("舌の群れが、亀頭をじゅるじゅると集中攻撃する。")
ShowMessage("溢れる精液がたちまち舐め取られ、亀頭が舌粘膜に徹底蹂躙され――")
ShowMessageFace("",0,0,2,25)
ShowMessage("【ルカ】")
ShowMessage("あぅぅぅぅぅぅ……")
ShowMessageFace("",0,0,2,26)
ShowMessage("射精中、そして射精後のペニスに加えられる舌責めに僕は身悶えしてしまう。")
ShowMessage("放たれた精液は、全てキメラビーストに舐め尽くされてしまったようだ――")
246(1)
ShowMessageFace("c_beast_fc1",0,0,2,27)
ShowMessage("【キメラビースト】")
ShowMessage("陵辱続行……最終フェイズ、尻尾による性器吸精……")
245(bytes(0x04,0x08,0x6f,0x3a,0x0d,0x52,0x50,0x47,0x3a,0x3a,0x42,0x47,0x53,0x08,0x3a,0x0a,0x40,0x6e,0x61,0x6d,0x65,0x49,0x22,0x17,0x6d,0x6f,0x6e,0x5f,0x68,0x73,0x65,0x61,0x6e,0x31,0x35,0x5f,0x6b,0x79,0x75,0x69,0x6e,0x32,0x06,0x3a,0x06,0x45,0x54,0x3a,0x0c,0x40,0x76,0x6f,0x6c,0x75,0x6d,0x65,0x69,0x55,0x3a,0x0b,0x40,0x70,0x69,0x74,0x63,0x68,0x69,0x69))
PictureDisplay(5,"ev_c_beast_h4",0,0,0,0,100,100,255,0)
ShowMessageFace("",0,0,2,28)
ShowMessage("そして――キメラビーストの尻尾が、僕の股間へと被さってきた。")
ShowMessage("うじゅうじゅとうねるその内部に、ペニスが根本まで包み込まれてしまう！")
ShowMessageFace("",0,0,2,29)
ShowMessage("【ルカ】")
ShowMessage("あ、あぁぁぁぁぁ――！！")
PictureDisplay(6,"ev_c_beast_ct01",0,0,0,0,100,100,255,0)
ShowMessageFace("",0,0,2,30)
ShowMessage("吸精孔の中では無数の触手がうねり、ざわざわと波打っていた。")
ShowMessage("そして、獲物を捕らえるように肉棒へと襲い掛かる。")
ShowMessageFace("",0,0,2,31)
ShowMessage("たちまちペニスは触手に絡め取られ、巻き付かれてしまった。")
ShowMessage("柔らかくぬめった感触が、亀頭やサオに絡んでいく――")
ShowMessageFace("c_beast_fc1",0,0,2,32)
ShowMessage("【キメラビースト】")
ShowMessage("吸精、開始……")
ShowMessageFace("",0,0,2,33)
ShowMessage("【ルカ】")
ShowMessage("ふぁ……あぁぁぁぁ……")
ShowMessageFace("",0,0,2,34)
ShowMessage("肉筒の中で触手がうねり、僕のモノはとろけそうな感触にさらされた。")
ShowMessage("無数の触手は的確に肉棒を嫐り、じっくりと責めたててくる。")
ShowMessageFace("",0,0,2,35)
ShowMessage("カリ首のくびれに絡み、じんわりと締め付け――")
ShowMessage("そして亀頭にも這い回り、尿道口や裏筋をくすぐってくるのだ。")
ShowMessageFace("c_beast_fc1",0,0,2,36)
ShowMessage("【キメラビースト】")
ShowMessage("内部触手の蠢きを促進、ならびに吸精の頻度を上昇……")
ShowMessageFace("",0,0,2,37)
ShowMessage("【ルカ】")
ShowMessage("あぅぅぅ……すごいよぉ……")
ShowMessageFace("",0,0,2,38)
ShowMessage("尻尾の内壁がぶちゅぶちゅと波打ち、ペニスを搾るような刺激を与えてくる。")
ShowMessage("そして、亀頭やサオをいたぶる触手の蠢きも激しくなった。")
ShowMessageFace("",0,0,2,39)
ShowMessage("内壁の蠕動と触手刺激で、男を強制的に射精させる機能――")
ShowMessage("そんな機構にペニスを囚われた僕は、なすすべなく果てるしかなかった。")
ShowMessageFace("",0,0,2,40)
ShowMessage("【ルカ】")
ShowMessage("あ、あぁぁぁぁぁ――！！")
RunCommonEvent(104)
PictureDisplay(5,"ev_c_beast_h5",0,0,0,0,100,100,255,0)
PictureDisplay(6,"ev_c_beast_ct02",0,0,0,0,100,100,255,0)
RunCommonEvent(105)
ShowMessageFace("",0,0,2,41)
ShowMessage("尻尾にペニスを貪られたまま、僕はあっけなく射精していた。")
ShowMessage("おぞましい搾精器官の中に、精液がドクドクと注ぎ込まれていく。")
ShowMessageFace("",0,0,2,42)
ShowMessage("まるで搾り出されるような放出感に、僕は脱力してしまった――")
ShowMessage("しかし、吸精行為に終わる気配は全くない。")
ShowMessageFace("c_beast_fc1",0,0,2,43)
ShowMessage("【キメラビースト】")
ShowMessage("射精を確認、精液量５ｃｃ……")
ShowMessage("吸精を続行……")
ShowMessageFace("",0,0,2,44)
ShowMessage("【ルカ】")
ShowMessage("あひぃぃぃぃ……！")
245(bytes(0x04,0x08,0x6f,0x3a,0x0d,0x52,0x50,0x47,0x3a,0x3a,0x42,0x47,0x53,0x08,0x3a,0x0a,0x40,0x6e,0x61,0x6d,0x65,0x49,0x22,0x17,0x6d,0x6f,0x6e,0x5f,0x68,0x73,0x65,0x61,0x6e,0x31,0x36,0x5f,0x6b,0x79,0x75,0x69,0x6e,0x33,0x06,0x3a,0x06,0x45,0x54,0x3a,0x0c,0x40,0x76,0x6f,0x6c,0x75,0x6d,0x65,0x69,0x55,0x3a,0x0b,0x40,0x70,0x69,0x74,0x63,0x68,0x69,0x69))
ShowMessageFace("",0,0,2,45)
ShowMessage("先端部に触手がにゅるにゅると絡み、丹念に刺激してくる。")
ShowMessage("触手の一本一本が、別の生き物のようにペニスを嫐りたててくるのだ。")
ShowMessageFace("",0,0,2,46)
ShowMessage("亀頭表面に這い回る感触、先端部に巻き付いて締められる感触――")
ShowMessage("そして、尿道口や裏筋が触手先端で何度もなぞられるのだ。")
ShowMessageFace("",0,0,2,47)
ShowMessage("カリ首も触手に嫐られ、くびれの部分を徹底的に弄ばれた。")
ShowMessage("締められ、覆い込まれ、傘からくびれまで丹念に嫐られ尽くす。")
ShowMessageFace("",0,0,2,48)
ShowMessage("ペニスを包んでいる肉壁自体も、じゅぶじゅぶと波打って刺激を与えた。")
ShowMessage("肉壁全体が蠕動するような刺激は、ペニスに甘い快楽をもたらす――")
ShowMessageFace("",0,0,2,49)
ShowMessage("【ルカ】")
ShowMessage("だめぇ……！　出ちゃうよぉ……！")
ShowMessage("あ、あぁぁぁぁぁ――！！")
RunCommonEvent(104)
PictureDisplay(5,"ev_c_beast_h6",0,0,0,0,100,100,255,0)
PictureDisplay(6,"ev_c_beast_ct03",0,0,0,0,100,100,255,0)
RunCommonEvent(105)
ShowMessageFace("",0,0,2,50)
ShowMessage("強烈な搾精刺激で、あっという間にイかされてしまう。")
ShowMessageFace("",0,0,2,51)
ShowMessage("キメラビーストの尻尾による吸精は、僕をたちまちのうちに")
ShowMessage("連続射精に導いたのだった。")
ShowMessageFace("",0,0,2,52)
ShowMessage("男を続けて絶頂させ、精液を搾り取る――")
ShowMessage("それが、このおぞましい尻尾に備わった機能。")
ShowMessageFace("",0,0,2,53)
ShowMessage("無力な僕は、もはや抗うすべを持たなかった――")
ShowMessageFace("c_beast_fc1",0,0,2,54)
ShowMessage("【キメラビースト】")
ShowMessage("射精を確認、精液量４ｃｃ……")
ShowMessage("吸精を続行……")
ShowMessageFace("",0,0,2,55)
ShowMessage("【ルカ】")
ShowMessage("ひぁぁぁぁぁ……！　や、やめてぇ……！")
ShowMessageFace("",0,0,2,56)
ShowMessage("容赦も慈悲もなく、キメラビーストは精液を搾り続ける。")
ShowMessage("尻尾の中では、肉棒に甘い刺激がひたすら強制されていた。")
ShowMessageFace("",0,0,2,57)
ShowMessage("触手がじゅるじゅるとうねり、肉壁がぐにゅぐにゅと蠕動し――")
ShowMessage("男を射精させるための動作を、的確にペニスへと与え続けているのだ。")
ShowMessageFace("",0,0,2,58)
ShowMessage("【ルカ】")
ShowMessage("だめぇ……もう、やめてぇ……")
ShowMessageFace("c_beast_fc1",0,0,2,59)
ShowMessage("【キメラビースト】")
ShowMessage("吸精続行中……快楽刺激、さらに促進……")
ShowMessageFace("",0,0,2,60)
ShowMessage("【ルカ】")
ShowMessage("あぁぁぁぁぁ――！！")
RunCommonEvent(104)
PictureDisplay(6,"ev_c_beast_ct04",0,0,0,0,100,100,255,0)
RunCommonEvent(105)
ShowMessageFace("",0,0,2,61)
ShowMessage("快楽刺激を強制され、精液が強引に搾り取られていく。")
ShowMessage("僕が力尽きるまで、吸精は行われるのだ――")
ShowMessageFace("",0,0,2,62)
ShowMessage("この無慈悲な怪物に捕まった時点で、僕の命運は決まっていたのである。")
ShowMessageFace("c_beast_fc1",0,0,2,63)
ShowMessage("【キメラビースト】")
ShowMessage("さらに吸精刺激を続行――")
ShowMessageFace("",0,0,2,64)
ShowMessage("【ルカ】")
ShowMessage("あぁぁぁ……！")
ShowMessageFace("",0,0,2,65)
ShowMessage("延々と続く快楽の責め苦に、僕はなすすべもなく精を搾取されていった。")
ShowMessageFace("",0,0,2,66)
ShowMessage("失禁しようが、衰弱しようが関係なく――")
ShowMessage("延々と、延々と――")
221()
PictureClear(5)
PictureClear(6)
246(2)
ShowMessageFace("c_beast_fc1",0,0,2,67)
ShowMessage("【キメラビースト】")
ShowMessage("男の生命活動、停止……")
ShowMessageFace("",0,0,2,68)
ShowMessage("キメラビーストはそう呟き、搾り尽くされた屍を解放する。")
ShowMessage("少年は精液を根こそぎ吸い尽くされ、昇天してしまったのだった――")
ShowMessageFace("",0,0,2,69)
ShowMessage("・・・・・・・・")
221()
242(1)
Wait(120)
355("memory_interruption")
ShowMessageFace("",0,0,2,70)
ShowMessage("女神イリアスの声が聞こえる……")
ShowMessage("反省会に出ますか？")
ShowChoices(strings("反省会に出る","難易度を変更する","輪廻に戻る"),3)
IfPlayerPicksChoice(0,"反省会に出る")
 241(bytes(0x04,0x08,0x6f,0x3a,0x0d,0x52,0x50,0x47,0x3a,0x3a,0x42,0x47,0x4d,0x08,0x3a,0x0a,0x40,0x6e,0x61,0x6d,0x65,0x49,0x22,0x0a,0x69,0x72,0x69,0x61,0x73,0x06,0x3a,0x06,0x45,0x54,0x3a,0x0c,0x40,0x76,0x6f,0x6c,0x75,0x6d,0x65,0x69,0x5f,0x3a,0x0b,0x40,0x70,0x69,0x74,0x63,0x68,0x69,0x6e))
 PictureDisplay(1,"bg001",0,0,0,0,100,100,255,0)
 222()
 PictureDisplay(5,"80_iriasu_st04",0,0,0,0,100,100,0,0)
 PictureMove(5,null,0,0,0,0,100,100,255,0,30,true)
 ShowMessageFace("iriasu_fc1",3,0,2,71)
 ShowMessage("【イリアス】")
 ShowMessage("キメラタイプの魔獣ですか……")
 ShowMessage("あなたが交尾した結果、さらなるキメラが生まれそうですね。")
 PictureDisplay(5,"80_iriasu_st01",0,0,0,0,100,100,255,0)
 ShowMessageFace("iriasu_fc1",0,0,2,72)
 ShowMessage("【イリアス】")
 ShowMessage("キメラビーストは、獣系のキメラ。")
 ShowMessage("強力な物理攻撃が最大の武器となっています。")
 ShowMessageFace("iriasu_fc1",0,0,2,73)
 ShowMessage("【イリアス】")
 ShowMessage("獣系なので、快楽には弱いようですね。")
 ShowMessage("他の属性や状態異常は頼れませんので、快楽を軸に戦いましょう。")
 PictureDisplay(5,"80_iriasu_st02",0,0,0,0,100,100,255,0)
 ShowMessageFace("iriasu_fc1",1,0,2,74)
 ShowMessage("【イリアス】")
 ShowMessage("では行きなさい、勇者ルカ。")
 ShowMessage("実際のところ、生物はみんなキメラのようなものです。")
 242(1)
 221()
 PictureClear(5)
 PictureClear(1)
 Wait(60)
 0()
IfPlayerPicksChoice(1,"難易度を変更する")
 ShowMessageFace("",0,0,2,75)
 ShowMessage("難易度を選択して下さい。")
 RunCommonEvent(110)
 0()
IfPlayerPicksChoice(2,"輪廻に戻る")
 0()
404()
RunCommonEvent(3000)
0()
