﻿// EVENT 2080
Name "誘惑：ゾンビ娘集団"

If(0,25,1)
 EndEventProcessing()
 0()
EndIf()
355("$game_troop.lose_event_id = 3080")
ChangeVariable(26,26,0,3,3,1,4)
ChangeVariable(26,26,4,0,10)
ShowMessageFace("zonbe_fc3",2,0,2,1)
ShowMessage("【ゾンビ娘】")
ShowMessage("ぅぅ……ぁぁぁ……")
ShowMessageFace("",0,0,2,2)
ShowMessage("ゾンビ娘はルカを押し倒し、のしかかってきた！")
ShowMessage("ルカは、ゾンビ娘に押し倒されてしまった！")
ShowMessageFace("zonbe_fc3",1,0,2,3)
ShowMessage("【ゾンビ娘】")
ShowMessage("男……欲しい……")
ShowMessageFace("zonbe_fc3",0,0,2,4)
ShowMessage("【ゾンビ娘】")
ShowMessage("あぅぅ……温もりを、もっと……")
355("battler_graphic_hide")
PictureDisplay(5,"ev_zonbes_h1",0,0,0,0,100,100,255,0)
ShowMessageFace("",0,0,2,5)
ShowMessage("ゾンビ娘達の集団が現れ、次々としがみついてくる！")
ShowMessage("ルカの体は、ゾンビ娘達に群がられてしまった！")
ChangeSwitch(98,98,0)
ChangeSwitch(96,96,0)
ShowChoices(strings("もがく","なすがまま"),1)
IfPlayerPicksChoice(0,"もがく")
 ShowMessageFace("",0,0,2,6)
 ShowMessage("ルカは激しくもがき、ゾンビ娘の体をはねのけた！")
 RunCommonEvent(1999)
 EndEventProcessing()
 0()
IfPlayerPicksChoice(1,"なすがまま")
 0()
404()
ShowMessageFace("zonbe_fc3",0,0,2,7)
ShowMessage("【ゾンビ娘】")
ShowMessage("欲しい……男の……精液……")
ChangeVariable(26,26,3,0,4)
250(bytes(0x04,0x08,0x6f,0x3a,0x0c,0x52,0x50,0x47,0x3a,0x3a,0x53,0x45,0x08,0x3a,0x0a,0x40,0x6e,0x61,0x6d,0x65,0x49,0x22,0x11,0x6d,0x6f,0x6e,0x5f,0x65,0x72,0x6f,0x5f,0x70,0x79,0x75,0x31,0x06,0x3a,0x06,0x45,0x54,0x3a,0x0b,0x40,0x70,0x69,0x74,0x63,0x68,0x69,0x69,0x3a,0x0c,0x40,0x76,0x6f,0x6c,0x75,0x6d,0x65,0x69,0x69))
PictureDisplay(5,"ev_zonbes_h2",0,0,0,0,100,100,255,0)
311(0,1,1,1,26,true)
ShowMessageFace("",0,0,2,8)
ShowMessage("ゾンビ娘は、そのまま腰を沈めてくる！")
ShowMessage("ぬめった膣に、ルカのペニスが沈み込んでしまった！\\D")
ShowMessage("ルカは\\V[26]のダメージを受けた！")
ChangeVariable(27,27,0,3,3,1,2)
If(1,27,0,0,0)
 JumpToLabel("射精1")
 0()
EndIf()
ShowMessageFace("",0,0,2,9)
ShowMessage("【ルカ】")
ShowMessage("あぁぁぁぁぁぁぁ……！")
ShowMessageFace("",0,0,2,10)
ShowMessage("ゾンビ娘の膣内はねちゃねちゃしていて、異様な感触だった。")
ShowMessageFace("",0,0,2,11)
ShowMessage("締め付けも緩いし、ひんやりしているが――")
ShowMessage("とろけた肉や粘液が、ねばねばとまとわりついてくるのだ。")
ShowMessageFace("",0,0,2,12)
ShowMessage("【ルカ】")
ShowMessage("あひぃぃ……！")
ShowMessageFace("",0,0,2,13)
ShowMessage("異様な感触に総毛立つとともに、僕は独特の快感を味わっていた。")
ShowMessage("ゾンビに犯され、交わっているという背徳が興奮を倍増させてしまう――")
ShowMessageFace("zonbe_fc3",0,0,2,14)
ShowMessage("【ゾンビ娘】")
ShowMessage("乾きを……癒して……")
250(bytes(0x04,0x08,0x6f,0x3a,0x0c,0x52,0x50,0x47,0x3a,0x3a,0x53,0x45,0x08,0x3a,0x0a,0x40,0x6e,0x61,0x6d,0x65,0x49,0x22,0x13,0x6d,0x6f,0x6e,0x5f,0x65,0x72,0x6f,0x5f,0x63,0x68,0x75,0x70,0x61,0x33,0x06,0x3a,0x06,0x45,0x54,0x3a,0x0b,0x40,0x70,0x69,0x74,0x63,0x68,0x69,0x69,0x3a,0x0c,0x40,0x76,0x6f,0x6c,0x75,0x6d,0x65,0x69,0x69))
311(0,1,1,1,26,true)
ShowMessageFace("",0,0,2,15)
ShowMessage("ゾンビ娘は激しく腰を振り乱してきた！")
ShowMessage("ぐちゅぐちゅの膣肉が、ねっとりと絡みついてくる！\\D")
ShowMessage("ルカは\\V[26]のダメージを受けた！")
ChangeVariable(27,27,0,3,3,1,2)
If(1,27,0,0,0)
 JumpToLabel("射精1")
 0()
EndIf()
ShowMessageFace("zonbe_fc3",0,0,2,16)
ShowMessage("【ゾンビ娘】")
ShowMessage("生命……男の、精……")
250(bytes(0x04,0x08,0x6f,0x3a,0x0c,0x52,0x50,0x47,0x3a,0x3a,0x53,0x45,0x08,0x3a,0x0a,0x40,0x6e,0x61,0x6d,0x65,0x49,0x22,0x13,0x6d,0x6f,0x6e,0x5f,0x65,0x72,0x6f,0x5f,0x63,0x68,0x75,0x70,0x61,0x33,0x06,0x3a,0x06,0x45,0x54,0x3a,0x0b,0x40,0x70,0x69,0x74,0x63,0x68,0x69,0x69,0x3a,0x0c,0x40,0x76,0x6f,0x6c,0x75,0x6d,0x65,0x69,0x69))
311(0,1,1,1,26,true)
ShowMessageFace("",0,0,2,17)
ShowMessage("ゾンビ娘は激しく腰を振り乱してきた！")
ShowMessage("とろけた膣肉が亀頭にこすれ、粘った快楽を与えてくる！\\D")
ShowMessage("ルカは\\V[26]のダメージを受けた！")
ChangeVariable(27,27,0,3,3,1,2)
If(1,27,0,0,0)
 JumpToLabel("射精1")
 0()
EndIf()
DefineLabel("射精1")
ShowMessageFace("",0,0,2,18)
ShowMessage("【ルカ】")
ShowMessage("こ、こんなぁ……あぁぁぁ……")
RunCommonEvent(104)
PictureDisplay(5,"ev_zonbes_h3",0,0,0,0,100,100,255,0)
RunCommonEvent(105)
ShowMessageFace("",0,0,2,19)
ShowMessage("ゾンビ娘に犯され、とうとう膣内で射精してしまった。")
ShowMessage("ひんやりした膣内に、精が搾り取られていくような放出感だ――")
ShowMessageFace("zonbe_fc3",0,0,2,20)
ShowMessage("【ゾンビ娘】")
ShowMessage("男の、精……生命の温もり……")
RunCommonEvent(2000)
EndEventProcessing()
0()
