﻿// EVENT 4236
Name "ローパー娘1"

If(0,25,1)
 221()
 PictureClear(5)
 PictureClear(6)
 ShowMessageFace("",0,0,2,1)
 ShowMessage("・・・・・・・・")
 242(2)
 Wait(120)
 241(bytes(0x04,0x08,0x6f,0x3a,0x0d,0x52,0x50,0x47,0x3a,0x3a,0x42,0x47,0x4d,0x08,0x3a,0x0a,0x40,0x6e,0x61,0x6d,0x65,0x49,0x22,0x0c,0x63,0x61,0x73,0x74,0x6c,0x65,0x36,0x06,0x3a,0x06,0x45,0x54,0x3a,0x0c,0x40,0x76,0x6f,0x6c,0x75,0x6d,0x65,0x69,0x69,0x3a,0x0b,0x40,0x70,0x69,0x74,0x63,0x68,0x69,0x69))
 EndEventProcessing()
 0()
EndIf()
PictureDisplay(5,"80_ropa_st01",0,0,0,0,100,100,255,0)
ShowMessageFace("ropa_fc1",0,0,2,2)
ShowMessage("【シンディ】")
ShowMessage("私に快楽を与えてほしいの？")
ShowMessageFace("",0,0,2,3)
ShowMessage("【ルカ】")
ShowMessage("う、うん……")
PictureDisplay(5,"80_ropa_st02",0,0,0,0,100,100,255,0)
ShowMessageFace("ropa_fc1",1,0,2,4)
ShowMessage("【シンディ】")
ShowMessage("それじゃあ、私の部屋に来て……")
ShowMessage("誰も見ていないところでね……")
ShowMessageFace("",0,0,2,5)
ShowMessage("こうして僕は、シンディの部屋に誘われた。")
ShowMessage("それを、あれほど後悔する事になるなんて――")
221()
PictureDisplay(1,"bg195",0,0,0,0,100,100,255,0)
PictureDisplay(5,"80_ropa_st02",0,0,0,0,100,100,255,0)
222()
241(bytes(0x04,0x08,0x6f,0x3a,0x0d,0x52,0x50,0x47,0x3a,0x3a,0x42,0x47,0x4d,0x08,0x3a,0x0a,0x40,0x6e,0x61,0x6d,0x65,0x49,0x22,0x09,0x65,0x72,0x6f,0x31,0x06,0x3a,0x06,0x45,0x54,0x3a,0x0c,0x40,0x76,0x6f,0x6c,0x75,0x6d,0x65,0x69,0x69,0x3a,0x0b,0x40,0x70,0x69,0x74,0x63,0x68,0x69,0x69))
ShowMessageFace("ropa_fc1",1,0,2,6)
ShowMessage("【シンディ】")
ShowMessage("快楽が欲しいのよね、それじゃあ……")
250(bytes(0x04,0x08,0x6f,0x3a,0x0c,0x52,0x50,0x47,0x3a,0x3a,0x53,0x45,0x08,0x3a,0x0a,0x40,0x6e,0x61,0x6d,0x65,0x49,0x22,0x16,0x6d,0x6f,0x6e,0x5f,0x65,0x72,0x6f,0x5f,0x6d,0x61,0x6b,0x69,0x74,0x75,0x6b,0x69,0x33,0x06,0x3a,0x06,0x45,0x54,0x3a,0x0b,0x40,0x70,0x69,0x74,0x63,0x68,0x69,0x69,0x3a,0x0c,0x40,0x76,0x6f,0x6c,0x75,0x6d,0x65,0x69,0x69))
ShowMessageFace("",0,0,2,7)
ShowMessage("シンディは無数の触手を伸ばし、僕の体を絡め取ってきた！")
ShowMessageFace("",0,0,2,8)
ShowMessage("【ルカ】")
ShowMessage("あ、あぁぁぁ……")
PictureDisplay(5,"ev_ropa_h1",0,0,0,0,100,100,255,0)
ShowMessageFace("",0,0,2,9)
ShowMessage("僕は触手に引き寄せられ、シンディにしっかりと密着させられる。")
ShowMessage("その体は軟体のように柔らかく、表面粘膜は粘液でネバネバしていた。")
ShowMessageFace("",0,0,2,10)
ShowMessage("そして、密着した粘膜からはぬるやかな液体がじっくり染み出してくる。")
ShowMessage("これは、まさか――")
ShowMessageFace("ropa_fc1",1,0,2,11)
ShowMessage("【シンディ】")
ShowMessage("消化液で、じわじわ溶かしてあげるわ……")
ShowMessageFace("",0,0,2,12)
ShowMessage("【ルカ】")
ShowMessage("ちょ、ちょっと待って……！")
ShowMessage("それじゃ、死んじゃう！")
ShowMessageFace("",0,0,2,13)
ShowMessage("悲鳴を上げながら、僕は激しくもがいたが――")
ShowMessage("あっという間に、触手で動きを封じられてしまった。")
ShowMessageFace("",0,0,2,14)
ShowMessage("そのまま、腰をシンディの下半身へと押しつけられてしまう。")
ShowMessage("そこには、女性器のような器官が口を開けていた。")
ShowMessageFace("",0,0,2,15)
ShowMessage("【ルカ】")
ShowMessage("な、仲間なのに……こんな……")
ShowMessageFace("ropa_fc1",1,0,2,16)
ShowMessage("【シンディ】")
ShowMessage("仲間でも、食べたいモノってあるでしょう……？")
ShowMessage("大丈夫、今は誰も見ていないから……")
ShowMessageFace("",0,0,2,17)
ShowMessage("【ルカ】")
ShowMessage("そ、そんな……嫌だ、嫌だぁぁぁ！！")
ShowMessageFace("",0,0,2,18)
ShowMessage("抵抗も虚しく、その器官に僕のモノがめり込んでいき――")
245(bytes(0x04,0x08,0x6f,0x3a,0x0d,0x52,0x50,0x47,0x3a,0x3a,0x42,0x47,0x53,0x08,0x3a,0x0a,0x40,0x6e,0x61,0x6d,0x65,0x49,0x22,0x1e,0x6d,0x6f,0x6e,0x5f,0x68,0x73,0x65,0x61,0x6e,0x31,0x32,0x5f,0x69,0x6e,0x6e,0x65,0x72,0x77,0x6f,0x72,0x6b,0x73,0x5f,0x63,0x32,0x06,0x3a,0x06,0x45,0x54,0x3a,0x0c,0x40,0x76,0x6f,0x6c,0x75,0x6d,0x65,0x69,0x55,0x3a,0x0b,0x40,0x70,0x69,0x74,0x63,0x68,0x69,0x69))
PictureDisplay(5,"ev_ropa_hb1",0,0,0,0,100,100,255,0)
ShowMessageFace("",0,0,2,19)
ShowMessage("そして、肉棒がその穴に咥え込まれてしまった！")
ShowMessageFace("",0,0,2,20)
ShowMessage("【ルカ】")
ShowMessage("あぁぁぁぁぁ……なに、これぇ……！")
ShowMessageFace("",0,0,2,21)
ShowMessage("内部はヌメヌメしており、無数の触手がじゅるじゅるとうねっていた。")
ShowMessage("まるで、挿入したペニスが触手に巻き取られていくかのようだ。")
ShowMessageFace("",0,0,2,22)
ShowMessage("亀頭やカリに、ヌメヌメとねちっこい刺激が与えられる。")
ShowMessageFace("",0,0,2,23)
ShowMessage("【ルカ】")
ShowMessage("ふぁぁぁぁ……気持ちいいよぉ……")
ShowMessageFace("",0,0,2,24)
ShowMessage("あまりの快感に、僕は思わず脱力してしまった。")
ShowMessage("逃げようとしても、体に力が入らない――")
ShowMessageFace("ropa_fc1",1,0,2,25)
ShowMessage("【シンディ】")
ShowMessage("快楽で逃げないようにして、弱らせて……")
ShowMessage("そうしながら、溶かしてあげる……")
ShowMessageFace("",0,0,2,26)
ShowMessage("【ルカ】")
ShowMessage("い、いやだ……はぅぅぅ……！")
ShowMessageFace("",0,0,2,27)
ShowMessage("逃げようともがいても、肉棒に与えられる刺激で脱力させられる。")
ShowMessage("肉穴の内部はねちっこく蠢き、僕に深い悦びを与えてくるのだ。")
ShowMessageFace("",0,0,2,28)
ShowMessage("その快楽は凄まじく、たちまち男に無力さを悟らせてしまうほど。")
ShowMessage("触手がじゅるじゅる亀頭に絡む刺激で、僕の頭は真っ白になった――")
ShowMessageFace("",0,0,2,29)
ShowMessage("【ルカ】")
ShowMessage("あ……出るぅ……！　あぁぁぁぁぁ――！！")
RunCommonEvent(104)
PictureDisplay(5,"ev_ropa_hb2",0,0,0,0,100,100,255,0)
RunCommonEvent(105)
ShowMessageFace("",0,0,2,30)
ShowMessage("どくっ、どくっ……と、シンディの肉穴に精液が注ぎ込まれていく。")
ShowMessage("その間にも、僕の全身はすっかり消化液にまみれてしまった。")
ShowMessageFace("",0,0,2,31)
ShowMessage("そのおぞましい液体は、苦痛どころか、")
ShowMessage("生温くねっとりとした快感をもたらしてくる。")
ShowMessageFace("",0,0,2,32)
ShowMessage("それが、僕は逆に恐ろしかった。")
ShowMessage("こんなに甘い快楽の中で、体を溶かされてしまうなんて――")
ShowMessageFace("",0,0,2,33)
ShowMessage("【ルカ】")
ShowMessage("い、いやだぁ……！　離して……助けて……！")
ShowMessageFace("ropa_fc1",1,0,2,34)
ShowMessage("【シンディ】")
ShowMessage("快楽の中で、甘くとろけなさい……")
245(bytes(0x04,0x08,0x6f,0x3a,0x0d,0x52,0x50,0x47,0x3a,0x3a,0x42,0x47,0x53,0x08,0x3a,0x0a,0x40,0x6e,0x61,0x6d,0x65,0x49,0x22,0x1e,0x6d,0x6f,0x6e,0x5f,0x68,0x73,0x65,0x61,0x6e,0x31,0x33,0x5f,0x69,0x6e,0x6e,0x65,0x72,0x77,0x6f,0x72,0x6b,0x73,0x5f,0x63,0x33,0x06,0x3a,0x06,0x45,0x54,0x3a,0x0c,0x40,0x76,0x6f,0x6c,0x75,0x6d,0x65,0x69,0x55,0x3a,0x0b,0x40,0x70,0x69,0x74,0x63,0x68,0x69,0x69))
ShowMessageFace("",0,0,2,35)
ShowMessage("肉穴の中はにゅるにゅる蠢き、ペニスに絶えず快楽刺激を与え続ける。")
ShowMessageFace("",0,0,2,36)
ShowMessage("これは生殖ではなく、獲物を脱力、陶酔させるもの。")
ShowMessage("シンディにとっては、射精など男を弱らせる手段にしか過ぎない。")
ShowMessageFace("",0,0,2,37)
ShowMessage("そして、シンディと結合した状態で溶かされてしまうのだ――")
ShowMessageFace("",0,0,2,38)
ShowMessage("【ルカ】")
ShowMessage("いやだぁ……たすけてぇ……")
ShowMessageFace("ropa_fc1",1,0,2,39)
ShowMessage("【シンディ】")
ShowMessage("逃がさない……このまま、ドロドロに溶かしてあげる……")
ShowMessageFace("",0,0,2,40)
ShowMessage("僕の体を巻き上げている触手からも、じっとりと消化液が滲んでいる。")
ShowMessageFace("",0,0,2,41)
ShowMessage("そして肉穴の内部も、分泌された消化液が")
ShowMessage("ぬめぬめとまとわりついてきた。")
ShowMessageFace("",0,0,2,42)
ShowMessage("【ルカ】")
ShowMessage("あ、あぅぅ……いやだぁ……")
ShowMessageFace("",0,0,2,43)
ShowMessage("肉棒までが消化液にまみれ、そして快楽刺激を与えられる。")
ShowMessageFace("",0,0,2,44)
ShowMessage("獲物のオスを逃がさないために、行われていることだと知りながら――")
ShowMessage("その甘い快楽に、僕はまるで抵抗できなかった。")
ShowMessageFace("",0,0,2,45)
ShowMessage("【ルカ】")
ShowMessage("うぁぁ……また出ちゃうよぉ……")
RunCommonEvent(104)
PictureDisplay(5,"ev_ropa_hb3",0,0,0,0,100,100,255,0)
RunCommonEvent(105)
ShowMessageFace("",0,0,2,46)
ShowMessage("またもや射精に追い込まれ、肉穴の中に精液を撒き散らしてしまう。")
ShowMessage("体力を消費させるためだけに行われる、屈辱的な強制射精――")
ShowMessageFace("ropa_fc1",1,0,2,47)
ShowMessage("【シンディ】")
ShowMessage("気持ちいいでしょ……")
ShowMessage("そろそろ、あなたの体が溶けていくわよ……")
ShowMessageFace("",0,0,2,48)
ShowMessage("【ルカ】")
ShowMessage("あ、あぁぁぁぁ……")
ShowMessageFace("",0,0,2,49)
ShowMessage("生温く、ねばった消化液が全身にねっとりと絡む。")
ShowMessage("絶望を味わいながら、この液にまみれ溶かされていくのだ――")
ShowMessageFace("ropa_fc1",1,0,2,50)
ShowMessage("【シンディ】")
ShowMessage("ほら……ドロドロになりなさい……")
ShowMessage("私の養分になるの……幸せでしょ……")
ShowMessageFace("",0,0,2,51)
ShowMessage("【ルカ】")
ShowMessage("あぁぁぁぁぁ……")
ShowMessageFace("",0,0,2,52)
ShowMessage("ぬるやかな快楽が、徐々に頭を犯していった。")
ShowMessage("恐怖や絶望までが溶かされ、悦びが広がっていく。")
ShowMessageFace("",0,0,2,53)
ShowMessage("じっくり溶かされ、シンディに食べてもらえる事が幸せに思えてきた。")
ShowMessage("このまま、食虫植物に捕まった虫みたいに溶かしてもらえるのだ――")
ShowMessageFace("",0,0,2,54)
ShowMessage("【ルカ】")
ShowMessage("ふぁぁ……きもちいい……")
ShowMessageFace("",0,0,2,55)
ShowMessage("肉穴の内部にも消化液が満ち溢れ、ペニスがべっとりと浸されている。")
ShowMessage("その状態で、内部でもねちっこく触手に絡まれ――")
ShowMessageFace("",0,0,2,56)
ShowMessage("【ルカ】")
ShowMessage("あひぃぃぃ……")
RunCommonEvent(104)
PictureDisplay(5,"ev_ropa_hb4",0,0,0,0,100,100,255,0)
RunCommonEvent(105)
ShowMessageFace("",0,0,2,57)
ShowMessage("ペニスがとろけるような快感を味わいながら、またも射精してしまった。")
ShowMessage("いや――もしかしたら、本当に溶かされているのかもしれない。")
ShowMessageFace("",0,0,2,58)
ShowMessage("しかし、そんな事などどうでもいいくらい心地よい放出感。")
ShowMessageFace("",0,0,2,59)
ShowMessage("僕はすっかり快楽の虜となり、身も心も")
ShowMessage("シンディに委ねてしまっていた。")
ShowMessageFace("",0,0,2,60)
ShowMessage("【ルカ】")
ShowMessage("ふぁぁぁぁぁ……き、きもちいいよぉ……")
ShowMessageFace("ropa_fc1",1,0,2,61)
ShowMessage("【シンディ】")
ShowMessage("あなたの生殖器も、この穴の中で溶かされるの。")
ShowMessage("私に繋がったまま……ふふっ……")
ShowMessageFace("",0,0,2,62)
ShowMessage("【ルカ】")
ShowMessage("あ、あぁぁぁぁ……")
ShowMessageFace("",0,0,2,63)
ShowMessage("徐々に、体がとろけ始めた気がする。")
ShowMessage("そればかりか、まるで意識そのものも溶かされていくような気分だ……")
ShowMessageFace("ropa_fc1",1,0,2,64)
ShowMessage("【シンディ】")
ShowMessage("恐怖は感じないでしょ……？")
ShowMessage("私に消化されるのは、とっても気持ちいい事なの……")
ShowMessageFace("ropa_fc1",1,0,2,65)
ShowMessage("【シンディ】")
ShowMessage("陶酔に浸りながら、ドロドロに溶けてしまいなさい……")
ShowMessageFace("",0,0,2,66)
ShowMessage("【ルカ】")
ShowMessage("あぁぁぁぁぁ……")
If(0,95,0)
 246(2)
 221()
 ShowMessageFace("",0,0,2,67)
 ShowMessage("＊＊＊捕食シーンはカットされました＊＊＊")
 JumpToLabel("zzz")
 0()
EndIf()
PictureDisplay(5,"ev_ropa_h5",0,0,0,0,100,100,255,0)
ShowMessageFace("",0,0,2,68)
ShowMessage("さらに多くの触手が、僕の体をじっくりと包み込み――")
ShowMessage("全身が、消化液の滴る触手で覆い込まれてしまった。")
ShowMessageFace("",0,0,2,69)
ShowMessage("じんわり甘い快楽は全身を包み込み、その温もりの中でとろけていく。")
ShowMessage("体がドロドロに溶け、シンディの表面粘膜から吸収されていくのだ。")
ShowMessageFace("",0,0,2,70)
ShowMessage("薄れ行く意識は悦びで染まり、僕はよだれを垂らしながら")
ShowMessage("消化の快楽を貪ってしまう――")
ShowMessageFace("ropa_fc1",1,0,2,71)
ShowMessage("【シンディ】")
ShowMessage("ん……美味しい……")
ShowMessage("あなたの体、とっても美味しい……")
ShowMessageFace("",0,0,2,72)
ShowMessage("シンディに喜んでもらって、僕も嬉しくなってしまう。")
ShowMessage("今、僕の体はシンディに食べてもらっているのだ。")
ShowMessageFace("",0,0,2,73)
ShowMessage("【ルカ】")
ShowMessage("ぁ……ぁぁ……")
ShowMessageFace("",0,0,2,74)
ShowMessage("意識も、肉体も、ドロドロにとろけていく……")
ShowMessageFace("",0,0,2,75)
ShowMessage("全身が、ドロドロに溶かされて……")
ShowMessage("シンディの粘膜に、じゅるじゅる吸収されて……")
ShowMessageFace("",0,0,2,76)
ShowMessage("溶かされて……")
ShowMessage("食べられて……")
221()
PictureClear(5)
PictureClear(6)
246(2)
ShowMessageFace("",0,0,2,77)
ShowMessage("そして――")
ShowMessage("僕の体は溶かされ、骨一つ残さずシンディに食べられてしまった。")
ShowMessageFace("",0,0,2,78)
ShowMessage("最高の快楽を味わいながら、無惨にも仲間に")
ShowMessage("捕食されてしまったのである――")
ShowMessageFace("",0,0,2,79)
ShowMessage("・・・・・・・・")
242(2)
Wait(120)
ChangeVariable(1002,1002,0,0,0)
216(1)
355("forced_transfer(154,18,52)")
355("release_temp_actors")
355("$game_map.screen.clear")
0()
