﻿// EVENT 2245
Name "誘惑：ウィングハーピー"

355("$game_troop.lose_event_id = 3245")
ChangeVariable(26,26,0,3,3,1,4)
ChangeVariable(26,26,4,0,10)
ShowMessageFace("w_hapy_fc1",0,0,2,1)
ShowMessage("【ウィングハーピー】")
ShowMessage("このままじゃ、やられそうね……")
ShowMessage("体を用いて命乞いをしたら、応じてくれる？")
ShowMessageFace("w_hapy_fc1",0,0,2,2)
ShowMessage("【ウィングハーピー】")
ShowMessage("男の人は、フェラチオが好きよね。")
ShowMessage("助けてくれたら、してあげるわ……")
ChangeSwitch(98,98,0)
ChangeSwitch(96,96,0)
ShowChoices(strings("無視する","誘惑に乗る"),1)
IfPlayerPicksChoice(0,"無視する")
 ShowMessageFace("",0,0,2,3)
 ShowMessage("しかしルカは誘惑を振り切った！")
 RunCommonEvent(1999)
 EndEventProcessing()
 0()
IfPlayerPicksChoice(1,"誘惑に乗る")
 0()
404()
ShowMessageFace("w_hapy_fc1",1,0,2,4)
ShowMessage("【ウィングハーピー】")
ShowMessage("フェラチオされたいのね。")
ShowMessage("それじゃあ、しゃぶってあげる……")
ChangeVariable(26,26,3,0,3)
250(bytes(0x04,0x08,0x6f,0x3a,0x0c,0x52,0x50,0x47,0x3a,0x3a,0x53,0x45,0x08,0x3a,0x0a,0x40,0x6e,0x61,0x6d,0x65,0x49,0x22,0x13,0x6d,0x6f,0x6e,0x5f,0x65,0x72,0x6f,0x5f,0x62,0x75,0x63,0x68,0x75,0x31,0x06,0x3a,0x06,0x45,0x54,0x3a,0x0b,0x40,0x70,0x69,0x74,0x63,0x68,0x69,0x69,0x3a,0x0c,0x40,0x76,0x6f,0x6c,0x75,0x6d,0x65,0x69,0x69))
311(0,1,1,1,26,true)
ShowMessageFace("",0,0,2,5)
ShowMessage("ウィングハーピーは、亀頭に唇を密着させてきた！")
ShowMessage("そのまま、唾液でぬめった口内にペニスを迎え入れる！\\D")
ShowMessage("ルカは\\V[26]のダメージを受けた！")
ChangeVariable(27,27,0,3,3,1,2)
If(1,27,0,0,0)
 JumpToLabel("射精1")
 0()
EndIf()
ShowMessageFace("w_hapy_fc1",1,0,2,6)
ShowMessage("【ウィングハーピー】")
ShowMessage("口の中で、ナメナメするわ……")
ShowMessage("気持ちいいでしょ……？")
250(bytes(0x04,0x08,0x6f,0x3a,0x0c,0x52,0x50,0x47,0x3a,0x3a,0x53,0x45,0x08,0x3a,0x0a,0x40,0x6e,0x61,0x6d,0x65,0x49,0x22,0x13,0x6d,0x6f,0x6e,0x5f,0x65,0x72,0x6f,0x5f,0x62,0x75,0x63,0x68,0x75,0x33,0x06,0x3a,0x06,0x45,0x54,0x3a,0x0b,0x40,0x70,0x69,0x74,0x63,0x68,0x69,0x69,0x3a,0x0c,0x40,0x76,0x6f,0x6c,0x75,0x6d,0x65,0x69,0x69))
311(0,1,1,1,26,true)
ShowMessageFace("",0,0,2,7)
ShowMessage("ウィングハーピーは、口内で亀頭をれろれろ舐め回す！")
ShowMessage("裏筋や尿道口に舌が這い回り、甘い快楽が与えられた！\\D")
ShowMessage("ルカは\\V[26]のダメージを受けた！")
ChangeVariable(27,27,0,3,3,1,2)
If(1,27,0,0,0)
 JumpToLabel("射精1")
 0()
EndIf()
ShowMessageFace("w_hapy_fc1",1,0,2,8)
ShowMessage("【ウィングハーピー】")
ShowMessage("射精しそうなら、そのまま出して……")
ShowMessage("精液、全部飲んであげるから。")
250(bytes(0x04,0x08,0x6f,0x3a,0x0c,0x52,0x50,0x47,0x3a,0x3a,0x53,0x45,0x08,0x3a,0x0a,0x40,0x6e,0x61,0x6d,0x65,0x49,0x22,0x13,0x6d,0x6f,0x6e,0x5f,0x65,0x72,0x6f,0x5f,0x62,0x75,0x63,0x68,0x75,0x33,0x06,0x3a,0x06,0x45,0x54,0x3a,0x0b,0x40,0x70,0x69,0x74,0x63,0x68,0x69,0x69,0x3a,0x0c,0x40,0x76,0x6f,0x6c,0x75,0x6d,0x65,0x69,0x69))
311(0,1,1,1,26,true)
ShowMessageFace("",0,0,2,9)
ShowMessage("ウィングハーピーは、じゅるじゅるとペニスをしゃぶりたてる！")
ShowMessage("唇を柔らかにピストンさせ、じっくり責めたててきた！\\D")
ShowMessage("ルカは\\V[26]のダメージを受けた！")
ChangeVariable(27,27,0,3,3,1,2)
If(1,27,0,0,0)
 JumpToLabel("射精1")
 0()
EndIf()
ShowMessageFace("w_hapy_fc1",1,0,2,10)
ShowMessage("【ウィングハーピー】")
ShowMessage("もう耐えられないでしょ？")
ShowMessage("さあ、イって……")
250(bytes(0x04,0x08,0x6f,0x3a,0x0c,0x52,0x50,0x47,0x3a,0x3a,0x53,0x45,0x08,0x3a,0x0a,0x40,0x6e,0x61,0x6d,0x65,0x49,0x22,0x13,0x6d,0x6f,0x6e,0x5f,0x65,0x72,0x6f,0x5f,0x62,0x75,0x63,0x68,0x75,0x33,0x06,0x3a,0x06,0x45,0x54,0x3a,0x0b,0x40,0x70,0x69,0x74,0x63,0x68,0x69,0x69,0x3a,0x0c,0x40,0x76,0x6f,0x6c,0x75,0x6d,0x65,0x69,0x69))
311(0,1,1,1,26,true)
ShowMessageFace("",0,0,2,11)
ShowMessage("ウィングハーピーが、亀頭にちゅばちゅば吸い付いてきた！")
ShowMessage("甘いバキュームで、射精を促してくる！\\D")
ShowMessage("ルカは\\V[26]のダメージを受けた！")
ChangeVariable(27,27,0,3,3,1,2)
If(1,27,0,0,0)
 JumpToLabel("射精1")
 0()
EndIf()
DefineLabel("射精1")
ShowMessageFace("",0,0,2,12)
ShowMessage("【ルカ】")
ShowMessage("だめ、出ちゃうよぉ……あぁぁぁ……")
RunCommonEvent(104)
RunCommonEvent(105)
ShowMessageFace("",0,0,2,13)
ShowMessage("甘いフェラを受けながら、とうとうイってしまった。")
ShowMessage("ウィングハーピーの口内に、精液が注ぎ込まれていく。")
ShowMessageFace("w_hapy_fc1",1,0,2,14)
ShowMessage("【ウィングハーピー】")
ShowMessage("白いの、たっぷり出したわね……")
ShowMessage("……気持ち良かった？")
RunCommonEvent(2000)
EndEventProcessing()
0()
