﻿// EVENT 7363
Name "ショウキ：敗北"

RunCommonEvent(7000)
PictureDisplay(5,"80_mob_ninzya1_st01",0,0,0,0,100,100,255,0)
PictureClear(6)
ShowMessageFace("mob_ninzya1_fc1",0,0,2,1)
ShowMessage("【ショウキ】")
ShowMessage("私の勝ちだな……")
ShowMessage("賭け金を支払ってもらおうか。")
125(1,0,2000)
ShowMessageFace("",0,0,2,2)
ShowMessage("ルカは 2000G 支払った！")
ShowMessageFace("mob_ninzya1_fc1",0,0,2,3)
ShowMessage("【ショウキ】")
ShowMessage("また挑むがいい……")
ShowMessage("そのたびに、無様に果てる事になっても良いならばな。")
If(0,2331,1)
 PictureClear(5)
 281(1)
 TeleportPlayer(0,41,46,22,2,0)
 216(0)
 0()
EndIf()
EndEventProcessing()
0()
