﻿// EVENT 2363
Name "誘惑：キューピッド"

355("$game_troop.lose_event_id = 3363")
ChangeVariable(26,26,0,3,3,1,4)
ChangeVariable(26,26,4,0,10)
ShowMessageFace("cupid_fc1",2,0,2,1)
ShowMessage("【キューピッド】")
ShowMessage("やっつけられちゃうよ～！")
ShowMessage("ひどいよ～！　こわいよ～！")
ShowMessageFace("cupid_fc1",0,0,2,2)
ShowMessage("【キューピッド】")
ShowMessage("そんな悪者のおちんちんに、罰を与えちゃいま～す♪")
PictureDisplay(5,"ev_cupid_hb1",0,0,0,0,100,100,255,0)
ShowMessageFace("",0,0,2,3)
ShowMessage("キューピッドは、ルカのペニスを胸で挟み込んできた！")
ShowMessageFace("cupid_fc1",1,0,2,4)
ShowMessage("【キューピッド】")
ShowMessage("このまま、おっぱいでイかせてあげる。")
ShowMessage("天国を見せてあげるから、逃げちゃダメだよ～♪")
ChangeSwitch(98,98,0)
ChangeSwitch(96,96,0)
ShowChoices(strings("もがく","なすがまま"),1)
IfPlayerPicksChoice(0,null)
 ShowMessageFace("",0,0,2,5)
 ShowMessage("ルカは激しくもがき、キューピッドの拘束から逃れた！")
 RunCommonEvent(1999)
 EndEventProcessing()
 0()
IfPlayerPicksChoice(1,null)
 0()
404()
ShowMessageFace("cupid_fc1",0,0,2,6)
ShowMessage("【キューピッド】")
ShowMessage("あはっ、逃げないんだね？")
ShowMessage("それじゃあ、パイズリで勇者チンポをイかせちゃいま～す♪")
ChangeVariable(26,26,3,0,2)
250(bytes(0x04,0x08,0x6f,0x3a,0x0c,0x52,0x50,0x47,0x3a,0x3a,0x53,0x45,0x08,0x3a,0x0a,0x40,0x6e,0x61,0x6d,0x65,0x49,0x22,0x12,0x6d,0x6f,0x6e,0x5f,0x65,0x72,0x6f,0x5f,0x6b,0x6f,0x6b,0x69,0x31,0x06,0x3a,0x06,0x45,0x54,0x3a,0x0b,0x40,0x70,0x69,0x74,0x63,0x68,0x69,0x69,0x3a,0x0c,0x40,0x76,0x6f,0x6c,0x75,0x6d,0x65,0x69,0x69))
311(0,1,1,1,26,true)
ShowMessageFace("",0,0,2,7)
ShowMessage("キューピッドはペニスを胸で挟み込み、激しく上下させてきた！\\D")
ShowMessage("ルカは\\V[26]のダメージを受けた！")
ChangeVariable(27,27,0,3,3,1,2)
If(1,27,0,0,0)
 JumpToLabel("射精1")
 0()
EndIf()
ShowMessageFace("cupid_fc1",0,0,2,8)
ShowMessage("【キューピッド】")
ShowMessage("おっぱいの餌食にしちゃうよ……♪　ほ～ら、ほらほらぁ♪")
250(bytes(0x04,0x08,0x6f,0x3a,0x0c,0x52,0x50,0x47,0x3a,0x3a,0x53,0x45,0x08,0x3a,0x0a,0x40,0x6e,0x61,0x6d,0x65,0x49,0x22,0x12,0x6d,0x6f,0x6e,0x5f,0x65,0x72,0x6f,0x5f,0x6b,0x6f,0x6b,0x69,0x31,0x06,0x3a,0x06,0x45,0x54,0x3a,0x0b,0x40,0x70,0x69,0x74,0x63,0x68,0x69,0x69,0x3a,0x0c,0x40,0x76,0x6f,0x6c,0x75,0x6d,0x65,0x69,0x69))
311(0,1,1,1,26,true)
ShowMessageFace("",0,0,2,9)
ShowMessage("キューピッドは、胸の谷間でペニスをむにゅむにゅと締め付けてくる！\\D")
ShowMessage("ルカは\\V[26]のダメージを受けた！")
ChangeVariable(27,27,0,3,3,1,2)
If(1,27,0,0,0)
 JumpToLabel("射精1")
 0()
EndIf()
ShowMessageFace("cupid_fc1",0,0,2,10)
ShowMessage("【キューピッド】")
ShowMessage("ほぉら、あたしのおっぱいで罰を受けちゃえ～♪")
ShowMessage("ほら、ほら、ほらぁ～♪")
250(bytes(0x04,0x08,0x6f,0x3a,0x0c,0x52,0x50,0x47,0x3a,0x3a,0x53,0x45,0x08,0x3a,0x0a,0x40,0x6e,0x61,0x6d,0x65,0x49,0x22,0x12,0x6d,0x6f,0x6e,0x5f,0x65,0x72,0x6f,0x5f,0x6b,0x6f,0x6b,0x69,0x31,0x06,0x3a,0x06,0x45,0x54,0x3a,0x0b,0x40,0x70,0x69,0x74,0x63,0x68,0x69,0x69,0x3a,0x0c,0x40,0x76,0x6f,0x6c,0x75,0x6d,0x65,0x69,0x69))
311(0,1,1,1,26,true)
ShowMessageFace("",0,0,2,11)
ShowMessage("キューピッドは両腕に力を込め、ぎゅっとペニスを圧迫してきた！")
ShowMessage("柔らかな胸の谷間で、ぎゅうぎゅうと肉棒を締め付ける！\\D")
ShowMessage("ルカは\\V[26]のダメージを受けた！")
ChangeVariable(27,27,0,3,3,1,2)
If(1,27,0,0,0)
 JumpToLabel("射精1")
 0()
EndIf()
ShowMessageFace("cupid_fc1",0,0,2,12)
ShowMessage("【キューピッド】")
ShowMessage("あはっ、天使おっぱい気持ちいいでしょ～？")
ShowMessage("むにゅむにゅおっぱいに、男の子のミルクが搾られちゃうよ～♪")
250(bytes(0x04,0x08,0x6f,0x3a,0x0c,0x52,0x50,0x47,0x3a,0x3a,0x53,0x45,0x08,0x3a,0x0a,0x40,0x6e,0x61,0x6d,0x65,0x49,0x22,0x12,0x6d,0x6f,0x6e,0x5f,0x65,0x72,0x6f,0x5f,0x6b,0x6f,0x6b,0x69,0x31,0x06,0x3a,0x06,0x45,0x54,0x3a,0x0b,0x40,0x70,0x69,0x74,0x63,0x68,0x69,0x69,0x3a,0x0c,0x40,0x76,0x6f,0x6c,0x75,0x6d,0x65,0x69,0x69))
311(0,1,1,1,26,true)
ShowMessageFace("",0,0,2,13)
ShowMessage("キューピッドはペニスをぎゅっと胸の谷間で締め付け、圧迫を強めてきた！")
ShowMessage("胸で肉棒がぎゅうぎゅう締め付けられ、四方から弾力刺激が与えられる！\\D")
ShowMessage("ルカは\\V[26]のダメージを受けた！")
ChangeVariable(27,27,0,3,3,1,2)
If(1,27,0,0,0)
 JumpToLabel("射精1")
 0()
EndIf()
ShowMessageFace("cupid_fc1",0,0,2,14)
ShowMessage("【キューピッド】")
ShowMessage("あはっ、もうピュッピュしちゃうのぉ？")
ShowMessage("それじゃあ、とどめ～♪")
ChangeVariable(26,26,3,0,2)
250(bytes(0x04,0x08,0x6f,0x3a,0x0c,0x52,0x50,0x47,0x3a,0x3a,0x53,0x45,0x08,0x3a,0x0a,0x40,0x6e,0x61,0x6d,0x65,0x49,0x22,0x12,0x6d,0x6f,0x6e,0x5f,0x65,0x72,0x6f,0x5f,0x6b,0x6f,0x6b,0x69,0x31,0x06,0x3a,0x06,0x45,0x54,0x3a,0x0b,0x40,0x70,0x69,0x74,0x63,0x68,0x69,0x69,0x3a,0x0c,0x40,0x76,0x6f,0x6c,0x75,0x6d,0x65,0x69,0x69))
311(0,1,1,1,26,true)
ShowMessageFace("",0,0,2,15)
ShowMessage("キューピッドはペニスをきつく圧迫し、胸の谷間で搾りたててきた！")
ShowMessage("乳肉でペニスをじわじわ搾り上げ、射精に導いてくる――\\D")
ShowMessage("ルカは\\V[26]のダメージを受けた！")
ChangeVariable(27,27,0,3,3,1,2)
If(1,27,0,0,0)
 JumpToLabel("射精1")
 0()
EndIf()
DefineLabel("射精1")
ShowMessageFace("",0,0,2,16)
ShowMessage("【ルカ】")
ShowMessage("だめ、出ちゃうよぉ……あぁぁぁ……")
RunCommonEvent(104)
PictureDisplay(5,"ev_cupid_hb2",0,0,0,0,100,100,255,0)
RunCommonEvent(105)
ShowMessageFace("",0,0,2,17)
ShowMessage("ペニスを胸で揉みしだかれ、我慢出来ずに発射してしまった。")
ShowMessage("キューピッドの胸がべっとりと精液にまみれてしまう――")
ShowMessageFace("cupid_fc1",0,0,2,18)
ShowMessage("【キューピッド】")
ShowMessage("あははっ、あたしのおっぱいが精液まみれだよ～？")
ShowMessage("天使を汚しちゃった罪人は、ミルク搾りの刑ね♪")
RunCommonEvent(2000)
EndEventProcessing()
0()
