﻿// EVENT 1293
Name "会話：アンフィル"

If(1,20,0,1,0)
 JumpToLabel("情報")
 0()
EndIf()
If(1,20,0,2,0)
 JumpToLabel("質問")
 0()
EndIf()
If(1,20,0,3,0)
 JumpToLabel("要求")
 0()
EndIf()
If(1,20,0,4,0)
 JumpToLabel("贈与")
 0()
EndIf()
DefineLabel("情報")
ChangeVariable(13,13,0,2,1,100)
If(1,13,0,10,2)
 ShowMessageFace("anfill_fc1",0,0,2,1)
 ShowMessage("【アンフィル】")
 ShowMessage("第一種断界接触……")
 ShowMessage("始末するわ……")
 EndEventProcessing()
 0()
EndIf()
If(1,13,0,20,2)
 ShowMessageFace("anfill_fc1",0,0,2,2)
 ShowMessage("【アンフィル】")
 ShowMessage("絡みついてあげる……")
 EndEventProcessing()
 0()
EndIf()
If(1,13,0,30,2)
 ShowMessageFace("anfill_fc1",0,0,2,3)
 ShowMessage("【アンフィル】")
 ShowMessage("この体は何……？")
 ShowMessage("私は、いったい……")
 EndEventProcessing()
 0()
EndIf()
If(1,13,0,40,2)
 ShowMessageFace("anfill_fc1",0,0,2,4)
 ShowMessage("【アンフィル】")
 ShowMessage("巻き付いて……絡め取りたいわ……")
 EndEventProcessing()
 0()
EndIf()
If(1,13,0,50,2)
 ShowMessageFace("anfill_fc1",0,0,2,5)
 ShowMessage("【アンフィル】")
 ShowMessage("精子を吸わせて……吸わせてよぉ……")
 EndEventProcessing()
 0()
EndIf()
If(1,13,0,60,2)
 ShowMessageFace("anfill_fc1",0,0,2,6)
 ShowMessage("【アンフィル】")
 ShowMessage("養分をちょうだい……")
 EndEventProcessing()
 0()
EndIf()
If(1,13,0,70,2)
 ShowMessageFace("anfill_fc1",0,0,2,7)
 ShowMessage("【アンフィル】")
 ShowMessage("ここはどこ……？")
 ShowMessage("この暗い場所に、私はずっと……")
 EndEventProcessing()
 0()
EndIf()
If(1,13,0,80,2)
 ShowMessageFace("anfill_fc1",0,0,2,8)
 ShowMessage("【アンフィル】")
 ShowMessage("複数の意志が混ざっている気がするの……")
 ShowMessage("この身のワーム、一つ一つに……")
 EndEventProcessing()
 0()
EndIf()
If(1,13,0,90,2)
 ShowMessageFace("anfill_fc1",0,0,2,9)
 ShowMessage("【アンフィル】")
 ShowMessage("ここから消えてなくなりたいわ……")
 EndEventProcessing()
 0()
EndIf()
If(1,13,0,100,2)
 ShowMessageFace("anfill_fc1",0,0,2,10)
 ShowMessage("【アンフィル】")
 ShowMessage("どれだけの時間を、ここで過ごしたかしら……")
 EndEventProcessing()
 0()
EndIf()
DefineLabel("質問")
ChangeVariable(13,13,0,2,1,50)
If(1,13,0,10,2)
 ShowMessageFace("anfill_fc1",0,0,2,11)
 ShowMessage("【アンフィル】")
 ShowMessage("私は……何？")
 ShowChoices(strings("アポトーシス","寄生虫","人間"),0)
 IfPlayerPicksChoice(0,"アポトーシス")
  ShowMessageFace("anfill_fc1",0,0,2,12)
  ShowMessage("【アンフィル】")
  ShowMessage("そう、私はアポトーシス……")
  ShowMessage("侵入者を排除しろと、声が聞こえる……")
  355("change_friend(-5)")
  0()
 IfPlayerPicksChoice(1,"寄生虫")
  ShowMessageFace("anfill_fc1",0,0,2,13)
  ShowMessage("【アンフィル】")
  ShowMessage("私は寄生体なの……？")
  ShowMessage("何に寄生しているの……？")
  0()
 IfPlayerPicksChoice(2,"人間")
  ShowMessageFace("anfill_fc1",0,0,2,14)
  ShowMessage("【アンフィル】")
  ShowMessage("人間……？　この体で、私は人間なの……？")
  ShowMessage("そう信じたいけれど……")
  355("change_friend(10)")
  0()
 404()
 EndEventProcessing()
 0()
EndIf()
If(1,13,0,20,2)
 ShowMessageFace("anfill_fc1",0,0,2,15)
 ShowMessage("【アンフィル】")
 ShowMessage("この悪夢に終わりはあるの……？")
 ShowChoices(strings("ある","ない","震えて眠れ"),0)
 IfPlayerPicksChoice(0,"ある")
  ShowMessageFace("anfill_fc1",0,0,2,16)
  ShowMessage("【アンフィル】")
  ShowMessage("そう思いたいわね……")
  355("change_friend(10)")
  0()
 IfPlayerPicksChoice(1,"ない")
  ShowMessageFace("anfill_fc1",0,0,2,17)
  ShowMessage("【アンフィル】")
  ShowMessage("そうね……悪夢は永遠に続くわ……")
  0()
 IfPlayerPicksChoice(2,"震えて眠れ")
  ShowMessageFace("anfill_fc1",2,0,2,18)
  ShowMessage("【アンフィル】")
  ShowMessage("怖いわ……")
  355("change_friend(-5)")
  0()
 404()
 EndEventProcessing()
 0()
EndIf()
If(1,13,0,30,2)
 ShowMessageFace("anfill_fc1",0,0,2,19)
 ShowMessage("【アンフィル】")
 ShowMessage("私は、何をすればいいの……？")
 ShowChoices(strings("侵入者の排除","タルタロスの案内","僕と繁殖"),0)
 IfPlayerPicksChoice(0,"侵入者の排除")
  ShowMessageFace("anfill_fc1",0,0,2,20)
  ShowMessage("【アンフィル】")
  ShowMessage("なら、排除するわ……")
  355("change_friend(-5)")
  0()
 IfPlayerPicksChoice(1,"タルタロスの案内")
  ShowMessageFace("anfill_fc1",0,0,2,21)
  ShowMessage("【アンフィル】")
  ShowMessage("そう……どこが見たいの……？")
  ShowMessage("自由を奪ってから、見せてあげる……")
  0()
 IfPlayerPicksChoice(2,"僕と繁殖")
  ShowMessageFace("anfill_fc1",0,0,2,22)
  ShowMessage("【アンフィル】")
  ShowMessage("ならば……繁殖しましょう……")
  355("change_friend(10)")
  0()
 404()
 EndEventProcessing()
 0()
EndIf()
If(1,13,0,40,2)
 ShowMessageFace("anfill_fc1",0,0,2,23)
 ShowMessage("【アンフィル】")
 ShowMessage("体が絡まって解けなくなる事があるわ……")
 ShowMessage("どうしたらいいの……？")
 ShowChoices(strings("解き方を極める","絡まらないようにする","いっそ切断する"),0)
 IfPlayerPicksChoice(0,"解き方を極める")
  ShowMessageFace("anfill_fc1",0,0,2,24)
  ShowMessage("【アンフィル】")
  ShowMessage("なかなか難しそうね……")
  0()
 IfPlayerPicksChoice(1,"絡まらないようにする")
  ShowMessageFace("anfill_fc1",0,0,2,25)
  ShowMessage("【アンフィル】")
  ShowMessage("それができれば、苦労はしないわ……")
  355("change_friend(-5)")
  0()
 IfPlayerPicksChoice(2,"いっそ切断する")
  ShowMessageFace("anfill_fc1",0,0,2,26)
  ShowMessage("【アンフィル】")
  ShowMessage("いっそ、そうする方が手っ取り早いわね……")
  355("change_friend(10)")
  0()
 404()
 EndEventProcessing()
 0()
EndIf()
If(1,13,0,50,2)
 ShowMessageFace("anfill_fc1",0,0,2,27)
 ShowMessage("【アンフィル】")
 ShowMessage("あなたは、どこから来たの……？")
 ShowChoices(strings("タルタロスの外から来た","タルタロスの中からわき出た","分からない"),0)
 IfPlayerPicksChoice(0,"タルタロスの外から来た")
  ShowMessageFace("anfill_fc1",0,0,2,28)
  ShowMessage("【アンフィル】")
  ShowMessage("なら侵入者ね……排除するわ……")
  355("change_friend(-5)")
  0()
 IfPlayerPicksChoice(1,"タルタロスの中からわき出た")
  ShowMessageFace("anfill_fc1",0,0,2,29)
  ShowMessage("【アンフィル】")
  ShowMessage("でも、アポトーシスじゃないわね……")
  0()
 IfPlayerPicksChoice(2,"分からない")
  ShowMessageFace("anfill_fc1",0,0,2,30)
  ShowMessage("【アンフィル】")
  ShowMessage("なら、私と同じ……")
  355("change_friend(10)")
  0()
 404()
 EndEventProcessing()
 0()
EndIf()
DefineLabel("要求")
ChangeVariable(13,13,0,2,1,30)
If(1,13,0,10,2)
 If(8,331)
  ShowMessageFace("anfill_fc1",0,0,2,31)
  ShowMessage("【アンフィル】")
  ShowMessage("ソーセージをちょうだい……")
  ChangeVariable(24,24,0,3,0,331,0)
  ShowMessageFace("",0,0,2,32)
  ShowMessage("「ソーセージ」をあげますか？（所持数：\\V[24]）")
  ShowChoices(strings("はい","いいえ"),2)
  IfPlayerPicksChoice(0,"はい")
   ShowMessageFace("anfill_fc1",0,0,2,33)
   ShowMessage("【アンフィル】")
   ShowMessage("くれるの……ふふっ……")
   ChangeInventory_Item(331,1,0,1)
   355("change_friend(20)")
   EndEventProcessing()
   0()
  IfPlayerPicksChoice(1,"いいえ")
   ShowMessageFace("anfill_fc1",2,0,2,34)
   ShowMessage("【アンフィル】")
   ShowMessage("……………………")
   EndEventProcessing()
   0()
  404()
  0()
 Else()
  ChangeVariable(13,13,0,0,20)
  0()
 EndIf()
 0()
EndIf()
If(1,13,0,20,2)
 If(8,55)
  ShowMessageFace("anfill_fc1",0,0,2,35)
  ShowMessage("【アンフィル】")
  ShowMessage("氷石をちょうだい……")
  ChangeVariable(24,24,0,3,0,55,0)
  ShowMessageFace("",0,0,2,36)
  ShowMessage("「氷石」をあげますか？（所持数：\\V[24]）")
  ShowChoices(strings("はい","いいえ"),2)
  IfPlayerPicksChoice(0,"はい")
   ShowMessageFace("anfill_fc1",0,0,2,37)
   ShowMessage("【アンフィル】")
   ShowMessage("くれるの……ふふっ……")
   ChangeInventory_Item(55,1,0,1)
   355("change_friend(30)")
   EndEventProcessing()
   0()
  IfPlayerPicksChoice(1,"いいえ")
   ShowMessageFace("anfill_fc1",2,0,2,38)
   ShowMessage("【アンフィル】")
   ShowMessage("……………………")
   EndEventProcessing()
   0()
  404()
  0()
 Else()
  ChangeVariable(13,13,0,0,30)
  0()
 EndIf()
 0()
EndIf()
If(1,13,0,30,2)
 ShowMessageFace("anfill_fc1",0,0,2,39)
 ShowMessage("【アンフィル】")
 ShowMessage("お金をちょうだい……")
 If(7,996,0)
  ChangeVariable(24,24,0,3,7,2,0)
  ShowMessageFace("",0,0,2,40)
  ShowMessage("996Gをあげますか？（所持金：\\V[24]）")
  ShowChoices(strings("はい","いいえ"),2)
  IfPlayerPicksChoice(0,"はい")
   ShowMessageFace("anfill_fc1",0,0,2,41)
   ShowMessage("【アンフィル】")
   ShowMessage("くれるの……ふふっ……")
   125(1,0,996)
   355("change_friend(25)")
   EndEventProcessing()
   0()
  IfPlayerPicksChoice(1,"いいえ")
   ShowMessageFace("anfill_fc1",2,0,2,42)
   ShowMessage("【アンフィル】")
   ShowMessage("……………………")
   EndEventProcessing()
   0()
  404()
  0()
 Else()
  ShowMessageFace("anfill_fc1",0,0,2,43)
  ShowMessage("【アンフィル】")
  ShowMessage("……ないの？　ないみたいね……")
  EndEventProcessing()
  0()
 EndIf()
 0()
EndIf()
DefineLabel("贈与")
ChangeVariable(13,13,0,2,1,30)
If(1,25,0,1,0)
 ChangeVariable(13,13,0,0,30)
 ChangeVariable(25,25,0,0,0)
 0()
EndIf()
If(1,25,0,2,0)
 ChangeVariable(13,13,0,2,1,20)
 ChangeVariable(25,25,0,0,0)
 0()
EndIf()
If(1,13,0,10,2)
 ShowMessageFace("anfill_fc1",0,0,2,44)
 ShowMessage("【アンフィル】")
 ShowMessage("イカをあげるわ……")
 250(bytes(0x04,0x08,0x6f,0x3a,0x0c,0x52,0x50,0x47,0x3a,0x3a,0x53,0x45,0x08,0x3a,0x0a,0x40,0x6e,0x61,0x6d,0x65,0x49,0x22,0x0a,0x49,0x74,0x65,0x6d,0x31,0x06,0x3a,0x06,0x45,0x54,0x3a,0x0b,0x40,0x70,0x69,0x74,0x63,0x68,0x69,0x69,0x3a,0x0c,0x40,0x76,0x6f,0x6c,0x75,0x6d,0x65,0x69,0x55))
 ChangeInventory_Item(325,0,0,1)
 ShowMessageFace("",0,0,2,45)
 ShowMessage("アンフィルから「イカ」をもらった！")
 EndEventProcessing()
 0()
EndIf()
If(1,13,0,20,2)
 ShowMessageFace("anfill_fc1",0,0,2,46)
 ShowMessage("【アンフィル】")
 ShowMessage("混沌の塊をあげるわ……")
 250(bytes(0x04,0x08,0x6f,0x3a,0x0c,0x52,0x50,0x47,0x3a,0x3a,0x53,0x45,0x08,0x3a,0x0a,0x40,0x6e,0x61,0x6d,0x65,0x49,0x22,0x0a,0x49,0x74,0x65,0x6d,0x31,0x06,0x3a,0x06,0x45,0x54,0x3a,0x0b,0x40,0x70,0x69,0x74,0x63,0x68,0x69,0x69,0x3a,0x0c,0x40,0x76,0x6f,0x6c,0x75,0x6d,0x65,0x69,0x55))
 ChangeInventory_Item(235,0,0,1)
 ShowMessageFace("",0,0,2,47)
 ShowMessage("アンフィルから「混沌の塊」をもらった！")
 EndEventProcessing()
 0()
EndIf()
If(1,13,0,30,2)
 ShowMessageFace("anfill_fc1",0,0,2,48)
 ShowMessage("【アンフィル】")
 ShowMessage("お金をあげるわ……")
 250(bytes(0x04,0x08,0x6f,0x3a,0x0c,0x52,0x50,0x47,0x3a,0x3a,0x53,0x45,0x08,0x3a,0x0a,0x40,0x6e,0x61,0x6d,0x65,0x49,0x22,0x0a,0x49,0x74,0x65,0x6d,0x31,0x06,0x3a,0x06,0x45,0x54,0x3a,0x0b,0x40,0x70,0x69,0x74,0x63,0x68,0x69,0x69,0x3a,0x0c,0x40,0x76,0x6f,0x6c,0x75,0x6d,0x65,0x69,0x55))
 125(0,0,1660)
 ShowMessageFace("",0,0,2,49)
 ShowMessage("アンフィルから1660Gをもらった！")
 EndEventProcessing()
 0()
EndIf()
0()
