﻿// EVENT 2193
Name "誘惑：巫女ラミア"

355("$game_troop.lose_event_id = 3193")
ChangeVariable(26,26,0,3,3,1,4)
ChangeVariable(26,26,4,0,10)
ShowMessageFace("mikolamia_fc1",2,0,2,1)
ShowMessage("【巫女ラミア】")
ShowMessage("押されていますね……")
ShowMessage("こうなったら、この手で逆転を狙いましょう！")
355("battler_graphic_hide")
PictureDisplay(5,"ev_mikolamia_ha1",0,0,0,0,100,100,255,0)
ShowMessageFace("",0,0,2,2)
ShowMessage("巫女ラミアの蛇体が、ルカの体を巻き上げた！")
ShowMessage("同時に、長く伸びた舌がペニスに絡みつく！")
ShowMessageFace("mikolamia_fc1",1,0,2,3)
ShowMessage("【巫女ラミア】")
ShowMessage("このまま、私の舌遣いを楽しみたいですよね？")
ShowMessage("大人しくしていれば、気持ちよく昇天できますよ……♪")
ChangeSwitch(98,98,0)
ChangeSwitch(96,96,0)
ShowChoices(strings("もがく","なすがまま"),1)
IfPlayerPicksChoice(0,"もがく")
 ShowMessageFace("",0,0,2,4)
 ShowMessage("ルカは激しくもがき、巫女ラミアの拘束から逃れた！")
 RunCommonEvent(1999)
 EndEventProcessing()
 0()
IfPlayerPicksChoice(1,"なすがまま")
 0()
404()
ShowMessageFace("mikolamia_fc1",1,0,2,5)
ShowMessage("【巫女ラミア】")
ShowMessage("それでは、たっぷりと舐め尽くしましょう。")
ShowMessage("堪能して下さいね……ふふっ。")
ChangeVariable(26,26,3,0,2)
250(bytes(0x04,0x08,0x6f,0x3a,0x0c,0x52,0x50,0x47,0x3a,0x3a,0x53,0x45,0x08,0x3a,0x0a,0x40,0x6e,0x61,0x6d,0x65,0x49,0x22,0x16,0x6d,0x6f,0x6e,0x5f,0x65,0x72,0x6f,0x5f,0x6d,0x61,0x6b,0x69,0x74,0x75,0x6b,0x69,0x33,0x06,0x3a,0x06,0x45,0x54,0x3a,0x0b,0x40,0x70,0x69,0x74,0x63,0x68,0x69,0x69,0x3a,0x0c,0x40,0x76,0x6f,0x6c,0x75,0x6d,0x65,0x69,0x69))
311(0,1,1,1,26,true)
ShowMessageFace("",0,0,2,6)
ShowMessage("ペニスに巻き付いた巫女ラミアの舌が、じゅるじゅるとうねった！")
ShowMessage("肉棒全体が舐め尽くされ、甘い快楽が与えられる！\\D")
ShowMessage("ルカは\\V[26]のダメージを受けた！")
ChangeVariable(27,27,0,3,3,1,2)
If(1,27,0,0,0)
 JumpToLabel("射精1")
 0()
EndIf()
ShowMessageFace("mikolamia_fc1",1,0,2,7)
ShowMessage("【巫女ラミア】")
ShowMessage("私の舌遣いは、極上でしょう……？")
ShowMessage("さあ、新鮮な精液を捧げてもらいますよ。")
250(bytes(0x04,0x08,0x6f,0x3a,0x0c,0x52,0x50,0x47,0x3a,0x3a,0x53,0x45,0x08,0x3a,0x0a,0x40,0x6e,0x61,0x6d,0x65,0x49,0x22,0x16,0x6d,0x6f,0x6e,0x5f,0x65,0x72,0x6f,0x5f,0x73,0x69,0x6d,0x65,0x74,0x75,0x6b,0x65,0x31,0x06,0x3a,0x06,0x45,0x54,0x3a,0x0b,0x40,0x70,0x69,0x74,0x63,0x68,0x69,0x69,0x3a,0x0c,0x40,0x76,0x6f,0x6c,0x75,0x6d,0x65,0x69,0x69))
311(0,1,1,1,26,true)
ShowMessageFace("",0,0,2,8)
ShowMessage("巫女ラミアの蛇体が全身を締め上げ、みっしりと圧迫してきた！\\D")
ShowMessage("ルカは\\V[26]のダメージを受けた！")
ChangeVariable(27,27,0,3,3,1,2)
250(bytes(0x04,0x08,0x6f,0x3a,0x0c,0x52,0x50,0x47,0x3a,0x3a,0x53,0x45,0x08,0x3a,0x0a,0x40,0x6e,0x61,0x6d,0x65,0x49,0x22,0x12,0x6d,0x6f,0x6e,0x5f,0x65,0x72,0x6f,0x5f,0x6b,0x6f,0x6b,0x69,0x31,0x06,0x3a,0x06,0x45,0x54,0x3a,0x0b,0x40,0x70,0x69,0x74,0x63,0x68,0x69,0x69,0x3a,0x0c,0x40,0x76,0x6f,0x6c,0x75,0x6d,0x65,0x69,0x69))
311(0,1,1,1,26,true)
ShowMessageFace("",0,0,2,9)
ShowMessage("ペニスに巻き付いた舌がうねり、ペニスをじっくり揉みしだく！\\D")
ShowMessage("ルカは\\V[26]のダメージを受けた！")
ChangeVariable(27,27,0,3,3,1,2)
250(bytes(0x04,0x08,0x6f,0x3a,0x0c,0x52,0x50,0x47,0x3a,0x3a,0x53,0x45,0x08,0x3a,0x0a,0x40,0x6e,0x61,0x6d,0x65,0x49,0x22,0x11,0x6d,0x6f,0x6e,0x5f,0x65,0x72,0x6f,0x5f,0x70,0x79,0x75,0x31,0x06,0x3a,0x06,0x45,0x54,0x3a,0x0b,0x40,0x70,0x69,0x74,0x63,0x68,0x69,0x69,0x3a,0x0c,0x40,0x76,0x6f,0x6c,0x75,0x6d,0x65,0x69,0x69))
311(0,1,1,1,26,true)
ShowMessageFace("",0,0,2,10)
ShowMessage("舌先が裏筋をなぞり、丹念に舐め回してきた！\\D")
ShowMessage("ルカは\\V[26]のダメージを受けた！")
ChangeVariable(27,27,0,3,3,1,2)
If(1,27,0,0,0)
 JumpToLabel("射精1")
 0()
EndIf()
ShowMessageFace("mikolamia_fc1",1,0,2,11)
ShowMessage("【巫女ラミア】")
ShowMessage("体も男性器もぐるぐる巻きにされて……")
ShowMessage("殿方冥利に尽きるのではありませんか？")
250(bytes(0x04,0x08,0x6f,0x3a,0x0c,0x52,0x50,0x47,0x3a,0x3a,0x53,0x45,0x08,0x3a,0x0a,0x40,0x6e,0x61,0x6d,0x65,0x49,0x22,0x16,0x6d,0x6f,0x6e,0x5f,0x65,0x72,0x6f,0x5f,0x73,0x69,0x6d,0x65,0x74,0x75,0x6b,0x65,0x31,0x06,0x3a,0x06,0x45,0x54,0x3a,0x0b,0x40,0x70,0x69,0x74,0x63,0x68,0x69,0x69,0x3a,0x0c,0x40,0x76,0x6f,0x6c,0x75,0x6d,0x65,0x69,0x69))
311(0,1,1,1,26,true)
ShowMessageFace("",0,0,2,12)
ShowMessage("巫女ラミアの蛇体がぎゅうぎゅうとルカを締め続ける！\\D")
ShowMessage("ルカは\\V[26]のダメージを受けた！")
ChangeVariable(27,27,0,3,3,1,2)
250(bytes(0x04,0x08,0x6f,0x3a,0x0c,0x52,0x50,0x47,0x3a,0x3a,0x53,0x45,0x08,0x3a,0x0a,0x40,0x6e,0x61,0x6d,0x65,0x49,0x22,0x12,0x6d,0x6f,0x6e,0x5f,0x65,0x72,0x6f,0x5f,0x6b,0x6f,0x6b,0x69,0x31,0x06,0x3a,0x06,0x45,0x54,0x3a,0x0b,0x40,0x70,0x69,0x74,0x63,0x68,0x69,0x69,0x3a,0x0c,0x40,0x76,0x6f,0x6c,0x75,0x6d,0x65,0x69,0x69))
311(0,1,1,1,26,true)
ShowMessageFace("",0,0,2,13)
ShowMessage("舌がペニスをじゅるじゅると締め上げた！\\D")
ShowMessage("ルカは\\V[26]のダメージを受けた！")
ChangeVariable(27,27,0,3,3,1,2)
250(bytes(0x04,0x08,0x6f,0x3a,0x0c,0x52,0x50,0x47,0x3a,0x3a,0x53,0x45,0x08,0x3a,0x0a,0x40,0x6e,0x61,0x6d,0x65,0x49,0x22,0x11,0x6d,0x6f,0x6e,0x5f,0x65,0x72,0x6f,0x5f,0x70,0x79,0x75,0x31,0x06,0x3a,0x06,0x45,0x54,0x3a,0x0b,0x40,0x70,0x69,0x74,0x63,0x68,0x69,0x69,0x3a,0x0c,0x40,0x76,0x6f,0x6c,0x75,0x6d,0x65,0x69,0x69))
311(0,1,1,1,26,true)
ShowMessageFace("",0,0,2,14)
ShowMessage("舌先が亀頭にねっとりと這い回り、甘い快楽を与えてくる！\\D")
ShowMessage("ルカは\\V[26]のダメージを受けた！")
ChangeVariable(27,27,0,3,3,1,2)
If(1,27,0,0,0)
 JumpToLabel("射精1")
 0()
EndIf()
DefineLabel("射精1")
ShowMessageFace("",0,0,2,15)
ShowMessage("【ルカ】")
ShowMessage("だめ、出ちゃうよぉ……あぁぁぁ……")
RunCommonEvent(104)
PictureDisplay(5,"ev_mikolamia_ha2",0,0,0,0,100,100,255,0)
RunCommonEvent(105)
ShowMessageFace("",0,0,2,16)
ShowMessage("蛇のとぐろに囚われたままペニスを舌で蹂躙され、果ててしまった。")
ShowMessage("巫女ラミアの舌に、大量の精が捧げられる――")
ShowMessageFace("mikolamia_fc1",0,0,2,17)
ShowMessage("【巫女ラミア】")
ShowMessage("ラミアに巻き付かれながら果てるのは、最高の快楽でしょう。")
ShowMessage("あなたがお望みならば、もっと締め上げて差し上げますよ……")
RunCommonEvent(2000)
EndEventProcessing()
0()
