﻿// EVENT 0050
Name "スキル：遊ぶ101～110"

ChangeVariable(11,11,0,2,1,5)
If(1,100,0,101,0)
 If(1,11,0,1,0)
  ShowMessageFace("cent2_fc1",0,0,2,1)
  ShowMessage("【リヒティーヌ】")
  ShowMessage("ここで負けたら、私も嫐られるのかな……")
  313(0,101,0,24)
  ShowMessageFace("",0,0,2,2)
  ShowMessage("リヒティーヌはいやらしい事を考えている……")
  ShowMessage("リヒティーヌは敏感になってしまった！")
  EndEventProcessing()
  0()
 EndIf()
 If(1,11,0,2,0)
  ShowMessageFace("cent2_fc1",0,0,2,3)
  ShowMessage("【リヒティーヌ】")
  ShowMessage("私より速いものなんてないわ！")
  ShowMessageFace("",0,0,2,4)
  ShowMessage("リヒティーヌは周囲を駆け回っている！")
  EndEventProcessing()
  0()
 EndIf()
 If(1,11,0,3,0)
  ShowMessageFace("cent2_fc1",0,0,2,5)
  ShowMessage("【リヒティーヌ】")
  ShowMessage("槍の修行よ！　やっ！　はぁっ！")
  355("interrupt_skill(3291)")
  EndEventProcessing()
  0()
 EndIf()
 If(1,11,0,4,0)
  ShowMessageFace("cent2_fc1",0,0,2,6)
  ShowMessage("【リヒティーヌ】")
  ShowMessage("万事は気合いよ……えいっ！")
  355("interrupt_skill(3294)")
  EndEventProcessing()
  0()
 EndIf()
 If(1,11,0,5,0)
  ShowMessageFace("cent2_fc1",0,0,2,7)
  ShowMessage("【リヒティーヌ】")
  ShowMessage("はい、差し入れよ……感謝しなさい。")
  ShowMessageFace("",0,0,2,8)
  ShowMessage("リヒティーヌからの差し入れだ！")
  250(bytes(0x04,0x08,0x6f,0x3a,0x0c,0x52,0x50,0x47,0x3a,0x3a,0x53,0x45,0x08,0x3a,0x0a,0x40,0x6e,0x61,0x6d,0x65,0x49,0x22,0x0a,0x49,0x74,0x65,0x6d,0x31,0x06,0x3a,0x06,0x45,0x54,0x3a,0x0b,0x40,0x70,0x69,0x74,0x63,0x68,0x69,0x69,0x3a,0x0c,0x40,0x76,0x6f,0x6c,0x75,0x6d,0x65,0x69,0x55))
  ChangeInventory_Item(310,0,0,1)
  ShowMessageFace("",0,0,2,9)
  ShowMessage("にんじんを手に入れた！")
  EndEventProcessing()
  0()
 EndIf()
 0()
EndIf()
If(1,100,0,102,0)
 If(1,11,0,1,0)
  ShowMessageFace("youko_fc1",1,0,2,10)
  ShowMessage("【きつね】")
  ShowMessage("にひひ……極秘のあぶらあげ……")
  ShowMessageFace("",0,0,2,11)
  ShowMessage("きつねは隠し持っていたあぶらあげを食べている……")
  EndEventProcessing()
  0()
 EndIf()
 If(1,11,0,2,0)
  ShowMessageFace("youko_fc1",1,0,2,12)
  ShowMessage("【きつね】")
  ShowMessage("もぐもぐ……むしゃむしゃ……")
  ShowMessageFace("",0,0,2,13)
  ShowMessage("きつねは食料を盗み食いしている……")
  EndEventProcessing()
  0()
 EndIf()
 If(1,11,0,3,0)
  ShowMessageFace("youko_fc1",0,0,2,14)
  ShowMessage("【きつね】")
  ShowMessage("新しい忍術を開発したよ！")
  ShowMessage("きつね忍法、木っ端微塵の術～♪")
  355("interrupt_skill(3306)")
  EndEventProcessing()
  0()
 EndIf()
 If(1,11,0,4,0)
  ShowMessageFace("youko_fc1",2,0,2,15)
  ShowMessage("【きつね】")
  ShowMessage("たすけて～！")
  250(bytes(0x04,0x08,0x6f,0x3a,0x0c,0x52,0x50,0x47,0x3a,0x3a,0x53,0x45,0x08,0x3a,0x0a,0x40,0x6e,0x61,0x6d,0x65,0x49,0x22,0x08,0x52,0x75,0x6e,0x06,0x3a,0x06,0x45,0x54,0x3a,0x0b,0x40,0x70,0x69,0x74,0x63,0x68,0x69,0x69,0x3a,0x0c,0x40,0x76,0x6f,0x6c,0x75,0x6d,0x65,0x69,0x55))
  ShowMessageFace("",0,0,2,16)
  ShowMessage("きつねは逃げ出した！")
  ShowMessage("しかし道が分からず、すぐ戻ってきた……")
  EndEventProcessing()
  0()
 EndIf()
 If(1,11,0,5,0)
  ShowMessageFace("youko_fc1",0,0,2,17)
  ShowMessage("【きつね】")
  ShowMessage("わ～い、ららら～♪")
  ShowMessageFace("",0,0,2,18)
  ShowMessage("きつねは陽気に歌って踊っている……")
  EndEventProcessing()
  0()
 EndIf()
 0()
EndIf()
If(1,100,0,103,0)
 If(1,11,0,1,0)
  ShowMessageFace("kamuro_fc1",0,0,2,19)
  ShowMessage("【かむろ】")
  ShowMessage("あっ、きつねの里にお手紙書かないと……")
  ShowMessageFace("",0,0,2,20)
  ShowMessage("かむろは手紙を書いている……")
  EndEventProcessing()
  0()
 EndIf()
 If(1,11,0,2,0)
  ShowMessageFace("kamuro_fc1",0,0,2,21)
  ShowMessage("【かむろ】")
  ShowMessage("これ、差し入れのあぶらあげです！")
  ShowMessageFace("",0,0,2,22)
  ShowMessage("かむろからの差し入れだ！")
  250(bytes(0x04,0x08,0x6f,0x3a,0x0c,0x52,0x50,0x47,0x3a,0x3a,0x53,0x45,0x08,0x3a,0x0a,0x40,0x6e,0x61,0x6d,0x65,0x49,0x22,0x0a,0x49,0x74,0x65,0x6d,0x31,0x06,0x3a,0x06,0x45,0x54,0x3a,0x0b,0x40,0x70,0x69,0x74,0x63,0x68,0x69,0x69,0x3a,0x0c,0x40,0x76,0x6f,0x6c,0x75,0x6d,0x65,0x69,0x55))
  ChangeInventory_Item(333,0,0,1)
  ShowMessageFace("",0,0,2,23)
  ShowMessage("あぶらあげを手に入れた！")
  EndEventProcessing()
  0()
 EndIf()
 If(1,11,0,3,0)
  ShowMessageFace("kamuro_fc1",2,0,2,24)
  ShowMessage("【かむろ】")
  ShowMessage("あの、その……")
  ShowMessage("が、がんばって……")
  ShowMessageFace("",0,0,2,25)
  ShowMessage("かむろはみんなを応援した！")
  ShowMessage("しかし誰も聞いていない……")
  EndEventProcessing()
  0()
 EndIf()
 If(1,11,0,4,0)
  ShowMessageFace("kamuro_fc1",2,0,2,26)
  ShowMessage("【かむろ】")
  ShowMessage("あの、もうやめましょうよ……")
  ShowMessageFace("",0,0,2,27)
  ShowMessage("かむろは仲裁に入った！")
  ShowMessage("しかし誰も聞いていない……")
  EndEventProcessing()
  0()
 EndIf()
 If(1,11,0,5,0)
  ShowMessageFace("kamuro_fc1",2,0,2,28)
  ShowMessage("【かむろ】")
  ShowMessage("いきますよ……ひゃっ！？")
  355("interrupt_skill(3293)")
  EndEventProcessing()
  0()
 EndIf()
 0()
EndIf()
If(1,100,0,104,0)
 If(1,11,0,1,0)
  ShowMessageFace("kumo_fc1",0,0,2,29)
  ShowMessage("【ラクネ】")
  ShowMessage("今年の冬に向けて、マフラー作らないとね……")
  ShowMessageFace("",0,0,2,30)
  ShowMessage("ラクネは糸で編み物をしている……")
  EndEventProcessing()
  0()
 EndIf()
 If(1,11,0,2,0)
  ShowMessageFace("kumo_fc1",1,0,2,31)
  ShowMessage("【ラクネ】")
  ShowMessage("今日のご飯は何にしようかしら……")
  ShowMessageFace("",0,0,2,32)
  ShowMessage("ラクネはにやにや笑っている……")
  EndEventProcessing()
  0()
 EndIf()
 If(1,11,0,3,0)
  ShowMessageFace("kumo_fc1",2,0,2,33)
  ShowMessage("【ラクネ】")
  ShowMessage("わわわっ、粘糸が足に絡まって……！？")
  313(0,104,0,28)
  ShowMessageFace("",0,0,2,34)
  ShowMessage("ラクネはうっかり自分の粘糸に絡まった！")
  ShowMessage("ラクネは拘束されてしまった！")
  EndEventProcessing()
  0()
 EndIf()
 If(1,11,0,4,0)
  ShowMessageFace("kumo_fc1",2,0,2,35)
  ShowMessage("【ラクネ】")
  ShowMessage("巣から落ちる……ひゃぁぁっ！？")
  355("interrupt_skill(3310)")
  EndEventProcessing()
  0()
 EndIf()
 If(1,11,0,5,0)
  ShowMessageFace("kumo_fc1",0,0,2,36)
  ShowMessage("【ラクネ】")
  ShowMessage("これが蜘蛛のダンスよ♪")
  ShowMessageFace("",0,0,2,37)
  ShowMessage("ラクネはゆかいなダンスを踊った！")
  ShowMessage("しかし何も起きなかった……")
  EndEventProcessing()
  0()
 EndIf()
 0()
EndIf()
If(1,100,0,105,0)
 If(1,11,0,1,0)
  ShowMessageFace("mimic_fc1",2,0,2,38)
  ShowMessage("【ミネリ】")
  ShowMessage("……………………")
  ShowMessageFace("",0,0,2,39)
  ShowMessage("ミネリは宝箱に閉じこもってしまった……")
  EndEventProcessing()
  0()
 EndIf()
 If(1,11,0,2,0)
  ShowMessageFace("mimic_fc1",1,0,2,40)
  ShowMessage("【ミネリ】")
  ShowMessage("……………………")
  ShowMessageFace("",0,0,2,41)
  ShowMessage("ミネリは一人でトランプをしている……")
  EndEventProcessing()
  0()
 EndIf()
 If(1,11,0,3,0)
  ShowMessageFace("mimic_fc1",1,0,2,42)
  ShowMessage("【ミネリ】")
  ShowMessage("……………………")
  ShowMessageFace("",0,0,2,43)
  ShowMessage("ミネリは宝箱の中で育てているサボテンに水をやっている……")
  EndEventProcessing()
  0()
 EndIf()
 If(1,11,0,4,0)
  ShowMessageFace("mimic_fc1",1,0,2,44)
  ShowMessage("【ミネリ】")
  ShowMessage("たこ……コアラ……らっぱ……パイナップル……")
  ShowMessageFace("",0,0,2,45)
  ShowMessage("ミネリは一人でしりとりしている……")
  EndEventProcessing()
  0()
 EndIf()
 If(1,11,0,5,0)
  ShowMessageFace("mimic_fc1",1,0,2,46)
  ShowMessage("【ミネリ】")
  ShowMessage("じゃんけん、ぽん！")
  ShowMessage("右手強い、もう四連勝じゃない……")
  ShowMessageFace("",0,0,2,47)
  ShowMessage("ミネリは一人でじゃんけんしている……")
  EndEventProcessing()
  0()
 EndIf()
 0()
EndIf()
If(1,100,0,106,0)
 If(1,11,0,1,0)
  ShowMessageFace("nanabi_fc1",0,0,2,48)
  ShowMessage("【七尾】")
  ShowMessage("尻尾が七本もあると、ケアも大変なのですよ……")
  ShowMessageFace("",0,0,2,49)
  ShowMessage("七尾は尻尾を毛繕いしている……")
  EndEventProcessing()
  0()
 EndIf()
 If(1,11,0,2,0)
  ShowMessageFace("nanabi_fc1",0,0,2,50)
  ShowMessage("【七尾】")
  ShowMessage("これ、差し入れです。")
  ShowMessage("仲良く食べて下さいね……")
  ShowMessageFace("",0,0,2,51)
  ShowMessage("七尾からの差し入れだ！")
  250(bytes(0x04,0x08,0x6f,0x3a,0x0c,0x52,0x50,0x47,0x3a,0x3a,0x53,0x45,0x08,0x3a,0x0a,0x40,0x6e,0x61,0x6d,0x65,0x49,0x22,0x0a,0x49,0x74,0x65,0x6d,0x31,0x06,0x3a,0x06,0x45,0x54,0x3a,0x0b,0x40,0x70,0x69,0x74,0x63,0x68,0x69,0x69,0x3a,0x0c,0x40,0x76,0x6f,0x6c,0x75,0x6d,0x65,0x69,0x55))
  ChangeInventory_Item(333,0,0,1)
  ShowMessageFace("",0,0,2,52)
  ShowMessage("あぶらあげを手に入れた！")
  EndEventProcessing()
  0()
 EndIf()
 If(1,11,0,3,0)
  ShowMessageFace("nanabi_fc1",0,0,2,53)
  ShowMessage("【七尾】")
  ShowMessage("月に狐、舞わねば損……")
  ShowMessageFace("",0,0,2,54)
  ShowMessage("七尾は陽気に歌って踊っている……")
  EndEventProcessing()
  0()
 EndIf()
 If(1,11,0,4,0)
  ShowMessageFace("nanabi_fc1",0,0,2,55)
  ShowMessage("【七尾】")
  ShowMessage("少し失礼、よい天気ですので毛皮に日光を……")
  ShowMessageFace("",0,0,2,56)
  ShowMessage("七尾は地面に寝そべって日光浴している……")
  EndEventProcessing()
  0()
 EndIf()
 If(1,11,0,5,0)
  ShowMessageFace("nanabi_fc1",0,0,2,57)
  ShowMessage("【七尾】")
  ShowMessage("さて、気合いを入れ直しましょうか……！")
  355("interrupt_skill(3294)")
  EndEventProcessing()
  0()
 EndIf()
 0()
EndIf()
If(1,100,0,107,0)
 If(1,11,0,1,0)
  ShowMessageFace("namako_fc1",2,0,2,58)
  ShowMessage("【ユメ】")
  ShowMessage("あーあ、こんなに砂を呑んじゃって……")
  ShowMessageFace("",0,0,2,59)
  ShowMessage("ユメはナマコの搾精口から砂を排出している……")
  EndEventProcessing()
  0()
 EndIf()
 If(1,11,0,2,0)
  ShowMessageFace("namako_fc1",0,0,2,60)
  ShowMessage("【ユメ】")
  ShowMessage("ナマコの踊り、そ～れ♪　そ～れ♪")
  ShowMessageFace("",0,0,2,61)
  ShowMessage("ユメは変な踊りを踊った！")
  ShowMessage("しかし何も起こらなかった！")
  EndEventProcessing()
  0()
 EndIf()
 If(1,11,0,3,0)
  ShowMessageFace("namako_fc1",2,0,2,62)
  ShowMessage("【ユメ】")
  ShowMessage("ちょっと～！　貝娘ちゃんはどこよ～！")
  ShowMessage("おみそしる、用意したのに～！")
  ShowMessageFace("",0,0,2,63)
  ShowMessage("ユメは茶碗を箸で叩いている……")
  ShowMessage("しかし、誰も相手にしてくれなかった！")
  313(0,107,0,11)
  ShowMessageFace("",0,0,2,64)
  ShowMessage("ユメはふてくされ、眠ってしまった……")
  EndEventProcessing()
  0()
 EndIf()
 If(1,11,0,4,0)
  ShowMessageFace("namako_fc1",2,0,2,65)
  ShowMessage("【ユメ】")
  ShowMessage("ナマコの口から、水の弾丸を撃ち出すわ！")
  355("interrupt_skill(2602)")
  EndEventProcessing()
  0()
 EndIf()
 If(1,11,0,5,0)
  ShowMessageFace("kai_fc1",0,0,2,66)
  ShowMessage("【貝娘】")
  ShowMessage("今日もいい天気ですね……♪")
  ShowMessageFace("namako_fc1",1,0,2,67)
  ShowMessage("【ユメ】")
  ShowMessage("あっ、貝娘ちゃん発見！")
  ShowMessageFace("kai_fc1",2,0,2,68)
  ShowMessage("【貝娘】")
  ShowMessage("ひゃーっ！　おたすけー！")
  ShowMessageFace("",0,0,2,69)
  ShowMessage("ユメは貝娘を追い回している！")
  EndEventProcessing()
  0()
 EndIf()
 0()
EndIf()
If(1,100,0,108,0)
 If(1,11,0,1,0)
  ShowMessageFace("kai_fc1",0,0,2,70)
  ShowMessage("【シェリー】")
  ShowMessage("……………………")
  313(0,108,0,306)
  ShowMessageFace("",0,0,2,71)
  ShowMessage("シェリーは殻に引っ込んでしまった……")
  ShowMessage("シェリーの防御力が上がった！")
  EndEventProcessing()
  0()
 EndIf()
 If(1,11,0,2,0)
  ShowMessageFace("namako_fc1",1,0,2,72)
  ShowMessage("【ナマコ娘】")
  ShowMessage("あっ、貝娘ちゃん発見！")
  ShowMessageFace("kai_fc1",2,0,2,73)
  ShowMessage("【シェリー】")
  ShowMessage("ひゃーっ！　おたすけー！")
  ShowMessageFace("",0,0,2,74)
  ShowMessage("シェリーはナマコ娘に追い回されている！")
  EndEventProcessing()
  0()
 EndIf()
 If(1,11,0,3,0)
  ShowMessageFace("kai_fc1",0,0,2,75)
  ShowMessage("【シェリー】")
  ShowMessage("お味噌汁、作りましたよ♪")
  ShowMessageFace("",0,0,2,76)
  ShowMessage("シェリーからの差し入れだ！")
  250(bytes(0x04,0x08,0x6f,0x3a,0x0c,0x52,0x50,0x47,0x3a,0x3a,0x53,0x45,0x08,0x3a,0x0a,0x40,0x6e,0x61,0x6d,0x65,0x49,0x22,0x0a,0x49,0x74,0x65,0x6d,0x31,0x06,0x3a,0x06,0x45,0x54,0x3a,0x0b,0x40,0x70,0x69,0x74,0x63,0x68,0x69,0x69,0x3a,0x0c,0x40,0x76,0x6f,0x6c,0x75,0x6d,0x65,0x69,0x55))
  ChangeInventory_Item(389,0,0,1)
  ShowMessageFace("",0,0,2,77)
  ShowMessage("味噌汁を手に入れた！")
  EndEventProcessing()
  0()
 EndIf()
 If(1,11,0,4,0)
  ShowMessageFace("kai_fc1",0,0,2,78)
  ShowMessage("【シェリー】")
  ShowMessage("私の夢は、お嫁さんになる事です！")
  ShowMessageFace("",0,0,2,79)
  ShowMessage("シェリーは大胆に宣言した！")
  ShowMessage("しかし誰も聞いていない……")
  EndEventProcessing()
  0()
 EndIf()
 If(1,11,0,5,0)
  ShowMessageFace("kai_fc1",0,0,2,80)
  ShowMessage("【シェリー】")
  ShowMessage("ああ、洗い物がこんなに……")
  ShowMessageFace("",0,0,2,81)
  ShowMessage("シェリーは汚れた衣服を洗っている……")
  EndEventProcessing()
  0()
 EndIf()
 0()
EndIf()
If(1,100,0,109,0)
 If(1,11,0,1,0)
  ShowMessageFace("kani_fc1",2,0,2,82)
  ShowMessage("【ソープ】")
  ShowMessage("最強奥義、カニ波動砲を身につけないと……")
  ShowMessageFace("",0,0,2,83)
  ShowMessage("ソープはこっそり修行している……")
  EndEventProcessing()
  0()
 EndIf()
 If(1,11,0,2,0)
  ShowMessageFace("kani_fc1",0,0,2,84)
  ShowMessage("【ソープ】")
  ShowMessage("あわあわ、ぶくぶく……")
  ShowMessageFace("",0,0,2,85)
  ShowMessage("ソープは大量の泡を吐き出している！")
  ShowMessage("しかし何も起こらなかった……")
  EndEventProcessing()
  0()
 EndIf()
 If(1,11,0,3,0)
  ShowMessageFace("kani_fc1",0,0,2,86)
  ShowMessage("【ソープ】")
  ShowMessage("洗うのなら、私に任せてよね♪")
  ShowMessageFace("",0,0,2,87)
  ShowMessage("ソープは自前の泡で皿を洗っている！")
  EndEventProcessing()
  0()
 EndIf()
 If(1,11,0,4,0)
  ShowMessageFace("kani_fc1",0,0,2,88)
  ShowMessage("【ソープ】")
  ShowMessage("じゃんけん、ぽん！")
  ShowMessage("やっぱグーは強いわ……")
  ShowMessageFace("",0,0,2,89)
  ShowMessage("ソープは一人でじゃんけんしている……")
  EndEventProcessing()
  0()
 EndIf()
 If(1,11,0,5,0)
  ShowMessageFace("kani_fc1",0,0,2,90)
  ShowMessage("【ソープ】")
  ShowMessage("この子、保護したよ。")
  ShowMessage("海に逃がしてあげてね。")
  250(bytes(0x04,0x08,0x6f,0x3a,0x0c,0x52,0x50,0x47,0x3a,0x3a,0x53,0x45,0x08,0x3a,0x0a,0x40,0x6e,0x61,0x6d,0x65,0x49,0x22,0x0a,0x49,0x74,0x65,0x6d,0x31,0x06,0x3a,0x06,0x45,0x54,0x3a,0x0b,0x40,0x70,0x69,0x74,0x63,0x68,0x69,0x69,0x3a,0x0c,0x40,0x76,0x6f,0x6c,0x75,0x6d,0x65,0x69,0x55))
  ChangeInventory_Item(326,0,0,1)
  ShowMessageFace("",0,0,2,91)
  ShowMessage("ソープはカニを捕まえたようだ……")
  ShowMessage("カニを手に入れた！")
  EndEventProcessing()
  0()
 EndIf()
 0()
EndIf()
If(1,100,0,110,0)
 If(1,11,0,1,0)
  ShowMessageFace("slimelord_fc1",0,0,2,92)
  ShowMessage("【ベス】")
  ShowMessage("うにゅにゅうにゅ～♪")
  ShowMessageFace("",0,0,2,93)
  ShowMessage("ベスの粘液がぶるぶると蠢いている！")
  ShowMessage("しかし何も起きなかった……")
  EndEventProcessing()
  0()
 EndIf()
 If(1,11,0,2,0)
  ShowMessageFace("slimelord_fc1",4,0,2,94)
  ShowMessage("【ベス】")
  ShowMessage("わ～い、わ～い♪")
  ShowMessageFace("",0,0,2,95)
  ShowMessage("ベスは陽気に歌って踊っている……")
  EndEventProcessing()
  0()
 EndIf()
 If(1,11,0,3,0)
  ShowMessageFace("slimelord_fc1",4,0,2,96)
  ShowMessage("【ベス】")
  ShowMessage("行くよ～！　えいっ！")
  355("interrupt_skill(3301)")
  EndEventProcessing()
  0()
 EndIf()
 If(1,11,0,4,0)
  ShowMessageFace("slimelord_fc1",0,0,2,97)
  ShowMessage("【ベス】")
  ShowMessage("えへへ、誰も見てないよね……")
  ShowMessageFace("",0,0,2,98)
  ShowMessage("ベスは食料を盗み食いしている……")
  EndEventProcessing()
  0()
 EndIf()
 If(1,11,0,5,0)
  ShowMessageFace("slimelord_fc1",3,0,2,99)
  ShowMessage("【ベス】")
  ShowMessage("……ぎゃん！　空から何か落ちてきた！")
  250(bytes(0x04,0x08,0x6f,0x3a,0x0c,0x52,0x50,0x47,0x3a,0x3a,0x53,0x45,0x08,0x3a,0x0a,0x40,0x6e,0x61,0x6d,0x65,0x49,0x22,0x0a,0x49,0x74,0x65,0x6d,0x31,0x06,0x3a,0x06,0x45,0x54,0x3a,0x0b,0x40,0x70,0x69,0x74,0x63,0x68,0x69,0x69,0x3a,0x0c,0x40,0x76,0x6f,0x6c,0x75,0x6d,0x65,0x69,0x55))
  ChangeInventory_Item(447,0,0,1)
  ShowMessageFace("",0,0,2,100)
  ShowMessage("ベスは落ちてきた松ぼっくりに当たった！")
  ShowMessage("松ぼっくりを手に入れた！")
  EndEventProcessing()
  0()
 EndIf()
 0()
EndIf()
0()
